// EVENT 4006
Name "/アリス1"

241(bytes(0x04,0x08,0x6f,0x3a,0x0d,0x52,0x50,0x47,0x3a,0x3a,0x42,0x47,0x4d,0x08,0x3a,0x0a,0x40,0x6e,0x61,0x6d,0x65,0x49,0x22,0x09,0x65,0x72,0x6f,0x31,0x06,0x3a,0x06,0x45,0x54,0x3a,0x0c,0x40,0x76,0x6f,0x6c,0x75,0x6d,0x65,0x69,0x69,0x3a,0x0b,0x40,0x70,0x69,0x74,0x63,0x68,0x69,0x69))
PictureDisplay(5,"80_alice_st01",0,0,0,0,100,100,0,0)
PictureMove(5,null,0,0,0,0,100,100,255,0,30,true)
ShowMessageFace("",0,0,2,0)
ShowMessage("【ルカ】")
ShowMessage("お、おいおい……ちょっと待って……！ うぁっ！")
250(bytes(0x04,0x08,0x6f,0x3a,0x0c,0x52,0x50,0x47,0x3a,0x3a,0x53,0x45,0x08,0x3a,0x0a,0x40,0x6e,0x61,0x6d,0x65,0x49,0x22,0x16,0x6d,0x6f,0x6e,0x5f,0x65,0x72,0x6f,0x5f,0x6d,0x61,0x6b,0x69,0x74,0x75,0x6b,0x69,0x33,0x06,0x3a,0x06,0x45,0x54,0x3a,0x0b,0x40,0x70,0x69,0x74,0x63,0x68,0x69,0x69,0x3a,0x0c,0x40,0x76,0x6f,0x6c,0x75,0x6d,0x65,0x69,0x69))
ShowMessageFace("",0,0,2,1)
ShowMessage("あっという間にアリスはベッドに上がり、僕を尻尾で巻き上げてしまう。")
ShowMessageFace("",0,0,2,2)
ShowMessage("【ルカ】")
ShowMessage("ダメだよ、こんな……！")
ShowMessageFace("alice_fc1",2,0,2,3)
ShowMessage("【アリス】")
ShowMessage("何を言う、これは特訓だ。貴様は快楽攻撃に弱いのだろう？")
ShowMessageFace("alice_fc1",2,0,2,4)
ShowMessage("【アリス】")
ShowMessage("快楽に耐えるすべを知らねば、貴様の冒険はいずれ無残な結末")
ShowMessage("を迎えるぞ。")
ShowMessage("それでも良いのか……？")
ShowMessageFace("",0,0,2,5)
ShowMessage("【ルカ】")
ShowMessage("それは……イヤだけど……")
ShowMessageFace("alice_fc1",2,0,2,6)
ShowMessage("【アリス】")
ShowMessage("ならば特訓だ。余が与える刺激に耐えるがいい。")
ShowMessageFace("",0,0,2,7)
ShowMessage("【ルカ】")
ShowMessage("そ、そんな――")
ShowMessageFace("",0,0,2,8)
ShowMessage("結局、上手いことダマされただけのような気がする。")
ShowMessage("しかしどちらにしろ、僕に拒む術はないのだ。")
ShowMessageFace("",0,0,2,9)
ShowMessage("力で抵抗できない以上、じっと耐えるしかない――")
ShowMessageFace("alice_fc1",2,0,2,10)
ShowMessage("【アリス】")
ShowMessage("ほぉら……")
ShowMessageFace("",0,0,2,11)
ShowMessage("そのままアリスは、一気に下着を下ろしてきた。")
ShowMessage("剥き出しの下半身が、アリスの目の前にさらされる。")
ShowMessageFace("alice_fc1",2,0,2,12)
ShowMessage("【アリス】")
ShowMessage("くくっ……こんなに大きくしてしまって。")
ShowMessage("口では拒んでいながら、情けない奴だな。")
ShowMessageFace("alice_fc1",2,0,2,13)
ShowMessage("【アリス】")
ShowMessage("溜まっておるのだろう……？")
ShowMessage("特別に、余が処理をしてやるぞ。")
ShowMessageFace("",0,0,2,14)
ShowMessage("【ルカ】")
ShowMessage("お前、腹が減ってるだけだろう……")
ShowMessageFace("",0,0,2,15)
ShowMessage("特訓のためとか性処理のためとか言いながら、結局は精液が欲しいだけなの")
ShowMessage("だ。")
ShowMessageFace("alice_fc1",2,0,2,16)
ShowMessage("【アリス】")
ShowMessage("ぐだぐだ言うな。一石二鳥……いや三鳥か。")
ShowMessage("特訓になって、性処理もできて、余の腹も膨れるのだ。")
ShowMessageFace("",0,0,2,17)
ShowMessage("【ルカ】")
ShowMessage("でもアリス。イリアス様の戒律で、魔物との交わりは――")
ShowMessageFace("alice_fc1",2,0,2,18)
ShowMessage("【アリス】")
ShowMessage("ああもう、うるさい奴だ。")
ShowMessage("貴様を射精させるのに、余の膣穴など使う事もない。")
PictureDisplay(5,"ev_alice_h02_1",0,0,0,0,100,100,255,0)
ShowMessageFace("",0,0,2,19)
ShowMessage("そのままアリスは、肉棒をぎゅっと握ってきた。")
ShowMessage("柔らかで温かい掌に、僕のモノが包まれてしまう――")
ShowMessageFace("",0,0,2,20)
ShowMessage("【ルカ】")
ShowMessage("あぅぅっ……！")
ShowMessageFace("alice_fc1",2,0,2,21)
ShowMessage("【アリス】")
ShowMessage("握られただけで、肉棒がヒクヒクしているぞ……")
ShowMessageFace("",0,0,2,22)
ShowMessage("アリスは感触を確かめるように、掌に微かな力を込める。")
ShowMessage("そのソフトな刺激さえ、僕にはたまらない快感となった。")
ShowMessageFace("alice_fc1",2,0,2,23)
ShowMessage("【アリス】")
ShowMessage("さて、どうしてくれよう……")
ShowMessage("このまま、手で搾り出すとしようか。")
245(bytes(0x04,0x08,0x6f,0x3a,0x0d,0x52,0x50,0x47,0x3a,0x3a,0x42,0x47,0x53,0x08,0x3a,0x0a,0x40,0x6e,0x61,0x6d,0x65,0x49,0x22,0x1e,0x6d,0x6f,0x6e,0x5f,0x68,0x73,0x65,0x61,0x6e,0x30,0x31,0x5f,0x69,0x6e,0x6e,0x65,0x72,0x77,0x6f,0x72,0x6b,0x73,0x5f,0x61,0x31,0x06,0x3a,0x06,0x45,0x54,0x3a,0x0c,0x40,0x76,0x6f,0x6c,0x75,0x6d,0x65,0x69,0x55,0x3a,0x0b,0x40,0x70,0x69,0x74,0x63,0x68,0x69,0x69))
ShowMessageFace("",0,0,2,24)
ShowMessage("肉棒を握ったアリスの手が、ゆっくりと上下し始めた。")
ShowMessage("それは決して激しくなく、むしろ優しい手さばき。")
ShowMessageFace("",0,0,2,25)
ShowMessage("しかし親指と人差し指の輪が、巧みにペニスを刺激し――")
ShowMessage("カリのところを上下したと思ったら、くびれの部分を締め上げ――")
ShowMessageFace("",0,0,2,26)
ShowMessage("スローモーな手さばきで、深い快感を与えてくるのだ。")
ShowMessageFace("",0,0,2,27)
ShowMessage("【ルカ】")
ShowMessage("う、あぁぁぁ……")
ShowMessageFace("alice_fc1",2,0,2,28)
ShowMessage("【アリス】")
ShowMessage("ふふっ……余の手技に、どれだけ耐えられるのかな……？")
ShowMessage("その様子では、長持ちはするまい……")
ShowMessageFace("",0,0,2,29)
ShowMessage("僕の悶える顔を見据えながら、アリスはにやりと笑う。")
ShowMessage("この優越に満ちた視線を受けながら、イかされてしまうのだ。")
ShowMessageFace("",0,0,2,30)
ShowMessage("それは、男にとって耐え難い屈辱だった――")
ShowMessageFace("",0,0,2,31)
ShowMessage("【ルカ】")
ShowMessage("やめて、こんなの……ああっ……！")
ShowMessageFace("alice_fc1",2,0,2,32)
ShowMessage("【アリス】")
ShowMessage("貴様は、相当にここが弱いようだな。")
ShowMessage("これしきで、そんな声を上げてしまうとは――")
ShowMessageFace("",0,0,2,33)
ShowMessage("柔らかな掌が優しく肉棒を握り込み、心地良い握力で圧迫してくる。")
ShowMessageFace("",0,0,2,34)
ShowMessage("親指と人差し指の輪はカリを中心に責めたて、腰が震えるような快感を与え")
ShowMessage("続けた。")
ShowMessageFace("",0,0,2,35)
ShowMessage("あまりの心地よさに、みるみる射精感が沸き上がってくる――")
ShowMessageFace("",0,0,2,36)
ShowMessage("【ルカ】")
ShowMessage("あぅぅ……こんなの、だめぇ……")
ShowMessageFace("",0,0,2,37)
ShowMessage("妖魔の手で射精させられてしまうという禁忌。")
ShowMessage("それに抗おうと、僕は刺激に耐えようとするが――")
ShowMessageFace("",0,0,2,38)
ShowMessage("アリスの与えてくる手技は、そんな努力をあざ笑うかのようだった。")
ShowMessageFace("alice_fc1",2,0,2,39)
ShowMessage("【アリス】")
ShowMessage("しかと思い知るがよい。")
ShowMessage("貴様は、余の手で子種を放出させられてしまうのだ。")
ShowMessageFace("alice_fc1",2,0,2,40)
ShowMessage("【アリス】")
ShowMessage("情けないオスよなぁ、くくくっ……")
ShowMessageFace("",0,0,2,41)
ShowMessage("アリスの顔に、男を翻弄する妖艶な表情が浮かぶ。")
ShowMessage("同時に、今まで空いていた左手が亀頭をぎゅっと握り込んできた。")
ShowMessageFace("",0,0,2,42)
ShowMessage("ねっとりと滴った先走り液を掌で受けながら、ぐにぐにと亀頭を揉み込んで")
ShowMessage("くるのだ。")
ShowMessageFace("",0,0,2,43)
ShowMessage("そんな巧みな手さばきで、じわじわ僕を追い詰めていく――")
ShowMessageFace("",0,0,2,44)
ShowMessage("【ルカ】")
ShowMessage("あぁぁ……！ それ、きもちぃぃ……")
ShowMessageFace("alice_fc1",2,0,2,45)
ShowMessage("【アリス】")
ShowMessage("余に男性器を揉まれ、果てることができるとは――なんとも幸")
ShowMessage("せだな。")
ShowMessage("さあ、手の中で屈服の液体を漏らしてしまうがいい。")
ShowMessageFace("",0,0,2,46)
ShowMessage("アリスの左掌は、亀頭部をじっくり優しく揉み続ける。")
ShowMessageFace("",0,0,2,47)
ShowMessage("時にはねじるように、時には掌をすぼめて締め付け――")
ShowMessage("敏感な先端部に、巧みで多彩な快楽刺激を与えているのだ。")
ShowMessageFace("",0,0,2,48)
ShowMessage("右手はカリを責め、とどめを刺すかのように傘の部分を扱きたてている。")
ShowMessage("異なる手さばきで同時にペニスを責められ、僕はとうとう屈してしまった。")
ShowMessageFace("",0,0,2,49)
ShowMessage("このまま、アリスの手の中で果ててしまいたい――")
ShowMessage("そんな欲求を受け入れてしまった瞬間、こみ上げるものが抑えきれなくなる")
ShowMessage("。")
ShowMessageFace("",0,0,2,50)
ShowMessage("【ルカ】")
ShowMessage("あぅ……！ あ、あぁぁぁぁぁぁ――！！")
RunCommonEvent(104)
PictureDisplay(5,"ev_alice_h02_2",0,0,0,0,100,100,255,0)
RunCommonEvent(105)
ShowMessageFace("",0,0,2,51)
ShowMessage("アリスの左掌に亀頭を握り込まれたまま、ドクドクと精液が放たれる。")
ShowMessage("白濁は左掌から漏れ出し、右手をもねっとりと汚した。")
ShowMessageFace("alice_fc1",2,0,2,52)
ShowMessage("【アリス】")
ShowMessage("ふふ……手の刺激で、こんなに子種を漏らしてしまうとはな。")
ShowMessageFace("alice_fc1",2,0,2,53)
ShowMessage("【アリス】")
ShowMessage("魔物に精液を搾られてはいけないのではなかったか……？")
ShowMessage("節操のない、みっともない男だ……")
ShowMessageFace("",0,0,2,54)
ShowMessage("にやにや笑いながら、アリスは射精中のペニスを揉みしだいてくる。")
ShowMessage("まるで、一滴残さず搾り出そうとするように――")
ShowMessageFace("",0,0,2,55)
ShowMessage("【ルカ】")
ShowMessage("ふぁぁぁぁ……")
ShowMessageFace("",0,0,2,56)
ShowMessage("射精が終わるまで、僕のモノはぎゅうぎゅうと絞られてしまった。")
ShowMessage("アリスの両掌は、大量の白濁でドロドロに汚れてしまう。")
246(1)
ShowMessageFace("alice_fc1",2,0,2,57)
ShowMessage("【アリス】")
ShowMessage("ふふ……貴様の子種で手がドロドロだぞ。")
ShowMessage("ん……れるり、じゅるじゅるじゅる……")
ShowMessageFace("",0,0,2,58)
ShowMessage("そしてアリスは、掌の精液を丹念に舐め、啜っていった。")
ShowMessage("軽く鼻を鳴らしながら、実に美味しそうに――")
ShowMessageFace("",0,0,2,59)
ShowMessage("自分の精液があんな風に食べられ、背徳的な気分になってしまう。")
ShowMessageFace("alice_fc1",2,0,2,60)
ShowMessage("【アリス】")
ShowMessage("じゅるり……れるれる……ふふっ。")
ShowMessageFace("",0,0,2,61)
ShowMessage("まるで、精液を食べている様を見せつけているかのようだ。")
ShowMessage("男が屈服した証を餌にする事で、僕を支配しているかのような顔。")
ShowMessageFace("",0,0,2,62)
ShowMessage("そして僕の見ている前で、アリスは両掌の精液を綺麗に啜ってしまった。")
ShowMessageFace("alice_fc1",2,0,2,63)
ShowMessage("【アリス】")
ShowMessage("ふぅ……奇妙な味だな。")
ShowMessage("確かに美味いのだが、どこか不思議な風味がある……")
ShowMessageFace("alice_fc1",2,0,2,64)
ShowMessage("【アリス】")
ShowMessage("うむ、なかなか癖になってしまう味よ。")
ShowMessageFace("",0,0,2,65)
ShowMessage("【ルカ】")
ShowMessage("……………………")
ShowMessageFace("",0,0,2,66)
ShowMessage("僕は言葉を返すことも出来ず、脱力したまま。")
ShowMessage("女の手の中での射精は、異常なまでの屈服感をもたらしていたのだ。")
ShowMessageFace("alice_fc1",2,0,2,67)
ShowMessage("【アリス】")
ShowMessage("しかし、まさか三分も持たんとはな……")
ShowMessage("いかに余の手技が心地良かったとはいえ、情けないものだ。")
ShowMessageFace("alice_fc1",2,0,2,68)
ShowMessage("【アリス】")
ShowMessage("もう少し、鍛える必要がありそうだな――")
ShowMessageFace("",0,0,2,69)
ShowMessage("【ルカ】")
ShowMessage("え……？ まだ……？")
250(bytes(0x04,0x08,0x6f,0x3a,0x0c,0x52,0x50,0x47,0x3a,0x3a,0x53,0x45,0x08,0x3a,0x0a,0x40,0x6e,0x61,0x6d,0x65,0x49,0x22,0x16,0x6d,0x6f,0x6e,0x5f,0x65,0x72,0x6f,0x5f,0x6d,0x61,0x6b,0x69,0x74,0x75,0x6b,0x69,0x31,0x06,0x3a,0x06,0x45,0x54,0x3a,0x0b,0x40,0x70,0x69,0x74,0x63,0x68,0x69,0x69,0x3a,0x0c,0x40,0x76,0x6f,0x6c,0x75,0x6d,0x65,0x69,0x69))
PictureDisplay(5,"ev_alice_h02_3",0,0,0,0,100,100,255,0)
ShowMessageFace("",0,0,2,70)
ShowMessage("僕の下半身に、アリスは再び手を伸ばしてくる――")
ShowMessage("すると、なんとアリスの両手が解けてしまった！")
ShowMessageFace("",0,0,2,71)
ShowMessage("肘から先が、なんと無数の触手状になってしまったのだ！")
ShowMessageFace("",0,0,2,72)
ShowMessage("【ルカ】")
ShowMessage("う、うわぁ……！")
ShowMessageFace("alice_fc1",2,0,2,73)
ShowMessage("【アリス】")
ShowMessage("そう怯えるな。これもなかなか、絶品だぞ……")
ShowMessageFace("",0,0,2,74)
ShowMessage("【ルカ】")
ShowMessage("ひぃぃぃ……！")
245(bytes(0x04,0x08,0x6f,0x3a,0x0d,0x52,0x50,0x47,0x3a,0x3a,0x42,0x47,0x53,0x08,0x3a,0x0a,0x40,0x6e,0x61,0x6d,0x65,0x49,0x22,0x1e,0x6d,0x6f,0x6e,0x5f,0x68,0x73,0x65,0x61,0x6e,0x30,0x31,0x5f,0x69,0x6e,0x6e,0x65,0x72,0x77,0x6f,0x72,0x6b,0x73,0x5f,0x61,0x31,0x06,0x3a,0x06,0x45,0x54,0x3a,0x0c,0x40,0x76,0x6f,0x6c,0x75,0x6d,0x65,0x69,0x55,0x3a,0x0b,0x40,0x70,0x69,0x74,0x63,0x68,0x69,0x69))
ShowMessageFace("",0,0,2,75)
ShowMessage("無数の触手は妖しげな粘液を滴らせながら、僕の股間に襲い掛かってきた。")
ShowMessage("そして、肉棒の根元をしゅるりと巻き上げてしまう。")
ShowMessageFace("",0,0,2,76)
ShowMessage("ねっとりと粘液に濡れた、異様な粘膜の感触だ。")
ShowMessage("それは不気味でありながら、ぬめぬめして心地良かった。")
ShowMessageFace("alice_fc1",2,0,2,77)
ShowMessage("【アリス】")
ShowMessage("男性器に触手が這い回る快感、しかと味わうがいい……")
ShowMessageFace("",0,0,2,78)
ShowMessage("【ルカ】")
ShowMessage("ひぃぃ……こんなぁ……")
ShowMessage("気持ち悪いよぉ……")
ShowMessageFace("",0,0,2,79)
ShowMessage("嫌悪感と快感が入り交じり、僕は身を震わせる。")
ShowMessageFace("",0,0,2,80)
ShowMessage("触手はぬらぬらとペニスを巻き上げ、根元から幹の真ん中あたりまで螺旋状")
ShowMessage("に巻き付きながら這い上がってきた。")
ShowMessageFace("",0,0,2,81)
ShowMessage("うじゅうじゅ蠢く、異様な感触がペニスを包み込んでいく――")
ShowMessageFace("",0,0,2,82)
ShowMessage("【ルカ】")
ShowMessage("あぅぅ……あぁぁ……")
ShowMessageFace("alice_fc1",2,0,2,83)
ShowMessage("【アリス】")
ShowMessage("ふふっ……格別の快感だろう……？")
ShowMessageFace("",0,0,2,84)
ShowMessage("触手はサオの部分をぐるぐる巻き上げ、とうとう先端部にまで伸びてきた。")
ShowMessage("カリの部分にじっくりと巻き付き、じんわり締め付けてくる。")
ShowMessageFace("",0,0,2,85)
ShowMessage("そして、とうとう亀頭にもしゅるしゅると巻き付いてきたのだ。")
ShowMessage("最も敏感な部分にヌルヌルの触手が這い回り、僕は腰を震わせてしまう。")
ShowMessageFace("",0,0,2,86)
ShowMessage("【ルカ】")
ShowMessage("う……あぁぁっ……！")
ShowMessageFace("alice_fc1",2,0,2,87)
ShowMessage("【アリス】")
ShowMessage("このまま、いたぶってやるとしようか。ほらほらほら……")
ShowMessageFace("",0,0,2,88)
ShowMessage("触手がじゅるじゅるとうねり、絡め取っている肉棒に異様な感触を与えてく")
ShowMessage("る。")
ShowMessageFace("",0,0,2,89)
ShowMessage("全体をじっくり締め付けながら、その一本一本がカリや裏筋、尿道口などを")
ShowMessage("ねちっこく責めたてているのだ。")
ShowMessageFace("",0,0,2,90)
ShowMessage("その刺激に、僕はみるみる追い詰められていく。")
ShowMessageFace("",0,0,2,91)
ShowMessage("【ルカ】")
ShowMessage("あ……！ あぁぁぁぁ……！")
ShowMessage("こんなの、もう出ちゃうよぉ……")
ShowMessageFace("",0,0,2,92)
ShowMessage("自分のモノが触手に絡め取られているのを見るだけでも、深い屈辱感が沸き")
ShowMessage("上がってくる。")
ShowMessageFace("",0,0,2,93)
ShowMessage("まして、このまま射精させられるのだから――")
ShowMessage("その屈辱と背徳は、耐えきれないほどだった。")
ShowMessageFace("alice_fc1",2,0,2,94)
ShowMessage("【アリス】")
ShowMessage("なんだ、もう切羽詰まってきたのか？")
ShowMessage("貴様の情けなさも、相当のものだな……")
ShowMessageFace("alice_fc1",2,0,2,95)
ShowMessage("【アリス】")
ShowMessage("……仕方がない。もう一度、果ててしまうがいい……")
ShowMessageFace("",0,0,2,96)
ShowMessage("触手全体が、じゅくじゅくと蠢いた。")
ShowMessage("異様な感触が僕のモノを締め付け、くすぐり、揉みしだいてくる――")
ShowMessageFace("",0,0,2,97)
ShowMessage("その甘い刺激は、僕をあっさりと屈服させてしまった。")
ShowMessageFace("",0,0,2,98)
ShowMessage("【ルカ】")
ShowMessage("あぅぅ……あぁぁぁぁぁぁぁ――！！")
RunCommonEvent(104)
PictureDisplay(5,"ev_alice_h02_4",0,0,0,0,100,100,255,0)
RunCommonEvent(105)
ShowMessageFace("",0,0,2,99)
ShowMessage("触手に弄ばれながら、ドクドクと精液を放ってしまう。")
ShowMessage("まるで噴火のように精が吹き出し、アリスの触手をたっぷりと汚した。")
ShowMessageFace("alice_fc1",2,0,2,100)
ShowMessage("【アリス】")
ShowMessage("ふふっ……二度目だというのに、こんなにいっぱい……")
ShowMessageFace("",0,0,2,101)
ShowMessage("触手の表面から、じゅるじゅると精液を吸われているようだ。")
ShowMessage("さらに、亀頭に絡んだ触手がぐちゅぐちゅとうねり始める。")
ShowMessageFace("",0,0,2,102)
ShowMessage("【ルカ】")
ShowMessage("ひぃ……何を……！")
ShowMessageFace("alice_fc1",2,0,2,103)
ShowMessage("【アリス】")
ShowMessage("ほら、ほら、ほら……脆弱な先端を、じっくりと鍛えてやろう")
ShowMessage("……")
ShowMessageFace("",0,0,2,104)
ShowMessage("【ルカ】")
ShowMessage("あ、あぁぁぁ……！")
ShowMessageFace("",0,0,2,105)
ShowMessage("亀頭部には何本もの触手が巻き付き、一本一本がぐにゅぐにゅ収縮する。")
ShowMessageFace("",0,0,2,106)
ShowMessage("先端部を徹底的に責め上げられ、僕は背を反らせて悶えてしまった。")
ShowMessageFace("",0,0,2,107)
ShowMessage("【ルカ】")
ShowMessage("あひぃ……！ さ、先っちょばかり……やめてぇ……")
ShowMessageFace("alice_fc1",2,0,2,108)
ShowMessage("【アリス】")
ShowMessage("くくっ……惨めではないのか？")
ShowMessage("女の前で、そんなにみっともない姿をさらして……")
ShowMessageFace("",0,0,2,109)
ShowMessage("僕の言葉には耳も貸さず、アリスは触手で亀頭を丹念にいたぶり続ける。")
ShowMessageFace("",0,0,2,110)
ShowMessage("きゅうきゅう締め上げられ、じゅるじゅる這い回られ、うにゅうにゅ絡みつ")
ShowMessage("かれ――")
ShowMessageFace("",0,0,2,111)
ShowMessage("敏感な亀頭を徹底的に弄ばれ、快楽刺激を与えられているのだ。")
ShowMessageFace("",0,0,2,112)
ShowMessage("尿道口にも裏筋にも触手が這い回り、いじくり回されている。")
ShowMessage("亀頭に集中して与えられる触手刺激に、僕はあっけなく音を上げてしまった")
ShowMessage("。")
ShowMessageFace("",0,0,2,113)
ShowMessage("【ルカ】")
ShowMessage("やめてぇ……出ちゃうよぉ……！")
ShowMessageFace("alice_fc1",2,0,2,114)
ShowMessage("【アリス】")
ShowMessage("くくく……今度はのたうち回りながら漏らす気か。")
ShowMessage("貴様の痴態も、ここに極まったな。")
ShowMessageFace("alice_fc1",2,0,2,115)
ShowMessage("【アリス】")
ShowMessage("さあ、子種を撒き散らすがいい――！")
ShowMessageFace("",0,0,2,116)
ShowMessage("とどめを刺すかのように、触手が亀頭に巻き付き、締め付けてくる。")
ShowMessage("まるで、亀頭部を触手でこね回されているかのようだ――")
ShowMessageFace("",0,0,2,117)
ShowMessage("その甘い刺激に、僕の頭は真っ白になってしまった。")
ShowMessageFace("",0,0,2,118)
ShowMessage("【ルカ】")
ShowMessage("ひぁぁぁぁぁぁぁ――！！")
RunCommonEvent(104)
PictureDisplay(5,"ev_alice_h02_5",0,0,0,0,100,100,255,0)
RunCommonEvent(105)
ShowMessageFace("",0,0,2,119)
ShowMessage("触手にいじくられながら、びゅくびゅくと精液を吐き出す肉棒。")
ShowMessage("あまりに心地よい放出感と、耐えられないほどの屈服感。")
ShowMessageFace("",0,0,2,120)
ShowMessage("身も心も弄ばれた気分で、僕はベッドに沈み込んでしまった。")
ShowMessage("疲労と屈辱で、段々と気が遠くなってくる――")
246(1)
ShowMessageFace("alice_fc1",2,0,2,121)
ShowMessage("【アリス】")
ShowMessage("……なんと、もうダウンか。")
ShowMessage("この程度で気を失うなど、貧弱すぎるな。")
ShowMessageFace("alice_fc1",2,0,2,122)
ShowMessage("【アリス】")
ShowMessage("今日はこれで勘弁してやるが、もっと鍛えてやらねばならん。")
ShowMessage("一度、根こそぎ搾り取ってやるとしようか……")
ShowMessageFace("",0,0,2,123)
ShowMessage("【ルカ】")
ShowMessage("ぁぅぅ……")
ShowMessageFace("",0,0,2,124)
ShowMessage("にやにや笑うアリスの顔も、段々と霞んでいく。")
ShowMessage("心地よい疲労感に押し流され、僕は意識を失ってしまった。")
ShowMessageFace("",0,0,2,125)
ShowMessage("こんな奴と一緒に旅をしていたら、いつかは吸い殺されかねない……")
221()
PictureClear(5)
PictureClear(6)
246(2)
ShowMessageFace("",0,0,2,126)
ShowMessage("......")
242(2)
Wait(120)
241(bytes(0x04,0x08,0x6f,0x3a,0x0d,0x52,0x50,0x47,0x3a,0x3a,0x42,0x47,0x4d,0x08,0x3a,0x0a,0x40,0x6e,0x61,0x6d,0x65,0x49,0x22,0x0c,0x63,0x61,0x73,0x74,0x6c,0x65,0x36,0x06,0x3a,0x06,0x45,0x54,0x3a,0x0c,0x40,0x76,0x6f,0x6c,0x75,0x6d,0x65,0x69,0x69,0x3a,0x0b,0x40,0x70,0x69,0x74,0x63,0x68,0x69,0x69))
0()
