// EVENT 0313
Name "After Adventure Surrounding Sheep"

If(1,1037,0,1,0)
 ShowMessageFace("hituzi_fc1",3,0,2,1)
 ShowMessage("\\n<Mary>Baaaaaaa!")
 ShowMessageFace("",0,0,2,2)
 ShowMessage("Mary is being dragged away...")
 EndEventProcessing()
 0()
EndIf()
If(1,1037,0,2,0)
 ShowMessageFace("hituzi_fc1",3,0,2,3)
 ShowMessage("\\n<Mary>Baaaaaaa!")
 ShowMessageFace("",0,0,2,4)
 ShowMessage("Mary is being dragged away...")
 EndEventProcessing()
 0()
EndIf()
If(1,1037,0,3,0)
 ShowMessageFace("hituzi_fc1",3,0,2,5)
 ShowMessage("\\n<Mary>Baaaaa... Baaaa...\nBaaaaaa...")
 ShowMessageFace("",0,0,2,6)
 ShowMessage("Mary is being dragged away...")
 EndEventProcessing()
 0()
EndIf()
If(1,1037,0,4,0)
 ShowMessageFace("hituzi_fc1",3,0,2,7)
 ShowMessage("\\n<Mary>This poor sheep...\nBeing sold off...")
 ShowMessageFace("usagi_fc1",4,0,2,8)
 ShowMessage("\\n<Barbun>Who would buy a drunkard of a sheep like you...")
 ShowMessageFace("",0,0,2,9)
 ShowMessage("Mary is being dragged away...")
 EndEventProcessing()
 0()
EndIf()
If(1,1037,0,5,0)
 ShowMessageFace("hituzi_fc1",3,0,2,10)
 ShowMessage("\\n<Mary>......")
 ShowMessageFace("ruka_fc1",0,0,2,11)
 ShowMessage("\\n<Luka>......")
 355("gain_medal(2010)")
 EndEventProcessing()
 0()
EndIf()
0()
