// EVENT 4311
Name "Spider Girl 1"

If(0,25,1)
 221()
 PictureClear(5)
 PictureClear(6)
 ShowMessageFace("",0,0,2,0)
 ShowMessage("......")
 242(2)
 Wait(120)
 241(bytes(0x04,0x08,0x6f,0x3a,0x0d,0x52,0x50,0x47,0x3a,0x3a,0x42,0x47,0x4d,0x08,0x3a,0x0a,0x40,0x6e,0x61,0x6d,0x65,0x49,0x22,0x0c,0x63,0x61,0x73,0x74,0x6c,0x65,0x36,0x06,0x3a,0x06,0x45,0x54,0x3a,0x0c,0x40,0x76,0x6f,0x6c,0x75,0x6d,0x65,0x69,0x69,0x3a,0x0b,0x40,0x70,0x69,0x74,0x63,0x68,0x69,0x69))
 EndEventProcessing()
 0()
EndIf()
PictureDisplay(5,"80_kumo_st02",0,0,0,0,100,100,255,0)
ShowMessageFace("kumo_fc1",1,0,2,1)
ShowMessage("\\n<Rachnee>Fufu, you want to be my prey?")
ShowMessageFace("",0,0,2,2)
ShowMessage("\\n<Luka>Uhm, I don't want anything painful...")
ShowMessageFace("kumo_fc1",1,0,2,3)
ShowMessage("\\n<Rachnee>Don't worry, it doesn't hurt...\nFirst of all, I'll wind you up!")
ShowMessageFace("",0,0,2,4)
ShowMessage("\\n<Luka>S-So suddenly... Ahh!")
241(bytes(0x04,0x08,0x6f,0x3a,0x0d,0x52,0x50,0x47,0x3a,0x3a,0x42,0x47,0x4d,0x08,0x3a,0x0a,0x40,0x6e,0x61,0x6d,0x65,0x49,0x22,0x09,0x65,0x72,0x6f,0x31,0x06,0x3a,0x06,0x45,0x54,0x3a,0x0c,0x40,0x76,0x6f,0x6c,0x75,0x6d,0x65,0x69,0x69,0x3a,0x0b,0x40,0x70,0x69,0x74,0x63,0x68,0x69,0x69))
250(bytes(0x04,0x08,0x6f,0x3a,0x0c,0x52,0x50,0x47,0x3a,0x3a,0x53,0x45,0x08,0x3a,0x0a,0x40,0x6e,0x61,0x6d,0x65,0x49,0x22,0x16,0x6d,0x6f,0x6e,0x5f,0x65,0x72,0x6f,0x5f,0x6d,0x61,0x6b,0x69,0x74,0x75,0x6b,0x69,0x33,0x06,0x3a,0x06,0x45,0x54,0x3a,0x0b,0x40,0x70,0x69,0x74,0x63,0x68,0x69,0x69,0x3a,0x0c,0x40,0x76,0x6f,0x6c,0x75,0x6d,0x65,0x69,0x69))
PictureDisplay(5,"ev_kumo_hb1",0,0,0,0,100,100,255,0)
ShowMessageFace("",0,0,2,5)
ShowMessage("As I tremble, Rachnee quickly covers every part of my body with her sticky silk.")
ShowMessage("Preparing me to be eaten, she completely wraps me up.")
ShowMessageFace("kumo_fc1",1,0,2,6)
ShowMessage("\\n<Rachnee>Us spiders don't eat our prey like other monsters...\nWe use external digestion to devour our prey...")
ShowMessageFace("kumo_fc1",1,0,2,7)
ShowMessage("\\n<Rachnee>I'll be eating you like that, too..")
ShowMessageFace("",0,0,2,8)
ShowMessage("\\n<Luka>N-no...!\nI don't want to be eaten!")
ShowMessageFace("",0,0,2,9)
ShowMessage("Rachnee laughs as she looks at my face, stuck in the web.")
ShowMessage("Her look isn't joking... She's seriously planning to eat me!")
ShowMessageFace("kumo_fc1",1,0,2,10)
ShowMessage("\\n<Rachnee>How about if I bite you in the neck,\nand inject you with my sweet pleasure venom...")
ShowMessageFace("kumo_fc1",1,0,2,11)
ShowMessage("\\n<Rachnee>Then your body will slowly melt from the inside...\nLeaving only your skin, your meat will be all syrupy...")
ShowMessageFace("kumo_fc1",1,0,2,12)
ShowMessage("\\n<Rachnee>Then I'll quickly slurp up everything that's left...\nIt will feel amazing, so get ready...")
ShowMessageFace("",0,0,2,13)
ShowMessage("\\n<Luka>Hii! No! Stop!")
ShowMessageFace("",0,0,2,14)
ShowMessage("Rachnee slowly moves to my neck while giving me a sadistic smile.")
ShowMessageFace("kumo_fc1",1,0,2,15)
ShowMessage("\\n<Rachnee>Fufu... Now for the venom...")
If(0,95,0)
 246(2)
 221()
 ShowMessageFace("",0,0,2,16)
 ShowMessage("＊＊＊The rest of the vore scene is being skipped.＊＊＊")
 JumpToLabel("zzz")
 0()
EndIf()
PictureDisplay(5,"ev_kumo_hb2",0,0,0,0,100,100,255,0)
ShowMessageFace("kumo_fc1",1,0,2,17)
ShowMessage("\\n<Rachnee>*Bite*")
ShowMessageFace("",0,0,2,18)
ShowMessage("\\n<Luka>Hiii!")
ShowMessageFace("",0,0,2,19)
ShowMessage("There was only a slight pain in my neck.")
ShowMessage("It was quickly replaced by a sweet pleasure that started to flow through my body.")
ShowMessageFace("",0,0,2,20)
ShowMessage("\\n<Luka>Aaa...")
ShowMessageFace("kumo_fc1",1,0,2,21)
ShowMessage("\\n<Rachnee>Doesn't it feel amazing?\nMy venom is inside of you now...")
ShowMessageFace("kumo_fc1",1,0,2,22)
ShowMessage("\\n<Rachnee>There's nothing left but to be melted from the inside...")
ShowMessageFace("",0,0,2,23)
ShowMessage("\\n<Luka>N...no!")
ShowMessageFace("",0,0,2,24)
ShowMessage("The pleasure from my neck slowly spreads through my body.")
ShowMessage("It starts to fill me with an odd sense of peace.")
ShowMessageFace("",0,0,2,25)
ShowMessage("The horror at my body being digested from the inside is slowly being overwritten by ecstasy.")
ShowMessageFace("",0,0,2,26)
ShowMessage("Even that is simply a response to her venom...")
ShowMessageFace("",0,0,2,27)
ShowMessage("\\n<Luka>Aaaa... My body is so warm...")
ShowMessageFace("",0,0,2,28)
ShowMessage("The feeling of my body being melted was bringing pleasure to my body...")
ShowMessageFace("kumo_fc1",1,0,2,29)
ShowMessage("\\n<Rachnee>Everyone hates it at first, but their faces always become so happy...\nJust like you right now, Hahaha!")
ShowMessageFace("",0,0,2,30)
ShowMessage("\\n<Luka>Hauuu....")
ShowMessageFace("kumo_fc1",1,0,2,31)
ShowMessage("\\n<Rachnee>My sweet venom is moving through your body right now, slowly digesting you.")
ShowMessageFace("kumo_fc1",1,0,2,32)
ShowMessage("\\n<Rachnee>Are you happy that you're being melted away?")
ShowMessageFace("",0,0,2,33)
ShowMessage("\\n<Luka>Faaa....")
ShowMessageFace("",0,0,2,34)
ShowMessage("My fear completely gone, pleasure is all I can feel.")
ShowMessage("My warm body is wrapped in ecstasy while slowly melting away.")
ShowMessageFace("kumo_fc1",1,0,2,35)
ShowMessage("\\n<Rachnee>...Now, it's time to eat.")
ShowMessageFace("kumo_fc1",1,0,2,36)
ShowMessage("\\n<Rachnee>Like this, I'll suck up your melting body...")
ShowMessageFace("",0,0,2,37)
ShowMessage("\\n<Luka>Aaa... Ahi!")
245(bytes(0x04,0x08,0x6f,0x3a,0x0d,0x52,0x50,0x47,0x3a,0x3a,0x42,0x47,0x53,0x08,0x3a,0x0a,0x40,0x6e,0x61,0x6d,0x65,0x49,0x22,0x10,0x6d,0x6f,0x6e,0x5f,0x68,0x76,0x6f,0x69,0x63,0x65,0x33,0x06,0x3a,0x06,0x45,0x54,0x3a,0x0c,0x40,0x76,0x6f,0x6c,0x75,0x6d,0x65,0x69,0x55,0x3a,0x0b,0x40,0x70,0x69,0x74,0x63,0x68,0x69,0x69))
PictureDisplay(5,"ev_kumo_hb3",0,0,0,0,100,100,255,0)
ShowMessageFace("kumo_fc1",1,0,2,38)
ShowMessage("\\n<Rachnee>Mmmm... *Slurp*")
ShowMessageFace("",0,0,2,39)
ShowMessage("\\n<Luka>Faaa!")
ShowMessageFace("",0,0,2,40)
ShowMessage("As Rachnee starts to suck up my body, the pleasure shoots fireworks off in my head.")
ShowMessageFace("",0,0,2,41)
ShowMessage("Between my dissolving groin, semen starts to leak out.")
ShowMessageFace("kumo_fc1",1,0,2,42)
ShowMessage("\\n<Rachnee>Hahaha, you're coming while being eaten.\nWhat a pathetic man.")
ShowMessageFace("",0,0,2,43)
ShowMessage("\\n<Luka>Ah... Hiii...")
ShowMessageFace("",0,0,2,44)
ShowMessage("My entire existence is being absorbed by Rachnee.")
ShowMessage("Yet for some reason, I feel so happy.")
ShowMessageFace("",0,0,2,45)
ShowMessage("Pleasure filling my body, I feel as if I'm in paradise.")
ShowMessageFace("",0,0,2,46)
ShowMessage("Being eaten by a monster feels this good...")
ShowMessageFace("kumo_fc1",1,0,2,47)
ShowMessage("\\n<Rachnee>Fufu... Stuck in your trance, be sucked away...\nMmmm... *Slurp* *Suck*")
ShowMessageFace("",0,0,2,48)
ShowMessage("\\n<Luka>Aaaaa!")
ShowMessageFace("",0,0,2,49)
ShowMessage("My consciousness starts to fade as I hear Rachnee sucking up my body with loud slurping noises.")
ShowMessageFace("",0,0,2,50)
ShowMessage("Being made into the her nourishment, I feel happy at being able to be one with her.")
ShowMessageFace("",0,0,2,51)
ShowMessage("Filled with ecstasy to the very end, the last of my body is sucked up by Rachnee.")
ShowMessageFace("kumo_fc1",1,0,2,52)
ShowMessage("\\n<Rachnee>Mmm... *Slurp*")
ShowMessageFace("",0,0,2,53)
ShowMessage("Sucked to the last drop, I've become nothing but nutrients for Rachnee.")
246(1)
PictureDisplay(5,"ev_kumo_hb4",0,0,0,0,100,100,255,0)
ShowMessageFace("kumo_fc1",1,0,2,54)
ShowMessage("\\n<Rachnee>Haha... Thanks for the meal.")
ShowMessageFace("",0,0,2,55)
ShowMessage("Having finished devouring her prey, Rachnee laughs.")
221()
PictureClear(5)
ShowMessageFace("",0,0,2,56)
ShowMessage("............")
DefineLabel("zzz")
242(2)
Wait(120)
ChangeVariable(1002,1002,0,0,0)
216(1)
355("forced_transfer(154,18,52)")
355("release_temp_actors")
355("$game_map.screen.clear")
0()
