// EVENT 5623
Name "Heriel 3"

PictureDisplay(5,"80_heriel_st02",0,0,0,0,100,100,0,0)
PictureMove(5,null,0,0,0,0,100,100,255,0,30,true)
ShowMessageFace("heriel_fc1",0,0,2,1)
ShowMessage("\\n<Heriel>")
ShowMessage("You want to play with me...?")
ShowMessageFace("",0,0,2,2)
ShowMessage("\\n<Luka>")
ShowMessage("P-please...")
ShowMessageFace("heriel_fc1",1,0,2,3)
ShowMessage("\\n<Heriel>")
ShowMessage("Ok, I understand...")
ShowMessage("Well then, I will absorb your energy.")
ShowMessageFace("",0,0,2,4)
ShowMessage("\\n<Luka>")
ShowMessage("Draining my energy, that's...")
ShowMessageFace("",0,0,2,5)
ShowMessage("Her hair expands and covers the surrounding space.")
ShowMessage("It's as if it's wrapping to isolate this space from the outside world...")
241(bytes(0x04,0x08,0x6f,0x3a,0x0d,0x52,0x50,0x47,0x3a,0x3a,0x42,0x47,0x4d,0x08,0x3a,0x0a,0x40,0x6e,0x61,0x6d,0x65,0x49,0x22,0x09,0x65,0x72,0x6f,0x31,0x06,0x3a,0x06,0x45,0x54,0x3a,0x0c,0x40,0x76,0x6f,0x6c,0x75,0x6d,0x65,0x69,0x69,0x3a,0x0b,0x40,0x70,0x69,0x74,0x63,0x68,0x69,0x69))
PictureDisplay(5,"ev_heriel_ha1",0,0,0,0,100,100,0,0)
PictureMove(5,null,0,0,0,0,100,100,255,0,30,true)
ShowMessageFace("",0,0,2,6)
ShowMessage("In an instant, I'm restrained by her hair!")
ShowMessage("Her unusual undulating hair seals my movement in such a way that I can't even move a muscle...")
ShowMessageFace("",0,0,2,7)
ShowMessage("\\n<Luka>")
ShowMessage("Ugh...Let me go...!")
ShowMessageFace("",0,0,2,8)
ShowMessage("Like that, I'm completely bound flat on my back.")
ShowMessage("Heriel looks at me and smiles innocently.")
ShowMessageFace("heriel_fc1",1,0,2,9)
ShowMessage("\\n<Heriel>")
ShowMessage("Now, I'll suck up big bro's energy.")
ShowMessage("I'll suck it all out until you're all dried up...")
ShowMessageFace("",0,0,2,10)
ShowMessage("\\n<Luka>")
ShowMessage("N-no...Stop...!")
ShowMessageFace("heriel_fc1",1,0,2,11)
ShowMessage("\\n<Heriel>")
ShowMessage("I'll tickle your penis with my hair...")
ShowMessage("Please give me a lot of your semen...")
ShowMessageFace("",0,0,2,12)
ShowMessage("A large amount of her hair bundles up around my crotch...")
ShowMessageFace("",0,0,2,13)
ShowMessage("\\n<Luka>")
ShowMessage("Ah...Aaaaah...")
245(bytes(0x04,0x08,0x6f,0x3a,0x0d,0x52,0x50,0x47,0x3a,0x3a,0x42,0x47,0x53,0x08,0x3a,0x0a,0x40,0x6e,0x61,0x6d,0x65,0x49,0x22,0x17,0x6d,0x6f,0x6e,0x5f,0x68,0x73,0x65,0x61,0x6e,0x31,0x37,0x5f,0x73,0x69,0x67,0x6f,0x6b,0x69,0x06,0x3a,0x06,0x45,0x54,0x3a,0x0c,0x40,0x76,0x6f,0x6c,0x75,0x6d,0x65,0x69,0x55,0x3a,0x0b,0x40,0x70,0x69,0x74,0x63,0x68,0x69,0x69))
PictureDisplay(5,"ev_heriel_ha2",0,0,0,0,100,100,255,0)
PictureDisplay(6,"ev_heriel_ct01",0,0,0,0,100,100,255,0)
ShowMessageFace("",0,0,2,14)
ShowMessage("My thing is caught in the whirlpool of hair.")
ShowMessage("Inside her soft hair, my penis is stroked, wound around, and rubbed...")
ShowMessageFace("heriel_fc1",1,0,2,15)
ShowMessage("\\n<Heriel>")
ShowMessage("Ehehe... Does your penis feel good?")
ShowMessage("I'll use my hair to make you come...")
ShowMessageFace("",0,0,2,16)
ShowMessage("\\n<Luka>")
ShowMessage("S-stop...Auuuu!")
ShowMessageFace("",0,0,2,17)
ShowMessage("Her hair crawls all over my glans and the neck of my penis...")
ShowMessage("I tremble from the tickling sensation.")
ShowMessageFace("",0,0,2,18)
ShowMessage("However, her hair restraint is really tight and I can't move an inch.")
ShowMessage("I can do nothing but take her torturous tickling...")
ShowMessageFace("",0,0,2,19)
ShowMessage("\\n<Luka>")
ShowMessage("Auuuu...Ah...Aaaaaah...!")
ShowMessageFace("heriel_fc1",1,0,2,20)
ShowMessage("\\n<Heriel>")
ShowMessage("Haha, does it feel good...?")
ShowMessage("I'll wind around it tighter...")
ShowMessageFace("",0,0,2,21)
ShowMessage("Not only does she tickle me with her hair, but now she's squeezing my penis with it.")
ShowMessage("She tightens around the neck of my penis and I have no choice but to writhe in this miserable situation.")
ShowMessageFace("",0,0,2,22)
ShowMessage("\\n<Luka>")
ShowMessage("Hyaa...Auuuuu...!")
ShowMessageFace("heriel_fc1",1,0,2,23)
ShowMessage("\\n<Heriel>")
ShowMessage("If you can't endure it, just come.")
ShowMessage("I'll suck up your semen with my hair...♪")
ShowMessageFace("",0,0,2,24)
ShowMessage("\\n<Luka>")
ShowMessage("Nooo...Auuu...")
ShowMessageFace("",0,0,2,25)
ShowMessage("She focuses on my glans and all my weak points.")
ShowMessageFace("",0,0,2,26)
ShowMessage("Stroked by her hair, tickled by the tips of it...")
ShowMessage("She carefully and gently plays with my tip.")
ShowMessageFace("",0,0,2,27)
ShowMessage("\\n<Luka>")
ShowMessage("S-stop...Coming...")
ShowMessageFace("",0,0,2,28)
ShowMessage("As it's being tickled, my penis starts pulsating.")
ShowMessage("Any more stimulation and I really will come...")
ShowMessageFace("heriel_fc1",1,0,2,29)
ShowMessage("\\n<Heriel>")
ShowMessage("Let it out...Let it out...")
ShowMessage("Your white pee, let out lots of it...")
ShowMessageFace("",0,0,2,30)
ShowMessage("Her hair tightens around my shaft and glans...")
ShowMessage("That stimulation finally ends me and I reach my limit.")
ShowMessageFace("",0,0,2,31)
ShowMessage("\\n<Luka>")
ShowMessage("Ah, Aaaaah...!!")
RunCommonEvent(104)
PictureDisplay(5,"ev_heriel_ha3",0,0,0,0,100,100,255,0)
PictureDisplay(6,"ev_heriel_ct02",0,0,0,0,100,100,255,0)
RunCommonEvent(105)
ShowMessageFace("",0,0,2,32)
ShowMessage("In the whirlpool of her hair, my semen shoots out.")
ShowMessage("From the moment I start ejaculating, her hair winds around me like a cylinder...")
ShowMessageFace("",0,0,2,33)
ShowMessage("\\n<Luka>")
ShowMessage("Hyaa...Aaaaah...")
ShowMessageFace("",0,0,2,34)
ShowMessage("Just like that, it starts sucking up the semen I shoot out.")
ShowMessage("The sweet feeling of release lasts until my ejaculation ends...")
246(2)
PictureDisplay(5,"ev_heriel_ha4",0,0,0,0,100,100,255,0)
PictureDisplay(6,"ev_heriel_ct03",0,0,0,0,100,100,255,0)
ShowMessageFace("heriel_fc1",1,0,2,35)
ShowMessage("\\n<Heriel>")
ShowMessage("Ehehe, I sucked it up...")
ShowMessage("Did it feel good?")
ShowMessageFace("",0,0,2,36)
ShowMessage("\\n<Luka>")
ShowMessage("Ah...Auuu...")
ShowMessageFace("",0,0,2,37)
ShowMessage("Enveloped in her hair, I feel immense fatigue wash over me.")
ShowMessage("Despite having ejaculated just once, it feels like I shot out my entire reserve of semen.")
ShowMessageFace("",0,0,2,38)
ShowMessage("I'm completely entranced by her sucking me with her hair.")
ShowMessage("Thinking of my ruinous desire, I feel totally weak...")
221()
PictureClear(5)
PictureClear(6)
ShowMessageFace("",0,0,2,39)
ShowMessage("......")
RunCommonEvent(3998)
0()
