// EVENT 1013
Name "Talk: Rat Girl"

If(1,20,0,1,0)
 JumpToLabel("情報")
 0()
EndIf()
If(1,20,0,2,0)
 JumpToLabel("質問")
 0()
EndIf()
If(1,20,0,3,0)
 JumpToLabel("要求")
 0()
EndIf()
If(1,20,0,4,0)
 JumpToLabel("贈与")
 0()
EndIf()
DefineLabel("情報")
ChangeVariable(13,13,0,2,1,100)
If(1,13,0,10,2)
 ShowMessageFace("nezumi_fc1",0,0,2,1)
 ShowMessage("\\n<Rat Girl>...I think I smell.")
 EndEventProcessing()
 0()
EndIf()
If(1,13,0,20,2)
 ShowMessageFace("nezumi_fc1",0,0,2,2)
 ShowMessage("\\n<Rat Girl>Rats are monsters that are hated by everyone.")
 EndEventProcessing()
 0()
EndIf()
If(1,13,0,30,2)
 ShowMessageFace("nezumi_fc1",0,0,2,3)
 ShowMessage("\\n<Rat Girl>I want some cheese...")
 EndEventProcessing()
 0()
EndIf()
If(1,13,0,40,2)
 ShowMessageFace("nezumi_fc1",0,0,2,4)
 ShowMessage("\\n<Rat Girl>I was chased around by a nekomata...\nI was so scared.")
 EndEventProcessing()
 0()
EndIf()
If(1,13,0,50,2)
 ShowMessageFace("nezumi_fc1",0,0,2,5)
 ShowMessage("\\n<Rat Girl>My teeth are very sharp.\nIf I gnaw on you it will really hurt.")
 EndEventProcessing()
 0()
EndIf()
If(1,13,0,60,2)
 ShowMessageFace("nezumi_fc1",0,0,2,6)
 ShowMessage("\\n<Rat Girl>I have poison in my fangs and claws.\nThis way you will be poisoned when I attack.")
 EndEventProcessing()
 0()
EndIf()
If(1,13,0,70,2)
 ShowMessageFace("nezumi_fc1",0,0,2,7)
 ShowMessage("\\n<Rat Girl>I'm hungry...")
 EndEventProcessing()
 0()
EndIf()
If(1,13,0,80,2)
 ShowMessageFace("nezumi_fc1",0,0,2,8)
 ShowMessage("\\n<Rat Girl>Midas Village is thriving with its livestock.\nI sneak in at night to get cheese.")
 EndEventProcessing()
 0()
EndIf()
If(1,13,0,90,2)
 ShowMessageFace("nezumi_fc1",0,0,2,9)
 ShowMessage("\\n<Rat Girl>I am not bothered by poison.\nI have antibodies for all kinds of bacteria.")
 EndEventProcessing()
 0()
EndIf()
If(1,13,0,100,2)
 ShowMessageFace("nezumi_fc1",0,0,2,10)
 ShowMessage("\\n<Rat Girl>The deserted castle near here is very creepy.\nNot even monsters will go near it.")
 EndEventProcessing()
 0()
EndIf()
DefineLabel("質問")
ChangeVariable(13,13,0,2,1,50)
If(1,13,0,10,2)
 ShowMessageFace("nezumi_fc1",0,0,2,11)
 ShowMessage("\\n<Rat Girl>Hey... do I smell?")
 ShowChoices(strings("You stink","Not really","Love that smell"),0)
 IfPlayerPicksChoice(0,"You stink.")
  ShowMessageFace("nezumi_fc1",2,0,2,12)
  ShowMessage("\\n<Rat Girl>I know but...\nYou didn't have to be so blunt.")
  355("change_friend(-5)")
  0()
 IfPlayerPicksChoice(1,"Not really.")
  ShowMessageFace("nezumi_fc1",1,0,2,13)
  ShowMessage("\\n<Rat Girl>Really?\nWell... I'm happy, even if it is a lie.")
  355("change_friend(10)")
  0()
 IfPlayerPicksChoice(2,"Love that smell.")
  ShowMessageFace("nezumi_fc1",2,0,2,14)
  ShowMessage("\\n<Rat Girl>Are you some kind of pervert?")
  355("change_friend(-5)")
  0()
 404()
 EndEventProcessing()
 0()
EndIf()
If(1,13,0,20,2)
 ShowMessageFace("nezumi_fc1",0,0,2,15)
 ShowMessage("\\n<Rat Girl>If I become your ally, what will you do?")
 ShowChoices(strings("Keep you in my party","Never have you in my party"),0)
 IfPlayerPicksChoice(0,"Keep you in my party.")
  ShowMessageFace("nezumi_fc1",1,0,2,16)
  ShowMessage("\\n<Rat Girl>I'm happy, even if it is a lie.")
  355("change_friend(10)")
  0()
 IfPlayerPicksChoice(1,"すぐパーティから外す")
  ShowMessageFace("nezumi_fc1",2,0,2,17)
  ShowMessage("\\n<Rat Girl>So I would just be treated that way?")
  355("change_friend(-5)")
  0()
 404()
 EndEventProcessing()
 0()
EndIf()
If(1,13,0,30,2)
 ShowMessageFace("nezumi_fc1",0,0,2,18)
 ShowMessage("\\n<Rat Girl>Is there a way to make people like rats?")
 ShowChoices(strings("Of course","There could be","No way"),0)
 IfPlayerPicksChoice(0,"Of Course")
  ShowMessageFace("nezumi_fc1",0,0,2,19)
  ShowMessage("\\n<Rat Girl>Really?\nI doubt it.")
  0()
 IfPlayerPicksChoice(1,"There Could Be")
  ShowMessageFace("nezumi_fc1",1,0,2,20)
  ShowMessage("\\n<Rat Girl>Yeah, there must be a way.\nI want to be a rat that is loved by everybody.")
  355("change_friend(10)")
  0()
 IfPlayerPicksChoice(2,"No Way")
  ShowMessageFace("nezumi_fc1",2,0,2,21)
  ShowMessage("\\n<Rat Girl>Hmph, I know already...\nYou don't have to be so blunt.")
  355("change_friend(-5)")
  0()
 404()
 EndEventProcessing()
 0()
EndIf()
If(1,13,0,40,2)
 ShowMessageFace("nezumi_fc1",0,0,2,22)
 ShowMessage("\\n<Rat Girl>I asked a dog girl to help me beat a nekomata.\nBut... isn't she weaker than me?")
 ShowChoices(strings("She is weaker than a rat girl","The dog girl is stronger","You are a tiger!"),0)
 IfPlayerPicksChoice(0,"She is weaker than a rat girl.")
  ShowMessageFace("nezumi_fc1",0,0,2,23)
  ShowMessage("\\n<Rat Girl>I agree, based on the human clothes she wears...\nShe has already been domesticated.")
  355("change_friend(10)")
  0()
 IfPlayerPicksChoice(1,"The dog girl is stronger.")
  ShowMessageFace("nezumi_fc1",2,0,2,24)
  ShowMessage("\\n<Rat Girl>Are you blind?")
  355("change_friend(-5)")
  0()
 IfPlayerPicksChoice(2,"You are a tiger!")
  ShowMessageFace("nezumi_fc1",1,0,2,25)
  ShowMessage("\\n<Rat Girl>R-really?\nI know I have sharp teeth, but I never realized I was actually a tiger.")
  355("change_friend(10)")
  0()
 404()
 EndEventProcessing()
 0()
EndIf()
If(1,13,0,50,2)
 ShowMessageFace("nezumi_fc1",0,0,2,26)
 ShowMessage("\\n<Rat Girl>Rats... aren't very interesting, are they?")
 ShowChoices(strings("Boring","Flashy","So what?"),0)
 IfPlayerPicksChoice(0,"Boring")
  ShowMessageFace("nezumi_fc1",0,0,2,27)
  ShowMessage("\\n<Rat Girl>...You don't have to be so blunt.")
  0()
 IfPlayerPicksChoice(1,"Flashy")
  ShowMessageFace("nezumi_fc1",2,0,2,28)
  ShowMessage("\\n<Rat Girl>How do we look flashy?\nThat doesn't seem right at all.")
  355("change_friend(-5)")
  0()
 IfPlayerPicksChoice(2,"So what?")
  ShowMessageFace("nezumi_fc1",1,0,2,29)
  ShowMessage("\\n<Rat Girl>Yeah...\nIt's all right, even if I'm not very interesting!")
  355("change_friend(10)")
  0()
 404()
 EndEventProcessing()
 0()
EndIf()
DefineLabel("要求")
ChangeVariable(13,13,0,2,1,30)
If(1,13,0,10,2)
 If(10,1,false)
  ShowMessageFace("nezumi_fc1",1,0,2,30)
  ShowMessage("\\n<Rat Girl>Hey, I want some decent clothes.\nWon't you give me some?")
  ChangeVariable(24,24,0,3,2,1,0)
  ShowMessageFace("",0,0,2,31)
  ShowMessage("Do you want to give some \\ia[1]? (Have:\\V[24])")
  ShowChoices(strings("Yes","No"),2)
  IfPlayerPicksChoice(0,"Yes")
   ShowMessageFace("nezumi_fc1",1,0,2,32)
   ShowMessage("\\n<Rat Girl>All right! Glad I asked!")
   ChangeInventoryArmor(1,1,0,1,false)
   355("change_friend(20)")
   EndEventProcessing()
   0()
  IfPlayerPicksChoice(1,"No")
   ShowMessageFace("nezumi_fc1",0,0,2,33)
   ShowMessage("\\n<Rat Girl>I thought so.")
   EndEventProcessing()
   0()
  404()
  0()
 Else()
  ChangeVariable(13,13,0,0,20)
  0()
 EndIf()
 0()
EndIf()
If(1,13,0,20,2)
 If(8,341)
  ShowMessageFace("nezumi_fc1",1,0,2,34)
  ShowMessage("\\n<Rat Girl>I'm hungry for cheese.\nHey, will you give me some?")
  ChangeVariable(24,24,0,3,0,341,0)
  ShowMessageFace("",0,0,2,35)
  ShowMessage("Do you want to give some \\ii[341]? (Have:\\V[24])")
  ShowChoices(strings("Yes","No"),2)
  IfPlayerPicksChoice(0,"Yes")
   ShowMessageFace("nezumi_fc1",1,0,2,36)
   ShowMessage("\\n<Rat Girl>All right! Glad I asked!")
   ChangeInventory_Item(341,1,0,1)
   355("change_friend(30)")
   EndEventProcessing()
   0()
  IfPlayerPicksChoice(1,"No")
   ShowMessageFace("nezumi_fc1",0,0,2,37)
   ShowMessage("\\n<Rat Girl>I thought so.")
   EndEventProcessing()
   0()
  404()
  0()
 Else()
  ChangeVariable(13,13,0,0,30)
  0()
 EndIf()
 0()
EndIf()
If(1,13,0,30,2)
 ShowMessageFace("nezumi_fc1",1,0,2,38)
 ShowMessage("\\n<Rat Girl>Can I have some money?\nI want to buy a lot of food and clothes.")
 If(7,39,0)
  ChangeVariable(24,24,0,3,7,2,0)
  ShowMessageFace("",0,0,2,39)
  ShowMessage("Do you want to give 39G? (Remaining: \\V[24])")
  ShowChoices(strings("Yes","No"),2)
  IfPlayerPicksChoice(0,"Yes")
   ShowMessageFace("nezumi_fc1",1,0,2,40)
   ShowMessage("\\n<Rat Girl>All right! Glad I asked!")
   125(1,0,39)
   355("change_friend(25)")
   EndEventProcessing()
   0()
  IfPlayerPicksChoice(1,"No")
   ShowMessageFace("nezumi_fc1",0,0,2,41)
   ShowMessage("\\n<Rat Girl>I thought so.")
   EndEventProcessing()
   0()
  404()
  0()
 Else()
  ShowMessageFace("nezumi_fc1",1,0,2,42)
  ShowMessage("\\n<Rat Girl>...to think you are also poor and hungry.\nLet's both do our best.")
  EndEventProcessing()
  0()
 EndIf()
 0()
EndIf()
DefineLabel("贈与")
ChangeVariable(13,13,0,2,1,30)
If(1,25,0,1,0)
 ChangeVariable(13,13,0,0,30)
 ChangeVariable(25,25,0,0,0)
 0()
EndIf()
If(1,25,0,2,0)
 ChangeVariable(13,13,0,2,1,20)
 ChangeVariable(25,25,0,0,0)
 0()
EndIf()
If(1,13,0,10,2)
 ShowMessageFace("nezumi_fc1",1,0,2,43)
 ShowMessage("\\n<Rat Girl>Hey, take this.\nI don't think I need it.")
 250(bytes(0x04,0x08,0x6f,0x3a,0x0c,0x52,0x50,0x47,0x3a,0x3a,0x53,0x45,0x08,0x3a,0x0a,0x40,0x6e,0x61,0x6d,0x65,0x49,0x22,0x0a,0x49,0x74,0x65,0x6d,0x31,0x06,0x3a,0x06,0x45,0x54,0x3a,0x0b,0x40,0x70,0x69,0x74,0x63,0x68,0x69,0x69,0x3a,0x0c,0x40,0x76,0x6f,0x6c,0x75,0x6d,0x65,0x69,0x55))
 ChangeInventoryArmor(2,0,0,1,false)
 ShowMessageFace("",0,0,2,44)
 ShowMessage("The Rat Girl gave you a \\ia[2]!")
 EndEventProcessing()
 0()
EndIf()
If(1,13,0,20,2)
 ShowMessageFace("nezumi_fc1",1,0,2,45)
 ShowMessage("\\n<Rat Girl>You can have this.\n...you might get poisoned when I touch you.")
 250(bytes(0x04,0x08,0x6f,0x3a,0x0c,0x52,0x50,0x47,0x3a,0x3a,0x53,0x45,0x08,0x3a,0x0a,0x40,0x6e,0x61,0x6d,0x65,0x49,0x22,0x0a,0x49,0x74,0x65,0x6d,0x31,0x06,0x3a,0x06,0x45,0x54,0x3a,0x0b,0x40,0x70,0x69,0x74,0x63,0x68,0x69,0x69,0x3a,0x0c,0x40,0x76,0x6f,0x6c,0x75,0x6d,0x65,0x69,0x55))
 ChangeInventory_Item(13,0,0,1)
 ShowMessageFace("",0,0,2,46)
 ShowMessage("The Rat Girl gave you some \\ii[13]!")
 EndEventProcessing()
 0()
EndIf()
If(1,13,0,30,2)
 ShowMessageFace("nezumi_fc1",1,0,2,47)
 ShowMessage("\\n<Rat Girl>It's not much, but take it.\nI found it in the gutter.")
 250(bytes(0x04,0x08,0x6f,0x3a,0x0c,0x52,0x50,0x47,0x3a,0x3a,0x53,0x45,0x08,0x3a,0x0a,0x40,0x6e,0x61,0x6d,0x65,0x49,0x22,0x0a,0x49,0x74,0x65,0x6d,0x31,0x06,0x3a,0x06,0x45,0x54,0x3a,0x0b,0x40,0x70,0x69,0x74,0x63,0x68,0x69,0x69,0x3a,0x0c,0x40,0x76,0x6f,0x6c,0x75,0x6d,0x65,0x69,0x55))
 125(0,0,65)
 ShowMessageFace("",0,0,2,48)
 ShowMessage("The Rat Girl gave you 65G!")
 EndEventProcessing()
 0()
EndIf()
0()
