// EVENT 2011
Name "Seduction: Vampire Girl"

If(0,25,1)
 EndEventProcessing()
 0()
EndIf()
355("$game_troop.lose_event_id = 3011")
ChangeVariable(26,26,0,3,3,1,4)
ChangeVariable(26,26,4,0,10)
ShowMessageFace("vgirl_fc1",2,0,2,1)
ShowMessage("\\n<Vampire Girl>Waaah! I think something got in my eye...\nWon't you check for me?")
ChangeSwitch(98,98,0)
ChangeSwitch(96,96,0)
ShowChoices(strings("Ignore her","Have a look"),1)
IfPlayerPicksChoice(0,"Ignore her")
 ShowMessageFace("",0,0,2,2)
 ShowMessage("Luka senses that something is amiss, so he doesn't do anything...")
 RunCommonEvent(1999)
 EndEventProcessing()
 0()
IfPlayerPicksChoice(1,"見てあげる")
 0()
404()
ShowMessageFace("",0,0,2,3)
ShowMessage("\\n<Luka>Let's see...")
ShowMessageFace("vgirl_fc1",0,0,2,4)
ShowMessage("\\n<Vampire Girl>NOW!")
337(-1,928)
ShowMessageFace("",0,0,2,5)
ShowMessage("The Vampire Girl's eyes shine strangely!")
ShowMessage("Luka submits to the Vampire Girl!")
ShowMessageFace("",0,0,2,6)
ShowMessage("\\n<Luka>Wha... What is... this?")
ShowMessageFace("vgirl_fc1",1,0,2,7)
ShowMessage("\\n<Vampire Girl>Hehehe... You can't oppose me now.\nShall I make you lick me down there...?")
ChangeVariable(26,26,3,0,2)
250(bytes(0x04,0x08,0x6f,0x3a,0x0c,0x52,0x50,0x47,0x3a,0x3a,0x53,0x45,0x08,0x3a,0x0a,0x40,0x6e,0x61,0x6d,0x65,0x49,0x22,0x11,0x6d,0x6f,0x6e,0x5f,0x65,0x72,0x6f,0x5f,0x70,0x79,0x75,0x31,0x06,0x3a,0x06,0x45,0x54,0x3a,0x0b,0x40,0x70,0x69,0x74,0x63,0x68,0x69,0x69,0x3a,0x0c,0x40,0x76,0x6f,0x6c,0x75,0x6d,0x65,0x69,0x69))
311(0,1,1,1,26,true)
ShowMessageFace("",0,0,2,8)
ShowMessage("Vampire Girl pushes Luka down and straddles him!")
ShowMessage("She presses her crotch onto his face!\\D")
ShowMessage("Luka takes \\V[26] damage!")
ChangeVariable(27,27,0,3,3,1,2)
If(1,27,0,0,0)
 JumpToLabel("射精1")
 0()
EndIf()
ShowMessageFace("",0,0,2,9)
ShowMessage("\\n<Luka>Hm... Mgh...")
ShowMessageFace("",0,0,2,10)
ShowMessage("With his mouth closed, Luka begins to suffocate.")
ShowMessageFace("",0,0,2,11)
ShowMessage("The muffled air Luka breathes grows hotter.")
ShowMessage("The Vampire Girl's velvety crevice tightly covers his mouth.")
ShowMessageFace("vgirl_fc1",1,0,2,12)
ShowMessage("\\n<Vampire Girl>Heh heh heh... You're my slave now.\nI command that you immediately serve me down there!")
ShowMessageFace("vgirl_fc1",1,0,2,13)
ShowMessage("\\n<Vampire Girl>Come on, you better lick me.\nService me diligently with your tongue...")
ShowMessageFace("",0,0,2,14)
ShowMessage("\\n<Luka>Y-yesh... *lick* *lick*")
ShowMessageFace("",0,0,2,15)
ShowMessage("Not arguing with the Vampire Girl, Luka sticks his tongue out towards her cute slit.")
ShowMessage("While licking her, he realizes she has an incredibly sweet taste.")
ShowMessageFace("vgirl_fc1",1,0,2,16)
ShowMessage("\\n<Vampire Girl>Hyaa...\nR-right there... Lick more...")
250(bytes(0x04,0x08,0x6f,0x3a,0x0c,0x52,0x50,0x47,0x3a,0x3a,0x53,0x45,0x08,0x3a,0x0a,0x40,0x6e,0x61,0x6d,0x65,0x49,0x22,0x11,0x6d,0x6f,0x6e,0x5f,0x65,0x72,0x6f,0x5f,0x70,0x79,0x75,0x31,0x06,0x3a,0x06,0x45,0x54,0x3a,0x0b,0x40,0x70,0x69,0x74,0x63,0x68,0x69,0x69,0x3a,0x0c,0x40,0x76,0x6f,0x6c,0x75,0x6d,0x65,0x69,0x69))
311(0,1,1,1,26,true)
ShowMessageFace("",0,0,2,17)
ShowMessage("Vampire Girl shakes her hips,")
ShowMessage("and pushes her crotch down on Luka's mouth!\\D")
ShowMessage("Luka takes \\V[26] damage!")
ChangeVariable(27,27,0,3,3,1,2)
If(1,27,0,0,0)
 JumpToLabel("射精1")
 0()
EndIf()
ShowMessageFace("",0,0,2,18)
ShowMessage("\\n<Luka>Hmmgh... *lick* *lick* *slrp*")
ShowMessageFace("",0,0,2,19)
ShowMessage("Even if it's hard for him to breathe, instead of looking for fresh air,")
ShowMessage("Luka licks the Vampire Girl's slit.")
ShowMessageFace("",0,0,2,20)
ShowMessage("The air Luka breathes is imbued with the Vampire Girl's scent.")
ShowMessage("He feels like the smell is gradually tainting him too.")
ShowMessageFace("",0,0,2,21)
ShowMessage("Furthermore, her crevice is slowly starting to ooze her body's nectar.")
ShowMessage("Luka's heart melts as the juice meets his tongue.")
ShowMessageFace("vgirl_fc1",1,0,2,22)
ShowMessage("\\n<Vampire Girl>Fwaah... That's good...\nLick it more and more...")
ShowMessageFace("",0,0,2,23)
ShowMessage("The Vampire Girl's moans sound softer,")
ShowMessage("and her crotch keeps overflowing with love juice.")
250(bytes(0x04,0x08,0x6f,0x3a,0x0c,0x52,0x50,0x47,0x3a,0x3a,0x53,0x45,0x08,0x3a,0x0a,0x40,0x6e,0x61,0x6d,0x65,0x49,0x22,0x11,0x6d,0x6f,0x6e,0x5f,0x65,0x72,0x6f,0x5f,0x70,0x79,0x75,0x31,0x06,0x3a,0x06,0x45,0x54,0x3a,0x0b,0x40,0x70,0x69,0x74,0x63,0x68,0x69,0x69,0x3a,0x0c,0x40,0x76,0x6f,0x6c,0x75,0x6d,0x65,0x69,0x69))
311(0,1,1,1,26,true)
ShowMessageFace("",0,0,2,24)
ShowMessage("The Vampire Girl's dripping wet genitalia push down!\\D")
ShowMessage("Luka takes \\V[26] damage!")
ChangeVariable(27,27,0,3,3,1,2)
If(1,27,0,0,0)
 JumpToLabel("射精1")
 0()
EndIf()
ShowMessageFace("",0,0,2,25)
ShowMessage("\\n<Luka>Hm... *slrp* *slrp*")
ShowMessageFace("",0,0,2,26)
ShowMessage("Luka desperately keeps licking her little slit so he can taste her nectar.")
ShowMessage("Her crotch is throbbing hard. It looks like she might come even without any more stimulation.")
ShowMessageFace("vgirl_fc1",1,0,2,27)
ShowMessage("\\n<Vampire Girl>Hyaa... Lick me more, mooore...")
250(bytes(0x04,0x08,0x6f,0x3a,0x0c,0x52,0x50,0x47,0x3a,0x3a,0x53,0x45,0x08,0x3a,0x0a,0x40,0x6e,0x61,0x6d,0x65,0x49,0x22,0x11,0x6d,0x6f,0x6e,0x5f,0x65,0x72,0x6f,0x5f,0x70,0x79,0x75,0x31,0x06,0x3a,0x06,0x45,0x54,0x3a,0x0b,0x40,0x70,0x69,0x74,0x63,0x68,0x69,0x69,0x3a,0x0c,0x40,0x76,0x6f,0x6c,0x75,0x6d,0x65,0x69,0x69))
311(0,1,1,1,26,true)
ShowMessageFace("",0,0,2,28)
ShowMessage("The Vampire Girl's dripping wet genitalia push down!\\D")
ShowMessage("Luka takes \\V[26] damage!")
ChangeVariable(27,27,0,3,3,1,2)
If(1,27,0,0,0)
 JumpToLabel("射精1")
 0()
EndIf()
ShowMessageFace("vgirl_fc1",1,0,2,29)
ShowMessage("\\n<Vampire Girl>Hm-mmgh...")
ShowMessageFace("",0,0,2,30)
ShowMessage("The Vampire Girl's overflowing love juices splatter all over Luka's face.")
ShowMessage("Even though his mouth is completely wet, Luka keeps licking her slit.")
ShowMessageFace("vgirl_fc1",1,0,2,31)
ShowMessage("\\n<Vampire Girl>HaaaAAaaa... More...\nIt's going to come out... Lick it more...")
250(bytes(0x04,0x08,0x6f,0x3a,0x0c,0x52,0x50,0x47,0x3a,0x3a,0x53,0x45,0x08,0x3a,0x0a,0x40,0x6e,0x61,0x6d,0x65,0x49,0x22,0x11,0x6d,0x6f,0x6e,0x5f,0x65,0x72,0x6f,0x5f,0x70,0x79,0x75,0x31,0x06,0x3a,0x06,0x45,0x54,0x3a,0x0b,0x40,0x70,0x69,0x74,0x63,0x68,0x69,0x69,0x3a,0x0c,0x40,0x76,0x6f,0x6c,0x75,0x6d,0x65,0x69,0x69))
311(0,1,1,1,26,true)
ShowMessageFace("",0,0,2,32)
ShowMessage("The Vampire Girl's dripping wet genitalia push down!\\D")
ShowMessage("Luka takes \\V[26] damage!")
ChangeVariable(27,27,0,3,3,1,2)
If(1,27,0,0,0)
 JumpToLabel("射精1")
 0()
EndIf()
DefineLabel("射精1")
ShowMessageFace("vgirl_fc1",1,0,2,33)
ShowMessage("\\n<Vampire Girl>Fwaaah... I'll get you all wet...")
ShowMessageFace("",0,0,2,34)
ShowMessage("\\n<Luka>I'm... also gonna...!")
RunCommonEvent(104)
RunCommonEvent(105)
ShowMessageFace("",0,0,2,35)
ShowMessage("Luka's penis throbbs, then ejaculates.")
ShowMessage("Even though his dick hasn't been touched, he can't help coming.")
ShowMessageFace("",0,0,2,36)
ShowMessage("At the same time, the Vampire Girl's privates")
ShowMessage("let out pee like a shower.")
ShowMessageFace("",0,0,2,37)
ShowMessage("\\n<Luka>Hmg... Hmgh!")
ShowMessageFace("",0,0,2,38)
ShowMessage("While Luka throbs and ejaculates, Vampire Girl covers")
ShowMessage("his face with her urine.")
ShowMessageFace("vgirl_fc1",1,0,2,39)
ShowMessage("\\n<Vampire Girl>Fwaaah... That felt good...")
ShowMessageFace("",0,0,2,40)
ShowMessage("The Vampire Girl, looking satisfied, finally gets off of Luka's face.")
ShowMessage("She then glances at his semen-tainted pants.")
ShowMessageFace("vgirl_fc1",1,0,2,41)
ShowMessage("\\n<Vampire Girl>So you dirtied yourself too...")
RunCommonEvent(2000)
EndEventProcessing()
0()
