﻿// EVENT 5755
Name "Vinum"

PictureDisplay(5,"80_vinum_st01",0,0,0,0,100,100,0,0)
PictureMove(5,null,0,0,0,0,100,100,255,0,30,true)
ShowMessageFace("",0,0,2,1)
ShowMessage("\\n<Luka>")
ShowMessage("P...please...")
ShowMessageFace("vinum_fc1",0,0,2,2)
ShowMessage("\\n<Vinum>")
ShowMessage("You would request to be preyed upon? How shameful...")
ShowMessage("Very well, you may come to my room.")
ShowMessageFace("",0,0,2,3)
ShowMessage("With that, I was taken to Vinum's room――")
221()
PictureDisplay(1,"bg195",0,0,0,0,100,100,255,0)
PictureDisplay(5,"80_vinum_st01",0,0,0,0,100,100,255,0)
222()
241(bytes(0x04,0x08,0x6f,0x3a,0x0d,0x52,0x50,0x47,0x3a,0x3a,0x42,0x47,0x4d,0x08,0x3a,0x0a,0x40,0x6e,0x61,0x6d,0x65,0x49,0x22,0x09,0x65,0x72,0x6f,0x31,0x06,0x3a,0x06,0x45,0x54,0x3a,0x0c,0x40,0x76,0x6f,0x6c,0x75,0x6d,0x65,0x69,0x69,0x3a,0x0b,0x40,0x70,0x69,0x74,0x63,0x68,0x69,0x69))
ShowMessageFace("vinum_fc1",0,0,2,4)
ShowMessage("\\n<Vinum>")
ShowMessage("Well then... I shall devour you without reservation.")
ShowMessageFace("",0,0,2,5)
ShowMessage("Vinum's small body is mounted on mine.")
ShowMessage("I fully accept her advances――")
ShowMessageFace("vinum_fc1",4,0,2,6)
ShowMessage("\\n<Vinum>")
ShowMessage("Kuhuhu... It's been a while since I had a hero...")
ShowMessage("I'm going to fully savor you.")
ShowMessageFace("",0,0,2,7)
ShowMessage("\\n<Luka>")
ShowMessage("A...aaaaah...!")
ShowMessageFace("",0,0,2,8)
ShowMessage("Vinum lowers herself onto me――")
245(bytes(0x04,0x08,0x6f,0x3a,0x0d,0x52,0x50,0x47,0x3a,0x3a,0x42,0x47,0x53,0x08,0x3a,0x0a,0x40,0x6e,0x61,0x6d,0x65,0x49,0x22,0x1e,0x6d,0x6f,0x6e,0x5f,0x68,0x73,0x65,0x61,0x6e,0x30,0x35,0x5f,0x69,0x6e,0x6e,0x65,0x72,0x77,0x6f,0x72,0x6b,0x73,0x5f,0x61,0x35,0x06,0x3a,0x06,0x45,0x54,0x3a,0x0c,0x40,0x76,0x6f,0x6c,0x75,0x6d,0x65,0x69,0x55,0x3a,0x0b,0x40,0x70,0x69,0x74,0x63,0x68,0x69,0x69))
PictureDisplay(5,"ev_vinum_h1",0,0,0,0,100,100,0,0)
PictureMove(5,null,0,0,0,0,100,100,255,0,30,true)
ShowMessageFace("",0,0,2,9)
ShowMessage("Her soft and warm insides wrap up around my penis.")
ShowMessage("At the same moment I let out a scream.")
ShowMessageFace("",0,0,2,10)
ShowMessage("Her magic pussy has probably killed countless men,")
ShowMessage("And now my penis was swallowed up by it――")
ShowMessageFace("vinum_fc1",4,0,2,11)
ShowMessage("\\n<Vinum>")
ShowMessage("Kuhuhu... I am going to rape you.")
ShowMessage("How is it? You like this...?")
ShowMessageFace("",0,0,2,12)
ShowMessage("\\n<Luka>")
ShowMessage("A...auuuh...!")
ShowMessageFace("",0,0,2,13)
ShowMessage("I feel the softness of her walls with my penis.")
ShowMessage("Vinum's honey pot was tight and intensely pressured my dick.")
ShowMessageFace("",0,0,2,14)
ShowMessage("All the while giving it a suction sensation.")
ShowMessage("This intense pleasure makes me shake my hips uncontrollably――")
RunCommonEvent(104)
PictureDisplay(5,"ev_vinum_h2",0,0,0,0,100,100,255,0)
RunCommonEvent(105)
ShowMessageFace("",0,0,2,15)
ShowMessage("\\n<Luka>")
ShowMessage("Hauuuu...")
ShowMessageFace("",0,0,2,16)
ShowMessage("The next moment my penis was gushing out semen.")
ShowMessage("I ended up cumming soon after insertion――")
ShowMessageFace("vinum_fc1",4,0,2,17)
ShowMessage("\\n<Vinum>")
ShowMessage("What...finished already?")
ShowMessage("You are very weak for a hero.")
ShowMessageFace("vinum_fc1",4,0,2,18)
ShowMessage("\\n<Vinum>")
ShowMessage("Hoore... Already done resisting?")
ShowMessage("What happened to all that strength from earlier?")
ShowMessageFace("",0,0,2,19)
ShowMessage("\\n<Luka>")
ShowMessage("U-uuu...")
ShowMessageFace("",0,0,2,20)
ShowMessage("I can do nothing but writhe in agony while experiencing all this pleasure.")
ShowMessage("Vinum's pussy alluringly swells up with my penis inside it――")
PictureDisplay(5,"ev_vinum_h3",0,0,0,0,100,100,255,0)
ShowMessageFace("vinum_fc1",4,0,2,21)
ShowMessage("\\n<Vinum>")
ShowMessage("If you're already done... I'm going to suck you dry.")
ShowMessage("You just enjoy it and let go of your life...")
ShowMessageFace("",0,0,2,22)
ShowMessage("\\n<Luka>")
ShowMessage("N-nooo...hauuu!!")
ShowMessageFace("",0,0,2,23)
ShowMessage("Furthermore, she sweetly tightens around me.")
ShowMessage("Her soft flesh bewitchingly undulates and gives an intense stimulation.")
ShowMessageFace("",0,0,2,24)
ShowMessage("Feeling intense pleasure, I can't help but thrust with my hips.")
ShowMessage("Despite having just ejaculated, another climax surges up――")
ShowMessageFace("",0,0,2,25)
ShowMessage("\\n<Luka>")
ShowMessage("Hau...a-aaah!!")
RunCommonEvent(104)
PictureDisplay(5,"ev_vinum_h4",0,0,0,0,100,100,255,0)
RunCommonEvent(105)
ShowMessageFace("",0,0,2,26)
ShowMessage("Semen overflows from inside her.")
ShowMessage("The intense pleasure causes my penis to pulsate while ejaculating.")
ShowMessageFace("",0,0,2,27)
ShowMessage("And yet, the ejaculation continues, refusing to settle down.")
ShowMessage("I continue to agonize over the feeling of release while tasting intense pleasure--")
ShowMessageFace("vinum_fc1",0,0,2,28)
ShowMessage("\\n<Vinum>")
ShowMessage("You taste quite good...")
ShowMessage("How about another sample...")
ShowMessageFace("",0,0,2,29)
ShowMessage("\\n<Luka>")
ShowMessage("I-I can't stop... Hau, auuu...!")
RunCommonEvent(104)
RunCommonEvent(105)
ShowMessageFace("",0,0,2,30)
ShowMessage("My semen gets endlessly sucked inside Vinum.")
ShowMessage("At the same time, my vitality gets absorbed.")
ShowMessageFace("",0,0,2,31)
ShowMessage("Strength leaves my body, and a numbness takes hold of me――")
ShowMessage("My life itself is being devoured by Vinum.")
RunCommonEvent(104)
RunCommonEvent(105)
ShowMessageFace("",0,0,2,32)
ShowMessage("\\n<Luka>")
ShowMessage("Au...hau, uuuu...")
ShowMessageFace("vinum_fc1",4,0,2,33)
ShowMessage("\\n<Vinum>")
ShowMessage("Kuhuhu... you know your life is getting absorbed, do you not?")
ShowMessage("At this rate I'll end up squeezing it all out of you.")
ShowMessageFace("",0,0,2,34)
ShowMessage("\\n<Luka>")
ShowMessage("N-no way... aaah!")
ShowMessageFace("vinum_fc1",4,0,2,35)
ShowMessage("\\n<Vinum>")
ShowMessage("But I'll make you feel the most wonderful of pleasures the whole way.")
ShowMessage("Here, how about I suck you up a little harder...?")
PictureDisplay(5,"ev_vinum_h5",0,0,0,0,100,100,255,0)
ShowMessageFace("",0,0,2,36)
ShowMessage("\\n<Luka>")
ShowMessage("Hyaaaaa～～!!")
RunCommonEvent(104)
RunCommonEvent(105)
ShowMessageFace("",0,0,2,37)
ShowMessage("Her magic pussy sucks up my penis with audible sounds.")
ShowMessage("All the while sucking up a huge amount of semen into her.")
ShowMessageFace("",0,0,2,38)
ShowMessage("My penis repeats the same pulsating twitches――")
ShowMessage("And spews out semen inside Vinum.")
ShowMessageFace("",0,0,2,39)
ShowMessage("\\n<Luka>")
ShowMessage("Agh...a, uaaa～～!!")
ShowMessageFace("vinum_fc1",4,0,2,40)
ShowMessage("\\n<Vinum>")
ShowMessage("Oh feeble hero, you must enjoy being looked down upon...")
ShowMessage("I am fairly convinced that must be the case...♥")
ShowMessageFace("",0,0,2,41)
ShowMessage("No matter how much comes out, the ejaculation does not stop.")
ShowMessage("In reaction to this intense feeling, my entire body spasms――")
RunCommonEvent(104)
RunCommonEvent(105)
ShowMessageFace("",0,0,2,42)
ShowMessage("A dangerous amount of my vitality gets squeezed out by her pussy.")
ShowMessage("My body is losing strength very rapidly――")
ShowMessageFace("",0,0,2,43)
ShowMessage("\\n<Luka>")
ShowMessage("A...hyaaa～～!!")
ShowMessageFace("vinum_fc1",4,0,2,44)
ShowMessage("\\n<Vinum>")
ShowMessage("Kuhuhu... Have you fully enjoyed yourself?")
ShowMessage("Or perhaps... you have broken along the way...?")
ShowMessageFace("",0,0,2,45)
ShowMessage("\\n<Luka>")
ShowMessage("Ah...aa...fuaa...")
ShowMessageFace("vinum_fc1",4,0,2,46)
ShowMessage("\\n<Vinum>")
ShowMessage("I fear your mind is already lost.")
ShowMessage("I am somewhat unsatisfied but, teasing you may no longer be necessary...")
ShowMessageFace("vinum_fc1",0,0,2,47)
ShowMessage("\\n<Vinum>")
ShowMessage("...Well then, you may perish.")
RunCommonEvent(104)
RunCommonEvent(105)
ShowMessageFace("",0,0,2,48)
ShowMessage("\\n<Luka>")
ShowMessage("A...agh...uu...")
ShowMessageFace("",0,0,2,49)
ShowMessage("My body went limp and I couldn't move a finger――")
ShowMessage("My consciousness fades away amidst the pleasure――")
RunCommonEvent(104)
RunCommonEvent(105)
ShowMessageFace("",0,0,2,50)
ShowMessage("Then――")
RunCommonEvent(104)
RunCommonEvent(105)
PictureDisplay(5,"ev_vinum_h6",0,0,0,0,100,100,255,0)
246(2)
ShowMessageFace("",0,0,2,51)
ShowMessage("\\n<Luka>")
ShowMessage(".........")
ShowMessageFace("",0,0,2,52)
ShowMessage("Under Vinum's body I laid, drained of all life.")
ShowMessage("All my vitality ended up violently absorbed.")
PictureDisplay(5,"ev_vinum_h7",0,0,0,0,100,100,255,0)
ShowMessageFace("vinum_fc1",4,0,2,53)
ShowMessage("\\n<Vinum>")
ShowMessage("Kuhuhu... your vitality was quite marvelous.")
ShowMessage("I had long forgotten such pleasure...♥")
ShowMessageFace("vinum_fc1",4,0,2,54)
ShowMessage("\\n<Vinum>")
ShowMessage("However... If there are still strong warriors in this world...")
ShowMessage("It may be a good idea to sample them all...♥")
ShowMessageFace("",0,0,2,55)
ShowMessage("While over my corpse, Vinum expresses a satisfied smile.")
ShowMessage("And so, I fall prey to the cruel succubus――")
221()
PictureClear(5)
PictureClear(6)
246(2)
ShowMessageFace("",0,0,2,56)
ShowMessage("......")
RunCommonEvent(3999)
0()
