﻿// EVENT 0564
Name "RC:ベルゼバブ"

ShowMessageFace("beelzebub_fc1",0,0,2,1)
ShowMessage("【バーバレラ】")
ShowMessage("あら、あなたも食事かしら……？")
ShowMessageFace("beelzebub_fc2",0,0,2,2)
ShowMessage("【ストリガ】")
ShowMessage("せっかくですし、一緒に食べていきませんか？")
ShowMessageFace("beelzebub_fc3",0,0,2,3)
ShowMessage("【メディア】")
ShowMessage("ここの野菜炒め、おいしいよ……")
If(0,2338,0)
 ShowMessageFace("",0,0,2,4)
 ShowMessage("今は、荷物を運んでいる最中だ。")
 ShowMessage("大聖堂に向かうことを優先しよう。")
 EndEventProcessing()
 0()
EndIf()
DefineLabel("メイン")
355("ex_choice_add(\"一緒に食事する（時間経過）\",1,")
655("\"v[1098] >= 5\",0)")
655("ex_choice_add(\"異変について相談する\",2,")
655("\"s[2341]\",0)")
655("ex_choice_add(\"後悔していることについて聞く\",3,")
655("\"s[2342]\",0)")
655("ex_choice_add(\"時を繰り返す道具について聞く\",4,")
655("\"s[2343]\",0)")
655("ex_choice_add(\"ピザを注文したか聞く\",5,")
655("\"s[2345]\",0)")
355("ex_choice_add(\"謎のマキナについて聞く\",6,")
655("\"s[2365]\",0)")
655("ex_choice_add(\"作戦に必要な品について聞く\",7,")
655("\"s[2364]\",0)")
655("ex_choice_add(\"お茶会に誘う\",8,")
655("\"s[2378]\",0)")
655("ex_choice_add(\"立ち去る\",10)")
355("ex_choice_show(0,11,[0,0])")
If(1,9,0,1,0)
 221()
 205(26,bytes(0x04,0x08,0x6f,0x3a,0x13,0x52,0x50,0x47,0x3a,0x3a,0x4d,0x6f,0x76,0x65,0x52,0x6f,0x75,0x74,0x65,0x09,0x3a,0x0c,0x40,0x72,0x65,0x70,0x65,0x61,0x74,0x46,0x3a,0x0f,0x40,0x73,0x6b,0x69,0x70,0x70,0x61,0x62,0x6c,0x65,0x46,0x3a,0x0a,0x40,0x77,0x61,0x69,0x74,0x54,0x3a,0x0a,0x40,0x6c,0x69,0x73,0x74,0x5b,0x07,0x6f,0x3a,0x15,0x52,0x50,0x47,0x3a,0x3a,0x4d,0x6f,0x76,0x65,0x43,0x6f,0x6d,0x6d,0x61,0x6e,0x64,0x07,0x3a,0x0a,0x40,0x63,0x6f,0x64,0x65,0x69,0x15,0x3a,0x10,0x40,0x70,0x61,0x72,0x61,0x6d,0x65,0x74,0x65,0x72,0x73,0x5b,0x00,0x6f,0x3b,0x0a,0x07,0x3b,0x0b,0x69,0x00,0x3b,0x0c,0x5b,0x00))
 205(28,bytes(0x04,0x08,0x6f,0x3a,0x13,0x52,0x50,0x47,0x3a,0x3a,0x4d,0x6f,0x76,0x65,0x52,0x6f,0x75,0x74,0x65,0x09,0x3a,0x0c,0x40,0x72,0x65,0x70,0x65,0x61,0x74,0x46,0x3a,0x0f,0x40,0x73,0x6b,0x69,0x70,0x70,0x61,0x62,0x6c,0x65,0x46,0x3a,0x0a,0x40,0x77,0x61,0x69,0x74,0x54,0x3a,0x0a,0x40,0x6c,0x69,0x73,0x74,0x5b,0x07,0x6f,0x3a,0x15,0x52,0x50,0x47,0x3a,0x3a,0x4d,0x6f,0x76,0x65,0x43,0x6f,0x6d,0x6d,0x61,0x6e,0x64,0x07,0x3a,0x0a,0x40,0x63,0x6f,0x64,0x65,0x69,0x15,0x3a,0x10,0x40,0x70,0x61,0x72,0x61,0x6d,0x65,0x74,0x65,0x72,0x73,0x5b,0x00,0x6f,0x3b,0x0a,0x07,0x3b,0x0b,0x69,0x00,0x3b,0x0c,0x5b,0x00))
 205(29,bytes(0x04,0x08,0x6f,0x3a,0x13,0x52,0x50,0x47,0x3a,0x3a,0x4d,0x6f,0x76,0x65,0x52,0x6f,0x75,0x74,0x65,0x09,0x3a,0x0c,0x40,0x72,0x65,0x70,0x65,0x61,0x74,0x46,0x3a,0x0f,0x40,0x73,0x6b,0x69,0x70,0x70,0x61,0x62,0x6c,0x65,0x46,0x3a,0x0a,0x40,0x77,0x61,0x69,0x74,0x54,0x3a,0x0a,0x40,0x6c,0x69,0x73,0x74,0x5b,0x07,0x6f,0x3a,0x15,0x52,0x50,0x47,0x3a,0x3a,0x4d,0x6f,0x76,0x65,0x43,0x6f,0x6d,0x6d,0x61,0x6e,0x64,0x07,0x3a,0x0a,0x40,0x63,0x6f,0x64,0x65,0x69,0x15,0x3a,0x10,0x40,0x70,0x61,0x72,0x61,0x6d,0x65,0x74,0x65,0x72,0x73,0x5b,0x00,0x6f,0x3b,0x0a,0x07,0x3b,0x0b,0x69,0x00,0x3b,0x0c,0x5b,0x00))
 TeleportPlayer(0,78,46,22,8,2)
 222()
 ShowMessageFace("beelzebub_fc1",0,0,2,5)
 ShowMessage("【バーバレラ】")
 ShowMessage("それにしても、人間って偏食よね。")
 ShowMessage("私達は肉でも草木でも紙でも紐でもなんでも食べるわ。")
 ShowMessageFace("beelzebub_fc2",0,0,2,6)
 ShowMessage("【ストリガ】")
 ShowMessage("仲間を共食いすることもあります……")
 ShowMessage("私達三人は仲が良いので、食い合うことはしませんが。")
 ShowMessageFace("beelzebub_fc3",0,0,2,7)
 ShowMessage("【メディア】")
 ShowMessage("……えっ、そうなの？")
 ShowMessageFace("beelzebub_fc1",2,0,2,8)
 ShowMessage("【バーバレラ】")
 ShowMessage("……えっ？")
 ShowMessageFace("beelzebub_fc2",2,0,2,9)
 ShowMessage("【ストリガ】")
 ShowMessage("……えっ？")
 ShowMessageFace("ruka_fc1",0,0,2,10)
 ShowMessage("【ルカ】")
 ShowMessage("……………………")
 ShowMessageFace("",0,0,2,11)
 ShowMessage("ベルゼバブ達と一緒に食事をした……")
 If(1,1099,0,4,0)
  RunCommonEvent(5797)
  EndEventProcessing()
  0()
 EndIf()
 RunCommonEvent(540)
 EndEventProcessing()
 0()
EndIf()
If(1,9,0,2,0)
 ShowMessageFace("",0,0,2,12)
 ShowMessage("ルカは、異変について相談した……")
 ShowMessageFace("beelzebub_fc1",2,0,2,13)
 ShowMessage("【バーバレラ】")
 ShowMessage("何、それ……")
 ShowMessage("同じ時間を繰り返すなんて、怖っ……")
 ShowMessageFace("beelzebub_fc2",2,0,2,14)
 ShowMessage("【ストリガ】")
 ShowMessage("あなたはいつも、奇怪な話ばかり持ってきますね……")
 ShowMessageFace("beelzebub_fc3",0,0,2,15)
 ShowMessage("【メディア】")
 ShowMessage("伝染ったらイヤだから、近寄らないで……")
 ShowMessageFace("",0,0,2,16)
 ShowMessage("ベルゼバブ達は頼れそうにない……")
 JumpToLabel("メイン")
 0()
EndIf()
If(1,9,0,3,0)
 ShowMessageFace("beelzebub_fc1",0,0,2,17)
 ShowMessage("【バーバレラ】")
 ShowMessage("あの船にずっと閉じ込められて、散々な目に合ったけど……")
 ShowMessage("後悔とは少し違うわね。")
 ShowMessageFace("beelzebub_fc3",0,0,2,18)
 ShowMessage("【メディア】")
 ShowMessage("これから、目一杯遊び回りたいのに……")
 ShowMessage("時間を戻している暇なんてないわ。")
 ShowMessageFace("beelzebub_fc2",0,0,2,19)
 ShowMessage("【ストリガ】")
 ShowMessage("そういうわけで、私達に心当たりはありません。")
 ShowMessage("他の者を当たって下さい……")
 ShowMessageFace("",0,0,2,20)
 ShowMessage("有益な情報は得られなかった……")
 JumpToLabel("メイン")
 0()
EndIf()
If(1,9,0,4,0)
 If(1,1102,0,4,2)
  ShowMessageFace("beelzebub_fc1",2,0,2,21)
  ShowMessage("【バーバレラ】")
  ShowMessage("時を繰り返すアイテム……？")
  ShowMessage("そんなの、知らないわ。")
  ShowMessageFace("beelzebub_fc2",2,0,2,22)
  ShowMessage("【ストリガ】")
  ShowMessage("私達は、あの隔絶された船で長年生きてきたのです。")
  ShowMessage("同じ時を繰り返すなんて、もう沢山なのですよ……")
  ShowMessageFace("beelzebub_fc3",0,0,2,23)
  ShowMessage("【メディア】")
  ShowMessage("変化のない毎日は、もううんざり。")
  ShowMessage("今の方が、ずっと楽しいわ……")
  ShowMessageFace("",0,0,2,24)
  ShowMessage("有益な情報は得られなかった……")
  JumpToLabel("メイン")
  0()
 EndIf()
 If(1,1102,0,5,0)
  ShowMessageFace("beelzebub_fc1",2,0,2,25)
  ShowMessage("【バーバレラ】")
  ShowMessage("えっ？　私達が、時戻しの像を持ってるって？")
  ShowMessage("そんなおぞましいモノ、心当たりは――")
  ShowMessageFace("beelzebub_fc2",2,0,2,26)
  ShowMessage("【ストリガ】")
  ShowMessage("もしかして、あれではないですか？")
  ShowMessage("あの不気味な顔をした像ですよ……")
  ShowMessageFace("beelzebub_fc3",0,0,2,27)
  ShowMessage("【メディア】")
  ShowMessage("不気味？　かわいいのに……")
  ShowMessageFace("beelzebub_fc1",0,0,2,28)
  ShowMessage("【バーバレラ】")
  ShowMessage("その品なら、あの船から漁った収穫物の中に……")
  ShowMessage("ほら、この像じゃないかしら？")
  ShowMessageFace("",0,0,2,29)
  ShowMessage("ストリガは、奇妙な像を取り出した！")
  ShowMessageFace("ruka_fc1",0,0,2,30)
  ShowMessage("【ルカ】")
  ShowMessage("これが……時戻しの像……")
  ShowMessageFace("beelzebub_fc1",2,0,2,31)
  ShowMessage("【バーバレラ】")
  ShowMessage("そんな不気味な品、手元に置きたくはないわ。")
  ShowMessage("遠慮無く持っていって。")
  ShowMessageFace("beelzebub_fc3",0,0,2,32)
  ShowMessage("【メディア】")
  ShowMessage("不気味？　かわいいのに……")
  ChangeVariable(1102,1102,0,0,6)
  249(bytes(0x04,0x08,0x6f,0x3a,0x0c,0x52,0x50,0x47,0x3a,0x3a,0x4d,0x45,0x08,0x3a,0x0a,0x40,0x6e,0x61,0x6d,0x65,0x49,0x22,0x11,0x6d,0x6f,0x6e,0x5f,0x66,0x61,0x6e,0x66,0x61,0x6c,0x65,0x33,0x06,0x3a,0x06,0x45,0x54,0x3a,0x0b,0x40,0x70,0x69,0x74,0x63,0x68,0x69,0x69,0x3a,0x0c,0x40,0x76,0x6f,0x6c,0x75,0x6d,0x65,0x69,0x69))
  ShowMessageFace("",0,0,2,33)
  ShowMessage("時戻しの像を譲り受けた！")
  Wait(60)
  If(1,1103,0,0,0)
   ShowMessageFace("ruka_fc1",0,0,2,34)
   ShowMessage("【ルカ】")
   ShowMessage("ようやく、問題のアイテムを手に入れたけど……")
   ShowMessage("これを、どうしたものやら。")
   ShowMessageFace("",0,0,2,35)
   ShowMessage("元凶の品を見付けたところで、僕には対処不能。")
   ShowMessage("うかつに破壊すれば、事態が悪化する事もありうる。")
   ShowMessageFace("",0,0,2,36)
   ShowMessage("誰か、頼れる人を探し出さなければならない。")
   ShowMessage("こういう異変に詳しい人は、いないだろうか――")
   EndEventProcessing()
   0()
  EndIf()
  If(1,1103,0,1,1)
   ShowMessageFace("ruka_fc1",0,0,2,37)
   ShowMessage("【ルカ】")
   ShowMessage("ようやく、問題のアイテムを手に入れたぞ。")
   ShowMessage("さっそく、プロメスティンに調べてもらおう！")
   EndEventProcessing()
   0()
  EndIf()
  EndEventProcessing()
  0()
 EndIf()
 If(1,1102,0,6,1)
  ShowMessageFace("beelzebub_fc1",2,0,2,38)
  ShowMessage("【バーバレラ】")
  ShowMessage("私達が持っていた秘宝が、")
  ShowMessage("そんな忌まわしい品だったなんて……")
  ShowMessageFace("beelzebub_fc2",2,0,2,39)
  ShowMessage("【ストリガ】")
  ShowMessage("あれは、完全かつ不可逆的にあなたへ譲りました。")
  ShowMessage("返すと言われても、もう受け取りませんよ……")
  ShowMessageFace("beelzebub_fc3",0,0,2,40)
  ShowMessage("【メディア】")
  ShowMessage("ちょっと残念……")
  JumpToLabel("メイン")
  0()
 EndIf()
 0()
EndIf()
If(1,9,0,5,0)
 ShowMessageFace("beelzebub_fc1",2,0,2,41)
 ShowMessage("【バーバレラ】")
 ShowMessage("何、それ……")
 ShowMessage("頼んだ食べ物が届くなんて、なんだか怖っ……")
 ShowMessageFace("beelzebub_fc2",2,0,2,42)
 ShowMessage("【ストリガ】")
 ShowMessage("知らない間に、奇怪なシステムが構築されていますね。")
 ShowMessage("今の世の中にはついていけません……")
 ShowMessageFace("beelzebub_fc3",0,0,2,43)
 ShowMessage("【メディア】")
 ShowMessage("それじゃ……さっそく、お寿司注文してみる？")
 ShowMessageFace("",0,0,2,44)
 ShowMessage("ピザを頼んだのはベルゼバブ達ではないようだ……")
 JumpToLabel("メイン")
 0()
EndIf()
If(1,9,0,6,0)
 ShowMessageFace("beelzebub_fc1",2,0,2,45)
 ShowMessage("【バーバレラ】")
 ShowMessage("マキナ……知らないわね。")
 ShowMessageFace("beelzebub_fc2",2,0,2,46)
 ShowMessage("【ストリガ】")
 ShowMessage("私達は、あまりマキナを好まないのです。")
 ShowMessage("気味が悪いではないですか……")
 ShowMessageFace("beelzebub_fc3",0,0,2,47)
 ShowMessage("【メディア】")
 ShowMessage("私は嫌いじゃないけど……")
 ShowMessage("目覚まし時計とか、便利だし。")
 ShowMessageFace("",0,0,2,48)
 ShowMessage("有益な情報は得られなかった……")
 JumpToLabel("メイン")
 0()
EndIf()
If(1,9,0,7,0)
 ShowMessageFace("beelzebub_fc1",2,0,2,49)
 ShowMessage("【バーバレラ】")
 ShowMessage("財宝秘宝の類は、いろいろ持ち出したんだけど……")
 ShowMessage("知っての通り、まだまだ未整理なのよ。")
 ShowMessageFace("beelzebub_fc2",2,0,2,50)
 ShowMessage("【ストリガ】")
 ShowMessage("海賊女王が集めた秘宝……")
 ShowMessage("他にも、禍々しい品があるのかもしれませんね。")
 ShowMessageFace("beelzebub_fc3",0,0,2,51)
 ShowMessage("【メディア】")
 ShowMessage("だから、うかつに貸し出せないよ。")
 ShowMessage("トラブルが起きたら困るし……")
 ShowMessageFace("",0,0,2,52)
 ShowMessage("有益なアイテムは得られなかった……")
 JumpToLabel("メイン")
 0()
EndIf()
If(1,9,0,8,0)
 ShowMessageFace("beelzebub_fc1",2,0,2,53)
 ShowMessage("【バーバレラ】")
 ShowMessage("イヤよ、関わりたくないわ……")
 ShowMessageFace("beelzebub_fc2",2,0,2,54)
 ShowMessage("【ストリガ】")
 ShowMessage("私達は、この世界で穏やかに暮らしたいのです。")
 ShowMessage("そのような災難は御免被ります……")
 ShowMessageFace("beelzebub_fc3",0,0,2,55)
 ShowMessage("【メディア】")
 ShowMessage("ちょっと行きたかった……かも。")
 ShowMessageFace("",0,0,2,56)
 ShowMessage("バーバレラはお茶会の誘いを断った……")
 JumpToLabel("メイン")
 0()
EndIf()
EndEventProcessing()
0()
