// EVENT 4051
Name "Sonya 1"

If(0,25,1)
 221()
 PictureClear(5)
 PictureClear(6)
 ShowMessageFace("",0,0,2,0)
 ShowMessage("......")
 242(2)
 Wait(120)
 241(bytes(0x04,0x08,0x6f,0x3a,0x0d,0x52,0x50,0x47,0x3a,0x3a,0x42,0x47,0x4d,0x08,0x3a,0x0a,0x40,0x6e,0x61,0x6d,0x65,0x49,0x22,0x0c,0x63,0x61,0x73,0x74,0x6c,0x65,0x36,0x06,0x3a,0x06,0x45,0x54,0x3a,0x0c,0x40,0x76,0x6f,0x6c,0x75,0x6d,0x65,0x69,0x69,0x3a,0x0b,0x40,0x70,0x69,0x74,0x63,0x68,0x69,0x69))
 EndEventProcessing()
 0()
EndIf()
PictureDisplay(5,"80_sonia_m1_st08",0,0,0,0,100,100,255,0)
ShowMessageFace("sonia_fc1",7,0,2,1)
ShowMessage("\\n<Sonya>Hey, Luka... Would you like me to train you in a special technique?")
ShowMessageFace("",0,0,2,2)
ShowMessage("\\n<Luka>That sounds great, but what's the technique?")
ShowMessageFace("sonia_fc1",7,0,2,3)
ShowMessage("\\n<Sonya>Well, it's a bit of this and that... Please come to my room and I'll show you.")
ShowMessageFace("",0,0,2,4)
ShowMessage("\\n<Luka>Oh... okay.")
ShowMessageFace("",0,0,2,5)
ShowMessage("Puzzled, I follow Sonya to her room.")
221()
PictureDisplay(1,"bg195",0,0,0,0,100,100,255,0)
PictureDisplay(5,"ev_sonia_ha01",0,0,0,0,100,100,255,0)
222()
241(bytes(0x04,0x08,0x6f,0x3a,0x0d,0x52,0x50,0x47,0x3a,0x3a,0x42,0x47,0x4d,0x08,0x3a,0x0a,0x40,0x6e,0x61,0x6d,0x65,0x49,0x22,0x09,0x65,0x72,0x6f,0x31,0x06,0x3a,0x06,0x45,0x54,0x3a,0x0c,0x40,0x76,0x6f,0x6c,0x75,0x6d,0x65,0x69,0x69,0x3a,0x0b,0x40,0x70,0x69,0x74,0x63,0x68,0x69,0x69))
ShowMessageFace("",0,0,2,6)
ShowMessage("\\n<Luka>So, what were you saying-- whoa!")
ShowMessageFace("sonia_fc2",0,0,2,7)
ShowMessage("\\n<Sonya>To begin, we'll have to take your clothes off!")
ShowMessageFace("",0,0,2,8)
ShowMessage("Sonya suddenly pushes me down and strips me naked for some reason. Her face is pointed right between my legs, staring...")
ShowMessageFace("",0,0,2,9)
ShowMessage("Or she would be, if her eyes weren't pinched shut.")
ShowMessageFace("sonia_fc2",2,0,2,10)
ShowMessage("\\n<Sonya>I can't go back, now...\nI'm going to open my eyes now, all right?")
ShowMessageFace("",0,0,2,11)
ShowMessage("\\n<Luka>I-it's okay... go ahead...")
PictureDisplay(5,"ev_sonia_ha02",0,0,0,0,100,100,255,0)
ShowMessageFace("sonia_fc2",2,0,2,12)
ShowMessage("\\n<Sonya>...")
ShowMessageFace("",0,0,2,13)
ShowMessage("Sonya shamefully opens her eyes wide, seeing my penis for the first time.")
ShowMessageFace("sonia_fc1",1,0,2,14)
ShowMessage("\\n<Sonya>I-I see it... It's kind of...")
ShowMessageFace("",0,0,2,15)
ShowMessage("Sonya stares at my cock while blushing, her face red. I'm too embarrassed to say anything else.")
ShowMessageFace("sonia_fc2",2,0,2,16)
ShowMessage("\\n<Sonya>I see... So it's covered in skin after all...")
ShowMessageFace("",0,0,2,17)
ShowMessage("Muttering to herself, Sonya inches her nose closer.")
ShowMessageFace("sonia_fc2",2,0,2,18)
ShowMessage("\\n<Sonya>Ugh, I can already smell it... Do you ever wash yourself down here? Geez...")
ShowMessageFace("",0,0,2,19)
ShowMessage("\\n<Luka>W-What are you talking about? Let's just stop here...")
ShowMessageFace("sonia_fc1",7,0,2,20)
ShowMessage("\\n<Sonya>Absolutely not. I'll show you that I can do this too... Okay, I'm putting it in!")
ShowMessageFace("",0,0,2,21)
ShowMessage("\\n<Luka>Putting what... in where?")
ShowMessageFace("",0,0,2,22)
ShowMessage("Sonya lifts her nose away from my tip and sticks out her tongue, hovering it over my penis.")
PictureDisplay(5,"ev_sonia_ha03",0,0,0,0,100,100,255,0)
ShowMessageFace("sonia_fc2",2,0,2,23)
ShowMessage("\\n<Sonya>I... Ahhh...")
ShowMessageFace("",0,0,2,24)
ShowMessage("The tip of her tongue creeps around the edge of my foreskin. Rather than licking me, it's more like a brief moment of reserved contact.")
ShowMessageFace("sonia_fc2",2,0,2,25)
ShowMessage("\\n<Sonya>Mmmmn... *lick*")
ShowMessageFace("",0,0,2,26)
ShowMessage("Still acting timidly, her tongue swirls around the tip, kissing my urethra just under my foreskin.")
ShowMessageFace("",0,0,2,27)
ShowMessage("She watches my face, observing my reactions as she moves her tongue around.")
ShowMessageFace("",0,0,2,28)
ShowMessage("\\n<Luka>Oh, Auu...")
ShowMessageFace("",0,0,2,29)
ShowMessage("The tip of her tongue slides under the skin and closely hugs the tip of my cock. It seems like she is trying to peel it off without using her hands at all...")
ShowMessageFace("",0,0,2,30)
ShowMessage("The feeling of her tender tongue as it rolls under the skin around the tip is overwhelming. The peculiar pleasure is irresistible.")
ShowMessageFace("sonia_fc2",2,0,2,31)
ShowMessage("\\n<Sonya>Ith salty...")
ShowMessageFace("sonia_fc2",2,0,2,32)
ShowMessage("\\n<Sonya>Other girls won't like you if it isn't clean... Don't worry... I guess I have to do it for you.")
ShowMessageFace("",0,0,2,33)
ShowMessage("As she complains, she lets her tongue run along under the head of my penis. She traces a circle with her tongue, spreading the skin.")
ShowMessageFace("sonia_fc1",2,0,2,34)
ShowMessage("\\n<Sonya>Hora! There's so much foreskin, Luka! Aren't you ashamed to have to get your childhood friend to peel your foreskin back?")
ShowMessageFace("",0,0,2,35)
ShowMessage("Her smooth tongue moves more aggressively as she gets annoyed at all my embarrassing skin.")
ShowMessageFace("sonia_fc1",2,0,2,36)
ShowMessage("\\n<Sonya>I'll make it look like a proper adult penis. Come on, hold still, why don't you!")
ShowMessageFace("",0,0,2,37)
ShowMessage("As she says that, her tongue peels back the last of the skin, her saliva lubricating it as the skin melts all the way back.")
PictureDisplay(5,"ev_sonia_ha04",0,0,0,0,100,100,255,0)
ShowMessageFace("sonia_fc1",2,0,2,38)
ShowMessage("\\n<Sonya>Well, it's messy pulling back a kid's dick. It's a tough battle with just my tongue...")
ShowMessageFace("",0,0,2,39)
ShowMessage("\\n<Luka>O-Oh... Auuugh!")
RunCommonEvent(104)
PictureDisplay(5,"ev_sonia_ha05",0,0,0,0,100,100,255,0)
RunCommonEvent(105)
ShowMessageFace("sonia_fc3",2,0,2,40)
ShowMessage("\\n<Sonya>Hya, don't get crazy! Hey, what are you doing coming!?")
ShowMessageFace("",0,0,2,41)
ShowMessage("With a scratchy feeling, the head finally erupts from the skin. At the same time, semen rises up the shaft and gushes out.")
PictureDisplay(5,"ev_sonia_ha06",0,0,0,0,100,100,255,0)
ShowMessageFace("",0,0,2,42)
ShowMessage("It flies through the air, dirtying Sonya's virgin face.")
ShowMessageFace("sonia_fc1",5,0,2,43)
ShowMessage("\\n<Sonya>You came just from having your foreskin peeled back, and you got your gunk all over my face, too. You're the worst.")
ShowMessageFace("",0,0,2,44)
ShowMessage("Sonya mutters scornfully.")
ShowMessageFace("sonia_fc1",5,0,2,45)
ShowMessage("\\n<Sonya>Hey, you should apologize! Tell me you're sorry for your premature ejaculation!")
ShowMessageFace("",0,0,2,46)
ShowMessage("\\n<Luka>I-I'm sorry for coming on you...")
ShowMessageFace("",0,0,2,47)
ShowMessage("Trembling with humiliation, I offer an apology. I couldn't stay quiet seeing her face stained with cloudy liquid.")
ShowMessageFace("sonia_fc1",5,0,2,48)
ShowMessage("\\n<Sonya>You should train more so you don't spurt from just having it peeled back!")
ShowMessageFace("sonia_fc1",2,0,2,49)
ShowMessage("\\n<Sonya>Well, it would be difficult to just train it by yourself... Fufufu. So, I'll need to help you train more.")
ShowMessageFace("",0,0,2,50)
ShowMessage("Sonya lets out a hard laugh with a naughty look on her face.")
245(bytes(0x04,0x08,0x6f,0x3a,0x0d,0x52,0x50,0x47,0x3a,0x3a,0x42,0x47,0x53,0x08,0x3a,0x0a,0x40,0x6e,0x61,0x6d,0x65,0x49,0x22,0x10,0x6d,0x6f,0x6e,0x5f,0x68,0x76,0x6f,0x69,0x63,0x65,0x31,0x06,0x3a,0x06,0x45,0x54,0x3a,0x0c,0x40,0x76,0x6f,0x6c,0x75,0x6d,0x65,0x69,0x55,0x3a,0x0b,0x40,0x70,0x69,0x74,0x63,0x68,0x69,0x69))
PictureDisplay(5,"ev_sonia_ha07",0,0,0,0,100,100,255,0)
ShowMessageFace("sonia_fc1",1,0,2,51)
ShowMessage("\\n<Sonya>Mmmn, *lick*")
ShowMessageFace("",0,0,2,52)
ShowMessage("Sonya licks my freshly exposed glans, running her tongue over my sensitive area over and over again.")
ShowMessageFace("",0,0,2,53)
ShowMessage("\\n<Luka>Ah... Aahh...")
ShowMessageFace("sonia_fc1",2,0,2,54)
ShowMessage("\\n<Sonya>Mmmn, here? You came when I made you feel good under here?")
ShowMessageFace("",0,0,2,55)
ShowMessage("Sonya's tongue traces the underside of the head. My waist shudders in reaction to the sensation.")
ShowMessageFace("",0,0,2,56)
ShowMessage("\\n<Luka>Auu... S-Stop, it's too sensitive there...")
ShowMessageFace("sonia_fc1",2,0,2,57)
ShowMessage("\\n<Sonya>Stop your moaning. Well then, how about this spot?")
ShowMessageFace("",0,0,2,58)
ShowMessage("Sonya constricts the tip of the penis, her tongue crawling around.")
ShowMessageFace("",0,0,2,59)
ShowMessage("\\n<Luka>Auu.. Hnng!")
ShowMessageFace("sonia_fc1",2,0,2,60)
ShowMessage("\\n<Sonya>I'll have to put extra effort into training this spot. Otherwise, you'll never be able to last, will you?")
ShowMessageFace("",0,0,2,61)
ShowMessage("\\n<Luka>Huuu... um!")
ShowMessageFace("sonia_fc1",2,0,2,62)
ShowMessage("\\n<Sonya>What a lewd sound... you like it that much? Then let's get down to business...")
PictureDisplay(5,"ev_sonia_ha08",0,0,0,0,100,100,255,0)
ShowMessageFace("sonia_fc1",2,0,2,63)
ShowMessage("\\n<Sonya>Around and around and around...")
ShowMessageFace("",0,0,2,64)
ShowMessage("Sonya moves her tongue quickly, licking all around the head. I writhe in pleasure the whole time.")
ShowMessageFace("sonia_fc1",2,0,2,65)
ShowMessage("\\n<Sonya>Do you think my tongue technique is first-class? I practiced a lot! All I needed was an instruction book and some bananas...")
ShowMessageFace("sonia_fc1",2,0,2,66)
ShowMessage("\\n<Sonya>I'll let you come in my mouth like this... Let it all out, Luka. I'll swallow it.")
ShowMessageFace("",0,0,2,67)
ShowMessage("The movement of Sonya's tongue increases rapidly. She's licking the whole head, driving me into a corner of pleasure...")
ShowMessageFace("sonia_fc1",2,0,2,68)
ShowMessage("\\n<Sonya>Look... watch closely. Your dick is at home in your childhood friend's mouth!")
ShowMessageFace("",0,0,2,69)
ShowMessage("\\n<Luka>D-don't say that.... Ah!")
246(1)
RunCommonEvent(104)
PictureDisplay(5,"ev_sonia_ha09",0,0,0,0,100,100,255,0)
RunCommonEvent(105)
ShowMessageFace("",0,0,2,70)
ShowMessage("Semen squirts out, glancing off her tongue and shooting everywhere! Covered in the fresh semen, Sonya looks slightly disgusted.")
ShowMessageFace("",0,0,2,71)
ShowMessage("\\n<Luka>S-Sorry...")
ShowMessageFace("",0,0,2,72)
ShowMessage("Basking in the glory of her covered body, I apologize quickly to Sonya out of sheer habit.")
ShowMessageFace("sonia_fc1",5,0,2,73)
ShowMessage("\\n<Sonya>You're not sorry! Why didn't you come in my mouth, stupid penis!")
PictureDisplay(5,"ev_sonia_ha10",0,0,0,0,100,100,255,0)
ShowMessageFace("",0,0,2,74)
ShowMessage("Frustrated, Sonya catches my penis in her mouth while it's still ejaculating!")
ShowMessageFace("sonia_fc1",5,0,2,75)
ShowMessage("\\n<Sonya>Hey-Umph-there's-hmmm-so-muth...")
ShowMessageFace("",0,0,2,76)
ShowMessage("I don't know what she's saying, but she seems angry. The next moment she begins intensely sucking my cock!")
245(bytes(0x04,0x08,0x6f,0x3a,0x0d,0x52,0x50,0x47,0x3a,0x3a,0x42,0x47,0x53,0x08,0x3a,0x0a,0x40,0x6e,0x61,0x6d,0x65,0x49,0x22,0x10,0x6d,0x6f,0x6e,0x5f,0x68,0x76,0x6f,0x69,0x63,0x65,0x31,0x06,0x3a,0x06,0x45,0x54,0x3a,0x0c,0x40,0x76,0x6f,0x6c,0x75,0x6d,0x65,0x69,0x55,0x3a,0x0b,0x40,0x70,0x69,0x74,0x63,0x68,0x69,0x69))
PictureDisplay(5,"ev_sonia_ha11",0,0,0,0,100,100,255,0)
ShowMessageFace("sonia_fc1",5,0,2,77)
ShowMessage("\\n<Sonya>I'll-Hmpph-Show-Hmmph-You!")
ShowMessageFace("sonia_fc1",5,0,2,78)
ShowMessage("\\n<Sonya>I hope you appreciate me cleaning all this out! You're Hmph-hmph-hmph-welcome!")
ShowMessageFace("",0,0,2,79)
ShowMessage("\\n<Luka>Huh.. Ahahah!")
ShowMessageFace("",0,0,2,80)
ShowMessage("The overflowing semen is licked up, my glans lovingly licked clean during ejaculation.")
ShowMessageFace("",0,0,2,81)
ShowMessage("I'm so sensitive after coming that her assault inflicts intense pleasure. She sucks and stretches my penis as my legs shake.")
246(1)
PictureDisplay(5,"ev_sonia_ha12",0,0,0,0,100,100,255,0)
ShowMessageFace("sonia_fc1",2,0,2,82)
ShowMessage("\\n<Sonya>... Ahh, I drank it all.")
ShowMessageFace("",0,0,2,83)
ShowMessage("Sonya releases her mouth from my penis, displaying her handiwork with an open mouth. Her mouth is completely clean...")
PictureDisplay(5,"ev_sonia_ha13",0,0,0,0,100,100,255,0)
ShowMessageFace("sonia_fc1",2,0,2,84)
ShowMessage("\\n<Sonya>How about that? Did making your childhood friend drink your semen make you excited? Should I suck even more out?")
245(bytes(0x04,0x08,0x6f,0x3a,0x0d,0x52,0x50,0x47,0x3a,0x3a,0x42,0x47,0x53,0x08,0x3a,0x0a,0x40,0x6e,0x61,0x6d,0x65,0x49,0x22,0x10,0x6d,0x6f,0x6e,0x5f,0x68,0x76,0x6f,0x69,0x63,0x65,0x31,0x06,0x3a,0x06,0x45,0x54,0x3a,0x0c,0x40,0x76,0x6f,0x6c,0x75,0x6d,0x65,0x69,0x55,0x3a,0x0b,0x40,0x70,0x69,0x74,0x63,0x68,0x69,0x69))
PictureDisplay(5,"ev_sonia_ha14",0,0,0,0,100,100,255,0)
ShowMessageFace("sonia_fc1",2,0,2,85)
ShowMessage("\\n<Sonya>Well... Ahhh...")
ShowMessageFace("",0,0,2,86)
ShowMessage("Without waiting for me to reply, she sucks my penis back into her mouth. My childhood friend's now familiar mouth is sucking my cock...")
ShowMessageFace("",0,0,2,87)
ShowMessage("I can't even describe how immoral this is making me feel.")
ShowMessageFace("sonia_fc1",2,0,2,88)
ShowMessage("\\n<Sonya>Hora Hora, I will swallow it all♪\nHmhmhmhmm... I will drink it to the last drop♪")
ShowMessageFace("",0,0,2,89)
ShowMessage("Her warm, wet lips cover the outside of my cock, now hard as a rock. It looks determined to reach deep into her hot, sweet mouth.")
ShowMessageFace("sonia_fc1",2,0,2,90)
ShowMessage("\\n<Sonya>R-Ready... Please get ready to release all your semen! I'll suck it all out!")
245(bytes(0x04,0x08,0x6f,0x3a,0x0d,0x52,0x50,0x47,0x3a,0x3a,0x42,0x47,0x53,0x08,0x3a,0x0a,0x40,0x6e,0x61,0x6d,0x65,0x49,0x22,0x10,0x6d,0x6f,0x6e,0x5f,0x68,0x76,0x6f,0x69,0x63,0x65,0x32,0x06,0x3a,0x06,0x45,0x54,0x3a,0x0c,0x40,0x76,0x6f,0x6c,0x75,0x6d,0x65,0x69,0x55,0x3a,0x0b,0x40,0x70,0x69,0x74,0x63,0x68,0x69,0x69))
PictureDisplay(5,"ev_sonia_ha15",0,0,0,0,100,100,255,0)
ShowMessageFace("sonia_fc1",2,0,2,91)
ShowMessage("\\n<Sonya>Huhuhu... Umph *sluuurp* Hmph...")
ShowMessageFace("",0,0,2,92)
ShowMessage("Sonya moves her head up and down, mimicking the pleasure of a vagina with her mouth. Her lips moving up and down feel heavenly.")
ShowMessageFace("",0,0,2,93)
ShowMessage("Her saliva mixes with precum acting as a smooth lubricant. I begin to melt in pleasure as I involuntarily surrender to her mouth.")
ShowMessageFace("sonia_fc1",2,0,2,94)
ShowMessage("\\n<Sonya>Hm.... here... Huhumph-Hmph♪\nIf I tighten my mouth, will it feel even better?")
ShowMessageFace("",0,0,2,95)
ShowMessage("Sonya watches my reaction and wraps the tip of my penis with her lips. The close contact of them around my most sensitive area brings me closer to the edge...")
ShowMessageFace("",0,0,2,96)
ShowMessage("I involuntarily jerk my hips back, but she quickly takes my penis all the way back in. She looks up at me and smiles when she sees the worry on my face.")
ShowMessageFace("sonia_fc1",2,0,2,97)
ShowMessage("\\n<Sonya>It's useless to try to escape... Hmmgph... I can't let you get away now...")
ShowMessageFace("sonia_fc1",2,0,2,98)
ShowMessage("\\n<Sonya>Your weaknesses are exposed to me now... Here, I'll bring you closer with my tongue.. Ahh-hmmm-Hmpp...")
ShowMessageFace("",0,0,2,99)
ShowMessage("\\n<Luka>Ha... Ah...")
ShowMessageFace("sonia_fc1",2,0,2,100)
ShowMessage("\\n<Sonya>Do you want to be finished by my sucking? Come now so I can suck it all up...")
ShowMessageFace("",0,0,2,101)
ShowMessage("Just like she did when I came before, she begins sucking my dick like a vacuum.")
ShowMessageFace("",0,0,2,102)
ShowMessage("My penis trembles, responding to this stimulation like a tamed beast.")
ShowMessageFace("sonia_fc1",2,0,2,103)
ShowMessage("\\n<Sonya>Well then, I'll let you come now...♪ I hope you're ready for me to suck it all out...")
245(bytes(0x04,0x08,0x6f,0x3a,0x0d,0x52,0x50,0x47,0x3a,0x3a,0x42,0x47,0x53,0x08,0x3a,0x0a,0x40,0x6e,0x61,0x6d,0x65,0x49,0x22,0x10,0x6d,0x6f,0x6e,0x5f,0x68,0x76,0x6f,0x69,0x63,0x65,0x34,0x06,0x3a,0x06,0x45,0x54,0x3a,0x0c,0x40,0x76,0x6f,0x6c,0x75,0x6d,0x65,0x69,0x55,0x3a,0x0b,0x40,0x70,0x69,0x74,0x63,0x68,0x69,0x69))
PictureDisplay(5,"ev_sonia_ha16",0,0,0,0,100,100,255,0)
ShowMessageFace("sonia_fc1",2,0,2,104)
ShowMessage("\\n<Sonya>C-Come... Hmm-Hmph-Hmmmph!")
ShowMessageFace("",0,0,2,105)
ShowMessage("A vulgar sucking sound is made as she sucks and tightens her mouth and cheeks around my shaft. Her lips reach the base with a smacking sound.")
ShowMessageFace("sonia_fc1",2,0,2,106)
ShowMessage("\\n<Sonya>Hu-Hmpph♪ Hihihi Hmmpp...♪\nHah-hmmmph-Umph-Hihihi-Mmmmph! ♪")
ShowMessageFace("",0,0,2,107)
ShowMessage("\\n<Luka>W-ah... C-c-coming!")
246(1)
RunCommonEvent(104)
PictureDisplay(5,"ev_sonia_ha17",0,0,0,0,100,100,255,0)
RunCommonEvent(105)
ShowMessageFace("",0,0,2,108)
ShowMessage("Semen gushes out with great ferocity, but Sonya keeps it all in her mouth!")
ShowMessageFace("sonia_fc2",2,0,2,109)
ShowMessage("\\n<Sonya>...mmmn...MMMMNGGH!?")
ShowMessageFace("",0,0,2,110)
ShowMessage("Sonya chokes on the huge load. Semen squirts out of her nose as she makes expression I've never seen before with her face...")
PictureDisplay(5,"ev_sonia_ha18",0,0,0,0,100,100,255,0)
ShowMessageFace("sonia_fc1",5,0,2,111)
ShowMessage("\\n<Sonya>...")
ShowMessageFace("",0,0,2,112)
ShowMessage("With my penis still in her mouth, she looks up at me...")
ShowMessageFace("sonia_fc1",5,0,2,113)
ShowMessage("\\n<Sonya>Did I get it all? Are you sure you don't have any more left in there?")
ShowMessageFace("sonia_fc1",5,0,2,114)
ShowMessage("\\n<Sonya>Cooooooommmmmeeee onnnnnnn... Did I really? Really?")
ShowMessageFace("",0,0,2,115)
ShowMessage("Sonya moves her mouth up and down, mumbling to herself over the loud, slurping sounds. My penis is sensitive after ejaculating, and my hips shake in response to the continued sensation...")
PictureDisplay(5,"ev_sonia_ha19",0,0,0,0,100,100,255,0)
ShowMessageFace("sonia_fc1",5,0,2,116)
ShowMessage("\\n<Sonya>Mmn... *gulp*")
ShowMessageFace("",0,0,2,117)
ShowMessage("She collects the remaining of the semen with her tongue, drawing it into her mouth.")
ShowMessageFace("",0,0,2,118)
ShowMessage("\\n<Luka>...")
ShowMessageFace("",0,0,2,119)
ShowMessage("I watch her, dizzy from the experience.")
PictureDisplay(5,"ev_sonia_ha20",0,0,0,0,100,100,255,0)
ShowMessageFace("sonia_fc2",2,0,2,120)
ShowMessage("\\n<Sonya>My throat is kind of sore now...")
ShowMessageFace("",0,0,2,121)
ShowMessage("Afterwards, Sonya gently licks my glans...")
ShowMessageFace("sonia_fc1",0,0,2,122)
ShowMessage("\\n<Sonya>Ah... Mmm-chi!")
ShowMessageFace("",0,0,2,123)
ShowMessage("As a goodbye, she kisses the tip of my penis...")
PictureDisplay(5,"ev_sonia_ha21",0,0,0,0,100,100,255,0)
ShowMessageFace("sonia_fc1",0,0,2,124)
ShowMessage("\\n<Sonya>All done. Don't worry, this won't be our last special training session.")
ShowMessageFace("",0,0,2,125)
ShowMessage("\\n<Luka>...")
ShowMessageFace("",0,0,2,126)
ShowMessage("Left puzzled by my childhood friend's sudden change of personality, I go limp...")
221()
PictureClear(5)
ShowMessageFace("",0,0,2,127)
ShowMessage("......")
242(2)
Wait(120)
241(bytes(0x04,0x08,0x6f,0x3a,0x0d,0x52,0x50,0x47,0x3a,0x3a,0x42,0x47,0x4d,0x08,0x3a,0x0a,0x40,0x6e,0x61,0x6d,0x65,0x49,0x22,0x0c,0x63,0x61,0x73,0x74,0x6c,0x65,0x36,0x06,0x3a,0x06,0x45,0x54,0x3a,0x0c,0x40,0x76,0x6f,0x6c,0x75,0x6d,0x65,0x69,0x69,0x3a,0x0b,0x40,0x70,0x69,0x74,0x63,0x68,0x69,0x69))
0()
