﻿// EVENT 5761
Name "Lampas"

PictureDisplay(5,"80_lanpass_st01",0,0,0,0,100,100,0,0)
ShowMessageFace("",0,0,2,1)
ShowMessage("\\n<Luka>")
ShowMessage("P-please...")
ShowMessageFace("lanpass_fc1",0,0,2,2)
ShowMessage("\\n<Lampas>")
ShowMessage("Eh, you want to become my nourishment? Well then...♥")
ShowMessageFace("",0,0,2,3)
ShowMessage("Lampas' leaf-covered ivy extends, crawling on the ground, wrapping around me.")
ShowMessageFace("lanpass_fc1",0,0,2,4)
ShowMessage("\\n<Lampas>")
ShowMessage("This is what you wanted, right? Please cum a lot~♪")
ShowMessageFace("",0,0,2,5)
ShowMessage("\\n<Luka>")
ShowMessage("Ah, aaaau!!")
241(bytes(0x04,0x08,0x6f,0x3a,0x0d,0x52,0x50,0x47,0x3a,0x3a,0x42,0x47,0x4d,0x08,0x3a,0x0a,0x40,0x6e,0x61,0x6d,0x65,0x49,0x22,0x09,0x65,0x72,0x6f,0x31,0x06,0x3a,0x06,0x45,0x54,0x3a,0x0c,0x40,0x76,0x6f,0x6c,0x75,0x6d,0x65,0x69,0x69,0x3a,0x0b,0x40,0x70,0x69,0x74,0x63,0x68,0x69,0x69))
PictureDisplay(5,"ev_lanpass_h1",0,0,0,0,100,100,0,0)
PictureMove(5,null,0,0,0,0,100,100,255,0,30,true)
ShowMessageFace("",0,0,2,6)
ShowMessage("As my body is getting tangled in leaves and vines, her plump breasts get closer to my crotch...")
ShowMessageFace("lanpass_fc1",0,0,2,7)
ShowMessage("\\n<Lampas>")
ShowMessage("Your stamen, I'll put it between my breasts...♥")
ShowMessageFace("",0,0,2,8)
ShowMessage("\\n<Luka>")
ShowMessage("Hauuuu...!!!")
ShowMessageFace("",0,0,2,9)
ShowMessage("*Squeeze*... as my penis gets caught between her breasts, a soft pressure envelops it.")
ShowMessageFace("",0,0,2,10)
ShowMessage("The sweet touch was pleasant enough to almost knock me out.\nHowever, if I succumb to this, a dire fate awaits me...")
ShowMessageFace("",0,0,2,11)
ShowMessage("\\n<Luka>")
ShowMessage("Guh, let me go...!")
ShowMessageFace("lanpass_fc1",0,0,2,12)
ShowMessage("\\n<Lampas>")
ShowMessage("Ara... You're still resisting? Well then...")
PictureDisplay(5,"ev_lanpass_h2",0,0,0,0,100,100,255,0)
ShowMessageFace("",0,0,2,13)
ShowMessage("Lampas' lewd flower approaches my face, releasing a sweet fragrance and dripping honey.")
ShowMessageFace("",0,0,2,14)
ShowMessage("\\n<Luka>")
ShowMessage("Ah... Fuaaaaaa...")
ShowMessageFace("",0,0,2,15)
ShowMessage("As soon as I see it my head becomes fuzzy, my heart starts beating faster, the sweetness making all my strength fade...")
ShowMessageFace("lanpass_fc1",0,0,2,16)
ShowMessage("\\n<Lampas>")
ShowMessage("The honey and aroma are sweet aren't they? Breath and taste them a lot ♥")
245(bytes(0x04,0x08,0x6f,0x3a,0x0d,0x52,0x50,0x47,0x3a,0x3a,0x42,0x47,0x53,0x08,0x3a,0x0a,0x40,0x6e,0x61,0x6d,0x65,0x49,0x22,0x1e,0x6d,0x6f,0x6e,0x5f,0x68,0x73,0x65,0x61,0x6e,0x30,0x33,0x5f,0x69,0x6e,0x6e,0x65,0x72,0x77,0x6f,0x72,0x6b,0x73,0x5f,0x61,0x33,0x06,0x3a,0x06,0x45,0x54,0x3a,0x0c,0x40,0x76,0x6f,0x6c,0x75,0x6d,0x65,0x69,0x55,0x3a,0x0b,0x40,0x70,0x69,0x74,0x63,0x68,0x69,0x69))
PictureDisplay(5,"ev_lanpass_h3",0,0,0,0,100,100,255,0)
ShowMessageFace("",0,0,2,17)
ShowMessage("\\n<Luka>")
ShowMessage("Nnnn... Nnnnnnn~~!!")
ShowMessageFace("",0,0,2,18)
ShowMessage("The lewd flower closes around my mouth... Its sweet aroma wafts into my nose and its nectar fills my mouth.")
ShowMessageFace("",0,0,2,19)
ShowMessage("It's like the flower is giving me a very passionate kiss.")
ShowMessageFace("",0,0,2,20)
ShowMessage("\\n<Luka>")
ShowMessage("Ngh...Nnnnnn!")
ShowMessageFace("lanpass_fc1",0,0,2,21)
ShowMessage("\\n<Lampas>")
ShowMessage("Ahaha... It feels good doesn't it? Melt like this...♥")
ShowMessageFace("",0,0,2,22)
ShowMessage("A crazy feeling of ecstasy erodes my brain sapping every bit of strength I had left in my body...")
ShowMessageFace("",0,0,2,23)
ShowMessage("\\n<Luka>")
ShowMessage("Nnnn... Nnnnnn...")
ShowMessageFace("",0,0,2,24)
ShowMessage("As I immerse myself in this fascinating feeling and my body relaxes, Lampas squeezes and plays with my penis between her breasts.")
ShowMessageFace("lanpass_fc1",0,0,2,25)
ShowMessage("\\n<Lampas>")
ShowMessage("Hora, let it out...♥ Feel good and leak it out...♥")
ShowMessageFace("",0,0,2,26)
ShowMessage("\\n<Luka>")
ShowMessage("Nnnnnnh...")
ShowMessageFace("",0,0,2,27)
ShowMessage("The pleasure makes me feel as if I've ascended to heaven. My penis throbs as the soft breasts tighten around it...")
RunCommonEvent(104)
PictureDisplay(5,"ev_lanpass_h4",0,0,0,0,100,100,255,0)
RunCommonEvent(105)
ShowMessageFace("",0,0,2,28)
ShowMessage("\\n<Luka>")
ShowMessage("Nnnnn...")
ShowMessageFace("",0,0,2,29)
ShowMessage("I ejaculate in her soft valley, my semen overflowing from between her breasts...")
ShowMessageFace("lanpass_fc1",0,0,2,30)
ShowMessage("\\n<Lampas>")
ShowMessage("Ahaha, you let out a lot nutrients for me. Your semen is very delicious...♥")
ShowMessageFace("",0,0,2,31)
ShowMessage("\\n<Luka>")
ShowMessage("Auuuu...")
ShowMessageFace("",0,0,2,32)
ShowMessage("The sweet feeling of release makes my body relax, all the while, the nectar's sweet aroma eroding my brain...")
ShowMessageFace("lanpass_fc1",0,0,2,33)
ShowMessage("\\n<Lampas>")
ShowMessage("Hora, give me more. Spurt all your nutrients out until you're completely empty♥")
ShowMessageFace("",0,0,2,34)
ShowMessage("Lampas starts moving her breasts rubbing me softly in their valley.")
ShowMessageFace("",0,0,2,35)
ShowMessage("\\n<Luka>")
ShowMessage("Nnnn, nnnnn...")
ShowMessageFace("",0,0,2,36)
ShowMessage("The nectar erodes my mind and the last of my resistence is gone. I entrust myself to the pleasure Lampas is giving me and...")
RunCommonEvent(104)
PictureDisplay(5,"ev_lanpass_h5",0,0,0,0,100,100,255,0)
RunCommonEvent(105)
ShowMessageFace("",0,0,2,37)
ShowMessage("\\n<Luka>")
ShowMessage("Nnnn...")
ShowMessageFace("",0,0,2,38)
ShowMessage("Just like that I cum once more, dedicating my semen to Lampas' breasts.")
ShowMessageFace("",0,0,2,39)
ShowMessage("It felt like the greatest bliss and my mind erodes even more as I cum...")
ShowMessageFace("",0,0,2,40)
ShowMessage("\\n<Luka>")
ShowMessage("Ngh, nnn...")
ShowMessageFace("lanpass_fc1",0,0,2,41)
ShowMessage("\\n<Lampas>")
ShowMessage("Lots of nutrients... This should be enough to light up my lamp.")
ShowMessageFace("",0,0,2,42)
ShowMessage("\\n<Luka>")
ShowMessage("L-light up...?")
ShowMessageFace("lanpass_fc1",0,0,2,43)
ShowMessage("\\n<Lampas>")
ShowMessage("Yes... You and I will become one...forever...")
ShowMessageFace("",0,0,2,44)
ShowMessage("\\n<Luka>")
ShowMessage("O-one... Auuu...")
PictureDisplay(5,"ev_lanpass_h6",0,0,0,0,100,100,255,0)
ShowMessageFace("",0,0,2,45)
ShowMessage("Lampas' roots slowly grow longer and wrap themselves around me.")
ShowMessageFace("lanpass_fc1",0,0,2,46)
ShowMessage("\\n<Lampas>")
ShowMessage("Now, let us become one... I'll keep this beautiful light shining forever...")
ShowMessageFace("",0,0,2,47)
ShowMessage("\\n<Luka>")
ShowMessage("Auu... Ugh...")
PictureDisplay(5,"ev_lanpass_h7",0,0,0,0,100,100,255,0)
ShowMessageFace("",0,0,2,48)
ShowMessage("Lampas' leaves and her body itself wraps around me.")
ShowMessageFace("",0,0,2,49)
ShowMessage("It's as if her body is absorbing mine inside it...")
ShowMessageFace("lanpass_fc2",4,0,2,50)
ShowMessage("\\n<Lampas>")
ShowMessage("It's alright... There's nothing to be afraid of...")
ShowMessageFace("",0,0,2,51)
ShowMessage("\\n<Luka>")
ShowMessage("Haaa.... Auuuu...")
RunCommonEvent(104)
PictureDisplay(5,"ev_lanpass_h8",0,0,0,0,100,100,255,0)
RunCommonEvent(105)
ShowMessageFace("",0,0,2,52)
ShowMessage("As Lampas takes my body in I ejaculate many, many times, my semen overflowing from her cleavage...")
ShowMessageFace("lanpass_fc2",4,0,2,53)
ShowMessage("\\n<Lampas>")
ShowMessage("Drown in pleasure...forever...")
RunCommonEvent(104)
RunCommonEvent(105)
ShowMessageFace("",0,0,2,54)
ShowMessage("\\n<Luka>")
ShowMessage("ugh...aaah...")
ShowMessageFace("",0,0,2,55)
ShowMessage("Like this I offer my semen to Lampas many times, enjoying the pleasure of being one with her and her soothing words...")
ShowMessageFace("lanpass_fc2",4,0,2,56)
ShowMessage("\\n<Lampas>")
ShowMessage("Together...forever...")
ShowMessageFace("",0,0,2,57)
ShowMessage("\\n<Luka>")
ShowMessage(".........")
ShowMessageFace("",0,0,2,58)
ShowMessage("At the end of this exquisite pleasure, my consciousness fades and...")
246(2)
221()
Wait(120)
PictureDisplay(5,"iv_lamp",0,0,0,0,100,100,255,0)
222()
ShowMessageFace("",0,0,2,59)
ShowMessage("Her lamp shines brightly as if wanting to illuminate darkness...")
Wait(60)
221()
211(1)
PictureClear(5)
PictureClear(6)
ShowMessageFace("",0,0,2,60)
ShowMessage("・・・・・・・・")
RunCommonEvent(3999)
0()
