// EVENT 5022
Name "Alra Priestess 2"

PictureDisplay(5,"80_a_emp_st02",0,0,0,0,100,100,0,0)
PictureMove(5,null,0,0,0,0,100,100,255,0,30,true)
ShowMessageFace("a_emp_fc1",1,0,2,1)
ShowMessage("\\n<Priestess>Do you want me to give you pleasure...?")
ShowMessageFace("",0,0,2,2)
ShowMessage("\\n<Luka>Y-yes please...")
ShowMessageFace("a_emp_fc1",1,0,2,3)
ShowMessage("\\n<Priestess>Then I'll have you keep me company while I relieve my stress. Though, I might accidentally wring you to death...")
ShowMessageFace("",0,0,2,4)
ShowMessage("\\n<Luka>N-no way...!")
241(bytes(0x04,0x08,0x6f,0x3a,0x0d,0x52,0x50,0x47,0x3a,0x3a,0x42,0x47,0x4d,0x08,0x3a,0x0a,0x40,0x6e,0x61,0x6d,0x65,0x49,0x22,0x09,0x65,0x72,0x6f,0x31,0x06,0x3a,0x06,0x45,0x54,0x3a,0x0c,0x40,0x76,0x6f,0x6c,0x75,0x6d,0x65,0x69,0x69,0x3a,0x0b,0x40,0x70,0x69,0x74,0x63,0x68,0x69,0x69))
250(bytes(0x04,0x08,0x6f,0x3a,0x0c,0x52,0x50,0x47,0x3a,0x3a,0x53,0x45,0x08,0x3a,0x0a,0x40,0x6e,0x61,0x6d,0x65,0x49,0x22,0x16,0x6d,0x6f,0x6e,0x5f,0x65,0x72,0x6f,0x5f,0x6d,0x61,0x6b,0x69,0x74,0x75,0x6b,0x69,0x33,0x06,0x3a,0x06,0x45,0x54,0x3a,0x0b,0x40,0x70,0x69,0x74,0x63,0x68,0x69,0x69,0x3a,0x0c,0x40,0x76,0x6f,0x6c,0x75,0x6d,0x65,0x69,0x69))
PictureDisplay(5,"ev_a_emp_hb1",0,0,0,0,100,100,255,0)
ShowMessageFace("",0,0,2,5)
ShowMessage("Her ivy slowly wraps around me, quickly taking off my clothes before tightly restraining me.")
ShowMessageFace("",0,0,2,6)
ShowMessage("\\n<Luka>S...stop...")
ShowMessageFace("a_emp_fc1",1,0,2,7)
ShowMessage("\\n<Priestess>It's too late to take back what you said...\nI'm going to toy with you to relieve my daily stress.")
PictureDisplay(5,"ev_a_emp_hb2",0,0,0,0,100,100,255,0)
ShowMessageFace("a_emp_fc1",1,0,2,8)
ShowMessage("\\n<Priestess>I'm going to squeeze out all your semen with this flower. Aren't you just pathetic? Ufufufu...")
ShowMessageFace("",0,0,2,9)
ShowMessage("\\n<Luka>Ah-aaaaah...")
ShowMessageFace("",0,0,2,10)
ShowMessage("Sticky mucus drips from the opening of the flower she shows me. It slowly starts to move closer to my groin.")
ShowMessageFace("",0,0,2,11)
ShowMessage("I stare helplessly at the hole in the middle of the flower, looming over me. That thing is going to suck in my penis...")
ShowMessageFace("a_emp_fc1",1,0,2,12)
ShowMessage("\\n<Priestess>")
ShowMessage("No man can last even ten seconds inside my flower. I wonder how long you will last?")
ShowMessageFace("a_emp_fc1",1,0,2,13)
ShowMessage("\\n<Priestess>Will a hero last longer than other men?\nOr come in an instant?")
ShowMessageFace("",0,0,2,14)
ShowMessage("\\n<Luka>S-stop...")
ShowMessageFace("",0,0,2,15)
ShowMessage("I tremble in fear as the flower slowly approaches the tip of my penis.")
245(bytes(0x04,0x08,0x6f,0x3a,0x0d,0x52,0x50,0x47,0x3a,0x3a,0x42,0x47,0x53,0x08,0x3a,0x0a,0x40,0x6e,0x61,0x6d,0x65,0x49,0x22,0x17,0x6d,0x6f,0x6e,0x5f,0x68,0x73,0x65,0x61,0x6e,0x31,0x35,0x5f,0x6b,0x79,0x75,0x69,0x6e,0x32,0x06,0x3a,0x06,0x45,0x54,0x3a,0x0c,0x40,0x76,0x6f,0x6c,0x75,0x6d,0x65,0x69,0x55,0x3a,0x0b,0x40,0x70,0x69,0x74,0x63,0x68,0x69,0x69))
PictureDisplay(5,"ev_a_emp_hb3",0,0,0,0,100,100,255,0)
ShowMessageFace("",0,0,2,16)
ShowMessage("Until finally, it sucks me in!")
ShowMessageFace("",0,0,2,17)
ShowMessage("\\n<Luka>Ah... Huaaa...")
ShowMessageFace("",0,0,2,18)
ShowMessage("The moment the flower devours my penis, I let out a sweet moan.")
ShowMessageFace("",0,0,2,19)
ShowMessage("The sticky honey of the flower covers my shaft as it sucks me inside, as the petals slowly tighten around me.")
ShowMessageFace("",0,0,2,20)
ShowMessage("As soon as the petals are tightly wrapped around me, the flower starts to suck.")
ShowMessageFace("",0,0,2,21)
ShowMessage("My head quickly goes white as the soft petals rub me in time with the powerful suction.")
ShowMessageFace("",0,0,2,22)
ShowMessage("\\n<Luka>Ha...aa...")
ShowMessageFace("a_emp_fc1",1,0,2,23)
ShowMessage("\\n<Priestess>Hehe, what's wrong?\nYou're drooling after only a couple seconds.")
ShowMessageFace("",0,0,2,24)
ShowMessage("My body starts to tremble.")
ShowMessageFace("",0,0,2,25)
ShowMessage("Laying at her feet, wrapped in ivy and flowers, my penis starts to throb as I let out a pleasure-filled sigh.")
RunCommonEvent(104)
PictureDisplay(5,"ev_a_emp_hb4",0,0,0,0,100,100,255,0)
RunCommonEvent(105)
ShowMessageFace("",0,0,2,26)
ShowMessage("In only a few seconds since my last orgasm, I ejaculate again, shooting my seed right into the flower's sucking mouth.")
ShowMessageFace("",0,0,2,27)
ShowMessage("\\n<Luka>Haa...")
ShowMessageFace("a_emp_fc1",1,0,2,28)
ShowMessage("\\n<Priestess>Ara...? Already came?")
ShowMessageFace("a_emp_fc1",1,0,2,29)
ShowMessage("\\n<Priestess>You only lasted five seconds...\nNot even worthy of being called a man.")
ShowMessageFace("a_emp_fc1",1,0,2,30)
ShowMessage("\\n<Priestess>And you dared to call yourself a hero? Hah!")
ShowMessageFace("",0,0,2,31)
ShowMessage("Priestess looks down at me by her feet and laughs.")
ShowMessageFace("a_emp_fc1",1,0,2,32)
ShowMessage("\\n<Priestess>You... Could it be you like this?\nYou really just wanted to lay by my feet and have me suck your semen out?")
ShowMessageFace("",0,0,2,33)
ShowMessage("\\n<Luka>N...no...!")
ShowMessageFace("a_emp_fc1",1,0,2,34)
ShowMessage("\\n<Priestess>Hehe, don't lie to me.\nLook, if I do this...")
ShowMessageFace("",0,0,2,35)
ShowMessage("Responding to her voice, the flower petals rub against my penis.")
ShowMessageFace("",0,0,2,36)
ShowMessage("It's like each soft petal is a separate hand, nimbly massaging me.")
ShowMessageFace("",0,0,2,37)
ShowMessage("\\n<Luka>Ah... Ahh...")
ShowMessageFace("a_emp_fc1",1,0,2,38)
ShowMessage("\\n<Priestess>See, you're so happy.")
ShowMessageFace("a_emp_fc1",1,0,2,39)
ShowMessage("\\n<Priestess>You love having your penis played with like this, see? In actuality, you wanted to be forced to the ground and violated, didn't you?")
ShowMessageFace("a_emp_fc1",1,0,2,40)
ShowMessage("\\n<Priestess>You can't hide your desires in front of me.")
ShowMessageFace("",0,0,2,41)
ShowMessage("\\n<Luka>Ah, aaaahhh...!!")
ShowMessageFace("",0,0,2,42)
ShowMessage("As her voice taunts and teases me, the flower continues to do the same.")
ShowMessageFace("",0,0,2,43)
ShowMessage("Even more sensitive after my last orgasm, the gentle petals stroking me have me on the edge of another orgasm.")
ShowMessageFace("",0,0,2,44)
ShowMessage("Before I knew it, all the power in my body fades.\nI entrust myself to the sweet pleasure thinking of nothing else than ejaculating like this...")
ShowMessageFace("a_emp_fc1",1,0,2,45)
ShowMessage("\\n<Priestess>Come on... Embrace your own desire, and dedicate your semen to me.")
ShowMessageFace("a_emp_fc1",1,0,2,46)
ShowMessage("\\n<Priestess>You want to come, don't you?\nGive in... I'll be glad to violate you like you so want.")
ShowMessageFace("",0,0,2,47)
ShowMessage("\\n<Luka>Unnngh...")
ShowMessageFace("",0,0,2,48)
ShowMessage("The flower violently sucking on me suddenly shrinks, tightening the soft petals against me.")
ShowMessageFace("",0,0,2,49)
ShowMessage("Surprised at the sudden increase in stimulation, my lower body shakes as I'm instantly forced to an orgasm.")
ShowMessageFace("",0,0,2,50)
ShowMessage("\\n<Luka>Ah, aaaah...!")
RunCommonEvent(104)
RunCommonEvent(105)
ShowMessageFace("",0,0,2,51)
ShowMessage("Her horrible flower greedily sucks on my penis, swallowing every spurt of come as it shoots out.")
ShowMessageFace("a_emp_fc1",1,0,2,52)
ShowMessage("\\n<Priestess>Hehe, it felt good, didn't it?\nYour semen is my food...")
ShowMessageFace("a_emp_fc1",1,0,2,53)
ShowMessage("\\n<Priestess>But you gave it to me because you wanted to.")
ShowMessageFace("a_emp_fc1",1,0,2,54)
ShowMessage("\\n<Priestess>I'll violate you like you want...\nSo feed me your semen of your own will.")
ShowMessageFace("a_emp_fc1",1,0,2,55)
ShowMessage("\\n<Priestess>That's what you want to do, isn't it?")
ShowMessageFace("",0,0,2,56)
ShowMessage("\\n<Luka>Ahhhhhh...")
ShowMessageFace("",0,0,2,57)
ShowMessage("The flower greedily sucks on me as I lay here on the ground, melting in pleasure. The feeble resistance I had in my mind has already been broken by the back to back orgasms.")
ShowMessageFace("",0,0,2,58)
ShowMessage("Desiring the pleasure more than my own pride, I surrender my body and mind to Priestess.")
ShowMessageFace("",0,0,2,59)
ShowMessage("\\n<Luka>Suck on it...\nI want you to suck on it...")
ShowMessageFace("a_emp_fc1",1,0,2,60)
ShowMessage("\\n<Priestess>Hehe, so you admit it.")
ShowMessageFace("a_emp_fc1",1,0,2,61)
ShowMessage("\\n<Priestess>Very well, as you wish.\nI'll suck out all of your semen.")
ShowMessageFace("",0,0,2,62)
ShowMessage("\\n<Luka>Ah, aaaah...")
245(bytes(0x04,0x08,0x6f,0x3a,0x0d,0x52,0x50,0x47,0x3a,0x3a,0x42,0x47,0x53,0x08,0x3a,0x0a,0x40,0x6e,0x61,0x6d,0x65,0x49,0x22,0x17,0x6d,0x6f,0x6e,0x5f,0x68,0x73,0x65,0x61,0x6e,0x31,0x36,0x5f,0x6b,0x79,0x75,0x69,0x6e,0x33,0x06,0x3a,0x06,0x45,0x54,0x3a,0x0c,0x40,0x76,0x6f,0x6c,0x75,0x6d,0x65,0x69,0x55,0x3a,0x0b,0x40,0x70,0x69,0x74,0x63,0x68,0x69,0x69))
ShowMessageFace("",0,0,2,63)
ShowMessage("She responds to me with a giggle.\nIn the next instant, the flower sucking on my penis starts to pump me at the same time.")
ShowMessageFace("",0,0,2,64)
ShowMessage("In and out, the quick movements combined with the suction are too much for me to take.")
RunCommonEvent(104)
RunCommonEvent(105)
ShowMessageFace("",0,0,2,65)
ShowMessage("\\n<Luka>Ah, aaah...")
ShowMessageFace("",0,0,2,66)
ShowMessage("With a happy sigh, I explode inside the flower again.")
ShowMessageFace("",0,0,2,67)
ShowMessage("Ecstasy wracking my body, I tremble as it continues to dutifully suck out the last drops of semen from my penis.")
ShowMessageFace("",0,0,2,68)
ShowMessage("Exposed to such intense pleasure, my body starts trembling. My semen is sucked out directly as it leaks from my penis.")
ShowMessageFace("a_emp_fc1",1,0,2,69)
ShowMessage("\\n<Priestess>Aren't you happy?\nJust like this, I can satisfy your hidden desire...")
ShowMessageFace("",0,0,2,70)
ShowMessage("\\n<Luka>Aaaaahhh!!")
ShowMessageFace("",0,0,2,71)
ShowMessage("The movements get even more intense, as I'm given no break after my last orgasm. Exhausted, it feels like if this keeps up my life may be in danger...")
ShowMessageFace("",0,0,2,72)
ShowMessage("\\n<Luka>Ahh... S...stop it...already...")
ShowMessageFace("a_emp_fc1",1,0,2,73)
ShowMessage("\\n<Priestess>What are you saying...?\nI'm going to do what you want until you die.")
ShowMessageFace("a_emp_fc1",1,0,2,74)
ShowMessage("\\n<Priestess>All I want to do is give you exactly what you want.")
ShowMessageFace("",0,0,2,75)
ShowMessage("\\n<Luka>N...no! Ahhh!")
RunCommonEvent(104)
RunCommonEvent(105)
ShowMessageFace("",0,0,2,76)
ShowMessage("Cutting my scream short, she forces me to another orgasm.\nI'm horrified at her words, but I'm too exhausted to fight back.")
ShowMessageFace("",0,0,2,77)
ShowMessage("Helpless at her feet, she's going to suck me dry...")
ShowMessageFace("a_emp_fc1",1,0,2,78)
ShowMessage("\\n<Priestess>...This is punishment for your betrayal.\nViolating you like you wanted, I'll steal your life away.")
ShowMessageFace("a_emp_fc1",1,0,2,79)
ShowMessage("\\n<Priestess>Now, come.\nI shall send you to heaven!")
ShowMessageFace("",0,0,2,80)
ShowMessage("\\n<Luka>Ahh... N...no! Ahh!")
RunCommonEvent(104)
RunCommonEvent(105)
ShowMessageFace("",0,0,2,81)
ShowMessage("Forced to another orgasm, my vision starts to slowly dim.")
ShowMessageFace("",0,0,2,82)
ShowMessage("I really am going to be sucked to death... The fear fills my mind, but I can't do anything...")
ShowMessageFace("",0,0,2,83)
ShowMessage("\\n<Luka>Ah... Haaa...")
ShowMessageFace("a_emp_fc1",1,0,2,84)
ShowMessage("\\n<Priestess>Hehe, you're completely helpless.\nYou called yourself a hero... But you're nothing more than a pitiful boy.")
ShowMessageFace("a_emp_fc1",1,0,2,85)
ShowMessage("\\n<Priestess>Now, give me the last of your semen and vanish.")
ShowMessageFace("",0,0,2,86)
ShowMessage("\\n<Luka>Haa... It feels good...\nMore... Suck more...")
RunCommonEvent(104)
RunCommonEvent(105)
ShowMessageFace("",0,0,2,87)
ShowMessage("Driven insane, I call out for the pleasure as I fade into blackness.")
221()
PictureClear(5)
PictureClear(6)
246(2)
ShowMessageFace("a_emp_fc1",1,0,2,88)
ShowMessage("\\n<Priestess>Fufu, did you really think I would squeeze you to death? Of course, I could if you really want to...")
ShowMessageFace("a_emp_fc1",1,0,2,89)
ShowMessage("\\n<Priestess>But if I did that I'd be driven back to Plansect Village. Considering the present circumstances, I can't do that...")
ShowMessageFace("",0,0,2,90)
ShowMessage("Somehow my life was barely spared...\nAs my consciousness fades, all I can think of is how much I regret my request.")
ShowMessageFace("",0,0,2,91)
ShowMessage("\\n<Luka>............")
ShowMessageFace("",0,0,2,92)
ShowMessage("......")
RunCommonEvent(3998)
0()
