﻿// EVENT 5794
Name "Rまりんちゃん"

If(0,443,0)
 PictureDisplay(5,"80_mob_mahousyouzyo_st01",0,0,0,0,100,100,255,0)
 0()
EndIf()
242(1)
250(bytes(0x04,0x08,0x6f,0x3a,0x0c,0x52,0x50,0x47,0x3a,0x3a,0x53,0x45,0x08,0x3a,0x0a,0x40,0x6e,0x61,0x6d,0x65,0x49,0x22,0x0a,0x7a,0x69,0x68,0x6f,0x75,0x06,0x3a,0x06,0x45,0x54,0x3a,0x0b,0x40,0x70,0x69,0x74,0x63,0x68,0x69,0x69,0x3a,0x0c,0x40,0x76,0x6f,0x6c,0x75,0x6d,0x65,0x69,0x55))
Wait(60)
ShowMessageFace("",0,0,2,1)
ShowMessage("その時――城内に、五時の鐘が鳴り響いた。")
241(bytes(0x04,0x08,0x6f,0x3a,0x0d,0x52,0x50,0x47,0x3a,0x3a,0x42,0x47,0x4d,0x08,0x3a,0x0a,0x40,0x6e,0x61,0x6d,0x65,0x49,0x22,0x09,0x65,0x72,0x6f,0x31,0x06,0x3a,0x06,0x45,0x54,0x3a,0x0c,0x40,0x76,0x6f,0x6c,0x75,0x6d,0x65,0x69,0x69,0x3a,0x0b,0x40,0x70,0x69,0x74,0x63,0x68,0x69,0x69))
ShowMessageFace("mob_mahousyouzyo_fc1",0,0,2,2)
ShowMessage("【マジカルまりんちゃん】")
ShowMessage("それじゃあ、そろそろ本格的に気張らししようかな。")
ShowMessage("エナジーも補給しなきゃね……☆")
ShowMessageFace("",0,0,2,3)
ShowMessage("【ルカ】")
ShowMessage("えっ！？　な、何を――")
ShowMessageFace("mob_mahousyouzyo_fc1",0,0,2,4)
ShowMessage("【マジカルまりんちゃん】")
ShowMessage("ミニマムファンタズムで、ちっちゃくなっちゃえ～☆")
250(bytes(0x04,0x08,0x6f,0x3a,0x0c,0x52,0x50,0x47,0x3a,0x3a,0x53,0x45,0x08,0x3a,0x0a,0x40,0x6e,0x61,0x6d,0x65,0x49,0x22,0x0a,0x44,0x6f,0x77,0x6e,0x33,0x06,0x3a,0x06,0x45,0x54,0x3a,0x0b,0x40,0x70,0x69,0x74,0x63,0x68,0x69,0x69,0x3a,0x0c,0x40,0x76,0x6f,0x6c,0x75,0x6d,0x65,0x69,0x55))
ShowMessageFace("",0,0,2,5)
ShowMessage("【ルカ】")
ShowMessage("あ……あぁぁっ！！")
ShowMessageFace("",0,0,2,6)
ShowMessage("縮小の魔術により、僕の体はたちまち小さくなってしまう。")
ShowMessage("そのまま、まりんちゃんの掌で抱え上げられ――")
PictureDisplay(5,"ev_mob_mahousyouzyo_hb1",0,0,0,0,100,100,255,0)
ShowMessageFace("mob_mahousyouzyo_fc1",0,0,2,7)
ShowMessage("【マジカルまりんちゃん】")
ShowMessage("あはっ、ちっちゃくなっちゃったね。")
ShowMessage("このまま、エナジーを吸い取ってあげる……☆")
ShowMessageFace("",0,0,2,8)
ShowMessage("【ルカ】")
ShowMessage("そ、そんな……やめてぇ……はぅぅっ！！")
245(bytes(0x04,0x08,0x6f,0x3a,0x0d,0x52,0x50,0x47,0x3a,0x3a,0x42,0x47,0x53,0x08,0x3a,0x0a,0x40,0x6e,0x61,0x6d,0x65,0x49,0x22,0x10,0x6d,0x6f,0x6e,0x5f,0x68,0x76,0x6f,0x69,0x63,0x65,0x32,0x06,0x3a,0x06,0x45,0x54,0x3a,0x0c,0x40,0x76,0x6f,0x6c,0x75,0x6d,0x65,0x69,0x55,0x3a,0x0b,0x40,0x70,0x69,0x74,0x63,0x68,0x69,0x69))
ShowMessageFace("",0,0,2,9)
ShowMessage("べろり……と、大きな舌が艶めかしく這う。")
ShowMessage("たちまち僕の体は、甘い唾液にまみれてしまった。")
ShowMessageFace("mob_mahousyouzyo_fc1",0,0,2,10)
ShowMessage("【マジカルまりんちゃん】")
ShowMessage("ほら、イっちゃってもいいよ☆")
ShowMessage("魔法少女は、精液から精気を吸えるんだから……")
ShowMessageFace("",0,0,2,11)
ShowMessage("【ルカ】")
ShowMessage("あ……あぅぅぅぅ……")
ShowMessageFace("",0,0,2,12)
ShowMessage("そのまま、舌先で巧みに股間をべろべろと舐め回され――")
RunCommonEvent(104)
RunCommonEvent(105)
ShowMessageFace("",0,0,2,13)
ShowMessage("執拗な股間舐めに耐えられず、あえなく射精してしまった。")
ShowMessage("溢れ出した精液も、たちまち舐め取られてしまう。")
ShowMessageFace("",0,0,2,14)
ShowMessage("【ルカ】")
ShowMessage("はぅぅぅ……")
ShowMessageFace("mob_mahousyouzyo_fc1",0,0,2,15)
ShowMessage("【マジカルまりんちゃん】")
ShowMessage("ほーら、もっともっと精液出してよ！")
ShowMessage("味がしなくなるまで舐め回してあげるからね～☆")
ShowMessageFace("",0,0,2,16)
ShowMessage("【ルカ】")
ShowMessage("そんな……あぁぁぁ……")
ShowMessageFace("",0,0,2,17)
ShowMessage("こうして僕は、延々とまりんちゃんに舐め尽くされた。")
ShowMessage("全身を唾液にまみれさせながら、何度も果て続けたのである――")
221()
PictureClear(5)
242(1)
246(1)
ShowMessageFace("",0,0,2,18)
ShowMessage("・・・・・・・・")
221()
Wait(120)
If(0,443,0)
 EndEventProcessing()
 0()
EndIf()
RunCommonEvent(541)
0()
