// EVENT 2298
Name "Seduction: Succubus Witch"

355("$game_troop.lose_event_id = 3298")
ChangeVariable(26,26,0,3,3,1,4)
ChangeVariable(26,26,4,0,10)
ShowMessageFace("witchs_fc1",3,0,2,1)
ShowMessage("\\n<Succubus Witch>")
ShowMessage("I've been backed into a corner...")
ShowMessage("If I can't win with magic, how about my breasts?")
355("battler_graphic_hide")
PictureDisplay(5,"ev_witchs_hd1",0,0,0,0,100,100,255,0)
ShowMessageFace("",0,0,2,2)
ShowMessage("The Succubus Witch exposes herself, catching Luka's penis between her breasts!")
ShowMessageFace("witchs_fc1",2,0,2,3)
ShowMessage("\\n<Succubus Witch>")
ShowMessage("I'll squeeze out your semen with my breasts.")
ShowMessage("Aren't they soft? Horahora...")
ChangeSwitch(98,98,0)
ChangeSwitch(96,96,0)
ShowChoices(strings("Struggle","Let her continue"),1)
IfPlayerPicksChoice(0,null)
 ShowMessageFace("",0,0,2,4)
 ShowMessage("Luka struggles, and breaks free!")
 RunCommonEvent(1999)
 EndEventProcessing()
 0()
IfPlayerPicksChoice(1,null)
 0()
404()
ShowMessageFace("witchs_fc1",2,0,2,5)
ShowMessage("\\n<Succubus Witch>")
ShowMessage("Now to squeeze it out with my breasts.")
ShowMessage("Cover my boobs with all your semen...♪")
ChangeVariable(26,26,3,0,2)
250(bytes(0x04,0x08,0x6f,0x3a,0x0c,0x52,0x50,0x47,0x3a,0x3a,0x53,0x45,0x08,0x3a,0x0a,0x40,0x6e,0x61,0x6d,0x65,0x49,0x22,0x12,0x6d,0x6f,0x6e,0x5f,0x65,0x72,0x6f,0x5f,0x6b,0x6f,0x6b,0x69,0x31,0x06,0x3a,0x06,0x45,0x54,0x3a,0x0b,0x40,0x70,0x69,0x74,0x63,0x68,0x69,0x69,0x3a,0x0c,0x40,0x76,0x6f,0x6c,0x75,0x6d,0x65,0x69,0x69))
311(0,1,1,1,26,true)
ShowMessageFace("",0,0,2,6)
ShowMessage("Luka's penis is squeezed between her breasts!")
ShowMessage("Bouncing them up and down, she attacks Luka's penis!\\D")
ShowMessage("Luka takes \\V[26] damage!")
ChangeVariable(27,27,0,3,3,1,2)
If(1,27,0,0,0)
 JumpToLabel("射精1")
 0()
EndIf()
ShowMessageFace("witchs_fc1",2,0,2,7)
ShowMessage("\\n<Succubus Witch>")
ShowMessage("Ufufu, isn't it nice?")
ShowMessage("I'll make it even more heavenly...♪")
250(bytes(0x04,0x08,0x6f,0x3a,0x0c,0x52,0x50,0x47,0x3a,0x3a,0x53,0x45,0x08,0x3a,0x0a,0x40,0x6e,0x61,0x6d,0x65,0x49,0x22,0x12,0x6d,0x6f,0x6e,0x5f,0x65,0x72,0x6f,0x5f,0x6b,0x6f,0x6b,0x69,0x31,0x06,0x3a,0x06,0x45,0x54,0x3a,0x0b,0x40,0x70,0x69,0x74,0x63,0x68,0x69,0x69,0x3a,0x0c,0x40,0x76,0x6f,0x6c,0x75,0x6d,0x65,0x69,0x69))
311(0,1,1,1,26,true)
ShowMessageFace("",0,0,2,8)
ShowMessage("Squeezing harder, the Succubus Witch presses Luka's penis between her breasts!")
ShowMessage("Luka's penis sinks into them!\\D")
ShowMessage("Luka takes \\V[26] damage!")
ChangeVariable(27,27,0,3,3,1,2)
If(1,27,0,0,0)
 JumpToLabel("射精1")
 0()
EndIf()
ShowMessageFace("witchs_fc1",2,0,2,9)
ShowMessage("\\n<Succubus Witch>")
ShowMessage("Ahaha, look at your face.")
ShowMessage("Does being squeezed by my boobs make you that happy?")
250(bytes(0x04,0x08,0x6f,0x3a,0x0c,0x52,0x50,0x47,0x3a,0x3a,0x53,0x45,0x08,0x3a,0x0a,0x40,0x6e,0x61,0x6d,0x65,0x49,0x22,0x12,0x6d,0x6f,0x6e,0x5f,0x65,0x72,0x6f,0x5f,0x6b,0x6f,0x6b,0x69,0x31,0x06,0x3a,0x06,0x45,0x54,0x3a,0x0b,0x40,0x70,0x69,0x74,0x63,0x68,0x69,0x69,0x3a,0x0c,0x40,0x76,0x6f,0x6c,0x75,0x6d,0x65,0x69,0x69))
311(0,1,1,1,26,true)
ShowMessageFace("",0,0,2,10)
ShowMessage("Buried in her warm valley, the pressure assaults Luka from every side!")
ShowMessage("The intense pressure fills him with pleasure!\\D")
ShowMessage("Luka takes \\V[26] damage!")
ChangeVariable(27,27,0,3,3,1,2)
If(1,27,0,0,0)
 JumpToLabel("射精1")
 0()
EndIf()
ShowMessageFace("witchs_fc1",2,0,2,11)
ShowMessage("\\n<Succubus Witch>")
ShowMessage("Ufufu, aren't you happy?")
ShowMessage("Shall I give you this pleasure forever?")
250(bytes(0x04,0x08,0x6f,0x3a,0x0c,0x52,0x50,0x47,0x3a,0x3a,0x53,0x45,0x08,0x3a,0x0a,0x40,0x6e,0x61,0x6d,0x65,0x49,0x22,0x12,0x6d,0x6f,0x6e,0x5f,0x65,0x72,0x6f,0x5f,0x6b,0x6f,0x6b,0x69,0x31,0x06,0x3a,0x06,0x45,0x54,0x3a,0x0b,0x40,0x70,0x69,0x74,0x63,0x68,0x69,0x69,0x3a,0x0c,0x40,0x76,0x6f,0x6c,0x75,0x6d,0x65,0x69,0x69))
311(0,1,1,1,26,true)
ShowMessageFace("",0,0,2,12)
ShowMessage("The Succubus Witch alternates her breasts going up and down!")
ShowMessage("Right and left, she rubs them against his penis!\\D")
ShowMessage("Luka takes \\V[26] damage!")
ChangeVariable(27,27,0,3,3,1,2)
If(1,27,0,0,0)
 JumpToLabel("射精1")
 0()
EndIf()
ShowMessageFace("witchs_fc1",2,0,2,13)
ShowMessage("\\n<Succubus Witch>")
ShowMessage("You'll be covering my chest with semen soon.")
ShowMessage("Now go ahead and come...♪")
ChangeVariable(26,26,3,0,2)
250(bytes(0x04,0x08,0x6f,0x3a,0x0c,0x52,0x50,0x47,0x3a,0x3a,0x53,0x45,0x08,0x3a,0x0a,0x40,0x6e,0x61,0x6d,0x65,0x49,0x22,0x12,0x6d,0x6f,0x6e,0x5f,0x65,0x72,0x6f,0x5f,0x6b,0x6f,0x6b,0x69,0x31,0x06,0x3a,0x06,0x45,0x54,0x3a,0x0b,0x40,0x70,0x69,0x74,0x63,0x68,0x69,0x69,0x3a,0x0c,0x40,0x76,0x6f,0x6c,0x75,0x6d,0x65,0x69,0x69))
311(0,1,1,1,26,true)
ShowMessageFace("",0,0,2,14)
ShowMessage("The Succubus Witch skillfully uses her breasts to rub the neck of Luka's penis!")
ShowMessage("Tightened between her soft breasts, Luka's endurance is crushed!\\D")
ShowMessage("Luka takes \\V[26] damage!")
ChangeVariable(27,27,0,3,3,1,2)
If(1,27,0,0,0)
 JumpToLabel("射精1")
 0()
EndIf()
DefineLabel("射精1")
ShowMessageFace("",0,0,2,15)
ShowMessage("\\n<Luka>No, coming... Ahhh...")
RunCommonEvent(104)
PictureDisplay(5,"ev_witchs_hd2",0,0,0,0,100,100,255,0)
RunCommonEvent(105)
ShowMessageFace("",0,0,2,16)
ShowMessage("Toyed with between her breasts, I finally come.")
ShowMessage("The Succubus Witch's chest is covered in my cloudy semen...")
ShowMessageFace("witchs_fc1",2,0,2,17)
ShowMessage("\\n<Succubus Witch>")
ShowMessage("And now you're just the prey of my boobs.")
ShowMessage("Are you feeling a bit ashamed of how much you came everywhere?")
RunCommonEvent(2000)
EndEventProcessing()
0()
