// EVENT 4216
Name "High Slug Girl 1"

If(0,25,1)
 221()
 PictureClear(5)
 PictureClear(6)
 ShowMessageFace("",0,0,2,0)
 ShowMessage("......")
 242(2)
 Wait(120)
 241(bytes(0x04,0x08,0x6f,0x3a,0x0d,0x52,0x50,0x47,0x3a,0x3a,0x42,0x47,0x4d,0x08,0x3a,0x0a,0x40,0x6e,0x61,0x6d,0x65,0x49,0x22,0x0c,0x63,0x61,0x73,0x74,0x6c,0x65,0x36,0x06,0x3a,0x06,0x45,0x54,0x3a,0x0c,0x40,0x76,0x6f,0x6c,0x75,0x6d,0x65,0x69,0x69,0x3a,0x0b,0x40,0x70,0x69,0x74,0x63,0x68,0x69,0x69))
 EndEventProcessing()
 0()
EndIf()
PictureDisplay(5,"80_highslag_st01",0,0,0,0,100,100,255,0)
ShowMessageFace("highslag_fc1",0,0,2,1)
ShowMessage("\\n<Elisabeth>I see you looking at my breast a lot.\nI don't mind having a little fun with you...")
ShowMessageFace("",0,0,2,2)
ShowMessage("\\n<Luka>Eh...?")
ShowMessageFace("highslag_fc1",0,0,2,3)
ShowMessage("\\n<Elisabeth>I'll let you put your penis on my breasts.\nMy sticky, mucus covered breasts feel amazing you know...")
ShowMessageFace("",0,0,2,4)
ShowMessage("\\n<Luka>Uhm... That's...")
ShowMessageFace("highslag_fc1",0,0,2,5)
ShowMessage("\\n<Elisabeth>You want to though, don't you?\nJust take off your clothes, and leave it to me...")
ShowMessageFace("",0,0,2,6)
ShowMessage("\\n<Luka>......")
ShowMessageFace("",0,0,2,7)
ShowMessage("Invited to, I slowly take off my clothes.")
ShowMessage("Elisabeth's slug body rolls up my now naked body.")
ShowMessageFace("highslag_fc1",0,0,2,8)
ShowMessage("\\n<Elisabeth>Look at my slimy breasts...\nTaste them until you're satisfied...")
ShowMessageFace("",0,0,2,9)
ShowMessage("\\n<Luka>Ah, aaah...")
241(bytes(0x04,0x08,0x6f,0x3a,0x0d,0x52,0x50,0x47,0x3a,0x3a,0x42,0x47,0x4d,0x08,0x3a,0x0a,0x40,0x6e,0x61,0x6d,0x65,0x49,0x22,0x09,0x65,0x72,0x6f,0x31,0x06,0x3a,0x06,0x45,0x54,0x3a,0x0c,0x40,0x76,0x6f,0x6c,0x75,0x6d,0x65,0x69,0x69,0x3a,0x0b,0x40,0x70,0x69,0x74,0x63,0x68,0x69,0x69))
245(bytes(0x04,0x08,0x6f,0x3a,0x0d,0x52,0x50,0x47,0x3a,0x3a,0x42,0x47,0x53,0x08,0x3a,0x0a,0x40,0x6e,0x61,0x6d,0x65,0x49,0x22,0x1e,0x6d,0x6f,0x6e,0x5f,0x68,0x73,0x65,0x61,0x6e,0x31,0x31,0x5f,0x69,0x6e,0x6e,0x65,0x72,0x77,0x6f,0x72,0x6b,0x73,0x5f,0x63,0x31,0x06,0x3a,0x06,0x45,0x54,0x3a,0x0c,0x40,0x76,0x6f,0x6c,0x75,0x6d,0x65,0x69,0x55,0x3a,0x0b,0x40,0x70,0x69,0x74,0x63,0x68,0x69,0x69))
PictureDisplay(5,"ev_highslag_ha1",0,0,0,0,100,100,0,0)
PictureMove(5,null,0,0,0,0,100,100,255,0,30,true)
ShowMessageFace("",0,0,2,10)
ShowMessage("My penis slips into her mucus-covered breasts.")
ShowMessage("The soft touch of them presses me from both sides.")
ShowMessageFace("",0,0,2,11)
ShowMessage("Her skin is covered in warm mucus.")
ShowMessage("Acting as a lubricant, it brings a sweet pleasure with it.")
ShowMessageFace("",0,0,2,12)
ShowMessage("\\n<Luka>Aaah...A-Amazing...")
ShowMessageFace("highslag_fc1",0,0,2,13)
ShowMessage("\\n<Elisabeth>Isn't it nice?\nAren't my breasts just so much softer than everyone else's?")
ShowMessageFace("",0,0,2,14)
ShowMessage("Elisabeth smiles at me as my penis is pressed between her breasts.")
ShowMessage("The soft tightness of her makes me sigh in pleasure.")
ShowMessageFace("",0,0,2,15)
ShowMessage("The mucus on her breasts covers my penis, making every movement feel amazing.")
ShowMessage("It's almost like her breasts are devouring my penis...")
ShowMessageFace("highslag_fc1",0,0,2,16)
ShowMessage("\\n<Elisabeth>Fufu, how is it?\nAren't my mucus covered breasts the greatest?")
ShowMessageFace("",0,0,2,17)
ShowMessage("\\n<Luka>Ngh... Aaah...")
ShowMessageFace("",0,0,2,18)
ShowMessage("My body trembles in pleasure as I feel myself getting weak.")
ShowMessage("But since Elisabeth is supporting my body, I don't collapse.")
ShowMessageFace("highslag_fc1",0,0,2,19)
ShowMessage("\\n<Elisabeth>Fufu, isn't it unbearable?\nYou seem totally captivated by my breasts...")
ShowMessageFace("",0,0,2,20)
ShowMessage("Elisabeth presses her breasts together.")
ShowMessage("Mucus oozes out from the pressure, covering more of my penis.")
ShowMessageFace("",0,0,2,21)
ShowMessage("Her huge, mucus-covered breasts crush me in their softness.")
ShowMessageFace("",0,0,2,22)
ShowMessage("\\n<Luka>Ah... Auuu!")
ShowMessageFace("",0,0,2,23)
ShowMessage("I push forward on instinct, seeking more.")
ShowMessageFace("highslag_fc1",1,0,2,24)
ShowMessage("\\n<Elisabeth>Ahaha, are you already about to come?\nFinishing before even five minutes are up, such an eager little child.")
ShowMessageFace("highslag_fc1",1,0,2,25)
ShowMessage("\\n<Elisabeth>Okay... Go ahead and come in my breasts.\nMake sure you let me hear those cute moans of yours, too.")
ShowMessageFace("",0,0,2,26)
ShowMessage("A sadistic smile crosses Elisabeth's face.")
ShowMessage("She presses her hands to her breasts, and starts kneading my penis with them!")
ShowMessageFace("",0,0,2,27)
ShowMessage("Her mucus flows out, getting my body itself wet.")
ShowMessage("At the same time, her soft breasts press and rub against me.")
ShowMessageFace("",0,0,2,28)
ShowMessage("\\n<Luka>Ah, aaaah...!")
RunCommonEvent(104)
PictureDisplay(5,"ev_highslag_ha2",0,0,0,0,100,100,255,0)
RunCommonEvent(105)
ShowMessageFace("",0,0,2,29)
ShowMessage("I'm brought to an easy climax.")
ShowMessage("My semen spurts out, mixing with her mucus.")
ShowMessageFace("",0,0,2,30)
ShowMessage("\\n<Luka>Nnngh...")
ShowMessageFace("",0,0,2,31)
ShowMessage("The feeling of release wasn't like normal.")
ShowMessage("It feels like my penis itself is melting away in her softness.")
ShowMessageFace("highslag_fc1",1,0,2,32)
ShowMessage("\\n<Elisabeth>Fufu, you came so much.\nThis is the happiest moment for a boy...")
ShowMessageFace("",0,0,2,33)
ShowMessage("Elisabeth continues to rub my penis as I ejaculate.")
ShowMessage("My pulsing penis is massaged by her large breasts.")
ShowMessageFace("",0,0,2,34)
ShowMessage("\\n<Luka>Aaah...")
ShowMessageFace("",0,0,2,35)
ShowMessage("By the time my ejaculation finished, my waist was completely numb.")
246(2)
PictureDisplay(5,"ev_highslag_ha3",0,0,0,0,100,100,255,0)
ShowMessageFace("highslag_fc1",0,0,2,36)
ShowMessage("\\n<Elisabeth>In the end, you didn't even last five minutes.\nYou need to practice more.")
ShowMessageFace("highslag_fc1",1,0,2,37)
ShowMessage("\\n<Elisabeth>If not, you'll become a laughing stock among your friends.\nThat wouldn't be good, right? Teehee...")
ShowMessageFace("",0,0,2,38)
ShowMessage("\\n<Luka>......")
ShowMessageFace("",0,0,2,39)
ShowMessage("Elisabeth giggles at my exhausted self.")
ShowMessage("I sigh in weak ecstasy, too weak to move yet.")
221()
PictureClear(5)
PictureClear(6)
ShowMessageFace("",0,0,2,40)
ShowMessage("......")
242(2)
Wait(120)
241(bytes(0x04,0x08,0x6f,0x3a,0x0d,0x52,0x50,0x47,0x3a,0x3a,0x42,0x47,0x4d,0x08,0x3a,0x0a,0x40,0x6e,0x61,0x6d,0x65,0x49,0x22,0x0c,0x63,0x61,0x73,0x74,0x6c,0x65,0x36,0x06,0x3a,0x06,0x45,0x54,0x3a,0x0c,0x40,0x76,0x6f,0x6c,0x75,0x6d,0x65,0x69,0x69,0x3a,0x0b,0x40,0x70,0x69,0x74,0x63,0x68,0x69,0x69))
0()
