// EVENT 4226
Name "Sluggy Stars 1"

If(0,25,1)
 221()
 PictureClear(5)
 PictureClear(6)
 ShowMessageFace("",0,0,2,0)
 ShowMessage("......")
 242(2)
 Wait(120)
 241(bytes(0x04,0x08,0x6f,0x3a,0x0d,0x52,0x50,0x47,0x3a,0x3a,0x42,0x47,0x4d,0x08,0x3a,0x0a,0x40,0x6e,0x61,0x6d,0x65,0x49,0x22,0x0c,0x63,0x61,0x73,0x74,0x6c,0x65,0x36,0x06,0x3a,0x06,0x45,0x54,0x3a,0x0c,0x40,0x76,0x6f,0x6c,0x75,0x6d,0x65,0x69,0x69,0x3a,0x0b,0x40,0x70,0x69,0x74,0x63,0x68,0x69,0x69))
 EndEventProcessing()
 0()
EndIf()
PictureDisplay(5,"80_name2_st02",0,0,0,0,100,100,255,0)
ShowMessageFace("name2_fc1",1,0,2,1)
ShowMessage("\\n<Melty A>Fufu, you want to have fun with us?")
ShowMessageFace("",0,0,2,2)
ShowMessage("\\n<Luka>P-please...")
ShowMessageFace("name2_fc1",4,0,2,3)
ShowMessage("\\n<Melty B>Be happy.\nWe'll squeeze out a lot of semen from you...")
ShowMessageFace("name2_fc1",7,0,2,4)
ShowMessage("\\n<Melty C>We'll coil around you and make you come over and over.\nHora, like this.")
241(bytes(0x04,0x08,0x6f,0x3a,0x0d,0x52,0x50,0x47,0x3a,0x3a,0x42,0x47,0x4d,0x08,0x3a,0x0a,0x40,0x6e,0x61,0x6d,0x65,0x49,0x22,0x09,0x65,0x72,0x6f,0x31,0x06,0x3a,0x06,0x45,0x54,0x3a,0x0c,0x40,0x76,0x6f,0x6c,0x75,0x6d,0x65,0x69,0x69,0x3a,0x0b,0x40,0x70,0x69,0x74,0x63,0x68,0x69,0x69))
245(bytes(0x04,0x08,0x6f,0x3a,0x0d,0x52,0x50,0x47,0x3a,0x3a,0x42,0x47,0x53,0x08,0x3a,0x0a,0x40,0x6e,0x61,0x6d,0x65,0x49,0x22,0x1a,0x6d,0x6f,0x6e,0x5f,0x68,0x73,0x65,0x61,0x6e,0x32,0x32,0x5f,0x74,0x65,0x6e,0x74,0x61,0x63,0x6c,0x65,0x33,0x06,0x3a,0x06,0x45,0x54,0x3a,0x0c,0x40,0x76,0x6f,0x6c,0x75,0x6d,0x65,0x69,0x55,0x3a,0x0b,0x40,0x70,0x69,0x74,0x63,0x68,0x69,0x69))
PictureDisplay(5,"ev_name2_ha01",0,0,0,0,100,100,0,0)
PictureMove(5,null,0,0,0,0,100,100,255,0,30,true)
ShowMessageFace("",0,0,2,5)
ShowMessage("My body is tangled in mucus and hanged from a tree.")
ShowMessage("As I am hanging like this, all three of them coil their slimy bodies around mine.")
ShowMessageFace("",0,0,2,6)
ShowMessage("The slugs squeeze around my body.")
ShowMessage("I feel like a canned fish in sticky mucus.")
ShowMessageFace("",0,0,2,7)
ShowMessage("My body gets all sticky from their mucus.")
ShowMessage("It's spread all over my body, covering me in a warm relaxing feeling.")
ShowMessageFace("",0,0,2,8)
ShowMessage("This sticky, gooey feeling makes me want to melt between them.")
ShowMessage("Seeing me relax, the slugs start giggling.")
ShowMessageFace("name2_fc1",1,0,2,9)
ShowMessage("\\n<Melty A>You're feeling good just from this?")
ShowMessageFace("name2_fc1",4,0,2,10)
ShowMessage("\\n<Melty B>First, we'll entertain you like this for three days and three nights.\nIf you want, we could stay like this for years...")
ShowMessageFace("name2_fc1",7,0,2,11)
ShowMessage("\\n<Melty C>Here, let me make you feel good.\nI'll just move my body a little...")
PictureDisplay(5,"ev_name2_ha02",0,0,0,0,100,100,255,0)
ShowMessageFace("",0,0,2,12)
ShowMessage("\\n<Luka>Hyaaa...! Ah, aaaah...!!")
ShowMessageFace("",0,0,2,13)
ShowMessage("Her body starts winding around mine and goes around and around in circles.")
ShowMessage("Her whole body caresses mine, leaving sticky mucus all over me.")
ShowMessageFace("",0,0,2,14)
ShowMessage("Her slime is spread all over me and she rubs every inch of my body.")
ShowMessage("My penis immediately reacts to the stimulation and gets big.")
ShowMessageFace("name2_fc1",1,0,2,15)
ShowMessage("\\n<Melty A>Fufufu, it got big.\nWell then, how about this...")
ShowMessageFace("",0,0,2,16)
ShowMessage("\\n<Luka>Ah, Ooooh...!")
ShowMessageFace("",0,0,2,17)
ShowMessage("My penis is sandwiched between the slugs' bodies and thoroughly covered in mucus.")
ShowMessage("The sticky feeling attacks my most sensitive parts.")
ShowMessageFace("",0,0,2,18)
ShowMessage("Their bodies' stimulation give extra attention to my glans.")
ShowMessage("With the mucus constantly flowing, my penis is caressed from root to tip.")
ShowMessageFace("name2_fc1",4,0,2,19)
ShowMessage("\\n<Melty B>Your penis is all covered in our mucus and sticky...\nFufufu, does it feel good?")
ShowMessageFace("name2_fc1",7,0,2,20)
ShowMessage("\\n<Melty C>Let yourself go in the pleasure of our mucus...")
ShowMessageFace("",0,0,2,21)
ShowMessage("\\n<Luka>N-no...Ah...Unnngh...")
ShowMessageFace("",0,0,2,22)
ShowMessage("The slugs wiggle their bodies and stimulate my penis relentlessly.")
ShowMessage("My penis is constantly caressed by their bodies and their slimy mucus.")
ShowMessageFace("",0,0,2,23)
ShowMessage("It gets constantly covered in the sticky substance from the base to the tip.")
ShowMessage("On top of that their bodies just crawl all over it from all sides.")
ShowMessageFace("",0,0,2,24)
ShowMessage("Finally my penis starts trembling between them.")
ShowMessage("My body goes numb as a sweet feeling of release takes over...")
ShowMessageFace("",0,0,2,25)
ShowMessage("\\n<Luka>Aah...! I'm coming...!")
ShowMessageFace("name2_fc1",1,0,2,26)
ShowMessage("\\n<Melty A>Oh, already leaking?\nGo ahead and just let it all out...")
ShowMessageFace("",0,0,2,27)
ShowMessage("My penis can take no more of their caresses.")
ShowMessage("My male instinct takes over and I succumb to the sticky feeling of their bodies.")
ShowMessageFace("",0,0,2,28)
ShowMessage("\\n<Luka>Aaaah...!")
RunCommonEvent(104)
PictureDisplay(5,"ev_name2_ha03",0,0,0,0,100,100,255,0)
RunCommonEvent(105)
ShowMessageFace("",0,0,2,29)
ShowMessage("From between the slugs' bodies, my penis shoots out my semen.")
ShowMessage("While savoring my orgasm, I feel like my waist is about to melt.")
PictureDisplay(5,"ev_name2_ha04",0,0,0,0,100,100,255,0)
ShowMessageFace("",0,0,2,30)
ShowMessage("\\n<Luka>Huaaa...I came...")
ShowMessageFace("name2_fc1",4,0,2,31)
ShowMessage("\\n<Melty B>Fufufu, you let it out...\nDid our bodies feel that good?")
ShowMessageFace("name2_fc1",7,0,2,32)
ShowMessage("\\n<Melty C>Well then, we'll give you even more.\nWe'll drown you in slimy pleasure and make you reach heaven...")
ShowMessageFace("",0,0,2,33)
ShowMessage("The slugs' bodies continue rubbing against my penis.")
ShowMessage("I feel like I could melt in this sweet feeling of being covered by their sticky mucus.")
ShowMessageFace("",0,0,2,34)
ShowMessage("\\n<Luka>Hnnaaa...")
ShowMessageFace("",0,0,2,35)
ShowMessage("My whole body is immersed in ecstasy from their slimy mucus.")
ShowMessage("It's almost as if I've been sent to heaven...")
ShowMessageFace("name2_fc1",1,0,2,36)
ShowMessage("\\n<Melty A>Arara...you're already a prisoner of our bodies...\nDo you like the feeling our bodies give you?")
ShowMessageFace("name2_fc1",4,0,2,37)
ShowMessage("\\n<Melty B>We can give you much more pleasure...\nIn exchange, you have to give us a lot of semen.")
ShowMessageFace("name2_fc1",7,0,2,38)
ShowMessage("\\n<Melty C>Let's see how many times you can come.\nWe'll drain a lot of semen from your penis...")
ShowMessageFace("",0,0,2,39)
ShowMessage("The glossy surface of the slugs concentrate on my penis.")
ShowMessage("They rub the neck of my penis intensely and sandwich my glans between their bodies.")
ShowMessageFace("",0,0,2,40)
ShowMessage("The pleasure my penis feels in combination with that stickiness makes my brain melt in sweet ecstasy.")
ShowMessage("My male instincts get overwhelmed by these sensations and I entrust myself to the sticky feeling of their bodies.")
ShowMessageFace("",0,0,2,41)
ShowMessage("Drowning in pleasure, my mouth hangs open, drooling on the side...")
ShowMessage("The sweet feeling of release once again takes over my body.")
ShowMessageFace("",0,0,2,42)
ShowMessage("\\n<Luka>Huaaa...I'm coming again......")
ShowMessageFace("",0,0,2,43)
ShowMessage("The sensations of the slugs' soft bodies combine with the sticky feeling of their mucus.")
ShowMessage("I totally immerse myself and enjoy these feelings as the sweet sense of release takes over my body.")
RunCommonEvent(104)
PictureDisplay(5,"ev_name2_ha06",0,0,0,0,100,100,255,0)
RunCommonEvent(105)
ShowMessageFace("",0,0,2,44)
ShowMessage("\\n<Luka>Nnngh...")
ShowMessageFace("name2_fc1",1,0,2,45)
ShowMessage("\\n<Melty A>Fufufu, you leaked again...")
ShowMessageFace("name2_fc1",4,0,2,46)
ShowMessage("\\n<Melty B>Your sperm will become our food...\nIn return, we offer you exquisite pleasure.")
PictureDisplay(5,"ev_name2_ha07",0,0,0,0,100,100,255,0)
ShowMessageFace("",0,0,2,47)
ShowMessage("\\n<Luka>Hnnaaa...")
ShowMessageFace("",0,0,2,48)
ShowMessage("As I ejaculate, my will to resist fades completely.")
ShowMessage("It's not just my penis that overflows with ecstasy, but my whole body.")
ShowMessageFace("",0,0,2,49)
ShowMessage("Wrapped by the slugs' bodies and their mucus it almost seems like I've become one with them.")
ShowMessage("I can't feel the boundaries of my body anymore, I feel as I'm a part of them.")
ShowMessageFace("name2_fc1",1,0,2,50)
ShowMessage("\\n<Melty A>Fufufu, it seems like you've completely melted from the pleasure.")
ShowMessageFace("name2_fc1",4,0,2,51)
ShowMessage("\\n<Melty B>Then give us everything you have.\nWe won't kill you, we'll drown you in pleasure for the rest of your life.")
ShowMessageFace("",0,0,2,52)
ShowMessage("\\n<Luka>That feels so good...\nAh, aaah...")
ShowMessageFace("",0,0,2,53)
ShowMessage("I'm drowning in ecstasy, wrapped in their mucus.")
ShowMessage("My penis pulses in joy as I give them more of my semen.")
RunCommonEvent(104)
PictureDisplay(5,"ev_name2_ha09",0,0,0,0,100,100,255,0)
RunCommonEvent(105)
PictureDisplay(5,"ev_name2_ha10",0,0,0,0,100,100,255,0)
ShowMessageFace("",0,0,2,54)
ShowMessage("My penis keeps throbbing and pulsing.")
ShowMessage("The sticky feelings keep me in a state akin to a continual ejaculation.")
ShowMessageFace("name2_fc1",7,0,2,55)
ShowMessage("\\n<Melty C>Your penis seemed very happy to give us your semen.\nAre you glad that we caught you?")
ShowMessageFace("",0,0,2,56)
ShowMessage("\\n<Luka>Hauu... Oooh...")
ShowMessageFace("name2_fc1",1,0,2,57)
ShowMessage("\\n<Melty A>Fufufu, did you lose your mind?\nYou're not going to leave anymore...")
ShowMessageFace("name2_fc1",4,0,2,58)
ShowMessage("\\n<Melty B>We won't keep you here for three nights, we'll keep you till the end of your life.\nYou should be happy, fufufu...")
ShowMessageFace("",0,0,2,59)
ShowMessage("\\n<Luka>Aaaaah...\nThat feels so good...")
RunCommonEvent(104)
RunCommonEvent(105)
ShowMessageFace("",0,0,2,60)
ShowMessage("Soaking in ecstasy, I continue to ejaculate.")
ShowMessage("My whole body feels like it's melting, encased in their sticky mucus.")
ShowMessageFace("",0,0,2,61)
ShowMessage("Drowning in this slimy pleasure, all I can feel is ecstasy and euphoria.")
ShowMessage("I can't think of anything else but this pleasure...")
ShowMessageFace("name2_fc1",1,0,2,62)
ShowMessage("\\n<Melty A>You seem to be drowning in our sticky heaven.\nWe could just squeeze you like this until the end of your life...")
ShowMessageFace("name2_fc1",4,0,2,63)
ShowMessage("\\n<Melty B>You don't have to think about anything else anymore, fufu...\nDon't you want to drown in our heaven and forget about everything?")
ShowMessageFace("name2_fc1",7,0,2,64)
ShowMessage("\\n<Melty C>We'll stop for now since we're still in the middle of our adventure...\nWhen our adventure comes to an end, please become ours.")
ShowMessageFace("",0,0,2,65)
ShowMessage("\\n<Luka>Hnnaaa...")
RunCommonEvent(104)
RunCommonEvent(105)
ShowMessageFace("",0,0,2,66)
ShowMessage("At their mercy, I continue shooting my semen.")
ShowMessage("I might drown in their slippery swamp of pleasure...")
221()
PictureClear(5)
246(2)
ShowMessageFace("",0,0,2,67)
ShowMessage("......")
242(2)
Wait(120)
241(bytes(0x04,0x08,0x6f,0x3a,0x0d,0x52,0x50,0x47,0x3a,0x3a,0x42,0x47,0x4d,0x08,0x3a,0x0a,0x40,0x6e,0x61,0x6d,0x65,0x49,0x22,0x0c,0x63,0x61,0x73,0x74,0x6c,0x65,0x36,0x06,0x3a,0x06,0x45,0x54,0x3a,0x0c,0x40,0x76,0x6f,0x6c,0x75,0x6d,0x65,0x69,0x69,0x3a,0x0b,0x40,0x70,0x69,0x74,0x63,0x68,0x69,0x69))
0()
