﻿// EVENT 0534
Name "コラボC3：グランドノア城"

250(bytes(0x04,0x08,0x6f,0x3a,0x0c,0x52,0x50,0x47,0x3a,0x3a,0x53,0x45,0x08,0x3a,0x0a,0x40,0x6e,0x61,0x6d,0x65,0x49,0x22,0x09,0x4d,0x6f,0x76,0x65,0x06,0x3a,0x06,0x45,0x54,0x3a,0x0b,0x40,0x70,0x69,0x74,0x63,0x68,0x69,0x69,0x3a,0x0c,0x40,0x76,0x6f,0x6c,0x75,0x6d,0x65,0x69,0x55))
242(1)
221()
Wait(60)
ShowMessageFace("",0,0,2,1)
ShowMessage("And so we went through the bustling castle town...\nThen we arrived in front of the magnificent palace of Grand Noah.")
281(0)
ChangeSwitch(31,31,1)
ChangeSwitch(32,32,1)
ChangeSwitch(33,33,1)
TeleportPlayer(0,859,38,5,8,2)
241(bytes(0x04,0x08,0x6f,0x3a,0x0d,0x52,0x50,0x47,0x3a,0x3a,0x42,0x47,0x4d,0x08,0x3a,0x0a,0x40,0x6e,0x61,0x6d,0x65,0x49,0x22,0x16,0x64,0x75,0x6e,0x67,0x65,0x6f,0x6e,0x5f,0x63,0x6f,0x6c,0x6f,0x73,0x73,0x65,0x75,0x6d,0x06,0x3a,0x06,0x45,0x54,0x3a,0x0c,0x40,0x76,0x6f,0x6c,0x75,0x6d,0x65,0x69,0x69,0x3a,0x0b,0x40,0x70,0x69,0x74,0x63,0x68,0x69,0x69))
222()
ShowMessageFace("rest_fc1",0,0,2,2)
ShowMessage("\\n<Lest>So this is the palace of Grand Noah.\nNow then...")
205(-1,bytes(0x04,0x08,0x6f,0x3a,0x13,0x52,0x50,0x47,0x3a,0x3a,0x4d,0x6f,0x76,0x65,0x52,0x6f,0x75,0x74,0x65,0x09,0x3a,0x0c,0x40,0x72,0x65,0x70,0x65,0x61,0x74,0x46,0x3a,0x0f,0x40,0x73,0x6b,0x69,0x70,0x70,0x61,0x62,0x6c,0x65,0x46,0x3a,0x0a,0x40,0x77,0x61,0x69,0x74,0x54,0x3a,0x0a,0x40,0x6c,0x69,0x73,0x74,0x5b,0x07,0x6f,0x3a,0x15,0x52,0x50,0x47,0x3a,0x3a,0x4d,0x6f,0x76,0x65,0x43,0x6f,0x6d,0x6d,0x61,0x6e,0x64,0x07,0x3a,0x0a,0x40,0x63,0x6f,0x64,0x65,0x69,0x16,0x3a,0x10,0x40,0x70,0x61,0x72,0x61,0x6d,0x65,0x74,0x65,0x72,0x73,0x5b,0x00,0x6f,0x3b,0x0a,0x07,0x3b,0x0b,0x69,0x00,0x3b,0x0c,0x5b,0x00))
ShowMessageFace("",0,0,2,3)
ShowMessage("\\n<Guard>You are free to visit the palace.\nHowever, you can't go to the second floor without special permission.")
ShowMessageFace("rest_fc1",0,0,2,4)
ShowMessage("\\n<Lest>Um, we're from a different country...\nWe have important information regarding parallel worlds.")
ShowMessageFace("",0,0,2,5)
ShowMessage("\\n<Guard>Ah, I see...\nThere are a lot of people like you these days.")
ShowMessageFace("",0,0,2,6)
ShowMessage("...Well, of course.\nThe proclamation about seeking information regarding parallel worlds has become the hot talk of the city and its vicinity.")
ShowMessageFace("",0,0,2,7)
ShowMessage("Which is why informants have to deal with false rumors and information.\nHow do they do to separate those who have useful information and those who don't...")
ShowMessageFace("rest_fc1",0,0,2,8)
ShowMessage("\\n<Lest>...It's about the Queen of Dreams.")
ShowMessageFace("",0,0,2,9)
ShowMessage("\\n<Guard>...!?")
ShowMessageFace("",0,0,2,10)
ShowMessage("They'll check whether we use key words or not.\nThey probably pay special attention to such key words. This must be how they determine the information's authenticity.")
ShowMessageFace("",0,0,2,11)
ShowMessage("Fortunately, information regarding her seems to have spread to the soldiers.\nTheir military organization is excellent and the communication is good.")
205(55,bytes(0x04,0x08,0x6f,0x3a,0x13,0x52,0x50,0x47,0x3a,0x3a,0x4d,0x6f,0x76,0x65,0x52,0x6f,0x75,0x74,0x65,0x09,0x3a,0x0c,0x40,0x72,0x65,0x70,0x65,0x61,0x74,0x46,0x3a,0x0f,0x40,0x73,0x6b,0x69,0x70,0x70,0x61,0x62,0x6c,0x65,0x46,0x3a,0x0a,0x40,0x77,0x61,0x69,0x74,0x54,0x3a,0x0a,0x40,0x6c,0x69,0x73,0x74,0x5b,0x07,0x6f,0x3a,0x15,0x52,0x50,0x47,0x3a,0x3a,0x4d,0x6f,0x76,0x65,0x43,0x6f,0x6d,0x6d,0x61,0x6e,0x64,0x07,0x3a,0x0a,0x40,0x63,0x6f,0x64,0x65,0x69,0x08,0x3a,0x10,0x40,0x70,0x61,0x72,0x61,0x6d,0x65,0x74,0x65,0x72,0x73,0x5b,0x00,0x6f,0x3b,0x0a,0x07,0x3b,0x0b,0x69,0x00,0x3b,0x0c,0x5b,0x00))
ShowMessageFace("",0,0,2,12)
ShowMessage("\\n<Guard>I see, come over here.\nLet's talk above...")
242(1)
221()
ShowMessageFace("",0,0,2,13)
ShowMessage("From that point on, things went smoothly.\nThey took us to their superiors, then to their intelligence agency...")
ShowMessageFace("",0,0,2,14)
ShowMessage("In the blink of an eye, we found ourselves in an audience with the queen.\nWe could see how outstanding the queen of Grand Noah is.")
ShowMessageFace("",0,0,2,15)
ShowMessage("There are rumors saying that the queen has lost her mind...\nBut only a great monarch could have put in place such a sophisticated bureaucracy.")
Wait(30)
211(0)
TeleportPlayer(0,862,22,10,8,2)
222()
0()
