﻿// EVENT 0582
Name "ループ：ゴブ走り処理1"

ShowMessageFace("",0,1,1,1)
ShowMessage("現在時刻　ＰＭ１：００")
ShowMessageFace("ruka_fc1",0,0,2,2)
ShowMessage("【ルカ】")
ShowMessage("もう昼か、ずいぶん寝ちゃったな……")
ShowMessageFace("",0,0,2,3)
ShowMessage("今夜はヤマタイの夜祭りに参加するということで――")
ShowMessage("丸一日、冒険は休みということになった。")
ShowMessageFace("",0,0,2,4)
ShowMessage("この機会に、ポケット魔王城の中へ清掃や補修の業者を入れるらしい。")
ShowMessage("大掃除で慌ただしいせいで、いつもと城内の雰囲気も違うようだ。")
ShowMessageFace("ruka_fc1",0,0,2,5)
ShowMessage("【ルカ】")
ShowMessage("確か、夜祭りには午後五時に出発だったね。")
ShowMessage("それまで、城内で時間でも潰そうか……")
ShowMessageFace("gob_fc1",0,0,2,6)
ShowMessage("【ゴブ】")
ShowMessage("おーい！　ピザの配達だよー！")
ShowMessageFace("ruka_fc1",0,0,2,7)
ShowMessage("【ルカ】")
ShowMessage("えっ……ピザ？")
205(-1,bytes(0x04,0x08,0x6f,0x3a,0x13,0x52,0x50,0x47,0x3a,0x3a,0x4d,0x6f,0x76,0x65,0x52,0x6f,0x75,0x74,0x65,0x09,0x3a,0x0c,0x40,0x72,0x65,0x70,0x65,0x61,0x74,0x46,0x3a,0x0f,0x40,0x73,0x6b,0x69,0x70,0x70,0x61,0x62,0x6c,0x65,0x46,0x3a,0x0a,0x40,0x77,0x61,0x69,0x74,0x54,0x3a,0x0a,0x40,0x6c,0x69,0x73,0x74,0x5b,0x09,0x6f,0x3a,0x15,0x52,0x50,0x47,0x3a,0x3a,0x4d,0x6f,0x76,0x65,0x43,0x6f,0x6d,0x6d,0x61,0x6e,0x64,0x07,0x3a,0x0a,0x40,0x63,0x6f,0x64,0x65,0x69,0x08,0x3a,0x10,0x40,0x70,0x61,0x72,0x61,0x6d,0x65,0x74,0x65,0x72,0x73,0x5b,0x00,0x6f,0x3b,0x0a,0x07,0x3b,0x0b,0x69,0x08,0x3b,0x0c,0x5b,0x00,0x6f,0x3b,0x0a,0x07,0x3b,0x0b,0x69,0x08,0x3b,0x0c,0x5b,0x00,0x6f,0x3b,0x0a,0x07,0x3b,0x0b,0x69,0x00,0x3b,0x0c,0x5b,0x00))
205(-1,bytes(0x04,0x08,0x6f,0x3a,0x13,0x52,0x50,0x47,0x3a,0x3a,0x4d,0x6f,0x76,0x65,0x52,0x6f,0x75,0x74,0x65,0x09,0x3a,0x0c,0x40,0x72,0x65,0x70,0x65,0x61,0x74,0x46,0x3a,0x0f,0x40,0x73,0x6b,0x69,0x70,0x70,0x61,0x62,0x6c,0x65,0x46,0x3a,0x0a,0x40,0x77,0x61,0x69,0x74,0x46,0x3a,0x0a,0x40,0x6c,0x69,0x73,0x74,0x5b,0x09,0x6f,0x3a,0x15,0x52,0x50,0x47,0x3a,0x3a,0x4d,0x6f,0x76,0x65,0x43,0x6f,0x6d,0x6d,0x61,0x6e,0x64,0x07,0x3a,0x0a,0x40,0x63,0x6f,0x64,0x65,0x69,0x08,0x3a,0x10,0x40,0x70,0x61,0x72,0x61,0x6d,0x65,0x74,0x65,0x72,0x73,0x5b,0x00,0x6f,0x3b,0x0a,0x07,0x3b,0x0b,0x69,0x08,0x3b,0x0c,0x5b,0x00,0x6f,0x3b,0x0a,0x07,0x3b,0x0b,0x69,0x08,0x3b,0x0c,0x5b,0x00,0x6f,0x3b,0x0a,0x07,0x3b,0x0b,0x69,0x00,0x3b,0x0c,0x5b,0x00))
221()
Wait(60)
281(1)
TeleportPlayer(0,77,24,27,2,2)
222()
ShowMessageFace("gob_fc1",0,0,2,8)
ShowMessage("【ゴブ】")
ShowMessage("今日は冒険お休みだから、配達の仕事をしてるの。")
ShowMessage("ポケット魔王城から、宅配ピザの注文があったんだよ。")
ShowMessageFace("ruka_fc1",0,0,2,9)
ShowMessage("【ルカ】")
ShowMessage("ここから？　いったい、誰が注文したんだろう……")
If(0,4,0)
 ShowMessageFace("gob_fc1",0,0,2,10)
 ShowMessage("【ゴブ】")
 ShowMessage("たぶん、魔王様じゃない？")
 ShowMessage("ほら、冷めちゃうから受け取ってよ。")
 ShowMessageFace("",0,0,2,11)
 ShowMessage("ルカはゴブからピザを受けり、代金を立て替えた！")
 ShowMessageFace("ruka_fc1",0,0,2,12)
 ShowMessage("【ルカ】")
 ShowMessage("分かった、アリスに届けておくよ。")
 0()
EndIf()
If(0,5,0)
 ShowMessageFace("gob_fc1",0,0,2,13)
 ShowMessage("【ゴブ】")
 ShowMessage("たぶん、イリアス様じゃない？")
 ShowMessage("ほら、冷めちゃうから受け取ってよ。")
 ShowMessageFace("",0,0,2,14)
 ShowMessage("ルカはゴブからピザを受けり、代金を立て替えた！")
 ShowMessageFace("ruka_fc1",0,0,2,15)
 ShowMessage("【ルカ】")
 ShowMessage("分かった、イリアス様に届けておくよ。")
 0()
EndIf()
ShowMessageFace("gob_fc1",0,0,2,16)
ShowMessage("【ゴブ】")
ShowMessage("それじゃあボクは、配達の仕事に戻るね。")
ShowMessage("今晩のお祭りに間に合うように、急がないと！")
ShowMessageFace("ruka_fc1",0,0,2,17)
ShowMessage("【ルカ】")
ShowMessage("うん、がんばってね。")
205(12,bytes(0x04,0x08,0x6f,0x3a,0x13,0x52,0x50,0x47,0x3a,0x3a,0x4d,0x6f,0x76,0x65,0x52,0x6f,0x75,0x74,0x65,0x09,0x3a,0x0c,0x40,0x72,0x65,0x70,0x65,0x61,0x74,0x46,0x3a,0x0f,0x40,0x73,0x6b,0x69,0x70,0x70,0x61,0x62,0x6c,0x65,0x54,0x3a,0x0a,0x40,0x77,0x61,0x69,0x74,0x46,0x3a,0x0a,0x40,0x6c,0x69,0x73,0x74,0x5b,0x15,0x6f,0x3a,0x15,0x52,0x50,0x47,0x3a,0x3a,0x4d,0x6f,0x76,0x65,0x43,0x6f,0x6d,0x6d,0x61,0x6e,0x64,0x07,0x3a,0x0a,0x40,0x63,0x6f,0x64,0x65,0x69,0x2a,0x3a,0x10,0x40,0x70,0x61,0x72,0x61,0x6d,0x65,0x74,0x65,0x72,0x73,0x5b,0x00,0x6f,0x3b,0x0a,0x07,0x3b,0x0b,0x69,0x22,0x3b,0x0c,0x5b,0x06,0x69,0x0b,0x6f,0x3b,0x0a,0x07,0x3b,0x0b,0x69,0x23,0x3b,0x0c,0x5b,0x06,0x69,0x0a,0x6f,0x3b,0x0a,0x07,0x3b,0x0b,0x69,0x06,0x3b,0x0c,0x5b,0x00,0x6f,0x3b,0x0a,0x07,0x3b,0x0b,0x69,0x06,0x3b,0x0c,0x5b,0x00,0x6f,0x3b,0x0a,0x07,0x3b,0x0b,0x69,0x06,0x3b,0x0c,0x5b,0x00,0x6f,0x3b,0x0a,0x07,0x3b,0x0b,0x69,0x06,0x3b,0x0c,0x5b,0x00,0x6f,0x3b,0x0a,0x07,0x3b,0x0b,0x69,0x06,0x3b,0x0c,0x5b,0x00,0x6f,0x3b,0x0a,0x07,0x3b,0x0b,0x69,0x06,0x3b,0x0c,0x5b,0x00,0x6f,0x3b,0x0a,0x07,0x3b,0x0b,0x69,0x06,0x3b,0x0c,0x5b,0x00,0x6f,0x3b,0x0a,0x07,0x3b,0x0b,0x69,0x06,0x3b,0x0c,0x5b,0x00,0x6f,0x3b,0x0a,0x07,0x3b,0x0b,0x69,0x06,0x3b,0x0c,0x5b,0x00,0x6f,0x3b,0x0a,0x07,0x3b,0x0b,0x69,0x06,0x3b,0x0c,0x5b,0x00,0x6f,0x3b,0x0a,0x07,0x3b,0x0b,0x69,0x06,0x3b,0x0c,0x5b,0x00,0x6f,0x3b,0x0a,0x07,0x3b,0x0b,0x69,0x2c,0x3b,0x0c,0x5b,0x00,0x6f,0x3b,0x0a,0x07,0x3b,0x0b,0x69,0x00,0x3b,0x0c,0x5b,0x00))
ShowMessageFace("gob_fc1",0,0,2,18)
ShowMessage("【ゴブ】")
ShowMessage("ばびゅーん！")
ShowMessageFace("",0,0,2,19)
ShowMessage("ゴブは走り去っていった……")
If(0,4,0)
 ShowMessageFace("ruka_fc1",0,0,2,20)
 ShowMessage("【ルカ】")
 ShowMessage("じゃあ、このピザをアリスに届けるか。")
 ShowMessage("そう言えば、僕もお腹減ったなぁ……")
 ShowMessageFace("",0,0,2,21)
 ShowMessage("たぶんアリスは、二階のステージで練習中のはず。")
 ShowMessage("ピザを届けた後は、僕も昼食にしよう――")
 0()
EndIf()
If(0,5,0)
 ShowMessageFace("ruka_fc1",0,0,2,22)
 ShowMessage("【ルカ】")
 ShowMessage("じゃあ、このピザをイリアス様に届けるか。")
 ShowMessage("そう言えば、僕もお腹減ったなぁ……")
 ShowMessageFace("",0,0,2,23)
 ShowMessage("たぶんイリアス様は、二階のステージで練習中のはず。")
 ShowMessage("ピザを届けた後は、僕も昼食にしよう――")
 0()
EndIf()
ChangeSwitch(2346,2346,0)
ChangeSwitch(2337,2337,1)
281(0)
EndEventProcessing()
0()
