// EVENT 3121
Name "Oni"

If(0,25,1)
 JumpToLabel("反省会")
 0()
EndIf()
PictureDisplay(5,"80_kooni_st01",0,0,0,0,100,100,0,0)
PictureMove(5,null,0,0,0,0,100,100,255,0,30,true)
241(bytes(0x04,0x08,0x6f,0x3a,0x0d,0x52,0x50,0x47,0x3a,0x3a,0x42,0x47,0x4d,0x08,0x3a,0x0a,0x40,0x6e,0x61,0x6d,0x65,0x49,0x22,0x09,0x65,0x72,0x6f,0x31,0x06,0x3a,0x06,0x45,0x54,0x3a,0x0c,0x40,0x76,0x6f,0x6c,0x75,0x6d,0x65,0x69,0x69,0x3a,0x0b,0x40,0x70,0x69,0x74,0x63,0x68,0x69,0x69))
ShowMessageFace("",0,0,2,1)
ShowMessage("\\n<Luka>Guh...")
ShowMessageFace("kooni_fc1",0,0,2,2)
ShowMessage("\\n<Oni>Yaaay! I won!\nYou can't resist now, right?")
ShowMessageFace("kooni_fc1",0,0,2,3)
ShowMessage("\\n<Oni>Okay! I want to do lewd things then!")
ShowMessageFace("",0,0,2,4)
ShowMessage("\\n<Luka>S...Stop...!")
PictureDisplay(5,"ev_kooni_h09",0,0,0,0,100,100,0,0)
PictureMove(5,null,0,0,0,0,100,100,255,0,30,true)
ShowMessageFace("",0,0,2,5)
ShowMessage("The Oni peels off my clothes, and quickly leaves me naked.")
ShowMessage("She then undresses herself, and clings to me.")
ShowMessageFace("kooni_fc1",0,0,2,6)
ShowMessage("\\n<Oni>I've been practicing squeezing inside my vagina.\nI can make it soooo tight, someone like you would come in an instant♪")
ShowMessageFace("",0,0,2,7)
ShowMessage("\\n<Luka>N-noooo... That's...")
ShowMessageFace("",0,0,2,8)
ShowMessage("Ignoring me, the Oni brings my penis next to her entrance.")
ShowMessage("Pressing my glans to her slit, she forces me in all at once.")
245(bytes(0x04,0x08,0x6f,0x3a,0x0d,0x52,0x50,0x47,0x3a,0x3a,0x42,0x47,0x53,0x08,0x3a,0x0a,0x40,0x6e,0x61,0x6d,0x65,0x49,0x22,0x1e,0x6d,0x6f,0x6e,0x5f,0x68,0x73,0x65,0x61,0x6e,0x30,0x37,0x5f,0x69,0x6e,0x6e,0x65,0x72,0x77,0x6f,0x72,0x6b,0x73,0x5f,0x61,0x37,0x06,0x3a,0x06,0x45,0x54,0x3a,0x0c,0x40,0x76,0x6f,0x6c,0x75,0x6d,0x65,0x69,0x55,0x3a,0x0b,0x40,0x70,0x69,0x74,0x63,0x68,0x69,0x69))
PictureDisplay(5,"ev_kooni_h10",0,0,0,0,100,100,255,0)
ShowMessageFace("",0,0,2,9)
ShowMessage("My penis sinks into her tight vagina!")
ShowMessage("Somewhat muscular flesh presses down on me from every side.")
ShowMessageFace("",0,0,2,10)
ShowMessage("\\n<Luka>Ah, aaah!")
ShowMessageFace("kooni_fc1",0,0,2,11)
ShowMessage("\\n<Oni>Ahaha, it's already pretty tight, right?~♪\nBut there's a lot more to go...♪")
ShowMessageFace("",0,0,2,12)
ShowMessage("With that said, the Oni squeezes down tight on me.")
ShowMessage("Her narrow vagina squeezes me from every direction.")
ShowMessageFace("",0,0,2,13)
ShowMessage("\\n<Luka>Hya... Aaaaaah!!")
ShowMessageFace("kooni_fc1",0,0,2,14)
ShowMessage("\\n<Oni>Even if you moan, I won't let up~♪\nIt's useless, even if you cry♪")
ShowMessageFace("",0,0,2,15)
ShowMessage("\\n<Luka>Ah, aaaah!!")
ShowMessageFace("",0,0,2,16)
ShowMessage("Her flesh presses into me.")
ShowMessage("But it isn't just mindlessly squeezing me...")
ShowMessageFace("",0,0,2,17)
ShowMessage("Each time she tenses her lower body, I can feel her press on me...")
ShowMessage("And when she breathes out, she untenses, loosening up.")
ShowMessageFace("",0,0,2,18)
ShowMessage("Her back and forth squeezing is clearly aiming to give me pleasure.")
ShowMessage("Every time she squeezes me, it feels like I could just climax right there.")
ShowMessageFace("kooni_fc1",0,0,2,19)
ShowMessage("\\n<Oni>Aha, it's like my pussy is bullying your penis♪\nHooora... Hooora... I'll make it even tighter...♪")
ShowMessageFace("",0,0,2,20)
ShowMessage("\\n<Luka>Unnngh... Ah, aaaah...!")
ShowMessageFace("",0,0,2,21)
ShowMessage("A crazy feeling of oppression assaults my penis.")
ShowMessage("My body trembles every time she even slightly loosens up.")
ShowMessageFace("",0,0,2,22)
ShowMessage("In only moments, I feel myself nearing an edge.")
ShowMessage("My waist is dominated by a sweet sensation...")
ShowMessageFace("",0,0,2,23)
ShowMessage("\\n<Luka>Ah, Don't...I'm coming...!")
ShowMessageFace("kooni_fc1",0,0,2,24)
ShowMessage("\\n<Oni>Aree? Already coming...?\nI haven't even used my finishing move yet...")
ShowMessageFace("kooni_fc1",0,0,2,25)
ShowMessage("\\n<Oni>Well, whatever. Come~♪")
ShowMessageFace("",0,0,2,26)
ShowMessage("In the next instant, she squeezes me even tighter than before.")
ShowMessage("Her soft flesh presses down on my penis in ecstasy.")
ShowMessageFace("",0,0,2,27)
ShowMessage("My mind goes blank as I savor the pure white feeling.")
ShowMessageFace("",0,0,2,28)
ShowMessage("\\n<Luka>Ah... Aaaaaah!!")
RunCommonEvent(104)
PictureDisplay(5,"ev_kooni_h11",0,0,0,0,100,100,255,0)
RunCommonEvent(105)
ShowMessageFace("",0,0,2,29)
ShowMessage("I explode in the small monster's body.")
ShowMessage("My semen gushes into her narrow vagina.")
ShowMessageFace("kooni_fc1",0,0,2,30)
ShowMessage("\\n<Oni>Ahaha, it's leaking♪\nI'll squeeze you properly, right until the end...")
ShowMessageFace("",0,0,2,31)
ShowMessage("\\n<Luka>Nnngh...")
ShowMessageFace("",0,0,2,32)
ShowMessage("Her vagina contracts in a milking motion.")
ShowMessage("Doing that, she squeezes every drop of semen into her.")
PictureDisplay(5,"ev_kooni_h12",0,0,0,0,100,100,255,0)
ShowMessageFace("kooni_fc1",0,0,2,33)
ShowMessage("\\n<Oni>My pussy was super tight, wasn't it?\nBut I haven't even gotten serious yet...")
ShowMessageFace("kooni_fc1",0,0,2,34)
ShowMessage("\\n<Oni>My super finisher move is even more amazing.\nI'll let you have a taste of it now♪")
ShowMessageFace("",0,0,2,35)
ShowMessage("\\n<Luka>Th...that...")
ShowMessageFace("",0,0,2,36)
ShowMessage("Even more amazing than how tight she was before...")
ShowMessage("Just what is she going to do...?")
ShowMessageFace("",0,0,2,37)
ShowMessage("I tremble in fear, but part of my body gets excited at what's to come.")
ShowMessage("Just how good is it going to feel...?")
ShowMessageFace("kooni_fc1",0,0,2,38)
ShowMessage("\\n<Oni>Ok, let's start♪\nFinishing move, Sack Bind~♪")
ShowMessageFace("",0,0,2,39)
ShowMessage("In the next moment, the small monster's vagina shrinks!")
ShowMessage("It presses down to extreme tightness around my glans and base...")
ShowMessageFace("",0,0,2,40)
ShowMessage("\\n<Luka>Wh-What is this... Ah, aaah...\nAaaaaah!!")
ShowMessageFace("",0,0,2,41)
ShowMessage("Deep inside of her, and at her entrance, it's like two vises are clamping on me.")
ShowMessage("But it doesn't just stay tight, it's pulsing back and forth from extreme tightness and looseness...")
ShowMessageFace("kooni_fc1",0,0,2,42)
ShowMessage("\\n<Oni>Hora, hora, it's a double tightening♪\nYou absolutely can't endure this at all, can you...?")
ShowMessageFace("",0,0,2,43)
ShowMessage("\\n<Luka>I-Incredible... Hya, Aaaaaah!!")
ShowMessageFace("",0,0,2,44)
ShowMessage("The tip of my penis is being squeezed hard deep inside her.")
ShowMessage("This incredible pleasure would force anyone to heaven.")
ShowMessageFace("",0,0,2,45)
ShowMessage("\\n<Luka>N-noooo... Ah, aaaaaah!!")
ShowMessageFace("",0,0,2,46)
ShowMessage("Writhing in ecstasy, I push my waist up into that sexy touch.")
ShowMessage("A crazy feeling of release bubbles and explodes within me.")
RunCommonEvent(104)
PictureDisplay(5,"ev_kooni_h13",0,0,0,0,100,100,255,0)
RunCommonEvent(105)
ShowMessageFace("",0,0,2,47)
ShowMessage("My semen explodes into the small girl's body.")
ShowMessage("Tasting her tightness even during my orgasm, I get drunk on the feeling of release.")
ShowMessageFace("",0,0,2,48)
ShowMessage("\\n<Luka>Ngh...Ugh...")
ShowMessageFace("kooni_fc1",0,0,2,49)
ShowMessage("\\n<Oni>Ahaha, I made you come with my Sack Bind skill♪\nDid you love my finishing move that much...?")
ShowMessageFace("",0,0,2,50)
ShowMessage("The Oni giggles as she moves her face toward me.")
PictureDisplay(5,"ev_kooni_h14",0,0,0,0,100,100,255,0)
ShowMessageFace("kooni_fc1",0,0,2,51)
ShowMessage("\\n<Oni>Nnn...")
ShowMessageFace("",0,0,2,52)
ShowMessage("Her soft lips press against my own.")
ShowMessage("A soft, relaxing bliss spreads from my brain to my body.")
ShowMessageFace("",0,0,2,53)
ShowMessage("A fascinating kiss that steals away my heart.")
ShowMessage("At the same time, she keeps squeezing my penis inside her.")
ShowMessageFace("kooni_fc1",0,0,2,54)
ShowMessage("\\n<Oni>*Kiss* *Kiss*")
ShowMessageFace("",0,0,2,55)
ShowMessage("\\n<Luka>Nnnnn...")
ShowMessageFace("",0,0,2,56)
ShowMessage("I feel the intense tightness of her vagina as she kisses me.")
ShowMessage("My body twitches as I feel myself tasting heaven again.")
RunCommonEvent(104)
PictureDisplay(5,"ev_kooni_h16",0,0,0,0,100,100,255,0)
RunCommonEvent(105)
ShowMessageFace("",0,0,2,57)
ShowMessage("The same time her lips part from me, I come inside her.")
ShowMessage("Tasting ecstasy, I devote all of my semen to her.")
ShowMessageFace("",0,0,2,58)
ShowMessage("Her vagina is filled with my squeezed semen.")
ShowMessage("I'm completely subjugated as a man...")
246(2)
PictureDisplay(5,"ev_kooni_h17",0,0,0,0,100,100,255,0)
ShowMessageFace("kooni_fc1",0,0,2,59)
ShowMessage("\\n<Oni>Ahaha, how did my kiss taste?\nThe charm magic should make you melt♪")
ShowMessageFace("",0,0,2,60)
ShowMessage("\\n<Luka>Huaaa... Aaah...")
ShowMessageFace("",0,0,2,61)
ShowMessage("I've already been made as weak as a kitten by this girl.")
ShowMessage("By her tight vagina, and magic kiss...")
ShowMessageFace("kooni_fc1",0,0,2,62)
ShowMessage("\\n<Oni>All right then, you're going to be my practice partner.\nI'm going to practice all of my skills, over and over, until I'm an amazing Oni♪")
ShowMessageFace("",0,0,2,63)
ShowMessage("\\n<Luka>Aaah...")
ShowMessageFace("",0,0,2,64)
ShowMessage("I cling to the Oni, having given myself over to her.")
ShowMessage("Completely entranced by her, I can't go against her any longer...")
221()
PictureClear(5)
ShowMessageFace("",0,0,2,65)
ShowMessage("Thus, I was raped over and over again by the Oni.")
ShowMessage("Imprisoned in her home, I'm no longer able to go anywhere.")
ShowMessageFace("",0,0,2,66)
ShowMessage("For the rest of my life, I'll be this small monster's sex slave.")
ShowMessage("But after having lost my reason, it was pure happiness.")
DefineLabel("反省会")
ShowMessageFace("",0,0,2,67)
ShowMessage("......")
221()
242(1)
Wait(120)
355("memory_interruption")
ShowMessageFace("",0,0,2,68)
ShowMessage("You hear Ilias' voice calling out to you...")
ShowMessage("Receive her evaluation?")
ShowChoices(strings("Receive evaluation","Change difficulty","Reincarnate"),3)
IfPlayerPicksChoice(0,null)
 241(bytes(0x04,0x08,0x6f,0x3a,0x0d,0x52,0x50,0x47,0x3a,0x3a,0x42,0x47,0x4d,0x08,0x3a,0x0a,0x40,0x6e,0x61,0x6d,0x65,0x49,0x22,0x0a,0x69,0x72,0x69,0x61,0x73,0x06,0x3a,0x06,0x45,0x54,0x3a,0x0c,0x40,0x76,0x6f,0x6c,0x75,0x6d,0x65,0x69,0x5f,0x3a,0x0b,0x40,0x70,0x69,0x74,0x63,0x68,0x69,0x6e))
 PictureDisplay(1,"bg001",0,0,0,0,100,100,255,0)
 222()
 PictureDisplay(5,"80_iriasu_st04",0,0,0,0,100,100,0,0)
 PictureMove(5,null,0,0,0,0,100,100,255,0,30,true)
 ShowMessageFace("iriasu_fc1",3,0,2,69)
 ShowMessage("\\n<Ilias>Sheesh, raped by even a small monster girl?\nDo you ever fight seriously?")
 PictureDisplay(5,"80_iriasu_st01",0,0,0,0,100,100,255,0)
 ShowMessageFace("iriasu_fc1",0,0,2,70)
 ShowMessage("\\n<Ilias>The Oni has high power, despite being small.\nYou'll take a lot of damage from her attacks.")
 ShowMessageFace("iriasu_fc1",0,0,2,71)
 ShowMessage("\\n<Ilias>But she's weak against status abnormalities.\nIf you make her blind, she won't be able to fight properly.")
 ShowMessageFace("iriasu_fc1",0,0,2,72)
 ShowMessage("\\n<Ilias>Also, pleasure techniques are very effective.\nUnless you attack her head on, you should have an easy fight.")
 PictureDisplay(5,"80_iriasu_st02",0,0,0,0,100,100,255,0)
 ShowMessageFace("iriasu_fc1",1,0,2,73)
 ShowMessage("\\n<Ilias>Now go, oh brave Luka.\nI'm worried about when you fight a grown Oni...")
 242(1)
 221()
 PictureClear(5)
 PictureClear(1)
 Wait(60)
 0()
IfPlayerPicksChoice(1,null)
 ShowMessageFace("",0,0,2,74)
 ShowMessage("Please choose a difficulty level.")
 RunCommonEvent(110)
 0()
IfPlayerPicksChoice(2,null)
 0()
404()
RunCommonEvent(3000)
0()
