﻿// EVENT 5785
Name "Rネメア2"

If(0,443,0)
 205(-1,bytes(0x04,0x08,0x6f,0x3a,0x13,0x52,0x50,0x47,0x3a,0x3a,0x4d,0x6f,0x76,0x65,0x52,0x6f,0x75,0x74,0x65,0x09,0x3a,0x0c,0x40,0x72,0x65,0x70,0x65,0x61,0x74,0x46,0x3a,0x0f,0x40,0x73,0x6b,0x69,0x70,0x70,0x61,0x62,0x6c,0x65,0x46,0x3a,0x0a,0x40,0x77,0x61,0x69,0x74,0x54,0x3a,0x0a,0x40,0x6c,0x69,0x73,0x74,0x5b,0x07,0x6f,0x3a,0x15,0x52,0x50,0x47,0x3a,0x3a,0x4d,0x6f,0x76,0x65,0x43,0x6f,0x6d,0x6d,0x61,0x6e,0x64,0x07,0x3a,0x0a,0x40,0x63,0x6f,0x64,0x65,0x69,0x18,0x3a,0x10,0x40,0x70,0x61,0x72,0x61,0x6d,0x65,0x74,0x65,0x72,0x73,0x5b,0x00,0x6f,0x3b,0x0a,0x07,0x3b,0x0b,0x69,0x00,0x3b,0x0c,0x5b,0x00))
 ChangeVariable(1111,1111,0,0,2)
 222()
 0()
EndIf()
241(bytes(0x04,0x08,0x6f,0x3a,0x0d,0x52,0x50,0x47,0x3a,0x3a,0x42,0x47,0x4d,0x08,0x3a,0x0a,0x40,0x6e,0x61,0x6d,0x65,0x49,0x22,0x09,0x65,0x72,0x6f,0x31,0x06,0x3a,0x06,0x45,0x54,0x3a,0x0c,0x40,0x76,0x6f,0x6c,0x75,0x6d,0x65,0x69,0x69,0x3a,0x0b,0x40,0x70,0x69,0x74,0x63,0x68,0x69,0x69))
ShowMessageFace("nemea_fc2",1,0,2,1)
ShowMessage("【ネメア】")
ShowMessage("さあ、いらっしゃい。")
ShowMessage("一緒にお風呂に入りましょう……")
ShowMessageFace("",0,0,2,2)
ShowMessage("【ルカ】")
ShowMessage("は、はい……")
ShowMessageFace("",0,0,2,3)
ShowMessage("僕は言われるがままに服を脱ぐと、")
ShowMessage("そのままネメアの方に歩み寄っていった――")
221()
211(0)
ChangeSwitch(31,31,0)
205(16,bytes(0x04,0x08,0x6f,0x3a,0x13,0x52,0x50,0x47,0x3a,0x3a,0x4d,0x6f,0x76,0x65,0x52,0x6f,0x75,0x74,0x65,0x09,0x3a,0x0c,0x40,0x72,0x65,0x70,0x65,0x61,0x74,0x46,0x3a,0x0f,0x40,0x73,0x6b,0x69,0x70,0x70,0x61,0x62,0x6c,0x65,0x46,0x3a,0x0a,0x40,0x77,0x61,0x69,0x74,0x54,0x3a,0x0a,0x40,0x6c,0x69,0x73,0x74,0x5b,0x07,0x6f,0x3a,0x15,0x52,0x50,0x47,0x3a,0x3a,0x4d,0x6f,0x76,0x65,0x43,0x6f,0x6d,0x6d,0x61,0x6e,0x64,0x07,0x3a,0x0a,0x40,0x63,0x6f,0x64,0x65,0x69,0x17,0x3a,0x10,0x40,0x70,0x61,0x72,0x61,0x6d,0x65,0x74,0x65,0x72,0x73,0x5b,0x00,0x6f,0x3b,0x0a,0x07,0x3b,0x0b,0x69,0x00,0x3b,0x0c,0x5b,0x00))
TeleportPlayer(0,91,25,7,0,2)
222()
ShowMessageFace("nemea_fc2",5,0,2,4)
ShowMessage("【ネメア】")
ShowMessage("うふふっ……素直な子……")
ShowMessage("それにあどけない顔つき……とってもかわいいわ……♡")
ShowMessageFace("",0,0,2,5)
ShowMessage("泡風呂の中で、手を広げて僕を誘うネメア。")
ShowMessage("まるで、獲物を待つ蜘蛛のような禍々しさがつきまとう。")
205(27,bytes(0x04,0x08,0x6f,0x3a,0x13,0x52,0x50,0x47,0x3a,0x3a,0x4d,0x6f,0x76,0x65,0x52,0x6f,0x75,0x74,0x65,0x09,0x3a,0x0c,0x40,0x72,0x65,0x70,0x65,0x61,0x74,0x46,0x3a,0x0f,0x40,0x73,0x6b,0x69,0x70,0x70,0x61,0x62,0x6c,0x65,0x46,0x3a,0x0a,0x40,0x77,0x61,0x69,0x74,0x54,0x3a,0x0a,0x40,0x6c,0x69,0x73,0x74,0x5b,0x07,0x6f,0x3a,0x15,0x52,0x50,0x47,0x3a,0x3a,0x4d,0x6f,0x76,0x65,0x43,0x6f,0x6d,0x6d,0x61,0x6e,0x64,0x07,0x3a,0x0a,0x40,0x63,0x6f,0x64,0x65,0x69,0x07,0x3a,0x10,0x40,0x70,0x61,0x72,0x61,0x6d,0x65,0x74,0x65,0x72,0x73,0x5b,0x00,0x6f,0x3b,0x0a,0x07,0x3b,0x0b,0x69,0x00,0x3b,0x0c,0x5b,0x00))
ShowMessageFace("",0,0,2,6)
ShowMessage("それなのに、僕は誘惑に抗うことができず――")
ShowMessage("湯船の中のネメアに、体を預けてしまった。")
ShowMessageFace("",0,0,2,7)
ShowMessage("【ルカ】")
ShowMessage("あぁぁぁ……")
ShowMessageFace("nemea_fc2",5,0,2,8)
ShowMessage("【ネメア】")
ShowMessage("来てくれたわね、偉いわ……")
ShowMessage("うふふっ、たっぷり可愛がってあげる♡")
ChangeSwitch(32,32,0)
211(0)
ShowMessageFace("",0,0,2,9)
ShowMessage("湯船の中で、ネメアの柔らかく温かな体に抱かれる。")
ShowMessage("それだけで、理性を失うほどの恍惚感に包まれた――")
ShowMessageFace("nemea_fc2",5,0,2,10)
ShowMessage("【ネメア】")
ShowMessage("じっくりと体を洗ってあげるわ……")
ShowMessage("普段、こんなことはしてあげないのよ？")
245(bytes(0x04,0x08,0x6f,0x3a,0x0d,0x52,0x50,0x47,0x3a,0x3a,0x42,0x47,0x53,0x08,0x3a,0x0a,0x40,0x6e,0x61,0x6d,0x65,0x49,0x22,0x17,0x6d,0x6f,0x6e,0x5f,0x68,0x73,0x65,0x61,0x6e,0x31,0x37,0x5f,0x73,0x69,0x67,0x6f,0x6b,0x69,0x06,0x3a,0x06,0x45,0x54,0x3a,0x0c,0x40,0x76,0x6f,0x6c,0x75,0x6d,0x65,0x69,0x55,0x3a,0x0b,0x40,0x70,0x69,0x74,0x63,0x68,0x69,0x69))
ShowMessageFace("",0,0,2,11)
ShowMessage("【ルカ】")
ShowMessage("はぅぅぅ……")
ShowMessageFace("",0,0,2,12)
ShowMessage("ネメアの泡にまみれた掌が、体中を優しく撫でる。")
ShowMessage("そして、大きくなった肉棒も泡まみれの愛撫を受け――")
ShowMessageFace("",0,0,2,13)
ShowMessage("【ルカ】")
ShowMessage("だ、だめ……あぁぁぁっ！！")
RunCommonEvent(104)
RunCommonEvent(105)
ShowMessageFace("",0,0,2,14)
ShowMessage("そのまま、あえなく発射してしまった。")
ShowMessage("泡の中に精液を漏らし、ネメアに体を預けたまま脱力する――")
ShowMessageFace("nemea_fc2",5,0,2,15)
ShowMessage("【ネメア】")
ShowMessage("あらあら、もうオモラシしちゃったのね。")
ShowMessage("大丈夫よ、ちゃんと綺麗にしてあげるから……")
ShowMessageFace("",0,0,2,16)
ShowMessage("【ルカ】")
ShowMessage("はぅぅぅっ……")
ShowMessageFace("",0,0,2,17)
ShowMessage("射精した直後のペニスが、泡まみれの手で洗われる。")
ShowMessage("そして、全身くまなく甘い愛撫が与えられた。")
ChangeSwitch(33,33,0)
ShowMessageFace("",0,0,2,18)
ShowMessage("たちまち僕の体は、温かくぬめった泡に包まれていく――")
ShowMessageFace("",0,0,2,19)
ShowMessage("【ルカ】")
ShowMessage("ふぁぁぁ……")
ShowMessageFace("",0,0,2,20)
ShowMessage("身も心もとろけ、理性を失うほどの快感。")
ShowMessage("ネメアに抱かれながらの泡愛撫は、僕を天国に誘った。")
ShowMessageFace("",0,0,2,21)
ShowMessage("にゅるにゅると、泡まみれの手でペニスが弄ばれる。")
ShowMessage("僕はネメアの胸の中で、ぶるっと体を震わせ――")
RunCommonEvent(104)
RunCommonEvent(105)
ShowMessageFace("",0,0,2,22)
ShowMessage("またも、湯船の中に精液を撒き散らしていた。")
ShowMessage("ネメアはくすくす笑いながら、僕の体を洗い続ける。")
ShowMessageFace("nemea_fc2",5,0,2,23)
ShowMessage("【ネメア】")
ShowMessage("あらあら……また漏らしちゃったのね。")
ShowMessage("敏感な子……ほんとにかわいい……♡")
ShowMessageFace("",0,0,2,24)
ShowMessage("【ルカ】")
ShowMessage("はぅ……うぅぅ……")
ShowMessageFace("nemea_fc2",5,0,2,25)
ShowMessage("【ネメア】")
ShowMessage("それじゃあ、この泡風呂の中にたっぷり漏らしましょう。")
ShowMessage("天国に逝っちゃうまでね……うふふっ♡")
ShowMessageFace("",0,0,2,26)
ShowMessage("【ルカ】")
ShowMessage("あ……あぁぁぁ……")
RunCommonEvent(104)
RunCommonEvent(105)
ShowMessageFace("",0,0,2,27)
ShowMessage("そのまま僕は、延々と天国の時間を過ごした。")
ShowMessage("ネメアに抱かれ、甘い泡にまみれながらの愛撫を満喫したのだ。")
ShowMessageFace("",0,0,2,28)
ShowMessage("そして、快楽の赴くままに射精を繰り返す――")
ShowMessage("それは酷薄な淫魔にとって、生殺しの捕食も同然だった。")
ShowMessageFace("nemea_fc2",5,0,2,29)
ShowMessage("【ネメア】")
ShowMessage("うふふっ、ここも洗ってあげる……♡")
ShowMessageFace("",0,0,2,30)
ShowMessage("【ルカ】")
ShowMessage("ふぁぁぁ……")
ShowMessage("先っちょ、そんなに洗わないでぇ……")
RunCommonEvent(104)
RunCommonEvent(105)
ShowMessageFace("nemea_fc2",5,0,2,31)
ShowMessage("【ネメア】")
ShowMessage("あらあら、また汚しちゃって。")
ShowMessage("お風呂でお漏らしなんて、いけない子……♡")
ShowMessageFace("",0,0,2,32)
ShowMessage("【ルカ】")
ShowMessage("ふぁぁ……ごめんなさい……")
ShowMessageFace("nemea_fc2",5,0,2,33)
ShowMessage("【ネメア】")
ShowMessage("悪いおちんちんは……あわあわの刑よ♡")
ShowMessageFace("",0,0,2,34)
ShowMessage("【ルカ】")
ShowMessage("ひゃぅぅぅぅ……")
RunCommonEvent(104)
RunCommonEvent(105)
ShowMessageFace("nemea_fc2",5,0,2,35)
ShowMessage("【ネメア】")
ShowMessage("あらあら、すっかりとろけちゃって。")
ShowMessage("もうそろそろ、昇天しちゃうかしら……？")
ShowMessageFace("",0,0,2,36)
ShowMessage("【ルカ】")
ShowMessage("ぅ……ぁ……")
RunCommonEvent(104)
RunCommonEvent(105)
ShowMessageFace("",0,0,2,37)
ShowMessage("夢うつつのまま、何度も何度も射精を繰り返し――")
ShowMessage("そして、ネメアの入浴が終わった頃には――")
246(2)
ChangeSwitch(34,34,0)
ShowMessageFace("",0,0,2,38)
ShowMessage("【ルカ】")
ShowMessage("……………………")
ShowMessageFace("",0,0,2,39)
ShowMessage("泡風呂の中に、干涸らびた屍が浮かんでいた。")
ShowMessage("その精は湯船に根こそぎ搾り出され、泡と白濁が混じっている。")
ShowMessageFace("nemea_fc2",5,0,2,40)
ShowMessage("【ネメア】")
ShowMessage("うふふっ、こういうお風呂もいいわね。")
ShowMessage("たっぷり精を持った子でないと出来ないのよ……")
ShowMessageFace("",0,0,2,41)
ShowMessage("そしてネメアは、泡風呂に搾り出した精を吸収した。")
ShowMessage("溢れんばかりの白濁を、一気に吸い上げてしまう――")
ShowMessageFace("nemea_fc2",5,0,2,42)
ShowMessage("【ネメア】")
ShowMessage("うふふっ、ごちそうさま……")
ShowMessage("思わぬ贅沢が出来たわ♡")
221()
246(2)
PictureClear(5)
PictureClear(6)
ShowMessageFace("",0,0,2,43)
ShowMessage("・・・・・・・・")
221()
242(1)
Wait(120)
If(0,443,0)
 EndEventProcessing()
 0()
EndIf()
RunCommonEvent(541)
0()
