﻿// EVENT 0546
Name "ループ：階段ミュスカ遭遇"

ShowSpeechBalloon(-1,1,false)
Wait(30)
ShowMessageFace("myuska_fc1",2,0,2,1)
ShowMessage("【ミュスカ】")
ShowMessage("あれ……？")
ShowMessageFace("ruka_fc1",0,0,2,2)
ShowMessage("【ルカ】")
ShowMessage("うわっ……！？")
ShowMessageFace("",0,0,2,3)
ShowMessage("階段を降りてきたミュスカと出会い頭に遭遇してしまった。")
ShowMessage("まずい、どうする……？")
DefineLabel("選択")
355("ex_choice_add(\"戦う\",1)")
655("ex_choice_add(\"逃げる\",2)")
655("ex_choice_add(\"爆竹を使う\",3,\"s[2420]\",0)")
655("ex_choice_add(\"まきびしを使う\",4,\"s[2421]\",0)")
655("ex_choice_add(\"手榴弾を使う\",5,\"s[2422]\",0)")
655("ex_choice_add(\"拘束の呪符を使う\",6,\"s[2423]\",0)")
655("ex_choice_add(\"ラケルの爆石を使う\",7,\"s[2381]\",0)")
655("ex_choice_add(\"迷宮の書物を使う\",8,\"s[2371]\",0)")
355("ex_choice_show(0,11,[0,0])")
If(1,9,0,1,0)
 ShowMessageFace("ruka_fc1",0,0,2,4)
 ShowMessage("【ルカ】")
 ShowMessage("くっ、やるしかないか……！")
 ShowMessageFace("",0,0,2,5)
 ShowMessage("僕は、剣を構えたが――")
 355("display_skill_name(\"恍惚の魔眼\")")
 Wait(15)
 250(bytes(0x04,0x08,0x6f,0x3a,0x0c,0x52,0x50,0x47,0x3a,0x3a,0x53,0x45,0x08,0x3a,0x0a,0x40,0x6e,0x61,0x6d,0x65,0x49,0x22,0x0e,0x6d,0x6f,0x6e,0x5f,0x66,0x6c,0x61,0x73,0x68,0x06,0x3a,0x06,0x45,0x54,0x3a,0x0b,0x40,0x70,0x69,0x74,0x63,0x68,0x69,0x69,0x3a,0x0c,0x40,0x76,0x6f,0x6c,0x75,0x6d,0x65,0x69,0x69))
 224(bytes(0x04,0x08,0x75,0x3a,0x0a,0x43,0x6f,0x6c,0x6f,0x72,0x25,0x00,0x00,0x00,0x00,0x00,0xe0,0x6f,0x40,0x00,0x00,0x00,0x00,0x00,0x80,0x69,0x40,0x00,0x00,0x00,0x00,0x00,0xe0,0x6f,0x40,0x00,0x00,0x00,0x00,0x00,0xe0,0x6f,0x40),60,true)
 Wait(15)
 355("clear_skill_name")
 ShowMessageFace("ruka_fc1",0,0,2,6)
 ShowMessage("【ルカ】")
 ShowMessage("あ、あぁぁ……")
 ShowMessageFace("",0,0,2,7)
 ShowMessage("甘い感覚が、全身にじっくりと染み渡った。")
 ShowMessage("体の力が抜け、剣を落としてしまう――")
 JumpToLabel("結果")
 0()
EndIf()
If(1,9,0,2,0)
 ShowMessageFace("ruka_fc1",0,0,2,8)
 ShowMessage("【ルカ】")
 ShowMessage("まずい、逃げないと……！")
 ShowMessageFace("",0,0,2,9)
 ShowMessage("僕は、そのまま背を向けようとしたが――")
 355("display_skill_name(\"恍惚の魔眼\")")
 Wait(15)
 250(bytes(0x04,0x08,0x6f,0x3a,0x0c,0x52,0x50,0x47,0x3a,0x3a,0x53,0x45,0x08,0x3a,0x0a,0x40,0x6e,0x61,0x6d,0x65,0x49,0x22,0x0e,0x6d,0x6f,0x6e,0x5f,0x66,0x6c,0x61,0x73,0x68,0x06,0x3a,0x06,0x45,0x54,0x3a,0x0b,0x40,0x70,0x69,0x74,0x63,0x68,0x69,0x69,0x3a,0x0c,0x40,0x76,0x6f,0x6c,0x75,0x6d,0x65,0x69,0x69))
 224(bytes(0x04,0x08,0x75,0x3a,0x0a,0x43,0x6f,0x6c,0x6f,0x72,0x25,0x00,0x00,0x00,0x00,0x00,0xe0,0x6f,0x40,0x00,0x00,0x00,0x00,0x00,0x80,0x69,0x40,0x00,0x00,0x00,0x00,0x00,0xe0,0x6f,0x40,0x00,0x00,0x00,0x00,0x00,0xe0,0x6f,0x40),60,true)
 Wait(15)
 355("clear_skill_name")
 ShowMessageFace("ruka_fc1",0,0,2,10)
 ShowMessage("【ルカ】")
 ShowMessage("あ、あぁぁ……")
 ShowMessageFace("",0,0,2,11)
 ShowMessage("甘い感覚が、全身にじっくりと染み渡った。")
 ShowMessage("体の力が抜け、逃げることさえできない――")
 JumpToLabel("結果")
 0()
EndIf()
If(1,9,0,3,0)
 250(bytes(0x04,0x08,0x6f,0x3a,0x0c,0x52,0x50,0x47,0x3a,0x3a,0x53,0x45,0x08,0x3a,0x0a,0x40,0x6e,0x61,0x6d,0x65,0x49,0x22,0x0d,0x62,0x61,0x6b,0x75,0x74,0x69,0x6b,0x75,0x06,0x3a,0x06,0x45,0x54,0x3a,0x0b,0x40,0x70,0x69,0x74,0x63,0x68,0x69,0x69,0x3a,0x0c,0x40,0x76,0x6f,0x6c,0x75,0x6d,0x65,0x69,0x55))
 ShowMessageFace("",0,0,2,12)
 ShowMessage("ルカは爆竹を投げつけた！")
 ShowMessageFace("myuska_fc1",0,0,2,13)
 ShowMessage("【ミュスカ】")
 ShowMessage("何それ、花火？")
 ShowMessage("まだ残ってるなら、私にも遊ばせてよ。")
 JumpToLabel("魔眼")
 0()
EndIf()
If(1,9,0,4,0)
 250(bytes(0x04,0x08,0x6f,0x3a,0x0c,0x52,0x50,0x47,0x3a,0x3a,0x53,0x45,0x08,0x3a,0x0a,0x40,0x6e,0x61,0x6d,0x65,0x49,0x22,0x0a,0x57,0x69,0x6e,0x64,0x37,0x06,0x3a,0x06,0x45,0x54,0x3a,0x0b,0x40,0x70,0x69,0x74,0x63,0x68,0x69,0x69,0x3a,0x0c,0x40,0x76,0x6f,0x6c,0x75,0x6d,0x65,0x69,0x55))
 ShowMessageFace("",0,0,2,14)
 ShowMessage("ルカはまきびしをばら撒いた！")
 ShowMessageFace("myuska_fc1",0,0,2,15)
 ShowMessage("【ミュスカ】")
 ShowMessage("うわ、これ「まきびし」ってやつ？")
 ShowMessage("くす……踏みつぶしてあげよっか。")
 JumpToLabel("魔眼")
 0()
EndIf()
If(1,9,0,5,0)
 212(16,505,false)
 ShowMessageFace("",0,0,2,16)
 ShowMessage("ルカは手榴弾を投げつけた！")
 ShowMessageFace("myuska_fc1",2,0,2,17)
 ShowMessage("【ミュスカ】")
 ShowMessage("もう～、いちいち散らかさないでよ。")
 ShowMessage("キミ……うるさいしとっとと食べちゃお。")
 JumpToLabel("魔眼")
 0()
EndIf()
If(1,9,0,6,0)
 212(16,35,false)
 ShowMessageFace("",0,0,2,18)
 ShowMessage("ルカは拘束の呪符を使った！")
 ShowMessageFace("myuska_fc1",2,0,2,19)
 ShowMessage("【ミュスカ】")
 ShowMessage("なにこれ……？")
 ShowMessage("ちょっとピリッとしたけど、もうおしまい？")
 JumpToLabel("魔眼")
 0()
EndIf()
If(1,9,0,7,0)
 212(16,736,false)
 ShowMessageFace("",0,0,2,20)
 ShowMessage("ルカはラケルの爆石を投げつけた！")
 ShowMessageFace("myuska_fc1",2,0,2,21)
 ShowMessage("【ミュスカ】")
 ShowMessage("もう～、いちいち散らかさないでよ。")
 ShowMessage("キミ……うるさいしとっとと食べちゃお。")
 JumpToLabel("魔眼")
 0()
EndIf()
If(1,9,0,8,0)
 250(bytes(0x04,0x08,0x6f,0x3a,0x0c,0x52,0x50,0x47,0x3a,0x3a,0x53,0x45,0x08,0x3a,0x0a,0x40,0x6e,0x61,0x6d,0x65,0x49,0x22,0x0a,0x42,0x6f,0x6f,0x6b,0x32,0x06,0x3a,0x06,0x45,0x54,0x3a,0x0b,0x40,0x70,0x69,0x74,0x63,0x68,0x69,0x69,0x3a,0x0c,0x40,0x76,0x6f,0x6c,0x75,0x6d,0x65,0x69,0x55))
 ShowMessageFace("",0,0,2,22)
 ShowMessage("ルカは迷宮の書物を開いた！")
 ShowMessageFace("myuska_fc1",2,0,2,23)
 ShowMessage("【ミュスカ】")
 ShowMessage("なに、その本――")
 Wait(30)
 212(16,542,false)
 Wait(60)
 205(16,bytes(0x04,0x08,0x6f,0x3a,0x13,0x52,0x50,0x47,0x3a,0x3a,0x4d,0x6f,0x76,0x65,0x52,0x6f,0x75,0x74,0x65,0x09,0x3a,0x0c,0x40,0x72,0x65,0x70,0x65,0x61,0x74,0x46,0x3a,0x0f,0x40,0x73,0x6b,0x69,0x70,0x70,0x61,0x62,0x6c,0x65,0x46,0x3a,0x0a,0x40,0x77,0x61,0x69,0x74,0x54,0x3a,0x0a,0x40,0x6c,0x69,0x73,0x74,0x5b,0x07,0x6f,0x3a,0x15,0x52,0x50,0x47,0x3a,0x3a,0x4d,0x6f,0x76,0x65,0x43,0x6f,0x6d,0x6d,0x61,0x6e,0x64,0x07,0x3a,0x0a,0x40,0x63,0x6f,0x64,0x65,0x69,0x2c,0x3a,0x10,0x40,0x70,0x61,0x72,0x61,0x6d,0x65,0x74,0x65,0x72,0x73,0x5b,0x00,0x6f,0x3b,0x0a,0x07,0x3b,0x0b,0x69,0x00,0x3b,0x0c,0x5b,0x00))
 Wait(60)
 ShowMessageFace("ruka_fc1",0,0,2,24)
 ShowMessage("【ルカ】")
 ShowMessage("やったか……？")
 Wait(30)
 212(16,542,false)
 Wait(60)
 205(16,bytes(0x04,0x08,0x6f,0x3a,0x13,0x52,0x50,0x47,0x3a,0x3a,0x4d,0x6f,0x76,0x65,0x52,0x6f,0x75,0x74,0x65,0x09,0x3a,0x0c,0x40,0x72,0x65,0x70,0x65,0x61,0x74,0x46,0x3a,0x0f,0x40,0x73,0x6b,0x69,0x70,0x70,0x61,0x62,0x6c,0x65,0x46,0x3a,0x0a,0x40,0x77,0x61,0x69,0x74,0x54,0x3a,0x0a,0x40,0x6c,0x69,0x73,0x74,0x5b,0x07,0x6f,0x3a,0x15,0x52,0x50,0x47,0x3a,0x3a,0x4d,0x6f,0x76,0x65,0x43,0x6f,0x6d,0x6d,0x61,0x6e,0x64,0x07,0x3a,0x0a,0x40,0x63,0x6f,0x64,0x65,0x69,0x2d,0x3a,0x10,0x40,0x70,0x61,0x72,0x61,0x6d,0x65,0x74,0x65,0x72,0x73,0x5b,0x00,0x6f,0x3b,0x0a,0x07,0x3b,0x0b,0x69,0x00,0x3b,0x0c,0x5b,0x00))
 Wait(60)
 ShowMessageFace("myuska_fc1",0,0,2,25)
 ShowMessage("【ミュスカ】")
 ShowMessage("あはっ……面倒だから全部壊したら終わっちゃった♪")
 ShowMessage("今度は私がキミで遊ぶ番……だねぇ♡")
 JumpToLabel("魔眼")
 0()
EndIf()
JumpToLabel("選択")
DefineLabel("魔眼")
355("display_skill_name(\"恍惚の魔眼\")")
Wait(15)
250(bytes(0x04,0x08,0x6f,0x3a,0x0c,0x52,0x50,0x47,0x3a,0x3a,0x53,0x45,0x08,0x3a,0x0a,0x40,0x6e,0x61,0x6d,0x65,0x49,0x22,0x0e,0x6d,0x6f,0x6e,0x5f,0x66,0x6c,0x61,0x73,0x68,0x06,0x3a,0x06,0x45,0x54,0x3a,0x0b,0x40,0x70,0x69,0x74,0x63,0x68,0x69,0x69,0x3a,0x0c,0x40,0x76,0x6f,0x6c,0x75,0x6d,0x65,0x69,0x69))
224(bytes(0x04,0x08,0x75,0x3a,0x0a,0x43,0x6f,0x6c,0x6f,0x72,0x25,0x00,0x00,0x00,0x00,0x00,0xe0,0x6f,0x40,0x00,0x00,0x00,0x00,0x00,0x80,0x69,0x40,0x00,0x00,0x00,0x00,0x00,0xe0,0x6f,0x40,0x00,0x00,0x00,0x00,0x00,0xe0,0x6f,0x40),60,true)
Wait(15)
355("clear_skill_name")
ShowMessageFace("ruka_fc1",0,0,2,26)
ShowMessage("【ルカ】")
ShowMessage("あ、あぁぁ……")
ShowMessageFace("",0,0,2,27)
ShowMessage("甘い感覚が、全身にじっくりと染み渡った。")
ShowMessage("体の力が抜け、立っていることさえできない――")
DefineLabel("結果")
ShowMessageFace("myuska_fc1",0,0,2,28)
ShowMessage("【ミュスカ】")
ShowMessage("キミも強盗――じゃ、なさそうだね。")
ShowMessage("そもそも、キミって人間？")
ShowMessageFace("myuska_fc1",1,0,2,29)
ShowMessage("【ミュスカ】")
ShowMessage("あの魔法陣から召喚された、別世界のヒトかな？")
ShowMessage("そういうのも、食べてみたかったんだぁ……♡")
ShowMessageFace("",0,0,2,30)
ShowMessage("ミュスカは、脱力した僕の手を引き――")
ShowMessage("そして、自室へと連れ込んでしまった。")
221()
Wait(60)
TeleportPlayer(0,153,12,26,4,2)
222()
ChangeSwitch(2405,2405,0)
RunCommonEvent(5781)
EndEventProcessing()
0()
