﻿// EVENT 5771
Name "Nightmare (SR)"

PictureDisplay(5,"80_succubusm_st01",0,0,0,0,100,100,0,0)
PictureMove(5,null,0,0,0,0,100,100,255,0,30,true)
ShowMessageFace("",0,0,2,1)
ShowMessage("\\n<Luka>")
ShowMessage("P...Please...")
ShowMessageFace("succubusm_fc1",0,0,2,2)
ShowMessage("\\n<Mare>")
ShowMessage("Ufufu, you want to play with me?")
ShowMessage("Well then, it's time to have fun...♡")
ShowMessageFace("",0,0,2,3)
ShowMessage("Mare leaned against me, lying me down.")
ShowMessage("Straddling me like a rider would a horse, she gently led my penis into her secret place...")
ShowMessageFace("succubusm_fc1",0,0,2,4)
ShowMessage("\\n<Mare>")
ShowMessage("Hora, come on.")
ShowMessage("I'll show you the best dream...♡")
ShowMessageFace("",0,0,2,5)
ShowMessage("\\n<Luka>")
ShowMessage("Ah...ahhh...")
ShowMessageFace("",0,0,2,6)
ShowMessage("Mare slowly sits down on me.")
ShowMessage("I had no choice but to accept this fellowship of dreams--")
241(bytes(0x04,0x08,0x6f,0x3a,0x0d,0x52,0x50,0x47,0x3a,0x3a,0x42,0x47,0x4d,0x08,0x3a,0x0a,0x40,0x6e,0x61,0x6d,0x65,0x49,0x22,0x09,0x65,0x72,0x6f,0x31,0x06,0x3a,0x06,0x45,0x54,0x3a,0x0c,0x40,0x76,0x6f,0x6c,0x75,0x6d,0x65,0x69,0x69,0x3a,0x0b,0x40,0x70,0x69,0x74,0x63,0x68,0x69,0x69))
245(bytes(0x04,0x08,0x6f,0x3a,0x0d,0x52,0x50,0x47,0x3a,0x3a,0x42,0x47,0x53,0x08,0x3a,0x0a,0x40,0x6e,0x61,0x6d,0x65,0x49,0x22,0x1e,0x6d,0x6f,0x6e,0x5f,0x68,0x73,0x65,0x61,0x6e,0x30,0x34,0x5f,0x69,0x6e,0x6e,0x65,0x72,0x77,0x6f,0x72,0x6b,0x73,0x5f,0x61,0x34,0x06,0x3a,0x06,0x45,0x54,0x3a,0x0c,0x40,0x76,0x6f,0x6c,0x75,0x6d,0x65,0x69,0x55,0x3a,0x0b,0x40,0x70,0x69,0x74,0x63,0x68,0x69,0x69))
PictureDisplay(5,"ev_succubusm_h1",0,0,0,0,100,100,0,0)
PictureMove(5,null,0,0,0,0,100,100,255,0,30,true)
ShowMessageFace("",0,0,2,7)
ShowMessage("...and my penis was caught in a magical secret place.")
ShowMessage("Her soft vagina wraps my penis sweetly and tightens it slowly--")
ShowMessageFace("",0,0,2,8)
ShowMessage("\\n<Luka>")
ShowMessage("Ahhhh...it feels good...")
ShowMessageFace("succubusm_fc1",0,0,2,9)
ShowMessage("\\n<Mare>")
ShowMessage("Fufu, do I have to move to make you come?")
ShowMessage("But I'll do something more pleasant to you.")
ShowMessageFace("succubusm_fc1",0,0,2,10)
ShowMessage("\\n<Mare>")
ShowMessage("Hoo-ra, Energy Drain--")
ShowMessageFace("",0,0,2,11)
ShowMessage("\\n<Luka>")
ShowMessage("Fuah...ahhh...")
PictureDisplay(5,"ev_succubusm_h2",0,0,0,0,100,100,255,0)
ShowMessageFace("",0,0,2,12)
ShowMessage("Slowly, my semen begins to be sucked.")
ShowMessage("The pleasure at that time was tremendous.")
ShowMessageFace("",0,0,2,13)
ShowMessage("It's as if my penis is melting in her vagina.")
ShowMessage("A sweet and crazy feeling of ecstasy spreads from my crotch to my whole body.")
ShowMessageFace("succubusm_fc1",0,0,2,14)
ShowMessage("\\n<Mare>")
ShowMessage("fufu, isn't it heavenly...?")
ShowMessageFace("",0,0,2,15)
ShowMessage("\\n<Luka>")
ShowMessage("A...fuaa...")
ShowMessageFace("",0,0,2,16)
ShowMessage("I was weakened by the pleasant sensation of slowly melting.")
ShowMessage("A sweet tingle rises from the back of my waist--")
RunCommonEvent(104)
PictureDisplay(5,"ev_succubusm_h3",0,0,0,0,100,100,255,0)
RunCommonEvent(105)
ShowMessageFace("",0,0,2,17)
ShowMessage("\\n<Luka>")
ShowMessage("Huuu...")
ShowMessageFace("",0,0,2,18)
ShowMessage("I accidentally came inside of her vagina.")
ShowMessage("Mare's vagina swells sweetly and sucks up my semen.")
ShowMessageFace("succubusm_fc1",0,0,2,19)
ShowMessage("\\n<Mare>")
ShowMessage("Ufufu, you already came...♪")
ShowMessage("Your semen is very delicious.")
ShowMessageFace("",0,0,2,20)
ShowMessage("\\n<Luka>")
ShowMessage("Ah...ahhh...")
ShowMessageFace("",0,0,2,21)
ShowMessage("Her vagina contracts around my penis and sucks up the semen...")
ShowMessage("That pleasure doesn't wither my penis at all.")
ShowMessageFace("",0,0,2,22)
ShowMessage("She is a predatory succubus.")
ShowMessage("While her vagina eats my penis, she play with me like prey being devoured.")
ShowMessageFace("",0,0,2,23)
ShowMessage("\\n<Luka>")
ShowMessage("Huuua...It feels so good...")
ShowMessageFace("",0,0,2,24)
ShowMessage("Knowing that, I was happy with the pleasures of being sucked up.")
ShowMessage("I surrendered myself to the melting pleasure and my hips started to shake.")
RunCommonEvent(104)
PictureDisplay(5,"ev_succubusm_h4",0,0,0,0,100,100,255,0)
RunCommonEvent(105)
ShowMessageFace("",0,0,2,25)
ShowMessage("\\n<Luka>")
ShowMessage("Fuaaa...")
ShowMessageFace("",0,0,2,26)
ShowMessage("After that I just devoted myself to her.")
ShowMessage("The overflowing semen is swallowed by her vagina.")
ShowMessageFace("succubusm_fc1",0,0,2,27)
ShowMessage("\\n<Mare>")
ShowMessage("Your semen is really delicious...")
ShowMessage("Give me more and more...♡")
ShowMessageFace("",0,0,2,28)
ShowMessage("\\n<Luka>")
ShowMessage("Haa...Auuu...")
ShowMessageFace("",0,0,2,29)
ShowMessage("I was completely drunk with the pleasures of being sucked up.")
ShowMessage("I lost myself in her gently undulating hips, the gentle vibrations and the sweet sucking of her walls.")
ShowMessageFace("",0,0,2,30)
ShowMessage("\\n<Luka>")
ShowMessage("Oh, Auuu...")
RunCommonEvent(104)
PictureDisplay(5,"ev_succubusm_h5",0,0,0,0,100,100,255,0)
RunCommonEvent(105)
ShowMessageFace("",0,0,2,31)
ShowMessage("And then, my semen is offered into her vagina.")
ShowMessage("My head was melting and my body was completely relaxed.")
ShowMessageFace("succubusm_fc1",0,0,2,32)
ShowMessage("\\n<Mare>")
ShowMessage("Ufufu...")
ShowMessage("Give me more, more...")
ShowMessageFace("",0,0,2,33)
ShowMessage("\\n<Luka>")
ShowMessage("Ah...ahhh...")
RunCommonEvent(104)
RunCommonEvent(105)
ShowMessageFace("succubusm_fc1",0,0,2,34)
ShowMessage("\\n<Mare>")
ShowMessage("Fufu, that's good...")
ShowMessage("Forget everything and let's love each other...")
ShowMessageFace("",0,0,2,35)
ShowMessage("\\n<Luka>")
ShowMessage("Huuu...")
RunCommonEvent(104)
RunCommonEvent(105)
ShowMessageFace("succubusm_fc1",0,0,2,36)
ShowMessage("\\n<Mare>")
ShowMessage("That's nice..let it out some more...")
ShowMessageFace("",0,0,2,37)
ShowMessage("\\n<Luka>")
ShowMessage("Uh...aaah...")
RunCommonEvent(104)
RunCommonEvent(105)
ShowMessageFace("",0,0,2,38)
ShowMessage("Thus I fell into a dream of pleasure.")
ShowMessage("Drowning in joy endlessly, I continued to devote myself to it.")
ShowMessageFace("succubusm_fc1",0,0,2,39)
ShowMessage("\\n<Mare>")
ShowMessage("More...more...")
ShowMessage("Ufufufufu...")
ShowMessageFace("",0,0,2,40)
ShowMessage("\\n<Luka>")
ShowMessage("Hauuuu...")
RunCommonEvent(104)
RunCommonEvent(105)
221()
PictureClear(5)
PictureClear(6)
246(2)
ShowMessageFace("",0,0,2,41)
ShowMessage("Thus I was fucked endlessly by Mare.")
ShowMessage("I enjoyed the dream of pleasure all night long--")
ShowMessageFace("",0,0,2,42)
ShowMessage("・・・・・・・・")
RunCommonEvent(3998)
0()
