﻿// EVENT 3457
Name "Mukuro"

PictureDisplay(5,"80_mukuro_st02",0,0,0,0,100,100,0,0)
PictureMove(5,null,0,0,0,0,100,100,255,0,30,true)
241(bytes(0x04,0x08,0x6f,0x3a,0x0d,0x52,0x50,0x47,0x3a,0x3a,0x42,0x47,0x4d,0x08,0x3a,0x0a,0x40,0x6e,0x61,0x6d,0x65,0x49,0x22,0x09,0x65,0x72,0x6f,0x31,0x06,0x3a,0x06,0x45,0x54,0x3a,0x0c,0x40,0x76,0x6f,0x6c,0x75,0x6d,0x65,0x69,0x69,0x3a,0x0b,0x40,0x70,0x69,0x74,0x63,0x68,0x69,0x69))
ShowMessageFace("",0,0,2,1)
ShowMessage("\\n<Luka>Ugh... Uuugh...")
ShowMessageFace("mukuro_fc1",0,0,2,2)
ShowMessage("\\n<Mukuro>So you give up... Good boy.")
ShowMessage("Come to me... I will hold you tight...")
PictureDisplay(5,"ev_mukuro_hb1",0,0,0,0,100,100,255,0)
PictureDisplay(6,"ev_mukuro_hb2",0,0,0,0,100,100,0,0)
PictureMove(6,null,0,0,0,0,100,100,255,0,60,false)
PictureDisplay(7,"ev_mukuro_hb3",0,0,0,0,100,100,0,0)
PictureMove(7,null,0,0,0,0,100,100,255,0,60,true)
PictureMove(7,null,0,0,0,0,100,100,0,0,30,true)
PictureClear(5)
PictureClear(7)
ShowMessageFace("",0,0,2,3)
ShowMessage("Mukuro opens her kimono, revealing her voluptuous breasts.\nThey don't look artificial at all, they are charming and seductive...")
ShowMessageFace("",0,0,2,4)
ShowMessage("\\n<Luka>Ah, ahhh...")
ShowMessageFace("",0,0,2,5)
ShowMessage("Tempted, I unsteadily walk toward Mukuro...")
PictureClear(6)
PictureDisplay(5,"ev_mukuro_h01",0,0,0,0,100,100,255,0)
ShowMessageFace("",0,0,2,6)
ShowMessage("Then, I bury my face in Mukuro's boobs.\nI feel their dreamlike softness and how squishy they are.")
ShowMessageFace("",0,0,2,7)
ShowMessage("\\n<Luka>Fuaaah...")
ShowMessageFace("mukuro_fc1",0,0,2,8)
ShowMessage("\\n<Mukuro>Does it feel good...?\nHuman men are so simple...")
ShowMessageFace("mukuro_fc1",0,0,2,9)
ShowMessage("\\n<Mukuro>If you hug them gently like this...\nThey immediately become subservient...")
ShowMessageFace("",0,0,2,10)
ShowMessage("Mukuro hugs me tightly.\nHer embrace is so soft that it's hard to believe she is a doll. I unconsciously lose my strength.")
ShowMessageFace("mukuro_fc1",0,0,2,11)
ShowMessage("\\n<Mukuro>I won't let you go...\nI'll keep draining your energy until you wither away.")
ShowMessageFace("",0,0,2,12)
ShowMessage("\\n<Luka>D-don't...")
PictureDisplay(5,"ev_mukuro_h02",0,0,0,0,100,100,255,0)
ShowMessageFace("",0,0,2,13)
ShowMessage("Mukuro holds my hips with her arms and presses them tightly against her lower parts.\nShe guides my erect penis toward her crotch...")
ShowMessageFace("mukuro_fc1",0,0,2,14)
ShowMessage("\\n<Mukuro>My milking pussy is specially made...\nThat's what this doll was originally designed for, after all...")
ShowMessageFace("mukuro_fc1",0,0,2,15)
ShowMessage("\\n<Mukuro>A pleasure that no humans nor demons can offer...\nEnjoy it to your heart's content...")
ShowMessageFace("",0,0,2,16)
ShowMessage("\\n<Luka>Ahhhh...")
ShowMessageFace("",0,0,2,17)
ShowMessage("If this goes on and she rapes me, I'm doomed. There will be no escape...\nI resign myself in Mukuro's embrace.")
ShowMessageFace("mukuro_fc1",0,0,2,18)
ShowMessage("\\n<Mukuro>...No resistance at all, I see.\nIt seems you really want to go to paradise with me as soon as possible.")
ShowMessageFace("mukuro_fc1",0,0,2,19)
ShowMessage("\\n<Mukuro>So be it...\nI'll take you there...")
ShowMessageFace("",0,0,2,20)
ShowMessage("After saying that, Mukuro hugs my waist tightly...")
245(bytes(0x04,0x08,0x6f,0x3a,0x0d,0x52,0x50,0x47,0x3a,0x3a,0x42,0x47,0x53,0x08,0x3a,0x0a,0x40,0x6e,0x61,0x6d,0x65,0x49,0x22,0x1e,0x6d,0x6f,0x6e,0x5f,0x68,0x73,0x65,0x61,0x6e,0x30,0x39,0x5f,0x69,0x6e,0x6e,0x65,0x72,0x77,0x6f,0x72,0x6b,0x73,0x5f,0x62,0x31,0x06,0x3a,0x06,0x45,0x54,0x3a,0x0c,0x40,0x76,0x6f,0x6c,0x75,0x6d,0x65,0x69,0x55,0x3a,0x0b,0x40,0x70,0x69,0x74,0x63,0x68,0x69,0x69))
PictureDisplay(5,"ev_mukuro_h03",0,0,0,0,100,100,255,0)
ShowMessageFace("",0,0,2,21)
ShowMessage("\\n<Luka>Ahhh...!!")
ShowMessageFace("",0,0,2,22)
ShowMessage("Her artificial pussy engulfs my thing.\nImmediately after that, her soft, warm flesh tightens around my penis...")
ShowMessageFace("mukuro_fc1",0,0,2,23)
ShowMessage("\\n<Mukuro>Doesn't it feel amazingly good...?\nMy milking pussy specializes in making men ejaculate...")
ShowMessageFace("mukuro_fc1",0,0,2,24)
ShowMessage("\\n<Mukuro>Even the sturdiest men would pathetically come within minutes...\nHow long will you last...?")
ShowMessageFace("",0,0,2,25)
ShowMessage("\\n<Luka>Ah... Ahhhhh...!!")
ShowMessageFace("",0,0,2,26)
ShowMessage("Her soft flesh squirms and twists like a worm...\nHer inner walls tighten around me like they're contracting.")
ShowMessageFace("",0,0,2,27)
ShowMessage("I immediately give myself up to the lustful stimulation.\nMy hips shudder as I cling to Mukuro...")
RunCommonEvent(104)
PictureDisplay(5,"ev_mukuro_h04",0,0,0,0,100,100,255,0)
RunCommonEvent(105)
ShowMessageFace("",0,0,2,28)
ShowMessage("\\n<Luka>Ugh...")
ShowMessageFace("",0,0,2,29)
ShowMessage("Then, semen gushes out of me.\nI lost control just by inserting it...")
ShowMessageFace("mukuro_fc1",0,0,2,30)
ShowMessage("\\n<Mukuro>Did you already come...?\nI haven't even used my Waist Swing function yet...")
ShowMessageFace("mukuro_fc1",0,0,2,31)
ShowMessage("\\n<Mukuro>On top of being foolish, you're also very pathetic...\nYou're a disgrace as a human male...")
ShowMessageFace("",0,0,2,32)
ShowMessage("\\n<Luka>Ugh, uuugh...")
ShowMessageFace("",0,0,2,33)
ShowMessage("Trembling with humiliation, I nevertheless keep clinging to Mukuro's body.\nAnd contrary to her tone, Mukuro hugs me back gently.")
ShowMessageFace("mukuro_fc1",0,0,2,34)
ShowMessage("\\n<Mukuro>...So you want to be held more tightly...\nVery well... Enjoy this to the fullest...")
PictureDisplay(5,"ev_mukuro_h05",0,0,0,0,100,100,255,0)
ShowMessageFace("",0,0,2,35)
ShowMessage("Squeeeze... Mukuro hugs me with more strength.\nIt feels like we're glued together, even more than before. I'm enveloped in her warmth and softness.")
ShowMessageFace("mukuro_fc1",0,0,2,36)
ShowMessage("\\n<Mukuro>If you like this, then indulge yourself with no regrets...\nYou can't escape anyway...")
ShowMessageFace("",0,0,2,37)
ShowMessage("\\n<Luka>Ahhhh...")
ShowMessageFace("",0,0,2,38)
ShowMessage("As her embrace becomes tighter, the tightness of her vagina increases as well.\nHer soft flesh squeezes and clamps down on my penis...")
ShowMessageFace("",0,0,2,39)
ShowMessage("\\n<Luka>Ahhh... It feels good...\nSo goooood...")
ShowMessageFace("",0,0,2,40)
ShowMessage("As my hips tremble, I surrender myself to Mukuro's embrace.\nThen, a very sweet numbness fills my waist...")
RunCommonEvent(104)
PictureDisplay(5,"ev_mukuro_h06",0,0,0,0,100,100,255,0)
RunCommonEvent(105)
ShowMessageFace("",0,0,2,41)
ShowMessage("\\n<Luka>Ahhh...")
ShowMessageFace("",0,0,2,42)
ShowMessage("I couldn't hold back and offered my semen in Mukuro's vagina.\nSemen overflows along with melting pleasure...")
ShowMessageFace("mukuro_fc1",0,0,2,43)
ShowMessage("\\n<Mukuro>You let it out so quickly again...\nEven I didn't think I'd be able to make you come twice before moving my hips...")
ShowMessageFace("",0,0,2,44)
ShowMessage("\\n<Luka>Ah... Uugh...")
ShowMessageFace("mukuro_fc1",0,0,2,45)
ShowMessage("\\n<Mukuro>...My engine has warmed up thanks to your energy.\nIt's time for me to show you my true milking functions.")
PictureDisplay(5,"ev_mukuro_h07",0,0,0,0,100,100,255,0)
ShowMessageFace("",0,0,2,46)
ShowMessage("Suddenly, Mukuro's hair grows longer.\nHer hair coils around my body...")
PictureDisplay(5,"ev_mukuro_h08",0,0,0,0,100,100,255,0)
ShowMessageFace("",0,0,2,47)
ShowMessage("\\n<Luka>Ah... Ahhhh!!")
ShowMessageFace("",0,0,2,48)
ShowMessage("My whole body gets wrapped up in Mukuro's hair.\nIt's like a restraint made out of hair, I can't move at all.")
ShowMessageFace("mukuro_fc1",0,0,2,49)
ShowMessage("\\n<Mukuro>Now you can't get away from me...\nI'll never let you go...")
ShowMessageFace("",0,0,2,50)
ShowMessage("\\n<Luka>Ugh... Uuuugh...")
ShowMessageFace("",0,0,2,51)
ShowMessage("Her embrace becomes intense and tighter.\nHer inner walls twist and squirm, growing even more lustful.")
ShowMessageFace("",0,0,2,52)
ShowMessage("\\n<Luka>Ahhh... It feels so gooood...")
RunCommonEvent(104)
PictureDisplay(5,"ev_mukuro_h09",0,0,0,0,100,100,255,0)
RunCommonEvent(105)
ShowMessageFace("",0,0,2,53)
ShowMessage("As I soak in sweet pleasure, semen gushes out of me.\nBoth my heart and my body are completely melting away...")
ShowMessageFace("mukuro_fc1",0,0,2,54)
ShowMessage("\\n<Mukuro>My Waist Swing function...\nIf I use it on someone like you, it'll probably be over in an instant...")
ShowMessageFace("",0,0,2,55)
ShowMessage("\\n<Luka>Ah... Ahhh...")
ShowMessageFace("mukuro_fc1",0,0,2,56)
ShowMessage("\\n<Mukuro>There is no turning back now...\nLet's go to heaven together...")
ShowMessageFace("",0,0,2,57)
ShowMessage("Mukuro starts to buck her hips.\nHer movements become more and more violent...")
PictureDisplay(5,"ev_mukuro_h10",0,0,0,0,100,100,255,0)
ShowMessageFace("",0,0,2,58)
ShowMessage("\\n<Luka>Ah... Hiyaaaaaa~~!!")
ShowMessageFace("",0,0,2,59)
ShowMessage("I'm in a daze from her intense hip shaking.\nHer pussy strokes my penis, giving me tremendous pleasure.")
ShowMessageFace("mukuro_fc1",0,0,2,60)
ShowMessage("\\n<Mukuro>This is my Waist Swing function.\nIts speed is such that most men break down within seconds...")
ShowMessageFace("mukuro_fc1",0,0,2,61)
ShowMessage("\\n<Mukuro>Actually, I can reduce the speed and make it slower...\nBut since you're going to die anyway, don't you want to taste the ultimate pleasure right away...?")
ShowMessageFace("",0,0,2,62)
ShowMessage("\\n<Luka>Ahi... Ahhhhhhhh~~!!")
RunCommonEvent(104)
PictureDisplay(5,"ev_mukuro_h11",0,0,0,0,100,100,255,0)
RunCommonEvent(105)
ShowMessageFace("",0,0,2,63)
ShowMessage("A large amount of semen spurts out in a flash.\nThe pleasure was so intense that I came instantly.")
ShowMessageFace("",0,0,2,64)
ShowMessage("\\n<Luka>Ahi... Ah, argh...!")
ShowMessageFace("mukuro_fc1",0,0,2,65)
ShowMessage("\\n<Mukuro>No man can last more than a few seconds in front of this function...\nYou're weak, so it was faster with you.")
ShowMessageFace("mukuro_fc1",0,0,2,66)
ShowMessage("\\n<Mukuro>But... You have no time to rest...")
ShowMessageFace("",0,0,2,67)
ShowMessage("\\n<Luka>Ah... Ah, uuuuugh...!!")
ShowMessageFace("",0,0,2,68)
ShowMessage("Her hips swing even more furiously.\nAnd the whole inside of her pussy shrinks and contracts...")
RunCommonEvent(104)
RunCommonEvent(105)
ShowMessageFace("",0,0,2,69)
ShowMessage("\\n<Luka>Ahhhh...！")
ShowMessageFace("",0,0,2,70)
ShowMessage("I writhe in agony as she quickly makes me orgasm in rapid succession.\nHer Waist Swing overwhelms me as I cling to Mukuro.")
ShowMessageFace("mukuro_fc1",0,0,2,71)
ShowMessage("\\n<Mukuro>When I use this function...\nI end up milking a man's semen down to the last drop in an instant...")
ShowMessageFace("",0,0,2,72)
ShowMessage("\\n<Luka>That's... Argh, ahhhhhhh~~!!")
RunCommonEvent(104)
PictureDisplay(5,"ev_mukuro_h12",0,0,0,0,100,100,255,0)
RunCommonEvent(105)
ShowMessageFace("",0,0,2,73)
ShowMessage("A large amount of semen overflows into her.\nIn the midst of the maddening pleasure, my semen is being squeezed out of me incessantly...")
ShowMessageFace("",0,0,2,74)
ShowMessage("\\n<Luka>Ah, ah... Ahhhhhhhh~~!!")
RunCommonEvent(104)
RunCommonEvent(105)
ShowMessageFace("",0,0,2,75)
ShowMessage("I entrust myself to her soft embrace and devote myself to coming.\nThis truly is a pleasure so powerful that it can make anyone ascend to heaven...")
ShowMessageFace("",0,0,2,76)
ShowMessage("\\n<Luka>Ah... Ah, ahhh...")
ShowMessageFace("mukuro_fc1",0,0,2,77)
ShowMessage("\\n<Mukuro>To think you're going to die after being weakened by a doll shaking her hips...\nYou really are a miserable human being...")
ShowMessageFace("mukuro_fc1",0,0,2,78)
ShowMessage("\\n<Mukuro>Even though you were born with a soul...\nYou couldn't resist your sexual desires, and now you're meeting your end in a doll's arms...")
ShowMessageFace("",0,0,2,79)
ShowMessage("\\n<Luka>Ahi... Ah, ahhh...")
RunCommonEvent(104)
RunCommonEvent(105)
ShowMessageFace("mukuro_fc1",0,0,2,80)
ShowMessage("\\n<Mukuro>But it's okay...\nI'll take that miserable soul of yours...")
RunCommonEvent(104)
RunCommonEvent(105)
ShowMessageFace("",0,0,2,81)
ShowMessage("\\n<Luka>ah... ahhh...")
ShowMessageFace("mukuro_fc1",0,0,2,82)
ShowMessage("\\n<Mukuro>Drown in pleasure and die...\nWith me... In my arms...")
RunCommonEvent(104)
RunCommonEvent(105)
ShowMessageFace("",0,0,2,83)
ShowMessage("\\n<Luka>............")
ShowMessageFace("mukuro_fc1",0,0,2,84)
ShowMessage("\\n<Mukuro>Now we can be together...\nI'm...not alone...")
ShowMessageFace("",0,0,2,85)
ShowMessage("And so I met my demise in the arms of a doll...\nMukuro and I will be together forever.")
221()
PictureClear(5)
PictureClear(6)
246(2)
ShowMessageFace("",0,0,2,86)
ShowMessage("・・・・・・・・")
221()
242(1)
Wait(120)
355("memory_interruption")
ShowChoices(strings("Change difficulty","Reincarnate"),2)
IfPlayerPicksChoice(0,null)
 ShowMessageFace("",0,0,2,87)
 ShowMessage("Please choose a difficulty level.")
 RunCommonEvent(110)
 0()
IfPlayerPicksChoice(1,null)
 0()
404()
RunCommonEvent(2999)
0()
