﻿// EVENT 0599
Name "混沌迷宮移動"

If(1,121,1,131,1)
 If(0,67,0)
  ShowMessageFace("",0,0,2,1)
  ShowMessage("黒のアリスのルール通り、\\V[131]階に辿り着いた！")
  ShowMessage("報酬アイテムが与えられる！")
  ChangeVariable(15,15,0,2,1,3)
  If(1,15,0,1,0)
   ChangeInventoryArmor(2859,0,0,1,false)
   0()
  EndIf()
  If(1,15,0,2,0)
   250(bytes(0x04,0x08,0x6f,0x3a,0x0c,0x52,0x50,0x47,0x3a,0x3a,0x53,0x45,0x08,0x3a,0x0a,0x40,0x6e,0x61,0x6d,0x65,0x49,0x22,0x0a,0x49,0x74,0x65,0x6d,0x31,0x06,0x3a,0x06,0x45,0x54,0x3a,0x0b,0x40,0x70,0x69,0x74,0x63,0x68,0x69,0x69,0x3a,0x0c,0x40,0x76,0x6f,0x6c,0x75,0x6d,0x65,0x69,0x55))
   ChangeInventoryWeapon(886,0,0,1,false)
   ChangeInventoryWeapon(583,0,0,1,false)
   ChangeInventoryWeapon(616,0,0,1,false)
   ChangeInventoryArmor(2860,0,0,1,false)
   0()
  EndIf()
  If(1,15,0,3,0)
   ChangeInventoryWeapon(2458,0,0,1,false)
   0()
  EndIf()
  ChangeInventory_Item(28,0,0,1)
  ChangeInventory_Item(29,0,0,1)
  ChangeSwitch(67,67,1)
  ChangeVariable(131,131,0,0,0)
  0()
 EndIf()
 If(0,68,0)
  ShowMessageFace("",0,0,2,2)
  ShowMessage("黒のアリスのルール通り、\\V[131]階に辿り着いた！")
  ShowMessage("報酬アイテムが与えられる！")
  250(bytes(0x04,0x08,0x6f,0x3a,0x0c,0x52,0x50,0x47,0x3a,0x3a,0x53,0x45,0x08,0x3a,0x0a,0x40,0x6e,0x61,0x6d,0x65,0x49,0x22,0x0a,0x49,0x74,0x65,0x6d,0x31,0x06,0x3a,0x06,0x45,0x54,0x3a,0x0b,0x40,0x70,0x69,0x74,0x63,0x68,0x69,0x69,0x3a,0x0c,0x40,0x76,0x6f,0x6c,0x75,0x6d,0x65,0x69,0x55))
  ChangeVariable(15,15,0,2,1,3)
  If(1,15,0,1,0)
   ChangeInventoryArmor(98,0,0,1,false)
   ChangeInventoryArmor(227,0,0,1,false)
   ChangeInventoryArmor(322,0,0,1,false)
   ChangeInventoryWeapon(3158,0,0,1,false)
   0()
  EndIf()
  If(1,15,0,2,0)
   ChangeInventoryWeapon(3260,0,0,1,false)
   0()
  EndIf()
  If(1,15,0,3,0)
   ChangeInventoryWeapon(3358,0,0,1,false)
   0()
  EndIf()
  ChangeInventory_Item(30,0,0,1)
  ChangeInventory_Item(31,0,0,1)
  ChangeSwitch(68,68,1)
  ChangeVariable(131,131,0,0,0)
  0()
 EndIf()
 0()
EndIf()
0()
