// EVENT 5234
Name "Mincubus 4"

PictureDisplay(5,"80_minccubus_st21",0,0,0,0,100,100,0,0)
PictureMove(5,null,0,0,0,0,100,100,255,0,30,true)
ShowMessageFace("minccubus_fc1",2,0,2,1)
ShowMessage("\\n<Serra>")
ShowMessage("Ehehe, you want me to make you feel good?")
ShowMessage("All right then, let me lick that penis of yours♪")
241(bytes(0x04,0x08,0x6f,0x3a,0x0d,0x52,0x50,0x47,0x3a,0x3a,0x42,0x47,0x4d,0x08,0x3a,0x0a,0x40,0x6e,0x61,0x6d,0x65,0x49,0x22,0x09,0x65,0x72,0x6f,0x31,0x06,0x3a,0x06,0x45,0x54,0x3a,0x0c,0x40,0x76,0x6f,0x6c,0x75,0x6d,0x65,0x69,0x69,0x3a,0x0b,0x40,0x70,0x69,0x74,0x63,0x68,0x69,0x69))
250(bytes(0x04,0x08,0x6f,0x3a,0x0c,0x52,0x50,0x47,0x3a,0x3a,0x53,0x45,0x08,0x3a,0x0a,0x40,0x6e,0x61,0x6d,0x65,0x49,0x22,0x11,0x6d,0x6f,0x6e,0x5f,0x65,0x72,0x6f,0x5f,0x70,0x79,0x75,0x31,0x06,0x3a,0x06,0x45,0x54,0x3a,0x0b,0x40,0x70,0x69,0x74,0x63,0x68,0x69,0x69,0x3a,0x0c,0x40,0x76,0x6f,0x6c,0x75,0x6d,0x65,0x69,0x69))
PictureDisplay(5,"ev_minccubus_hb01",0,0,0,0,100,100,255,0)
ShowMessageFace("",0,0,2,2)
ShowMessage("Serra bends down over me and pushes her face into my groin.")
ShowMessageFace("",0,0,2,3)
ShowMessage("\\n<Luka>")
ShowMessage("Ah...")
ShowMessageFace("",0,0,2,4)
ShowMessage("The little girl's tongue creeps around my penis, gently licking and tasting my sensitive member.")
ShowMessageFace("",0,0,2,5)
ShowMessage("I shiver in pleasure as her warm saliva sticks to my skin after each lick.")
ShowMessage("One... Two... Three times her tender tongue lovingly licks across the tip of my penis.")
ShowMessageFace("",0,0,2,6)
ShowMessage("\\n<Luka>")
ShowMessage("Unnngh...")
ShowMessageFace("minccubus_fc1",2,0,2,7)
ShowMessage("\\n<Serra>")
ShowMessage("Ehehe... Big bro, your penis tastes so good.♪")
245(bytes(0x04,0x08,0x6f,0x3a,0x0d,0x52,0x50,0x47,0x3a,0x3a,0x42,0x47,0x53,0x08,0x3a,0x0a,0x40,0x6e,0x61,0x6d,0x65,0x49,0x22,0x10,0x6d,0x6f,0x6e,0x5f,0x68,0x76,0x6f,0x69,0x63,0x65,0x31,0x06,0x3a,0x06,0x45,0x54,0x3a,0x0c,0x40,0x76,0x6f,0x6c,0x75,0x6d,0x65,0x69,0x55,0x3a,0x0b,0x40,0x70,0x69,0x74,0x63,0x68,0x69,0x69))
ShowMessageFace("",0,0,2,8)
ShowMessage("She sticks out her tongue a little more, and does a long, deep lick up the back of my penis.")
ShowMessageFace("",0,0,2,9)
ShowMessage("She's focusing on all my most sensitive areas...")
ShowMessage("This little girl already knows how to force men to come...")
ShowMessageFace("minccubus_fc1",2,0,2,10)
ShowMessage("\\n<Serra>")
ShowMessage("Ehehe, it feels good, doesn't it? ♪")
ShowMessage("The other guys came after only a minute of this♪")
ShowMessageFace("",0,0,2,11)
ShowMessage("\\n<Luka>")
ShowMessage("Unnngh...")
ShowMessageFace("minccubus_fc1",2,0,2,12)
ShowMessage("\\n<Serra>")
ShowMessage("Ehehe, it feels good, doesn't it? ♪")
ShowMessageFace("",0,0,2,13)
ShowMessage("She does another deep lick up the back of my penis.")
ShowMessage("When her long tongue reaches my glans, she uses it to gently poke at my urethral opening.")
ShowMessageFace("",0,0,2,14)
ShowMessage("\\n<Luka>")
ShowMessage("Ah... Nnngh...")
ShowMessageFace("",0,0,2,15)
ShowMessage("Even though her tongue is moving so slow, the skill the young girl uses it with brings me right to the edge of an orgasm after only a few moments.")
ShowMessageFace("minccubus_fc1",2,0,2,16)
ShowMessage("\\n<Serra>")
ShowMessage("Ehehe, are you already about to leak...?")
ShowMessage("I can feel it...")
ShowMessageFace("",0,0,2,17)
ShowMessage("She's even able to feel when I'm about to come...")
ShowMessageFace("",0,0,2,18)
ShowMessage("I'm overwhelmed by this girl's tongue skill. I know I can't take much more of it.")
ShowMessageFace("",0,0,2,19)
ShowMessage("The little girl looks at me with a smile on her face as I shiver.")
ShowMessageFace("",0,0,2,20)
ShowMessage("\\n<Luka>")
ShowMessage("Unnngh...")
ShowMessageFace("minccubus_fc1",2,0,2,21)
ShowMessage("\\n<Serra>")
ShowMessage("All right, I'll make you come now♪")
ShowMessageFace("",0,0,2,22)
ShowMessage("Serra presses the tip of her tongue into the back muscle of my penis, as the rest of her tongue pushes against the shaft.")
ShowMessageFace("",0,0,2,23)
ShowMessage("The sweet stimulation fills all of my thoughts as I can't focus on anything but her tongue crawling around my penis.")
ShowMessage("There's no way I can even attempt to resist her...")
ShowMessageFace("minccubus_fc1",2,0,2,24)
ShowMessage("\\n<Serra>")
ShowMessage("*Lick* ...Now, come♪")
ShowMessageFace("",0,0,2,25)
ShowMessage("\\n<Luka>")
ShowMessage("Ah, aaaahhh!")
ShowMessageFace("",0,0,2,26)
ShowMessage("Filled with shame at being toyed with by a little girl, I moan in pleasure as I give in.")
RunCommonEvent(104)
PictureDisplay(5,"ev_minccubus_hb02",0,0,0,0,100,100,255,0)
RunCommonEvent(105)
ShowMessageFace("",0,0,2,27)
ShowMessage("As I ejaculate, her tongue pushes against the back of my penis.")
ShowMessage("Each spurt of semen pushes against her tongue as it comes out, filling me with ecstasy.")
PictureDisplay(5,"ev_minccubus_hb03",0,0,0,0,100,100,255,0)
ShowMessageFace("minccubus_fc1",2,0,2,28)
ShowMessage("\\n<Serra>")
ShowMessage("Ehehe, that was so easy.")
ShowMessage("Big bro, you're nothing special♪")
ShowMessageFace("",0,0,2,29)
ShowMessage("She cheerfully giggles.")
ShowMessage("Her innocent looking eyes are a sharp contrast to her devilishness...")
ShowMessageFace("minccubus_fc1",2,0,2,30)
ShowMessage("\\n<Serra>")
ShowMessage("Time to lick you more.")
245(bytes(0x04,0x08,0x6f,0x3a,0x0d,0x52,0x50,0x47,0x3a,0x3a,0x42,0x47,0x53,0x08,0x3a,0x0a,0x40,0x6e,0x61,0x6d,0x65,0x49,0x22,0x10,0x6d,0x6f,0x6e,0x5f,0x68,0x76,0x6f,0x69,0x63,0x65,0x32,0x06,0x3a,0x06,0x45,0x54,0x3a,0x0c,0x40,0x76,0x6f,0x6c,0x75,0x6d,0x65,0x69,0x55,0x3a,0x0b,0x40,0x70,0x69,0x74,0x63,0x68,0x69,0x69))
PictureDisplay(5,"ev_minccubus_hb04",0,0,0,0,100,100,255,0)
ShowMessageFace("",0,0,2,31)
ShowMessage("Her tongue gets even longer, reaching out all the way to the base of my penis.")
ShowMessageFace("minccubus_fc1",2,0,2,32)
ShowMessage("\\n<Serra>")
ShowMessage("Look at how long my tongue got♪")
ShowMessageFace("minccubus_fc1",2,0,2,33)
ShowMessage("\\n<Serra>")
ShowMessage("With this, I can lick you even better.")
ShowMessage("I don't think you'll last even 30 seconds, big bro.")
ShowMessageFace("",0,0,2,34)
ShowMessage("The little girl casually teases me with an innocent smile on her face.")
ShowMessageFace("",0,0,2,35)
ShowMessage("After pausing a moment, her long tongue starts to lick my penis, from base to tip.")
ShowMessageFace("",0,0,2,36)
ShowMessage("\\n<Luka>")
ShowMessage("Ah, aaaah...!!")
ShowMessageFace("",0,0,2,37)
ShowMessage("After every long lick, the saliva left behind drips down onto my legs.")
ShowMessageFace("",0,0,2,38)
ShowMessage("Her slow, long licks keep up, covering every inch of my penis in her sticky saliva.")
ShowMessageFace("minccubus_fc1",2,0,2,39)
ShowMessage("\\n<Serra>")
ShowMessage("Now, let it leak out♪")
ShowMessageFace("",0,0,2,40)
ShowMessage("With her warm saliva all over me as her slow licks continue, I reach the end of my endurance.")
ShowMessageFace("",0,0,2,41)
ShowMessage("\\n<Luka>Ah, aaaaaah!!")
RunCommonEvent(104)
PictureDisplay(5,"ev_minccubus_hb05",0,0,0,0,100,100,255,0)
RunCommonEvent(105)
ShowMessageFace("",0,0,2,42)
ShowMessage("My semen explodes and lands all over Serra's fingers.")
PictureDisplay(5,"ev_minccubus_hb06",0,0,0,0,100,100,255,0)
ShowMessageFace("",0,0,2,43)
ShowMessage("Serra laughs, looking down at the proof of my surrender.")
ShowMessageFace("minccubus_fc1",2,0,2,44)
ShowMessage("\\n<Serra>")
ShowMessage("Ahaha... Did it feel good?")
ShowMessage("I can't believe how easy it is to make you come, big bro♪")
ShowMessageFace("",0,0,2,45)
ShowMessage("\\n<Luka>")
ShowMessage("Ah... Uuuhh...")
ShowMessageFace("minccubus_fc1",2,0,2,46)
ShowMessage("\\n<Serra>")
ShowMessage("I can do these kinds of things now...")
ShowMessageFace("",0,0,2,47)
ShowMessage("\\n<Luka>")
ShowMessage("Ahh... Eh...?")
PictureDisplay(5,"ev_minccubus_hb07",0,0,0,0,100,100,255,0)
ShowMessageFace("",0,0,2,48)
ShowMessage("Her tongue grows even longer, coiling around the base of my penis!")
ShowMessageFace("minccubus_fc1",2,0,2,49)
ShowMessage("\\n<Serra>")
ShowMessage("Ehehe... I'm going to devour your penis with my tongue♪")
ShowMessageFace("",0,0,2,50)
ShowMessage("Serra giggles as she runs her even longer tongue all over my penis.")
ShowMessageFace("",0,0,2,51)
ShowMessage("Coiled around the base, her tongue starts to get even longer as it slowly works its way upward, wrapping the rest of my penis.\n")
ShowMessage("I tremble as this little girl's now monster tongue toys with my penis like it was her own personal toy.")
ShowMessageFace("",0,0,2,52)
ShowMessage("\\n<Luka>")
ShowMessage("Ah... I'm going to come!")
ShowMessageFace("",0,0,2,53)
ShowMessage("As her tongue continues to wrap around me, I give in, not even trying to resist her any longer.")
RunCommonEvent(104)
PictureDisplay(5,"ev_minccubus_hb08",0,0,0,0,100,100,255,0)
RunCommonEvent(105)
ShowMessageFace("",0,0,2,54)
ShowMessage("I explode, scattering semen all over her face and tongue.")
ShowMessage("Captured by her tongue, I was forced to another pathetic ejaculation...")
PictureDisplay(5,"ev_minccubus_hb09",0,0,0,0,100,100,255,0)
ShowMessageFace("minccubus_fc1",2,0,2,55)
ShowMessage("\\n<Serra>")
ShowMessage("I was still wrapping you up with my tongue...")
ShowMessage("Big bro, you really can't control yourself, can you?")
ShowMessageFace("",0,0,2,56)
ShowMessage("She looks down at me as she reprimands me.")
PictureDisplay(5,"ev_minccubus_hb10",0,0,0,0,100,100,255,0)
ShowMessageFace("",0,0,2,57)
ShowMessage("After that, her tongue gets even longer, until it finishes coiling around me.")
ShowMessageFace("",0,0,2,58)
ShowMessage("\\n<Luka>")
ShowMessage("Ahhhh!")
ShowMessageFace("",0,0,2,59)
ShowMessage("I feel the warm touch of her tongue all around me.")
ShowMessageFace("",0,0,2,60)
ShowMessage("It's like my thing is now just a part of her tongue...")
ShowMessageFace("minccubus_fc1",2,0,2,61)
ShowMessage("\\n<Serra>")
ShowMessage("Ehehe, my tongue went round and round your penis♪")
ShowMessage("Big bro, does it feel good?")
ShowMessageFace("",0,0,2,62)
ShowMessage("\\n<Luka>")
ShowMessage("Oh, Ooooh...!")
ShowMessageFace("",0,0,2,63)
ShowMessage("She tightens her tongue around me, pushing her soft tongue hard against my sensitive penis.")
ShowMessageFace("minccubus_fc1",2,0,2,64)
ShowMessage("\\n<Serra>")
ShowMessage("Now I'm going to tease you while it's all wrapped up like this♪")
ShowMessage("I bet you'll come in no time, big bro♪")
ShowMessageFace("",0,0,2,65)
ShowMessage("\\n<Luka>")
ShowMessage("Ah-aaaaah...")
ShowMessageFace("",0,0,2,66)
ShowMessage("I shiver as her tongue gets even tighter around me.")
ShowMessageFace("",0,0,2,67)
ShowMessage("Serra grins as she watches me squirm under her.")
ShowMessageFace("minccubus_fc1",2,0,2,68)
ShowMessage("\\n<Serra>")
ShowMessage("Ahaha, does it feel that good?")
ShowMessage("Then I'll tease you even more♪")
ShowMessageFace("",0,0,2,69)
ShowMessage("\\n<Luka>")
ShowMessage("Aaaahhh...!")
ShowMessageFace("",0,0,2,70)
ShowMessage("She giggles as she makes her tongue even tighter around me.")
ShowMessageFace("",0,0,2,71)
ShowMessage("Slowly being crushed by her tongue as she laughs... I'm nothing but a toy to her.")
ShowMessageFace("minccubus_fc1",2,0,2,72)
ShowMessage("\\n<Serra>")
ShowMessage("Eheheh... How's this?")
ShowMessageFace("",0,0,2,73)
ShowMessage("\\n<Luka>")
ShowMessage("Ah, aaaah...!")
ShowMessageFace("",0,0,2,74)
ShowMessage("Her squeezing stimulation slowly starts to change.")
ShowMessageFace("",0,0,2,75)
ShowMessage("Until now, she was just squeezing my entire penis with her tongue.")
ShowMessageFace("",0,0,2,76)
ShowMessage("But now, every part of her tongue but the one clamping the base of my penis loosens, freeing me from the tight pleasure.")
ShowMessageFace("",0,0,2,77)
ShowMessage("But that tightness starts to slowly move up the base of my shaft until it reaches my tip, where it starts to go back down again.")
ShowMessageFace("",0,0,2,78)
ShowMessage("Her skillful rhythmic tightness motions go up and down, never stopping for even a moment.")
ShowMessageFace("",0,0,2,79)
ShowMessage("\\n<Luka>")
ShowMessage("Unnngh... I'm coming again...")
ShowMessageFace("minccubus_fc1",2,0,2,80)
ShowMessage("\\n<Serra>")
ShowMessage("Already going to leak again?")
ShowMessage("I don't even remember how many times you've spurted out your milk already...")
ShowMessageFace("minccubus_fc1",2,0,2,81)
ShowMessage("\\n<Serra>")
ShowMessage("That's so pathetic, big bro♪")
ShowMessageFace("",0,0,2,82)
ShowMessage("Serra grins as she moves toward the finishing blow.")
ShowMessageFace("",0,0,2,83)
ShowMessage("Two separate clamping sensations start from both ends of my penis, each moving up and down at the same time.")
ShowMessageFace("",0,0,2,84)
ShowMessage("Giving in at once to the new stimulation, I yell as the pleasure overwhelms me.")
ShowMessageFace("",0,0,2,85)
ShowMessage("\\n<Luka>Ah, aaaaaah!!")
RunCommonEvent(104)
PictureDisplay(5,"ev_minccubus_hb11",0,0,0,0,100,100,255,0)
RunCommonEvent(105)
ShowMessageFace("",0,0,2,86)
ShowMessage("I come, spraying my semen all over, while her tongue is still coiled around my penis.")
246(2)
PictureDisplay(5,"ev_minccubus_hb12",0,0,0,0,100,100,255,0)
ShowMessageFace("minccubus_fc1",2,0,2,87)
ShowMessage("\\n<Serra>")
ShowMessage("Ehehe, big bro's milk is all over the place♪")
ShowMessageFace("",0,0,2,88)
ShowMessage("The little girl swallows all of the semen that landed on her tongue, happily teasing me in the process.")
ShowMessageFace("",0,0,2,89)
ShowMessage("This girl that just became a Succubus is already able to dominate me so easily...")
ShowMessageFace("minccubus_fc1",2,0,2,90)
ShowMessage("\\n<Serra>")
ShowMessage("Give me more, big bro♪")
ShowMessageFace("",0,0,2,91)
ShowMessage("\\n<Luka>")
ShowMessage("Ah, auuuu...")
ShowMessageFace("",0,0,2,92)
ShowMessage("Like that, she forces me to ejaculate even more.")
ShowMessage("As much as this little Succubus wants... Over and over...")
221()
PictureClear(5)
PictureClear(6)
ShowMessageFace("",0,0,2,93)
ShowMessage("......")
RunCommonEvent(3998)
0()
