﻿// EVENT 0602
Name "Event: Warp 3"

ChangeSwitch(73,73,0)
If(1,123,0,9,2)
 ShowMessageFace("gob_fc1",0,0,2,1)
 ShowMessage("\\n<Goblin Girl>Welcome to the goblin taxi.\nFor the price of 300G, I'll send you up 3 floors!")
 ShowChoices(strings("Transport up 3 Floors","Decline"),2)
 IfPlayerPicksChoice(0,"3階先まで送ってもらう")
  125(1,0,300)
  ShowMessageFace("gob_fc1",0,0,2,2)
 ShowMessage("\\n<Goblin Girl>All right then, let's gooooo!!")
  ChangeVariable(121,121,1,0,2)
  RunCommonEvent(901)
  ChangeSwitch(73,73,1)
  EndEventProcessing()
  0()
 IfPlayerPicksChoice(1,"遠慮しておく")
  ShowMessageFace("gob_fc1",4,0,2,3)
 ShowMessage("\\n<Goblin Girl>Be careful out there.")
  ChangeSwitch(73,73,1)
  EndEventProcessing()
  0()
 404()
 0()
Else()
 ShowMessageFace("gob_fc1",3,0,2,4)
 ShowMessage("\\n<Goblin Girl>This is the World of Carnage...\nIt's too scary out there, so the Goblin Taxi is closed for now.")
 If(1,129,0,0,0)
  ShowMessageFace("gob_fc1",3,0,2,5)
  ShowMessage("\\n<Goblin Girl>So I'll give you this instead.\nBe careful out there...")
  250(bytes(0x04,0x08,0x6f,0x3a,0x0c,0x52,0x50,0x47,0x3a,0x3a,0x53,0x45,0x08,0x3a,0x0a,0x40,0x6e,0x61,0x6d,0x65,0x49,0x22,0x0a,0x49,0x74,0x65,0x6d,0x31,0x06,0x3a,0x06,0x45,0x54,0x3a,0x0b,0x40,0x70,0x69,0x74,0x63,0x68,0x69,0x69,0x3a,0x0c,0x40,0x76,0x6f,0x6c,0x75,0x6d,0x65,0x69,0x55))
  ChangeInventory_Item(9,0,0,1)
  ChangeVariable(129,129,0,0,1)
  0()
 EndIf()
 ChangeSwitch(73,73,1)
 EndEventProcessing()
 0()
EndIf()
0()
