// EVENT 4221
Name "Slug Nun 1"

If(0,25,1)
 221()
 PictureClear(5)
 PictureClear(6)
 ShowMessageFace("",0,0,2,0)
 ShowMessage("......")
 242(2)
 Wait(120)
 241(bytes(0x04,0x08,0x6f,0x3a,0x0d,0x52,0x50,0x47,0x3a,0x3a,0x42,0x47,0x4d,0x08,0x3a,0x0a,0x40,0x6e,0x61,0x6d,0x65,0x49,0x22,0x0c,0x63,0x61,0x73,0x74,0x6c,0x65,0x36,0x06,0x3a,0x06,0x45,0x54,0x3a,0x0c,0x40,0x76,0x6f,0x6c,0x75,0x6d,0x65,0x69,0x69,0x3a,0x0b,0x40,0x70,0x69,0x74,0x63,0x68,0x69,0x69))
 EndEventProcessing()
 0()
EndIf()
PictureDisplay(5,"80_name_s_st01",0,0,0,0,100,100,255,0)
ShowMessageFace("name_s_fc1",0,0,2,1)
ShowMessage("\\n<Rosary>Do you want me to pleasure you with my tongue...?")
ShowMessageFace("",0,0,2,2)
ShowMessage("\\n<Luka>Y...Yes... Please...")
ShowMessageFace("name_s_fc1",0,0,2,3)
ShowMessage("\\n<Rosary>I guess it cannot be helped... Please follow me to my room.")
ShowMessageFace("",0,0,2,4)
ShowMessage("Thus, I was invited to Rosary's room...")
221()
PictureDisplay(1,"bg195",0,0,0,0,100,100,255,0)
PictureDisplay(5,"80_name_s_st01",0,0,0,0,100,100,255,0)
222()
241(bytes(0x04,0x08,0x6f,0x3a,0x0d,0x52,0x50,0x47,0x3a,0x3a,0x42,0x47,0x4d,0x08,0x3a,0x0a,0x40,0x6e,0x61,0x6d,0x65,0x49,0x22,0x09,0x65,0x72,0x6f,0x31,0x06,0x3a,0x06,0x45,0x54,0x3a,0x0c,0x40,0x76,0x6f,0x6c,0x75,0x6d,0x65,0x69,0x69,0x3a,0x0b,0x40,0x70,0x69,0x74,0x63,0x68,0x69,0x69))
ShowMessageFace("name_s_fc1",0,0,2,5)
ShowMessage("\\n<Rosary>Fufu... I will suck out your semen.\nWith this tongue...")
PictureDisplay(5,"ev_name_s_ha1",0,0,0,0,100,100,0,0)
PictureMove(5,null,0,0,0,0,100,100,255,0,60,true)
ShowMessageFace("",0,0,2,6)
ShowMessage("Rosary opens her mouth and sticks her tongue out, showing it to me.")
ShowMessage("Her tongue is slimy and saliva drips from it...")
ShowMessageFace("",0,0,2,7)
ShowMessage("\\n<Luka>......")
ShowMessageFace("",0,0,2,8)
ShowMessage("Her tongue is covered in mucus, thin strands of it drip down.")
ShowMessage("Like it had a mind of its own, it's swirling and moving all about.")
ShowMessageFace("",0,0,2,9)
ShowMessage("She's about to lick me with that tongue...")
ShowMessage("Just thinking about it makes my penis grow bigger.")
ShowMessageFace("name_s_fc1",0,0,2,10)
ShowMessage("\\n<Rosary>Fufu, it seems that your penis is impatient.\nYou want me to lick it with my tongue...?")
PictureDisplay(5,"ev_name_s_hb1",0,0,0,0,100,100,255,0)
ShowMessageFace("",0,0,2,11)
ShowMessage("The Slug Nun bends over my crotch.")
ShowMessage("She pulls down my pants, exposing my already erect penis.")
ShowMessageFace("",0,0,2,12)
ShowMessage("She brings her head close enough so that I can feel her warm breath...")
ShowMessage("My heart beats faster at the expectation of pleasure.")
ShowMessageFace("",0,0,2,13)
ShowMessage("\\n<Luka>Ah, aaah...")
ShowMessageFace("name_s_fc1",0,0,2,14)
ShowMessage("\\n<Rosary>Ufufu, it looks like it grew even bigger...\nDid seeing my tongue turn you on that much...?")
ShowMessageFace("name_s_fc1",0,0,2,15)
ShowMessage("\\n<Rosary>Well then, thanks for the meal.\nYour semen, give me lots of it.")
ShowMessageFace("",0,0,2,16)
ShowMessage("Her mucus-covered tongue slowly approaches my penis...")
ShowMessage("All I can do is watch what happens before me expectantly.")
ShowMessageFace("",0,0,2,17)
ShowMessage("Then...")
245(bytes(0x04,0x08,0x6f,0x3a,0x0d,0x52,0x50,0x47,0x3a,0x3a,0x42,0x47,0x53,0x08,0x3a,0x0a,0x40,0x6e,0x61,0x6d,0x65,0x49,0x22,0x10,0x6d,0x6f,0x6e,0x5f,0x68,0x76,0x6f,0x69,0x63,0x65,0x31,0x06,0x3a,0x06,0x45,0x54,0x3a,0x0c,0x40,0x76,0x6f,0x6c,0x75,0x6d,0x65,0x69,0x55,0x3a,0x0b,0x40,0x70,0x69,0x74,0x63,0x68,0x69,0x69))
PictureDisplay(5,"ev_name_s_hb2",0,0,0,0,100,100,255,0)
ShowMessageFace("name_s_fc1",0,0,2,18)
ShowMessage("\\n<Rosary>*Slurp*")
ShowMessageFace("",0,0,2,19)
ShowMessage("Her slimy tongue starts crawling over my penis.")
ShowMessage("The tongue sticks to my back muscle and covers it in its sticky mucus.")
ShowMessageFace("",0,0,2,20)
ShowMessage("\\n<Luka>Ah... Aaah!")
ShowMessageFace("",0,0,2,21)
ShowMessage("As I feel her tongue's touches my hips, instantly shoot up.")
ShowMessage("With just a few licks, my glans is covered in her sticky mucus.")
ShowMessageFace("name_s_fc1",0,0,2,22)
ShowMessage("\\n<Rosary>Ufufu... Tasty...\nI'll give you more stickiness...")
ShowMessageFace("",0,0,2,23)
ShowMessage("Rosary slightly narrows her eyes and begins eagerly lapping my penis.")
ShowMessage("Her tongue crawls from the back muscle over my glans and all the way to the neck of my penis.")
ShowMessageFace("",0,0,2,24)
ShowMessage("It feels as if her tongue itself was a sticky slug.")
ShowMessage("It clings relentlessly to my penis.")
ShowMessageFace("",0,0,2,25)
ShowMessage("\\n<Luka>Ngh... Ah, aaaah...!")
ShowMessageFace("name_s_fc1",0,0,2,26)
ShowMessage("\\n<Rosary>Nnn...*Suck* *Suck*")
ShowMessageFace("",0,0,2,27)
ShowMessage("A sticky feeling crawls all around my glans.")
ShowMessage("it's licked all over and coated with a large amount of mucus.")
ShowMessageFace("",0,0,2,28)
ShowMessage("My penis is covered in stickiness from tip to root.")
ShowMessage("I feel like I lost control of my waist from all the pleasure...")
ShowMessageFace("",0,0,2,29)
ShowMessage("\\n<Luka>Huaaa... Aaah...")
ShowMessageFace("",0,0,2,30)
ShowMessage("Her sticky tongue licks my penis and leaves me completely weak.")
ShowMessage("It seems that her mucus makes you melt in pleasure...")
ShowMessageFace("name_s_fc1",0,0,2,31)
ShowMessage("\\n<Rosary>Arara, you're already like this?\nThen, let me show you more of this sticky heaven...")
ShowMessageFace("",0,0,2,32)
ShowMessage("\\n<Luka>Eh? Ah, aaah...")
PictureDisplay(5,"ev_name_s_hb5",0,0,0,0,100,100,255,0)
ShowMessageFace("",0,0,2,33)
ShowMessage("Rosary's tongue stretches out even more...")
ShowMessage("And it wraps slowly around my whole glans!")
ShowMessageFace("",0,0,2,34)
ShowMessage("My sensitive glans is wound up and entangled in her tongue...")
ShowMessage("The touch of her tongue wraps around my whole tip.")
ShowMessageFace("",0,0,2,35)
ShowMessage("It's as if a huge slug was claiming my penis.")
ShowMessage("The feeling of her tongue covering my glans makes my vision go white.")
ShowMessageFace("",0,0,2,36)
ShowMessage("\\n<Luka>Nnngh... Ah, aaaah...!")
ShowMessageFace("name_s_fc1",0,0,2,37)
ShowMessage("\\n<Rosary>Nn... *Suck* *Slurp*")
ShowMessageFace("",0,0,2,38)
ShowMessage("My glans is completely wound up by Rosary's tongue.")
ShowMessage("The feeling of her tongue vibrating around my glans makes me feel like I could ascend to heaven.")
ShowMessageFace("",0,0,2,39)
ShowMessage("The tongue starts winding around the rest of my penis.")
ShowMessage("It's acting as a snake slowly winding around its prey...")
ShowMessageFace("",0,0,2,40)
ShowMessage("\\n<Luka>Ah, aaaah...!")
ShowMessageFace("name_s_fc1",0,0,2,41)
ShowMessage("\\n<Rosary>*Suck* *Suck*")
ShowMessageFace("",0,0,2,42)
ShowMessage("The tongue keeps spiraling around my penis even after winding around it.")
ShowMessage("It focuses especially on my glans as it crawls all over.")
ShowMessageFace("",0,0,2,43)
ShowMessage("Her mucus-dripping tongue makes me feel like...")
ShowMessage("Like I could entrust my body and soul to this pleasure.")
ShowMessageFace("",0,0,2,44)
ShowMessage("All other thoughts disappear from my mind and all I can think of is the pleasure.")
ShowMessage("I feel my waist melting as a sweet feeling of release spreads through it.")
ShowMessageFace("",0,0,2,45)
ShowMessage("\\n<Luka>I'm coming...Uh...Aah...")
ShowMessageFace("name_s_fc1",0,0,2,46)
ShowMessage("\\n<Rosary>Ufufu, let it all out...\n*Suck* *Suck*")
ShowMessageFace("",0,0,2,47)
ShowMessage("As soon as her tongue finishes its winding and reaches my base...")
ShowMessage("The moment I was waiting for arrives.")
RunCommonEvent(104)
PictureDisplay(5,"ev_name_s_hb6",0,0,0,0,100,100,255,0)
RunCommonEvent(105)
ShowMessageFace("",0,0,2,48)
ShowMessage("\\n<Luka>Huaaa...")
ShowMessageFace("",0,0,2,49)
ShowMessage("While tasting the feeling of her slimy tongue, my penis starts shooting out a steady stream of semen.")
ShowMessage("It feels like I'm ascending to heaven...")
ShowMessageFace("name_s_fc1",0,0,2,50)
ShowMessage("\\n<Rosary>Nnn, Nnnnn...")
246(2)
PictureDisplay(5,"ev_name_s_hb7",0,0,0,0,100,100,255,0)
ShowMessageFace("",0,0,2,51)
ShowMessage("Rosary catches my white semen on her tongue...")
ShowMessage("My semen does not only cover her tongue, some lands on her face as well.")
ShowMessageFace("",0,0,2,52)
ShowMessage("Even though it was just one ejaculation, I let out an incredible amount.")
ShowMessage("The large amount just proves that the pleasure was amazing...")
ShowMessageFace("name_s_fc1",0,0,2,53)
ShowMessage("\\n<Rosary>Ufufu, you let out a lot.\nDid it feel good...?")
PictureDisplay(5,"ev_name_s_ha2",0,0,0,0,100,100,255,0)
ShowMessageFace("name_s_fc1",0,0,2,54)
ShowMessage("\\n<Rosary>Ho-ra you got me like this.\nCovered in a man's pleasure juice...")
ShowMessageFace("",0,0,2,55)
ShowMessage("\\n<Luka>Ah, aaah...")
ShowMessageFace("",0,0,2,56)
ShowMessage("Rosary slowly squeezes and unwinds her tongue from my penis, showing me the seed she squeezed out.")
ShowMessage("It felt like my pride as a man was crushed and a feeling of humiliation takes over me.")
PictureDisplay(5,"80_name_s_st01",0,0,0,0,100,100,255,0)
ShowMessageFace("name_s_fc1",0,0,2,57)
ShowMessage("\\n<Rosary>Nn, delicious.\nThank you for the meal.")
ShowMessageFace("",0,0,2,58)
ShowMessage("With a gulp, Rosary swallows my semen.")
ShowMessage("The seed that I forcefully shot out became nothing but her food...")
ShowMessageFace("name_s_fc1",0,0,2,59)
ShowMessage("\\n<Rosary>When your adventure is over, will you accompany me in my pilgrimage?\nDon't you wish you could taste this tongue over and over as much as you want?")
ShowMessageFace("",0,0,2,60)
ShowMessage("\\n<Luka>......")
ShowMessageFace("",0,0,2,61)
ShowMessage("I was thoroughly humiliated but the pleasure from her tongue made it all worth it.")
ShowMessage("I became hooked on her tongue skill.")
ShowMessageFace("",0,0,2,62)
ShowMessage("If I can taste that tongue again, I would go with her on her pilgrimage...")
ShowMessage("I consider this possibility.")
221()
PictureClear(5)
ShowMessageFace("",0,0,2,63)
ShowMessage("......")
242(2)
Wait(120)
241(bytes(0x04,0x08,0x6f,0x3a,0x0d,0x52,0x50,0x47,0x3a,0x3a,0x42,0x47,0x4d,0x08,0x3a,0x0a,0x40,0x6e,0x61,0x6d,0x65,0x49,0x22,0x0c,0x63,0x61,0x73,0x74,0x6c,0x65,0x36,0x06,0x3a,0x06,0x45,0x54,0x3a,0x0c,0x40,0x76,0x6f,0x6c,0x75,0x6d,0x65,0x69,0x69,0x3a,0x0b,0x40,0x70,0x69,0x74,0x63,0x68,0x69,0x69))
0()
