// EVENT 4143
Name "Rat Girl 3"

If(0,25,1)
 221()
 PictureClear(5)
 PictureClear(6)
 ShowMessageFace("",0,0,2,0)
 ShowMessage("......")
 242(2)
 Wait(120)
 241(bytes(0x04,0x08,0x6f,0x3a,0x0d,0x52,0x50,0x47,0x3a,0x3a,0x42,0x47,0x4d,0x08,0x3a,0x0a,0x40,0x6e,0x61,0x6d,0x65,0x49,0x22,0x0c,0x63,0x61,0x73,0x74,0x6c,0x65,0x36,0x06,0x3a,0x06,0x45,0x54,0x3a,0x0c,0x40,0x76,0x6f,0x6c,0x75,0x6d,0x65,0x69,0x69,0x3a,0x0b,0x40,0x70,0x69,0x74,0x63,0x68,0x69,0x69))
 EndEventProcessing()
 0()
EndIf()
PictureDisplay(5,"80_nezumi_st02",0,0,0,0,100,100,255,0)
ShowMessageFace("nezumi_fc1",0,0,2,1)
ShowMessage("\\n<Ratty>You want to do lewd things with me...?")
ShowMessageFace("",0,0,2,2)
ShowMessage("\\n<Luka>Y...Yes... Please...")
ShowMessageFace("nezumi_fc1",1,0,2,3)
ShowMessage("\\n<Ratty>With a rat... You're so strange...\nOk, let's go to a private room.")
ShowMessageFace("",0,0,2,4)
ShowMessage("With that, I was invited to her room...")
221()
PictureDisplay(1,"bg195",0,0,0,0,100,100,255,0)
PictureDisplay(5,"ev_nezumi_hb1",0,0,0,0,100,100,255,0)
222()
241(bytes(0x04,0x08,0x6f,0x3a,0x0d,0x52,0x50,0x47,0x3a,0x3a,0x42,0x47,0x4d,0x08,0x3a,0x0a,0x40,0x6e,0x61,0x6d,0x65,0x49,0x22,0x09,0x65,0x72,0x6f,0x31,0x06,0x3a,0x06,0x45,0x54,0x3a,0x0c,0x40,0x76,0x6f,0x6c,0x75,0x6d,0x65,0x69,0x69,0x3a,0x0b,0x40,0x70,0x69,0x74,0x63,0x68,0x69,0x69))
ShowMessageFace("nezumi_fc1",1,0,2,5)
ShowMessage("\\n<Ratty>We're good friends now, aren't we Luka?\nI want to have your child...")
ShowMessageFace("",0,0,2,6)
ShowMessage("\\n<Luka>Ch...Child...? We're too young for that...!")
ShowMessageFace("",0,0,2,7)
ShowMessage("Her words shocked me.")
ShowMessage("But Ratty slowly crawls toward me...")
ShowMessageFace("nezumi_fc1",1,0,2,8)
ShowMessage("\\n<Ratty>Hey, let's make a baby...\nWe'll mate a ton, and you can fill me with your seed...")
PictureDisplay(5,"ev_nezumi_hb1",0,0,0,0,100,100,255,0)
ShowMessageFace("",0,0,2,9)
ShowMessage("Ratty forces me down, and climbs on top of me.")
ShowMessage("She looks down at my already erect cock, and smiles.")
ShowMessageFace("nezumi_fc1",1,0,2,10)
ShowMessage("\\n<Ratty>Ahaha, it's already so big...\nDid you get excited when I said I wanted a baby?")
ShowMessageFace("nezumi_fc1",1,0,2,11)
ShowMessage("\\n<Ratty>Okay, let's mate a ton.\nGive your energetic sperm to me...")
ShowMessageFace("",0,0,2,12)
ShowMessage("\\n<Luka>N-not that...")
ShowMessageFace("nezumi_fc1",1,0,2,13)
ShowMessage("\\n<Ratty>There's no point saying no...\nI'll just have to rape you by force♪")
ShowMessageFace("",0,0,2,14)
ShowMessage("Ratty slowly raises herself up...")
ShowMessage("And guides my penis into her.")
245(bytes(0x04,0x08,0x6f,0x3a,0x0d,0x52,0x50,0x47,0x3a,0x3a,0x42,0x47,0x53,0x08,0x3a,0x0a,0x40,0x6e,0x61,0x6d,0x65,0x49,0x22,0x1e,0x6d,0x6f,0x6e,0x5f,0x68,0x73,0x65,0x61,0x6e,0x30,0x32,0x5f,0x69,0x6e,0x6e,0x65,0x72,0x77,0x6f,0x72,0x6b,0x73,0x5f,0x61,0x32,0x06,0x3a,0x06,0x45,0x54,0x3a,0x0c,0x40,0x76,0x6f,0x6c,0x75,0x6d,0x65,0x69,0x55,0x3a,0x0b,0x40,0x70,0x69,0x74,0x63,0x68,0x69,0x69))
PictureDisplay(5,"ev_nezumi_hc1",0,0,0,0,100,100,255,0)
ShowMessageFace("",0,0,2,15)
ShowMessage("Before I can stop her, I'm deep inside her!")
ShowMessageFace("",0,0,2,16)
ShowMessage("\\n<Luka>Ah... Aaah!")
ShowMessageFace("nezumi_fc1",1,0,2,17)
ShowMessage("\\n<Ratty>Ehehe...I'm raping a man...")
PictureDisplay(5,"ev_nezumi_hc2",0,0,0,0,100,100,255,0)
ShowMessageFace("",0,0,2,18)
ShowMessage("Ratty's tiny vagina presses against me.")
ShowMessageFace("",0,0,2,19)
ShowMessage("The narrow canal feels like it's trying to squeeze my semen out, but her flesh is slick and lubricated.")
ShowMessageFace("nezumi_fc1",1,0,2,20)
ShowMessage("\\n<Ratty>Ahaha... How does it feel to be raped by a rat?\nCome on, give me your seed~♪")
ShowMessageFace("",0,0,2,20)
ShowMessageFace("",0,0,2,21)
ShowMessage("Ratty firms up her abdomen, making her vagina even tighter than before. It feels like a hand taking a strong grip on my penis.")
ShowMessageFace("",0,0,2,22)
ShowMessage("\\n<Luka>Auuu... So tight...")
ShowMessageFace("nezumi_fc1",1,0,2,23)
ShowMessage("\\n<Ratty>Ehehe, I'm making it extra tight.\nYour penis loves it, doesn't it...?")
ShowMessageFace("nezumi_fc1",1,0,2,24)
ShowMessage("\\n<Ratty>Just come like that...\nGive me all of your seed...")
ShowMessageFace("",0,0,2,25)
ShowMessage("\\n<Luka>Th...that...\nAh, aaah...!")
ShowMessageFace("",0,0,2,26)
ShowMessage("Her vagina continues to tighten, giving me sweet pleasure.")
ShowMessage("The crazy pressure brings me quickly to the edge of climax.")
ShowMessageFace("",0,0,2,27)
ShowMessage("At this rate, I'm going to come inside of her in no time.")
ShowMessage("The desire to come in her... To give my seed to a monster.")
ShowMessageFace("nezumi_fc1",1,0,2,28)
ShowMessage("\\n<Ratty>Ehehe, you're about to come, aren't you?\nCome on, come inside me~♪")
ShowMessageFace("",0,0,2,29)
ShowMessage("Ratty squeezes down on me even tighter.")
ShowMessage("Her vagina presses me down from root to base.")
ShowMessageFace("",0,0,2,30)
ShowMessage("\\n<Luka>Aaah... Even though I shouldn't...\nI'm coming...")
ShowMessageFace("",0,0,2,31)
ShowMessage("I finally reach my limits.")
ShowMessage("The sweet pressure pushes me far over the edge.")
ShowMessageFace("",0,0,2,32)
ShowMessage("\\n<Luka>Aaaaah...!")
ShowMessageFace("",0,0,2,33)
ShowMessage("My dick begins to throb inside of her...")
RunCommonEvent(104)
PictureDisplay(5,"ev_nezumi_hc3",0,0,0,0,100,100,255,0)
RunCommonEvent(105)
ShowMessageFace("nezumi_fc1",1,0,2,34)
ShowMessage("\\n<Ratty>Ahaha, you're coming, you're coming!\nYour seed is filling me up...♪")
ShowMessageFace("",0,0,2,35)
ShowMessage("My penis pulses, shooting a huge amount of semen into Ratty.")
ShowMessage("As if welcoming it, her vagina squeezes me with each throb.")
ShowMessageFace("",0,0,2,36)
ShowMessage("\\n<Luka>Hnnaaa...")
ShowMessageFace("",0,0,2,37)
ShowMessage("I'm enraptured by the sweet tightness as I come.")
ShowMessage("At the price of impregnating her, I got to feel such sweet pleasure...")
PictureDisplay(5,"ev_nezumi_hc4",0,0,0,0,100,100,255,0)
ShowMessageFace("nezumi_fc1",1,0,2,38)
ShowMessage("\\n<Ratty>Ehehe... You gave me tons of seed.\nMy pussy was nice and tight, right?")
ShowMessageFace("nezumi_fc1",1,0,2,39)
ShowMessage("\\n<Ratty>But one time isn't nearly enough~♪\nI'll have you come in me again♪")
ShowMessageFace("",0,0,2,40)
ShowMessage("\\n<Luka>N...no way... Aaah!")
ShowMessageFace("",0,0,2,41)
ShowMessage("This immoral mating isn't over...")
ShowMessage("Sitting on top of me, she's going to force more seed from me.")
ShowMessageFace("",0,0,2,42)
ShowMessage("\\n<Luka>No, stop... Ahh!")
ShowMessageFace("nezumi_fc1",1,0,2,43)
ShowMessage("\\n<Ratty>Even if you say stop, you can keep going, can't you?\nIf I just tighten a bit more, you'll come easily♪")
ShowMessageFace("",0,0,2,44)
ShowMessage("\\n<Luka>Hya... Aaaah...!")
ShowMessageFace("",0,0,2,45)
ShowMessage("Her soft vaginal walls close around me as she squeezes.")
ShowMessage("Especially around the base and tip of my penis.")
ShowMessageFace("",0,0,2,46)
ShowMessage("At the very entrance to her vagina, her tightness is unbearable.")
ShowMessage("And deep inside her, the tip of my penis is enraptured.")
ShowMessageFace("",0,0,2,47)
ShowMessage("A soft bag of flesh, specially formed for my penis.")
ShowMessage("A creation able to force any man to orgasm.")
ShowMessageFace("",0,0,2,48)
ShowMessage("\\n<Luka>Unnngh... I'm coming again...!")
ShowMessageFace("",0,0,2,49)
ShowMessage("I leak out a moan as her tight vagina assaults me.")
ShowMessage("My waist twitches as the forced ejaculation grows in me.")
ShowMessageFace("nezumi_fc1",1,0,2,50)
ShowMessage("\\n<Ratty>Coming again?\nOk, time for the finishing blow♪")
ShowMessageFace("",0,0,2,51)
ShowMessage("With that, her vagina shrinks even smaller.")
ShowMessage("The already crushing pleasure gets even more powerful.")
ShowMessageFace("",0,0,2,52)
ShowMessage("\\n<Luka>That... Don't...Ah, aaaah...!")
RunCommonEvent(104)
PictureDisplay(5,"ev_nezumi_hc5",0,0,0,0,100,100,255,0)
RunCommonEvent(105)
ShowMessageFace("",0,0,2,53)
ShowMessage("I succumb to her tight pussy.")
ShowMessage("My penis pulses in her, shooting my seed deep inside.")
ShowMessageFace("",0,0,2,54)
ShowMessage("\\n<Luka>Aaaaah...")
ShowMessageFace("",0,0,2,55)
ShowMessage("All during my orgasm, she continues squeezing me with her vaginal muscles.")
ShowMessage("It's like a sweet reward for giving her my seed.")
246(2)
PictureDisplay(5,"ev_nezumi_hc6",0,0,0,0,100,100,255,0)
ShowMessageFace("nezumi_fc1",1,0,2,56)
ShowMessage("\\n<Ratty>Ahaha... I can feel Luka's little sperm inside of me.\nLots of little rats will be born♪")
ShowMessageFace("nezumi_fc1",1,0,2,57)
ShowMessage("\\n<Ratty>Let's raise them up well, Papa♪")
ShowMessageFace("",0,0,2,58)
ShowMessage("\\n<Luka>......")
ShowMessageFace("",0,0,2,59)
ShowMessage("With that, I've given Ratty my seed...")
ShowMessage("I did something irreparable.")
221()
PictureClear(5)
ShowMessageFace("",0,0,2,60)
ShowMessage("......")
242(2)
Wait(120)
241(bytes(0x04,0x08,0x6f,0x3a,0x0d,0x52,0x50,0x47,0x3a,0x3a,0x42,0x47,0x4d,0x08,0x3a,0x0a,0x40,0x6e,0x61,0x6d,0x65,0x49,0x22,0x0c,0x63,0x61,0x73,0x74,0x6c,0x65,0x36,0x06,0x3a,0x06,0x45,0x54,0x3a,0x0c,0x40,0x76,0x6f,0x6c,0x75,0x6d,0x65,0x69,0x69,0x3a,0x0b,0x40,0x70,0x69,0x74,0x63,0x68,0x69,0x69))
0()
