// EVENT 0034
Name "Get: Rank 2 Single Item"

ChangeVariable(11,11,0,2,1,192)
If(1,11,0,1,0)
 ChangeInventory_Item(2,0,0,1)
 ShowMessageFace("",0,0,2,1)
 ShowMessage("You obtain \\ii[2]!")
 EndEventProcessing()
 0()
EndIf()
If(1,11,0,2,0)
 ChangeInventory_Item(7,0,0,1)
 ShowMessageFace("",0,0,2,2)
 ShowMessage("You obtain \\ii[7]!")
 EndEventProcessing()
 0()
EndIf()
If(1,11,0,3,0)
 ChangeInventory_Item(18,0,0,1)
 ShowMessageFace("",0,0,2,3)
 ShowMessage("You obtain \\ii[18]!")
 EndEventProcessing()
 0()
EndIf()
If(1,11,0,4,0)
 ChangeInventory_Item(19,0,0,1)
 ShowMessageFace("",0,0,2,4)
 ShowMessage("You obtain \\ii[19]!")
 EndEventProcessing()
 0()
EndIf()
If(1,11,0,5,0)
 ChangeInventory_Item(52,0,0,1)
 ShowMessageFace("",0,0,2,5)
 ShowMessage("You obtain \\ii[52]!")
 EndEventProcessing()
 0()
EndIf()
If(1,11,0,6,0)
 ChangeInventory_Item(56,0,0,1)
 ShowMessageFace("",0,0,2,6)
 ShowMessage("You obtain \\ii[56]!")
 EndEventProcessing()
 0()
EndIf()
If(1,11,0,7,0)
 ChangeInventory_Item(60,0,0,1)
 ShowMessageFace("",0,0,2,7)
 ShowMessage("You obtain \\ii[60]!")
 EndEventProcessing()
 0()
EndIf()
If(1,11,0,8,0)
 ChangeInventory_Item(64,0,0,1)
 ShowMessageFace("",0,0,2,8)
 ShowMessage("You obtain \\ii[64]!")
 EndEventProcessing()
 0()
EndIf()
If(1,11,0,9,0)
 ChangeInventory_Item(68,0,0,1)
 ShowMessageFace("",0,0,2,9)
 ShowMessage("You obtain \\ii[68]!")
 EndEventProcessing()
 0()
EndIf()
If(1,11,0,10,0)
 ChangeInventory_Item(72,0,0,1)
 ShowMessageFace("",0,0,2,10)
 ShowMessage("You obtain \\ii[72]!")
 EndEventProcessing()
 0()
EndIf()
If(1,11,0,11,0)
 ChangeInventory_Item(76,0,0,1)
 ShowMessageFace("",0,0,2,11)
 ShowMessage("You obtain \\ii[76]!")
 EndEventProcessing()
 0()
EndIf()
If(1,11,0,12,0)
 ChangeInventory_Item(80,0,0,1)
 ShowMessageFace("",0,0,2,12)
 ShowMessage("You obtain \\ii[80]!")
 EndEventProcessing()
 0()
EndIf()
If(1,11,0,13,0)
 ChangeInventory_Item(101,0,0,1)
 ShowMessageFace("",0,0,2,13)
 ShowMessage("You obtain \\ii[101]!")
 EndEventProcessing()
 0()
EndIf()
If(1,11,0,14,0)
 ChangeInventory_Item(109,0,0,1)
 ShowMessageFace("",0,0,2,14)
 ShowMessage("You obtain \\ii[109]!")
 EndEventProcessing()
 0()
EndIf()
If(1,11,0,15,0)
 ChangeInventory_Item(176,0,0,1)
 ShowMessageFace("",0,0,2,15)
 ShowMessage("You obtain \\ii[176]!")
 EndEventProcessing()
 0()
EndIf()
If(1,11,0,16,0)
 ChangeInventory_Item(177,0,0,1)
 ShowMessageFace("",0,0,2,16)
 ShowMessage("You obtain \\ii[177]!")
 EndEventProcessing()
 0()
EndIf()
If(1,11,0,17,0)
 ChangeInventory_Item(178,0,0,1)
 ShowMessageFace("",0,0,2,17)
 ShowMessage("You obtain \\ii[178]!")
 EndEventProcessing()
 0()
EndIf()
If(1,11,0,18,0)
 ChangeInventory_Item(179,0,0,1)
 ShowMessageFace("",0,0,2,18)
 ShowMessage("You obtain \\ii[179]!")
 EndEventProcessing()
 0()
EndIf()
If(1,11,0,19,0)
 ChangeInventory_Item(180,0,0,1)
 ShowMessageFace("",0,0,2,19)
 ShowMessage("You obtain \\ii[180]!")
 EndEventProcessing()
 0()
EndIf()
If(1,11,0,20,0)
 ChangeInventory_Item(181,0,0,1)
 ShowMessageFace("",0,0,2,20)
 ShowMessage("You obtain \\ii[181]!")
 EndEventProcessing()
 0()
EndIf()
If(1,11,0,21,0)
 ChangeInventory_Item(182,0,0,1)
 ShowMessageFace("",0,0,2,21)
 ShowMessage("You obtain \\ii[182]!")
 EndEventProcessing()
 0()
EndIf()
If(1,11,0,22,0)
 ChangeInventory_Item(183,0,0,1)
 ShowMessageFace("",0,0,2,22)
 ShowMessage("You obtain \\ii[183]!")
 EndEventProcessing()
 0()
EndIf()
If(1,11,0,23,0)
 ChangeInventory_Item(184,0,0,1)
 ShowMessageFace("",0,0,2,23)
 ShowMessage("You obtain \\ii[184]!")
 EndEventProcessing()
 0()
EndIf()
If(1,11,0,24,0)
 ChangeInventory_Item(185,0,0,1)
 ShowMessageFace("",0,0,2,24)
 ShowMessage("You obtain \\ii[185]!")
 EndEventProcessing()
 0()
EndIf()
If(1,11,0,25,0)
 ChangeInventory_Item(186,0,0,1)
 ShowMessageFace("",0,0,2,25)
 ShowMessage("You obtain \\ii[186]!")
 EndEventProcessing()
 0()
EndIf()
If(1,11,0,26,0)
 ChangeInventory_Item(187,0,0,1)
 ShowMessageFace("",0,0,2,26)
 ShowMessage("You obtain \\ii[187]!")
 EndEventProcessing()
 0()
EndIf()
If(1,11,0,27,0)
 ChangeInventory_Item(188,0,0,1)
 ShowMessageFace("",0,0,2,27)
 ShowMessage("You obtain \\ii[188]!")
 EndEventProcessing()
 0()
EndIf()
If(1,11,0,28,0)
 ChangeInventory_Item(189,0,0,1)
 ShowMessageFace("",0,0,2,28)
 ShowMessage("You obtain \\ii[189]!")
 EndEventProcessing()
 0()
EndIf()
If(1,11,0,29,0)
 ChangeInventory_Item(190,0,0,1)
 ShowMessageFace("",0,0,2,29)
 ShowMessage("You obtain \\ii[190]!")
 EndEventProcessing()
 0()
EndIf()
If(1,11,0,30,0)
 ChangeInventory_Item(191,0,0,1)
 ShowMessageFace("",0,0,2,30)
 ShowMessage("You obtain \\ii[191]!")
 EndEventProcessing()
 0()
EndIf()
If(1,11,0,31,0)
 ChangeInventory_Item(192,0,0,1)
 ShowMessageFace("",0,0,2,31)
 ShowMessage("You obtain \\ii[192]!")
 EndEventProcessing()
 0()
EndIf()
If(1,11,0,32,0)
 ChangeInventory_Item(193,0,0,1)
 ShowMessageFace("",0,0,2,32)
 ShowMessage("You obtain \\ii[193]!")
 EndEventProcessing()
 0()
EndIf()
If(1,11,0,33,0)
 ChangeInventory_Item(194,0,0,1)
 ShowMessageFace("",0,0,2,33)
 ShowMessage("You obtain \\ii[194]!")
 EndEventProcessing()
 0()
EndIf()
If(1,11,0,34,0)
 ChangeInventory_Item(195,0,0,1)
 ShowMessageFace("",0,0,2,34)
 ShowMessage("You obtain \\ii[195]!")
 EndEventProcessing()
 0()
EndIf()
If(1,11,0,35,0)
 ChangeInventory_Item(196,0,0,1)
 ShowMessageFace("",0,0,2,35)
 ShowMessage("You obtain \\ii[196]!")
 EndEventProcessing()
 0()
EndIf()
If(1,11,0,36,0)
 ChangeInventory_Item(197,0,0,1)
 ShowMessageFace("",0,0,2,36)
 ShowMessage("You obtain \\ii[197]!")
 EndEventProcessing()
 0()
EndIf()
If(1,11,0,37,0)
 ChangeInventory_Item(198,0,0,1)
 ShowMessageFace("",0,0,2,37)
 ShowMessage("You obtain \\ii[198]!")
 EndEventProcessing()
 0()
EndIf()
If(1,11,0,38,0)
 ChangeInventory_Item(199,0,0,1)
 ShowMessageFace("",0,0,2,38)
 ShowMessage("You obtain \\ii[199]!")
 EndEventProcessing()
 0()
EndIf()
If(1,11,0,39,0)
 ChangeInventory_Item(200,0,0,1)
 ShowMessageFace("",0,0,2,39)
 ShowMessage("You obtain \\ii[200]!")
 EndEventProcessing()
 0()
EndIf()
If(1,11,0,40,0)
 ChangeInventory_Item(201,0,0,1)
 ShowMessageFace("",0,0,2,40)
 ShowMessage("You obtain \\ii[201]!")
 EndEventProcessing()
 0()
EndIf()
If(1,11,0,41,0)
 ChangeInventory_Item(202,0,0,1)
 ShowMessageFace("",0,0,2,41)
 ShowMessage("You obtain \\ii[202]!")
 EndEventProcessing()
 0()
EndIf()
If(1,11,0,42,0)
 ChangeInventory_Item(203,0,0,1)
 ShowMessageFace("",0,0,2,42)
 ShowMessage("You obtain \\ii[203]!")
 EndEventProcessing()
 0()
EndIf()
If(1,11,0,43,0)
 ChangeInventory_Item(303,0,0,1)
 ShowMessageFace("",0,0,2,43)
 ShowMessage("You obtain \\ii[303]!")
 EndEventProcessing()
 0()
EndIf()
If(1,11,0,44,0)
 ChangeInventory_Item(305,0,0,1)
 ShowMessageFace("",0,0,2,44)
 ShowMessage("You obtain \\ii[305]!")
 EndEventProcessing()
 0()
EndIf()
If(1,11,0,45,0)
 ChangeInventory_Item(308,0,0,1)
 ShowMessageFace("",0,0,2,45)
 ShowMessage("You obtain \\ii[308]!")
 EndEventProcessing()
 0()
EndIf()
If(1,11,0,46,0)
 ChangeInventory_Item(312,0,0,1)
 ShowMessageFace("",0,0,2,46)
 ShowMessage("You obtain \\ii[312]!")
 EndEventProcessing()
 0()
EndIf()
If(1,11,0,47,0)
 ChangeInventory_Item(314,0,0,1)
 ShowMessageFace("",0,0,2,47)
 ShowMessage("You obtain \\ii[314]!")
 EndEventProcessing()
 0()
EndIf()
If(1,11,0,48,0)
 ChangeInventory_Item(318,0,0,1)
 ShowMessageFace("",0,0,2,48)
 ShowMessage("You obtain \\ii[318]!")
 EndEventProcessing()
 0()
EndIf()
If(1,11,0,49,0)
 ChangeInventory_Item(323,0,0,1)
 ShowMessageFace("",0,0,2,49)
 ShowMessage("You obtain \\ii[323]!")
 EndEventProcessing()
 0()
EndIf()
If(1,11,0,50,0)
 ChangeInventory_Item(326,0,0,1)
 ShowMessageFace("",0,0,2,50)
 ShowMessage("You obtain \\ii[326]!")
 EndEventProcessing()
 0()
EndIf()
If(1,11,0,51,0)
 ChangeInventory_Item(328,0,0,1)
 ShowMessageFace("",0,0,2,51)
 ShowMessage("You obtain \\ii[328]!")
 EndEventProcessing()
 0()
EndIf()
If(1,11,0,52,0)
 ChangeInventory_Item(333,0,0,1)
 ShowMessageFace("",0,0,2,52)
 ShowMessage("You obtain \\ii[333]!")
 EndEventProcessing()
 0()
EndIf()
If(1,11,0,53,0)
 ChangeInventory_Item(336,0,0,1)
 ShowMessageFace("",0,0,2,53)
 ShowMessage("You obtain \\ii[336]!")
 EndEventProcessing()
 0()
EndIf()
If(1,11,0,54,0)
 ChangeInventory_Item(337,0,0,1)
 ShowMessageFace("",0,0,2,54)
 ShowMessage("You obtain \\ii[337]!")
 EndEventProcessing()
 0()
EndIf()
If(1,11,0,55,0)
 ChangeInventory_Item(357,0,0,1)
 ShowMessageFace("",0,0,2,55)
 ShowMessage("You obtain \\ii[357]!")
 EndEventProcessing()
 0()
EndIf()
If(1,11,0,56,0)
 ChangeInventory_Item(358,0,0,1)
 ShowMessageFace("",0,0,2,56)
 ShowMessage("You obtain \\ii[358]!")
 EndEventProcessing()
 0()
EndIf()
If(1,11,0,57,0)
 ChangeInventory_Item(359,0,0,1)
 ShowMessageFace("",0,0,2,57)
 ShowMessage("You obtain \\ii[359]!")
 EndEventProcessing()
 0()
EndIf()
If(1,11,0,58,0)
 ChangeInventory_Item(361,0,0,1)
 ShowMessageFace("",0,0,2,58)
 ShowMessage("You obtain \\ii[361]!")
 EndEventProcessing()
 0()
EndIf()
If(1,11,0,59,0)
 ChangeInventory_Item(375,0,0,1)
 ShowMessageFace("",0,0,2,59)
 ShowMessage("You obtain \\ii[375]!")
 EndEventProcessing()
 0()
EndIf()
If(1,11,0,60,0)
 ChangeInventory_Item(376,0,0,1)
 ShowMessageFace("",0,0,2,60)
 ShowMessage("You obtain \\ii[376]!")
 EndEventProcessing()
 0()
EndIf()
If(1,11,0,61,0)
 ChangeInventory_Item(379,0,0,1)
 ShowMessageFace("",0,0,2,61)
 ShowMessage("You obtain \\ii[379]!")
 EndEventProcessing()
 0()
EndIf()
If(1,11,0,62,0)
 ChangeInventory_Item(380,0,0,1)
 ShowMessageFace("",0,0,2,62)
 ShowMessage("You obtain \\ii[380]!")
 EndEventProcessing()
 0()
EndIf()
If(1,11,0,63,0)
 ChangeInventory_Item(381,0,0,1)
 ShowMessageFace("",0,0,2,63)
 ShowMessage("You obtain \\ii[381]!")
 EndEventProcessing()
 0()
EndIf()
If(1,11,0,64,0)
 ChangeInventory_Item(382,0,0,1)
 ShowMessageFace("",0,0,2,64)
 ShowMessage("You obtain \\ii[382]!")
 EndEventProcessing()
 0()
EndIf()
If(1,11,0,65,0)
 ChangeInventory_Item(383,0,0,1)
 ShowMessageFace("",0,0,2,65)
 ShowMessage("You obtain \\ii[383]!")
 EndEventProcessing()
 0()
EndIf()
If(1,11,0,66,0)
 ChangeInventory_Item(389,0,0,1)
 ShowMessageFace("",0,0,2,66)
 ShowMessage("You obtain \\ii[389]!")
 EndEventProcessing()
 0()
EndIf()
If(1,11,0,67,0)
 ChangeInventory_Item(437,0,0,1)
 ShowMessageFace("",0,0,2,67)
 ShowMessage("You obtain \\ii[437]!")
 EndEventProcessing()
 0()
EndIf()
If(1,11,0,68,0)
 ChangeInventory_Item(438,0,0,1)
 ShowMessageFace("",0,0,2,68)
 ShowMessage("You obtain \\ii[438]!")
 EndEventProcessing()
 0()
EndIf()
If(1,11,0,69,0)
 ChangeInventory_Item(439,0,0,1)
 ShowMessageFace("",0,0,2,69)
 ShowMessage("You obtain \\ii[439]!")
 EndEventProcessing()
 0()
EndIf()
If(1,11,0,70,0)
 ChangeInventoryArmor(1002,0,0,1,false)
 ShowMessageFace("",0,0,2,70)
 ShowMessage("You obtain \\ia[1002]!")
 EndEventProcessing()
 0()
EndIf()
If(1,11,0,71,0)
 ChangeInventoryArmor(1007,0,0,1,false)
 ShowMessageFace("",0,0,2,71)
 ShowMessage("You obtain \\ia[1007]!")
 EndEventProcessing()
 0()
EndIf()
If(1,11,0,72,0)
 ChangeInventoryArmor(1012,0,0,1,false)
 ShowMessageFace("",0,0,2,72)
 ShowMessage("You obtain \\ia[1012]!")
 EndEventProcessing()
 0()
EndIf()
If(1,11,0,73,0)
 ChangeInventoryArmor(1017,0,0,1,false)
 ShowMessageFace("",0,0,2,73)
 ShowMessage("You obtain \\ia[1017]!")
 EndEventProcessing()
 0()
EndIf()
If(1,11,0,74,0)
 ChangeInventoryArmor(1022,0,0,1,false)
 ShowMessageFace("",0,0,2,74)
 ShowMessage("You obtain \\ia[1022]!")
 EndEventProcessing()
 0()
EndIf()
If(1,11,0,75,0)
 ChangeInventoryArmor(1027,0,0,1,false)
 ShowMessageFace("",0,0,2,75)
 ShowMessage("You obtain \\ia[1027]!")
 EndEventProcessing()
 0()
EndIf()
If(1,11,0,76,0)
 ChangeInventoryArmor(1032,0,0,1,false)
 ShowMessageFace("",0,0,2,76)
 ShowMessage("You obtain \\ia[1032]!")
 EndEventProcessing()
 0()
EndIf()
If(1,11,0,77,0)
 ChangeInventoryArmor(1037,0,0,1,false)
 ShowMessageFace("",0,0,2,77)
 ShowMessage("You obtain \\ia[1037]!")
 EndEventProcessing()
 0()
EndIf()
If(1,11,0,78,0)
 ChangeInventoryArmor(1042,0,0,1,false)
 ShowMessageFace("",0,0,2,78)
 ShowMessage("You obtain \\ia[1042]!")
 EndEventProcessing()
 0()
EndIf()
If(1,11,0,79,0)
 ChangeInventoryArmor(1046,0,0,1,false)
 ShowMessageFace("",0,0,2,79)
 ShowMessage("You obtain \\ia[1046]!")
 EndEventProcessing()
 0()
EndIf()
If(1,11,0,80,0)
 ChangeInventoryArmor(1066,0,0,1,false)
 ShowMessageFace("",0,0,2,80)
 ShowMessage("You obtain \\ia[1066]!")
 EndEventProcessing()
 0()
EndIf()
If(1,11,0,81,0)
 ChangeInventoryArmor(1071,0,0,1,false)
 ShowMessageFace("",0,0,2,81)
 ShowMessage("You obtain \\ia[1071]!")
 EndEventProcessing()
 0()
EndIf()
If(1,11,0,82,0)
 ChangeInventoryArmor(1076,0,0,1,false)
 ShowMessageFace("",0,0,2,82)
 ShowMessage("You obtain \\ia[1076]!")
 EndEventProcessing()
 0()
EndIf()
If(1,11,0,83,0)
 ChangeInventoryArmor(1082,0,0,1,false)
 ShowMessageFace("",0,0,2,83)
 ShowMessage("You obtain \\ia[1082]!")
 EndEventProcessing()
 0()
EndIf()
If(1,11,0,84,0)
 ChangeInventoryArmor(1086,0,0,1,false)
 ShowMessageFace("",0,0,2,84)
 ShowMessage("You obtain \\ia[1086]!")
 EndEventProcessing()
 0()
EndIf()
If(1,11,0,85,0)
 ChangeInventoryArmor(1090,0,0,1,false)
 ShowMessageFace("",0,0,2,85)
 ShowMessage("You obtain \\ia[1090]!")
 EndEventProcessing()
 0()
EndIf()
If(1,11,0,86,0)
 ChangeInventoryArmor(1092,0,0,1,false)
 ShowMessageFace("",0,0,2,86)
 ShowMessage("You obtain \\ia[1092]!")
 EndEventProcessing()
 0()
EndIf()
If(1,11,0,87,0)
 ChangeInventoryArmor(1096,0,0,1,false)
 ShowMessageFace("",0,0,2,87)
 ShowMessage("You obtain \\ia[1096]!")
 EndEventProcessing()
 0()
EndIf()
If(1,11,0,88,0)
 ChangeInventoryArmor(1111,0,0,1,false)
 ShowMessageFace("",0,0,2,88)
 ShowMessage("You obtain \\ia[1111]!")
 EndEventProcessing()
 0()
EndIf()
If(1,11,0,89,0)
 ChangeInventoryArmor(1115,0,0,1,false)
 ShowMessageFace("",0,0,2,89)
 ShowMessage("You obtain \\ia[1115]!")
 EndEventProcessing()
 0()
EndIf()
If(1,11,0,90,0)
 ChangeInventoryArmor(1120,0,0,1,false)
 ShowMessageFace("",0,0,2,90)
 ShowMessage("You obtain \\ia[1120]!")
 EndEventProcessing()
 0()
EndIf()
If(1,11,0,91,0)
 ChangeInventoryArmor(1123,0,0,1,false)
 ShowMessageFace("",0,0,2,91)
 ShowMessage("You obtain \\ia[1123]!")
 EndEventProcessing()
 0()
EndIf()
If(1,11,0,92,0)
 ChangeInventoryArmor(1126,0,0,1,false)
 ShowMessageFace("",0,0,2,92)
 ShowMessage("You obtain \\ia[1126]!")
 EndEventProcessing()
 0()
EndIf()
If(1,11,0,93,0)
 ChangeInventoryArmor(1138,0,0,1,false)
 ShowMessageFace("",0,0,2,93)
 ShowMessage("You obtain \\ia[1138]!")
 EndEventProcessing()
 0()
EndIf()
If(1,11,0,94,0)
 ChangeInventoryArmor(1142,0,0,1,false)
 ShowMessageFace("",0,0,2,94)
 ShowMessage("You obtain \\ia[1142]!")
 EndEventProcessing()
 0()
EndIf()
If(1,11,0,95,0)
 ChangeInventoryArmor(1149,0,0,1,false)
 ShowMessageFace("",0,0,2,95)
 ShowMessage("You obtain \\ia[1149]!")
 EndEventProcessing()
 0()
EndIf()
If(1,11,0,96,0)
 ChangeInventoryArmor(1151,0,0,1,false)
 ShowMessageFace("",0,0,2,96)
 ShowMessage("You obtain \\ia[1151]!")
 EndEventProcessing()
 0()
EndIf()
If(1,11,0,97,0)
 ChangeInventoryArmor(1153,0,0,1,false)
 ShowMessageFace("",0,0,2,97)
 ShowMessage("You obtain \\ia[1153]!")
 EndEventProcessing()
 0()
EndIf()
If(1,11,0,98,0)
 ChangeInventoryArmor(1157,0,0,1,false)
 ShowMessageFace("",0,0,2,98)
 ShowMessage("You obtain \\ia[1157]!")
 EndEventProcessing()
 0()
EndIf()
If(1,11,0,99,0)
 ChangeInventoryArmor(1162,0,0,1,false)
 ShowMessageFace("",0,0,2,99)
 ShowMessage("You obtain \\ia[1162]!")
 EndEventProcessing()
 0()
EndIf()
If(1,11,0,100,0)
 ChangeInventoryArmor(1163,0,0,1,false)
 ShowMessageFace("",0,0,2,100)
 ShowMessage("You obtain \\ia[1163]!")
 EndEventProcessing()
 0()
EndIf()
If(1,11,0,101,0)
 ChangeInventoryArmor(1164,0,0,1,false)
 ShowMessageFace("",0,0,2,101)
 ShowMessage("You obtain \\ia[1164]!")
 EndEventProcessing()
 0()
EndIf()
If(1,11,0,102,0)
 ChangeInventoryArmor(1167,0,0,1,false)
 ShowMessageFace("",0,0,2,102)
 ShowMessage("You obtain \\ia[1167]!")
 EndEventProcessing()
 0()
EndIf()
If(1,11,0,103,0)
 ChangeInventoryArmor(1197,0,0,1,false)
 ShowMessageFace("",0,0,2,103)
 ShowMessage("You obtain \\ia[1197]!")
 EndEventProcessing()
 0()
EndIf()
If(1,11,0,104,0)
 ChangeInventoryArmor(1243,0,0,1,false)
 ShowMessageFace("",0,0,2,104)
 ShowMessage("You obtain \\ia[1243]!")
 EndEventProcessing()
 0()
EndIf()
If(1,11,0,105,0)
 ChangeInventoryArmor(1246,0,0,1,false)
 ShowMessageFace("",0,0,2,105)
 ShowMessage("You obtain \\ia[1246]!")
 EndEventProcessing()
 0()
EndIf()
If(1,11,0,106,0)
 ChangeInventoryArmor(1249,0,0,1,false)
 ShowMessageFace("",0,0,2,106)
 ShowMessage("You obtain \\ia[1249]!")
 EndEventProcessing()
 0()
EndIf()
If(1,11,0,107,0)
 ChangeInventoryArmor(1252,0,0,1,false)
 ShowMessageFace("",0,0,2,107)
 ShowMessage("You obtain \\ia[1252]!")
 EndEventProcessing()
 0()
EndIf()
If(1,11,0,108,0)
 ChangeInventoryArmor(1255,0,0,1,false)
 ShowMessageFace("",0,0,2,108)
 ShowMessage("You obtain \\ia[1255]!")
 EndEventProcessing()
 0()
EndIf()
If(1,11,0,109,0)
 ChangeInventoryArmor(1258,0,0,1,false)
 ShowMessageFace("",0,0,2,109)
 ShowMessage("You obtain \\ia[1258]!")
 EndEventProcessing()
 0()
EndIf()
If(1,11,0,110,0)
 ChangeInventoryArmor(1261,0,0,1,false)
 ShowMessageFace("",0,0,2,110)
 ShowMessage("You obtain \\ia[1261]!")
 EndEventProcessing()
 0()
EndIf()
If(1,11,0,111,0)
 ChangeInventoryArmor(1264,0,0,1,false)
 ShowMessageFace("",0,0,2,111)
 ShowMessage("You obtain \\ia[1264]!")
 EndEventProcessing()
 0()
EndIf()
If(1,11,0,112,0)
 ChangeInventoryArmor(1267,0,0,1,false)
 ShowMessageFace("",0,0,2,112)
 ShowMessage("You obtain \\ia[1267]!")
 EndEventProcessing()
 0()
EndIf()
If(1,11,0,113,0)
 ChangeInventoryArmor(1270,0,0,1,false)
 ShowMessageFace("",0,0,2,113)
 ShowMessage("You obtain \\ia[1270]!")
 EndEventProcessing()
 0()
EndIf()
If(1,11,0,114,0)
 ChangeInventoryArmor(1273,0,0,1,false)
 ShowMessageFace("",0,0,2,114)
 ShowMessage("You obtain \\ia[1273]!")
 EndEventProcessing()
 0()
EndIf()
If(1,11,0,115,0)
 ChangeInventoryArmor(1276,0,0,1,false)
 ShowMessageFace("",0,0,2,115)
 ShowMessage("You obtain \\ia[1276]!")
 EndEventProcessing()
 0()
EndIf()
If(1,11,0,116,0)
 ChangeInventoryArmor(1282,0,0,1,false)
 ShowMessageFace("",0,0,2,116)
 ShowMessage("You obtain \\ia[1282]!")
 EndEventProcessing()
 0()
EndIf()
If(1,11,0,117,0)
 ChangeInventoryArmor(1285,0,0,1,false)
 ShowMessageFace("",0,0,2,117)
 ShowMessage("You obtain \\ia[1285]!")
 EndEventProcessing()
 0()
EndIf()
If(1,11,0,118,0)
 ChangeInventoryArmor(1288,0,0,1,false)
 ShowMessageFace("",0,0,2,118)
 ShowMessage("You obtain \\ia[1288]!")
 EndEventProcessing()
 0()
EndIf()
If(1,11,0,119,0)
 ChangeInventoryArmor(1291,0,0,1,false)
 ShowMessageFace("",0,0,2,119)
 ShowMessage("You obtain \\ia[1291]!")
 EndEventProcessing()
 0()
EndIf()
If(1,11,0,120,0)
 ChangeInventoryArmor(1294,0,0,1,false)
 ShowMessageFace("",0,0,2,120)
 ShowMessage("You obtain \\ia[1294]!")
 EndEventProcessing()
 0()
EndIf()
If(1,11,0,121,0)
 ChangeInventoryArmor(1297,0,0,1,false)
 ShowMessageFace("",0,0,2,121)
 ShowMessage("You obtain \\ia[1297]!")
 EndEventProcessing()
 0()
EndIf()
If(1,11,0,122,0)
 ChangeInventoryArmor(1300,0,0,1,false)
 ShowMessageFace("",0,0,2,122)
 ShowMessage("You obtain \\ia[1300]!")
 EndEventProcessing()
 0()
EndIf()
If(1,11,0,123,0)
 ChangeInventoryArmor(1303,0,0,1,false)
 ShowMessageFace("",0,0,2,123)
 ShowMessage("You obtain \\ia[1303]!")
 EndEventProcessing()
 0()
EndIf()
If(1,11,0,124,0)
 ChangeInventoryArmor(1306,0,0,1,false)
 ShowMessageFace("",0,0,2,124)
 ShowMessage("You obtain \\ia[1306]!")
 EndEventProcessing()
 0()
EndIf()
If(1,11,0,125,0)
 ChangeInventoryArmor(1309,0,0,1,false)
 ShowMessageFace("",0,0,2,125)
 ShowMessage("You obtain \\ia[1309]!")
 EndEventProcessing()
 0()
EndIf()
If(1,11,0,126,0)
 ChangeInventoryArmor(1312,0,0,1,false)
 ShowMessageFace("",0,0,2,126)
 ShowMessage("You obtain \\ia[1312]!")
 EndEventProcessing()
 0()
EndIf()
If(1,11,0,127,0)
 ChangeInventoryArmor(1315,0,0,1,false)
 ShowMessageFace("",0,0,2,127)
 ShowMessage("You obtain \\ia[1315]!")
 EndEventProcessing()
 0()
EndIf()
If(1,11,0,128,0)
 ChangeInventoryArmor(1318,0,0,1,false)
 ShowMessageFace("",0,0,2,128)
 ShowMessage("You obtain \\ia[1318]!")
 EndEventProcessing()
 0()
EndIf()
If(1,11,0,129,0)
 ChangeInventoryArmor(1321,0,0,1,false)
 ShowMessageFace("",0,0,2,129)
 ShowMessage("You obtain \\ia[1321]!")
 EndEventProcessing()
 0()
EndIf()
If(1,11,0,130,0)
 ChangeInventoryArmor(1324,0,0,1,false)
 ShowMessageFace("",0,0,2,130)
 ShowMessage("You obtain \\ia[1324]!")
 EndEventProcessing()
 0()
EndIf()
If(1,11,0,131,0)
 ChangeInventoryArmor(1327,0,0,1,false)
 ShowMessageFace("",0,0,2,131)
 ShowMessage("You obtain \\ia[1327]!")
 EndEventProcessing()
 0()
EndIf()
If(1,11,0,132,0)
 ChangeInventoryArmor(1330,0,0,1,false)
 ShowMessageFace("",0,0,2,132)
 ShowMessage("You obtain \\ia[1330]!")
 EndEventProcessing()
 0()
EndIf()
If(1,11,0,133,0)
 ChangeInventoryArmor(1333,0,0,1,false)
 ShowMessageFace("",0,0,2,133)
 ShowMessage("You obtain \\ia[1333]!")
 EndEventProcessing()
 0()
EndIf()
If(1,11,0,134,0)
 ChangeInventoryArmor(1336,0,0,1,false)
 ShowMessageFace("",0,0,2,134)
 ShowMessage("You obtain \\ia[1336]!")
 EndEventProcessing()
 0()
EndIf()
If(1,11,0,135,0)
 ChangeInventoryArmor(1339,0,0,1,false)
 ShowMessageFace("",0,0,2,135)
 ShowMessage("You obtain \\ia[1339]!")
 EndEventProcessing()
 0()
EndIf()
If(1,11,0,136,0)
 ChangeInventoryArmor(1342,0,0,1,false)
 ShowMessageFace("",0,0,2,136)
 ShowMessage("You obtain \\ia[1342]!")
 EndEventProcessing()
 0()
EndIf()
If(1,11,0,137,0)
 ChangeInventoryArmor(1345,0,0,1,false)
 ShowMessageFace("",0,0,2,137)
 ShowMessage("You obtain \\ia[1345]!")
 EndEventProcessing()
 0()
EndIf()
If(1,11,0,138,0)
 ChangeInventoryArmor(1348,0,0,1,false)
 ShowMessageFace("",0,0,2,138)
 ShowMessage("You obtain \\ia[1348]!")
 EndEventProcessing()
 0()
EndIf()
If(1,11,0,139,0)
 ChangeInventoryArmor(1351,0,0,1,false)
 ShowMessageFace("",0,0,2,139)
 ShowMessage("You obtain \\ia[1351]!")
 EndEventProcessing()
 0()
EndIf()
If(1,11,0,140,0)
 ChangeInventoryArmor(1354,0,0,1,false)
 ShowMessageFace("",0,0,2,140)
 ShowMessage("You obtain \\ia[1354]!")
 EndEventProcessing()
 0()
EndIf()
If(1,11,0,141,0)
 ChangeInventoryArmor(1357,0,0,1,false)
 ShowMessageFace("",0,0,2,141)
 ShowMessage("You obtain \\ia[1357]!")
 EndEventProcessing()
 0()
EndIf()
If(1,11,0,142,0)
 ChangeInventoryArmor(1360,0,0,1,false)
 ShowMessageFace("",0,0,2,142)
 ShowMessage("You obtain \\ia[1360]!")
 EndEventProcessing()
 0()
EndIf()
If(1,11,0,143,0)
 ChangeInventoryArmor(1363,0,0,1,false)
 ShowMessageFace("",0,0,2,143)
 ShowMessage("You obtain \\ia[1363]!")
 EndEventProcessing()
 0()
EndIf()
If(1,11,0,144,0)
 ChangeInventoryArmor(1366,0,0,1,false)
 ShowMessageFace("",0,0,2,144)
 ShowMessage("You obtain \\ia[1366]!")
 EndEventProcessing()
 0()
EndIf()
If(1,11,0,145,0)
 ChangeInventoryArmor(1369,0,0,1,false)
 ShowMessageFace("",0,0,2,145)
 ShowMessage("You obtain \\ia[1369]!")
 EndEventProcessing()
 0()
EndIf()
If(1,11,0,146,0)
 ChangeInventoryArmor(1372,0,0,1,false)
 ShowMessageFace("",0,0,2,146)
 ShowMessage("You obtain \\ia[1372]!")
 EndEventProcessing()
 0()
EndIf()
If(1,11,0,147,0)
 ChangeInventoryArmor(1375,0,0,1,false)
 ShowMessageFace("",0,0,2,147)
 ShowMessage("You obtain \\ia[1375]!")
 EndEventProcessing()
 0()
EndIf()
If(1,11,0,148,0)
 ChangeInventoryArmor(1378,0,0,1,false)
 ShowMessageFace("",0,0,2,148)
 ShowMessage("You obtain \\ia[1378]!")
 EndEventProcessing()
 0()
EndIf()
If(1,11,0,149,0)
 ChangeInventoryArmor(1381,0,0,1,false)
 ShowMessageFace("",0,0,2,149)
 ShowMessage("You obtain \\ia[1381]!")
 EndEventProcessing()
 0()
EndIf()
If(1,11,0,150,0)
 ChangeInventoryArmor(1384,0,0,1,false)
 ShowMessageFace("",0,0,2,150)
 ShowMessage("You obtain \\ia[1384]!")
 EndEventProcessing()
 0()
EndIf()
If(1,11,0,151,0)
 ChangeInventoryArmor(1387,0,0,1,false)
 ShowMessageFace("",0,0,2,151)
 ShowMessage("You obtain \\ia[1387]!")
 EndEventProcessing()
 0()
EndIf()
If(1,11,0,152,0)
 ChangeInventoryArmor(1390,0,0,1,false)
 ShowMessageFace("",0,0,2,152)
 ShowMessage("You obtain \\ia[1390]!")
 EndEventProcessing()
 0()
EndIf()
If(1,11,0,153,0)
 ChangeInventoryArmor(1393,0,0,1,false)
 ShowMessageFace("",0,0,2,153)
 ShowMessage("You obtain \\ia[1393]!")
 EndEventProcessing()
 0()
EndIf()
If(1,11,0,154,0)
 ChangeInventoryArmor(1396,0,0,1,false)
 ShowMessageFace("",0,0,2,154)
 ShowMessage("You obtain \\ia[1396]!")
 EndEventProcessing()
 0()
EndIf()
If(1,11,0,155,0)
 ChangeInventoryArmor(1399,0,0,1,false)
 ShowMessageFace("",0,0,2,155)
 ShowMessage("You obtain \\ia[1399]!")
 EndEventProcessing()
 0()
EndIf()
If(1,11,0,156,0)
 ChangeInventoryArmor(1402,0,0,1,false)
 ShowMessageFace("",0,0,2,156)
 ShowMessage("You obtain \\ia[1402]!")
 EndEventProcessing()
 0()
EndIf()
If(1,11,0,157,0)
 ChangeInventoryArmor(1537,0,0,1,false)
 ShowMessageFace("",0,0,2,157)
 ShowMessage("You obtain \\ia[1537]!")
 EndEventProcessing()
 0()
EndIf()
If(1,11,0,158,0)
 ChangeInventoryArmor(1539,0,0,1,false)
 ShowMessageFace("",0,0,2,158)
 ShowMessage("You obtain \\ia[1539]!")
 EndEventProcessing()
 0()
EndIf()
If(1,11,0,159,0)
 ChangeInventoryArmor(1541,0,0,1,false)
 ShowMessageFace("",0,0,2,159)
 ShowMessage("You obtain \\ia[1541]!")
 EndEventProcessing()
 0()
EndIf()
If(1,11,0,160,0)
 ChangeInventoryArmor(1543,0,0,1,false)
 ShowMessageFace("",0,0,2,160)
 ShowMessage("You obtain \\ia[1543]!")
 EndEventProcessing()
 0()
EndIf()
If(1,11,0,161,0)
 ChangeInventoryArmor(1548,0,0,1,false)
 ShowMessageFace("",0,0,2,161)
 ShowMessage("You obtain \\ia[1548]!")
 EndEventProcessing()
 0()
EndIf()
If(1,11,0,162,0)
 ChangeInventoryArmor(1550,0,0,1,false)
 ShowMessageFace("",0,0,2,162)
 ShowMessage("You obtain \\ia[1550]!")
 EndEventProcessing()
 0()
EndIf()
If(1,11,0,163,0)
 ChangeInventoryArmor(1552,0,0,1,false)
 ShowMessageFace("",0,0,2,163)
 ShowMessage("You obtain \\ia[1552]!")
 EndEventProcessing()
 0()
EndIf()
If(1,11,0,164,0)
 ChangeInventoryArmor(1554,0,0,1,false)
 ShowMessageFace("",0,0,2,164)
 ShowMessage("You obtain \\ia[1554]!")
 EndEventProcessing()
 0()
EndIf()
If(1,11,0,165,0)
 ChangeInventoryArmor(1556,0,0,1,false)
 ShowMessageFace("",0,0,2,165)
 ShowMessage("You obtain \\ia[1556]!")
 EndEventProcessing()
 0()
EndIf()
If(1,11,0,166,0)
 ChangeInventoryArmor(1558,0,0,1,false)
 ShowMessageFace("",0,0,2,166)
 ShowMessage("You obtain \\ia[1558]!")
 EndEventProcessing()
 0()
EndIf()
If(1,11,0,167,0)
 ChangeInventoryArmor(1560,0,0,1,false)
 ShowMessageFace("",0,0,2,167)
 ShowMessage("You obtain \\ia[1560]!")
 EndEventProcessing()
 0()
EndIf()
If(1,11,0,168,0)
 ChangeInventoryArmor(1562,0,0,1,false)
 ShowMessageFace("",0,0,2,168)
 ShowMessage("You obtain \\ia[1562]!")
 EndEventProcessing()
 0()
EndIf()
If(1,11,0,169,0)
 ChangeInventoryArmor(1564,0,0,1,false)
 ShowMessageFace("",0,0,2,169)
 ShowMessage("You obtain \\ia[1564]!")
 EndEventProcessing()
 0()
EndIf()
If(1,11,0,170,0)
 ChangeInventoryArmor(1566,0,0,1,false)
 ShowMessageFace("",0,0,2,170)
 ShowMessage("You obtain \\ia[1566]!")
 EndEventProcessing()
 0()
EndIf()
If(1,11,0,171,0)
 ChangeInventoryArmor(1568,0,0,1,false)
 ShowMessageFace("",0,0,2,171)
 ShowMessage("You obtain \\ia[1568]!")
 EndEventProcessing()
 0()
EndIf()
If(1,11,0,172,0)
 ChangeInventoryArmor(1570,0,0,1,false)
 ShowMessageFace("",0,0,2,172)
 ShowMessage("You obtain \\ia[1570]!")
 EndEventProcessing()
 0()
EndIf()
If(1,11,0,173,0)
 ChangeInventoryArmor(1572,0,0,1,false)
 ShowMessageFace("",0,0,2,173)
 ShowMessage("You obtain \\ia[1572]!")
 EndEventProcessing()
 0()
EndIf()
If(1,11,0,174,0)
 ChangeInventoryArmor(1574,0,0,1,false)
 ShowMessageFace("",0,0,2,174)
 ShowMessage("You obtain \\ia[1574]!")
 EndEventProcessing()
 0()
EndIf()
If(1,11,0,175,0)
 ChangeInventoryArmor(1576,0,0,1,false)
 ShowMessageFace("",0,0,2,175)
 ShowMessage("You obtain \\ia[1576]!")
 EndEventProcessing()
 0()
EndIf()
If(1,11,0,176,0)
 ChangeInventoryArmor(1578,0,0,1,false)
 ShowMessageFace("",0,0,2,176)
 ShowMessage("You obtain \\ia[1578]!")
 EndEventProcessing()
 0()
EndIf()
If(1,11,0,177,0)
 ChangeInventoryArmor(1580,0,0,1,false)
 ShowMessageFace("",0,0,2,177)
 ShowMessage("You obtain \\ia[1580]!")
 EndEventProcessing()
 0()
EndIf()
If(1,11,0,178,0)
 ChangeInventoryArmor(1582,0,0,1,false)
 ShowMessageFace("",0,0,2,178)
 ShowMessage("You obtain \\ia[1582]!")
 EndEventProcessing()
 0()
EndIf()
If(1,11,0,179,0)
 ChangeInventoryArmor(1584,0,0,1,false)
 ShowMessageFace("",0,0,2,179)
 ShowMessage("You obtain \\ia[1584]!")
 EndEventProcessing()
 0()
EndIf()
If(1,11,0,180,0)
 ChangeInventoryArmor(1586,0,0,1,false)
 ShowMessageFace("",0,0,2,180)
 ShowMessage("You obtain \\ia[1586]!")
 EndEventProcessing()
 0()
EndIf()
If(1,11,0,181,0)
 ChangeInventoryArmor(1588,0,0,1,false)
 ShowMessageFace("",0,0,2,181)
 ShowMessage("You obtain \\ia[1588]!")
 EndEventProcessing()
 0()
EndIf()
If(1,11,0,182,0)
 ChangeInventoryArmor(1707,0,0,1,false)
 ShowMessageFace("",0,0,2,182)
 ShowMessage("You obtain \\ia[1707]!")
 EndEventProcessing()
 0()
EndIf()
If(1,11,0,183,0)
 ChangeInventoryArmor(1709,0,0,1,false)
 ShowMessageFace("",0,0,2,183)
 ShowMessage("You obtain \\ia[1709]!")
 EndEventProcessing()
 0()
EndIf()
If(1,11,0,184,0)
 ChangeInventoryArmor(1711,0,0,1,false)
 ShowMessageFace("",0,0,2,184)
 ShowMessage("You obtain \\ia[1711]!")
 EndEventProcessing()
 0()
EndIf()
If(1,11,0,185,0)
 ChangeInventoryArmor(1713,0,0,1,false)
 ShowMessageFace("",0,0,2,185)
 ShowMessage("You obtain \\ia[1713]!")
 EndEventProcessing()
 0()
EndIf()
If(1,11,0,186,0)
 ChangeInventoryArmor(1715,0,0,1,false)
 ShowMessageFace("",0,0,2,186)
 ShowMessage("You obtain \\ia[1715]!")
 EndEventProcessing()
 0()
EndIf()
If(1,11,0,187,0)
 ChangeInventoryArmor(1717,0,0,1,false)
 ShowMessageFace("",0,0,2,187)
 ShowMessage("You obtain \\ia[1717]!")
 EndEventProcessing()
 0()
EndIf()
If(1,11,0,188,0)
 ChangeInventoryArmor(1719,0,0,1,false)
 ShowMessageFace("",0,0,2,188)
 ShowMessage("You obtain \\ia[1719]!")
 EndEventProcessing()
 0()
EndIf()
If(1,11,0,189,0)
 ChangeInventoryArmor(1731,0,0,1,false)
 ShowMessageFace("",0,0,2,189)
 ShowMessage("You obtain \\ia[1731]!")
 EndEventProcessing()
 0()
EndIf()
If(1,11,0,190,0)
 ChangeInventoryArmor(1734,0,0,1,false)
 ShowMessageFace("",0,0,2,190)
 ShowMessage("You obtain \\ia[1734]!")
 EndEventProcessing()
 0()
EndIf()
If(1,11,0,191,0)
 ChangeInventoryArmor(1736,0,0,1,false)
 ShowMessageFace("",0,0,2,191)
 ShowMessage("You obtain \\ia[1736]!")
 EndEventProcessing()
 0()
EndIf()
If(1,11,0,192,0)
 ChangeInventoryArmor(1737,0,0,1,false)
 ShowMessageFace("",0,0,2,192)
 ShowMessage("You obtain \\ia[1737]!")
 EndEventProcessing()
 0()
EndIf()
0()
