// EVENT 4411
Name "Anteater Girl"

If(0,25,1)
 221()
 PictureClear(5)
 PictureClear(6)
 ShowMessageFace("",0,0,2,0)
 ShowMessage("......")
 242(2)
 Wait(120)
 241(bytes(0x04,0x08,0x6f,0x3a,0x0d,0x52,0x50,0x47,0x3a,0x3a,0x42,0x47,0x4d,0x08,0x3a,0x0a,0x40,0x6e,0x61,0x6d,0x65,0x49,0x22,0x0c,0x63,0x61,0x73,0x74,0x6c,0x65,0x36,0x06,0x3a,0x06,0x45,0x54,0x3a,0x0c,0x40,0x76,0x6f,0x6c,0x75,0x6d,0x65,0x69,0x69,0x3a,0x0b,0x40,0x70,0x69,0x74,0x63,0x68,0x69,0x69))
 EndEventProcessing()
 0()
EndIf()
PictureDisplay(5,"80_arikui_st01",0,0,0,0,100,100,255,0)
ShowMessageFace("arikui_fc1",0,0,2,1)
ShowMessage("\\n<Kyona>You want me to make your penis feel good with my tongue?")
ShowMessageFace("",0,0,2,2)
ShowMessage("\\n<Luka>P-please...")
ShowMessageFace("arikui_fc1",0,0,2,3)
ShowMessage("\\n<Kyona>What a shameful thing to ask of an ally♪\nWell it can't be helped, I'll suck out your sticky semen~♪")
241(bytes(0x04,0x08,0x6f,0x3a,0x0d,0x52,0x50,0x47,0x3a,0x3a,0x42,0x47,0x4d,0x08,0x3a,0x0a,0x40,0x6e,0x61,0x6d,0x65,0x49,0x22,0x09,0x65,0x72,0x6f,0x31,0x06,0x3a,0x06,0x45,0x54,0x3a,0x0c,0x40,0x76,0x6f,0x6c,0x75,0x6d,0x65,0x69,0x69,0x3a,0x0b,0x40,0x70,0x69,0x74,0x63,0x68,0x69,0x69))
PictureDisplay(5,"ev_arikui_h1",0,0,0,0,100,100,0,0)
PictureMove(5,null,0,0,0,0,100,100,255,0,30,true)
ShowMessageFace("",0,0,2,4)
ShowMessage("Kyona approaches my lower body and sticks out her tongue.")
ShowMessage("She grins when she sees my already erect penis.")
ShowMessageFace("arikui_fc1",0,0,2,5)
ShowMessage("\\n<Kyona>I'll wrap your penis with my soft slick tongue.\nI'll wind my tongue around your penis and suck it♪")
ShowMessageFace("",0,0,2,6)
ShowMessage("\\n<Luka>Ah, unnngh...")
ShowMessageFace("",0,0,2,7)
ShowMessage("Her tongue drips saliva and moves around like it had a mind of its own.")
ShowMessage("I watch her saliva-coated tongue slowly approaching my penis...")
245(bytes(0x04,0x08,0x6f,0x3a,0x0d,0x52,0x50,0x47,0x3a,0x3a,0x42,0x47,0x53,0x08,0x3a,0x0a,0x40,0x6e,0x61,0x6d,0x65,0x49,0x22,0x10,0x6d,0x6f,0x6e,0x5f,0x68,0x76,0x6f,0x69,0x63,0x65,0x32,0x06,0x3a,0x06,0x45,0x54,0x3a,0x0c,0x40,0x76,0x6f,0x6c,0x75,0x6d,0x65,0x69,0x55,0x3a,0x0b,0x40,0x70,0x69,0x74,0x63,0x68,0x69,0x69))
PictureDisplay(5,"ev_arikui_h2",0,0,0,0,100,100,255,0)
ShowMessageFace("arikui_fc1",0,0,2,8)
ShowMessage("\\n<Kyona>Wind around and around~♪")
ShowMessageFace("",0,0,2,9)
ShowMessage("\\n<Luka>Aaah...!")
ShowMessageFace("",0,0,2,10)
ShowMessage("She winds her tongue around my penis in the blink of an eye.")
ShowMessage("My penis is caught in her tongue from root to tip.")
ShowMessageFace("",0,0,2,11)
ShowMessage("Her rough tongue coats my penis with her slimy saliva.")
ShowMessage("A sweet feeling covers my penis along with her tongue...")
ShowMessageFace("arikui_fc1",0,0,2,12)
ShowMessage("\\n<Kyona>Ehehe, tasty~♪")
ShowMessageFace("",0,0,2,13)
ShowMessage("\\n<Luka>Aaah...Don't, move your tongue...")
ShowMessageFace("",0,0,2,14)
ShowMessage("With my penis inside it, her tongue starts moving and winding.")
ShowMessage("It feels like every little bit she covered with her tongue is licked.")
ShowMessageFace("",0,0,2,15)
ShowMessage("My hips jump up at the slick feeling of her tongue glossing over the underside of my glans.")
ShowMessage("I shiver and tremble as she teases my exposed glans.")
ShowMessageFace("arikui_fc1",0,0,2,16)
ShowMessage("\\n<Kyona>Ahaha, you want me to bully you more...?")
ShowMessageFace("arikui_fc1",0,0,2,17)
ShowMessage("\\n<Kyona>I'll lick you here too.\nBecause the glans is the most delicious~♪")
ShowMessageFace("",0,0,2,18)
ShowMessage("Kyona's tongue moves like a snake...")
ShowMessage("And winds around the head of my penis.")
ShowMessageFace("",0,0,2,19)
ShowMessage("It crawls all over it and licks it...")
ShowMessage("The intense stimulation on my glans overwhelms me.")
ShowMessageFace("",0,0,2,20)
ShowMessage("\\n<Luka>Ngh...Ooooh...!")
ShowMessageFace("arikui_fc1",0,0,2,21)
ShowMessage("\\n<Kyona>Ehehe, does it feel good...?")
ShowMessageFace("arikui_fc1",0,0,2,22)
ShowMessage("\\n<Kyona>Do you want me to bully it more like this?\nOr do you want something like this?")
ShowMessageFace("",0,0,2,23)
ShowMessage("\\n<Luka>Ah... Aaah!")
ShowMessageFace("",0,0,2,24)
ShowMessage("Her tongue relentlessly stimulates my glans.")
ShowMessage("It traces over my back muscle and pokes at my urethral opening...")
ShowMessageFace("",0,0,2,25)
ShowMessage("The rest of my penis is still wound up in her tongue.")
ShowMessage("Her tongue moves in a wavy motion, filling my penis with sweet pleasure.")
ShowMessageFace("",0,0,2,26)
ShowMessage("\\n<Luka>Th-that feels good...Auuu...")
ShowMessageFace("arikui_fc1",0,0,2,27)
ShowMessage("\\n<Kyona>Hey, do you want me to make you feel even better?\nFrom the tip to the root, wind around and around...♪")
ShowMessageFace("arikui_fc1",0,0,2,28)
ShowMessage("\\n<Kyona>No man can endure when I do this.\nYou'll feel so good, your face will melt in pleasure♪")
ShowMessageFace("",0,0,2,29)
ShowMessage("\\n<Luka>......")
ShowMessageFace("",0,0,2,30)
ShowMessage("I instinctively swallow.")
ShowMessage("Her tongue entangled around my glans is just playfully licking it.")
ShowMessageFace("arikui_fc1",0,0,2,31)
ShowMessage("\\n<Kyona>Hey, you don't want to...?\nI could make you feel like you're in heaven in the blink of an eye~♪")
ShowMessageFace("",0,0,2,32)
ShowMessage("\\n<Luka>...Please, do it...")
ShowMessageFace("",0,0,2,33)
ShowMessage("I surrender to the pleasure entirely, I want to feel her superb tongue skill.")
ShowMessage("I want to experience the skill that no man can withstand...")
ShowMessageFace("arikui_fc1",0,0,2,34)
ShowMessage("\\n<Kyona>Ahaha, you're begging for it♪\nWell then, prepare yourself...♪")
ShowMessageFace("",0,0,2,35)
ShowMessage("Kyona's tongue slowly winds around my glans and covers it.")
ShowMessage("Just like a snake, it coils around my entire penis.")
ShowMessageFace("",0,0,2,36)
ShowMessage("\\n<Luka>Ah... Aaaah...!")
PictureDisplay(5,"ev_arikui_h3",0,0,0,0,100,100,255,0)
ShowMessageFace("",0,0,2,37)
ShowMessage("And my whole penis is tightly wrapped up by her tongue.")
ShowMessage("The unique feeling of her tongue covers my entire penis.")
ShowMessageFace("",0,0,2,38)
ShowMessage("On top of that, it squeezes me.")
ShowMessage("The combination brings about a unique pleasure that makes me feel like I'm in heaven...")
ShowMessageFace("",0,0,2,39)
ShowMessage("\\n<Luka>Nnngh...A-amazing...Aaah!")
ShowMessageFace("",0,0,2,40)
ShowMessage("Immediately after she rolls up my penis in her tongue, my hips dart up...")
ShowMessage("As she said, I can't withstand this pleasure.")
ShowMessageFace("arikui_fc1",0,0,2,41)
ShowMessage("\\n<Kyona>Coming? Coming?\nHora, come♪")
ShowMessageFace("",0,0,2,42)
ShowMessage("\\n<Luka>Ah, aaaah...!")
RunCommonEvent(104)
PictureDisplay(5,"ev_arikui_h4",0,0,0,0,100,100,255,0)
RunCommonEvent(105)
ShowMessageFace("",0,0,2,43)
ShowMessage("My semen spurts inside the coils of her tongue.")
ShowMessage("I entrust myself to the sweet feeling of release as I taste this pleasure...")
ShowMessageFace("arikui_fc1",0,0,2,44)
ShowMessage("\\n<Kyona>Ehehe, you came...♪\nYour semen, I'll lick it all up♪")
ShowMessageFace("",0,0,2,45)
ShowMessage("\\n<Luka>Ah... Aaah!")
ShowMessageFace("",0,0,2,46)
ShowMessage("In the next moment, my vision goes blank and my hips push upward.")
ShowMessage("She started violently stimulating me as I was in the middle of my ejaculation.")
ShowMessageFace("",0,0,2,47)
ShowMessage("Her tongue wrapped around my penis starts to vibrate.")
ShowMessage("Her whole tongue licks me as I shoot out my semen.")
ShowMessageFace("arikui_fc1",0,0,2,48)
ShowMessage("\\n<Kyona>*Slurp* Slurp* *Suck* *Suck*~♪")
ShowMessageFace("",0,0,2,49)
ShowMessage("\\n<Luka>D-don't...\nAh...!! Hyaaa!!")
ShowMessageFace("",0,0,2,50)
ShowMessage("Her tongue strokes my sensitive penis from all directions during and right after I'm done coming.")
ShowMessage("Covered from tip to root in her tongue, no part of my penis is spared.")
ShowMessageFace("",0,0,2,51)
ShowMessage("Her tongue insistently crawls all over my glans.")
ShowMessage("My whole penis is thoroughly licked and pleasure is forced into me...")
ShowMessageFace("",0,0,2,52)
ShowMessage("\\n<Luka>S-stop...Stop...!\nAh...Hyaaa...!!")
ShowMessageFace("arikui_fc1",0,0,2,53)
ShowMessage("\\n<Kyona>*Slurp* Slurp* *Suck* *Suck*~♪~♪")
ShowMessageFace("",0,0,2,54)
ShowMessage("Her tongue tube wraps itself hard around my penis and stimulates it thoroughly.")
ShowMessage("It rhythmically tightens and loosens around my penis.")
ShowMessageFace("",0,0,2,55)
ShowMessage("\\n<Luka>Ah, aaaah...!")
ShowMessageFace("",0,0,2,56)
ShowMessage("The intense pleasure makes it hard to breathe properly.")
ShowMessage("At the same time, my vision goes blurry and my waist starts trembling...")
RunCommonEvent(104)
PictureDisplay(5,"ev_arikui_h5",0,0,0,0,100,100,255,0)
RunCommonEvent(105)
ShowMessageFace("",0,0,2,57)
ShowMessage("In the next moment, my semen spurts out.")
ShowMessage("I'm forced to ejaculate right after I finished my previous ejaculation...")
ShowMessageFace("",0,0,2,58)
ShowMessage("\\n<Luka>Nnngh...Ah Hyaaa...!")
ShowMessageFace("arikui_fc1",0,0,2,59)
ShowMessage("\\n<Kyona>Ahaha, did your penis break...?\n*Slurp* Slurp* *Suck* *Suck*~♪")
ShowMessageFace("",0,0,2,60)
ShowMessage("Stop, stooop...")
ShowMessage("Hyaaa!")
ShowMessageFace("",0,0,2,61)
ShowMessage("Even after my double ejaculation, she doesn't let up.")
ShowMessage("Rather, she increases her stimulation and licks me more eagerly.")
ShowMessageFace("",0,0,2,62)
ShowMessage("The pleasure is starting to drive me crazy.")
ShowMessage("Kyona smiles at me and keeps stimulating my penis.")
ShowMessageFace("",0,0,2,63)
ShowMessage("\\n<Luka>Hyaa...Stop...!\nI'll die!!")
ShowMessageFace("arikui_fc1",0,0,2,64)
ShowMessage("\\n<Kyona>I won't suck you to death, don't worry.\nHora *Slurp* *Slurp* *Slurp* *Slurp*~♪")
ShowMessageFace("",0,0,2,65)
ShowMessage("\\n<Luka>Ahii...Ah, aaaah!!")
RunCommonEvent(104)
PictureDisplay(5,"ev_arikui_h6",0,0,0,0,100,100,255,0)
RunCommonEvent(105)
ShowMessageFace("",0,0,2,66)
ShowMessage("With this storm of pleasure raining down on me, I shoot my semen again.")
ShowMessage("It only serves as encouragement for her to lick me even more intensely.")
ShowMessageFace("arikui_fc1",0,0,2,67)
ShowMessage("\\n<Kyona>*Suck* *Suck* *Shhhhhhhlurp*~♪")
ShowMessageFace("",0,0,2,68)
ShowMessage("\\n<Luka>Hya...Ah, Ah! Aaaah!!")
RunCommonEvent(104)
RunCommonEvent(105)
ShowMessageFace("",0,0,2,69)
ShowMessage("No matter how many times I come, Kyona keeps licking and sucking my penis.")
ShowMessage("Caught in her tube-like tongue, my penis is licked, rubbed, squeezed...")
ShowMessageFace("arikui_fc1",0,0,2,70)
ShowMessage("\\n<Kyona>*Slurp* *Slurp*...*Suck*\n*Lick* *Shhlurp*♪")
ShowMessageFace("",0,0,2,71)
ShowMessage("\\n<Luka>Auu...Ah, Aaaaaaah...!!")
RunCommonEvent(104)
RunCommonEvent(105)
ShowMessageFace("",0,0,2,72)
ShowMessage("No matter how much I come, her tongue abuse doesn't stop.")
ShowMessage("Having her tongue wrapped around my penis, she sucks me to the last drop...")
ShowMessageFace("arikui_fc1",0,0,2,73)
ShowMessage("\\n<Kyona>*Suck* *Suck* *Shhhlurp* *Shhhhhhlurp* ♪")
246(2)
RunCommonEvent(104)
RunCommonEvent(105)
ShowMessageFace("",0,0,2,74)
ShowMessage("\\n<Luka>Ah... Aaah...")
ShowMessageFace("",0,0,2,75)
ShowMessage("Finally, her tongue rape stops...")
ShowMessage("At that time, I felt totally exhausted...")
221()
PictureClear(5)
ShowMessageFace("",0,0,2,76)
ShowMessage("......")
242(2)
Wait(120)
241(bytes(0x04,0x08,0x6f,0x3a,0x0d,0x52,0x50,0x47,0x3a,0x3a,0x42,0x47,0x4d,0x08,0x3a,0x0a,0x40,0x6e,0x61,0x6d,0x65,0x49,0x22,0x0c,0x63,0x61,0x73,0x74,0x6c,0x65,0x36,0x06,0x3a,0x06,0x45,0x54,0x3a,0x0c,0x40,0x76,0x6f,0x6c,0x75,0x6d,0x65,0x69,0x69,0x3a,0x0b,0x40,0x70,0x69,0x74,0x63,0x68,0x69,0x69))
0()
