// EVENT 4518
Name "Eva 8"

If(0,25,1)
 221()
 PictureClear(5)
 PictureClear(6)
 ShowMessageFace("",0,0,2,0)
 ShowMessage("......")
 242(2)
 Wait(120)
 241(bytes(0x04,0x08,0x6f,0x3a,0x0d,0x52,0x50,0x47,0x3a,0x3a,0x42,0x47,0x4d,0x08,0x3a,0x0a,0x40,0x6e,0x61,0x6d,0x65,0x49,0x22,0x0c,0x63,0x61,0x73,0x74,0x6c,0x65,0x36,0x06,0x3a,0x06,0x45,0x54,0x3a,0x0c,0x40,0x76,0x6f,0x6c,0x75,0x6d,0x65,0x69,0x69,0x3a,0x0b,0x40,0x70,0x69,0x74,0x63,0x68,0x69,0x69))
 EndEventProcessing()
 0()
EndIf()
PictureDisplay(5,"80_eva_st01",0,0,0,0,100,100,255,0)
ShowMessageFace("eva_fc1",0,0,2,1)
ShowMessage("\\n<Eva>Whaaat? You want me to violate you...?")
ShowMessageFace("",0,0,2,2)
ShowMessage("\\n<Luka>P-please...")
PictureDisplay(5,"80_eva_st02",0,0,0,0,100,100,255,0)
ShowMessageFace("eva_fc1",1,0,2,3)
ShowMessage("\\n<Eva>Fufu, look at you, asking your ally for something like that.\nAll right, I'll make you feel amazing...")
ShowMessageFace("",0,0,2,4)
ShowMessage("I follow Eva to her room...")
PictureDisplay(1,"bg195",0,0,0,0,100,100,255,0)
PictureDisplay(5,"80_eva_st02",0,0,0,0,100,100,255,0)
222()
241(bytes(0x04,0x08,0x6f,0x3a,0x0d,0x52,0x50,0x47,0x3a,0x3a,0x42,0x47,0x4d,0x08,0x3a,0x0a,0x40,0x6e,0x61,0x6d,0x65,0x49,0x22,0x09,0x65,0x72,0x6f,0x31,0x06,0x3a,0x06,0x45,0x54,0x3a,0x0c,0x40,0x76,0x6f,0x6c,0x75,0x6d,0x65,0x69,0x69,0x3a,0x0b,0x40,0x70,0x69,0x74,0x63,0x68,0x69,0x69))
ShowMessageFace("eva_fc1",1,0,2,5)
ShowMessage("\\n<Eva>Now then... I'm going to squeeze you dry.\nIn trade for your life, I'll give you the best of pleasures...")
PictureDisplay(5,"ev_eva_ha1",0,0,0,0,100,100,255,0)
ShowMessageFace("",0,0,2,6)
ShowMessage("Eva presses me down, and sits on top of me.")
ShowMessage("Like that, she slowly starts dropping her waist down.")
ShowMessageFace("",0,0,2,7)
ShowMessage("\\n<Luka>W-Wait a moment...!\nWhat do you mean in trade for my life...?")
ShowMessageFace("eva_fc1",1,0,2,8)
ShowMessage("\\n<Eva>Just as it means. I'll squeeze you until your death.\nIf you don't want me to, then resist.")
ShowMessageFace("",0,0,2,9)
ShowMessage("\\n<Luka>U-Ugh...!")
ShowMessageFace("",0,0,2,10)
ShowMessage("I try to struggle loose, but she's pinning my arms.")
ShowMessage("She's holding me down with so much force, there's no way I can break free.")
ShowMessageFace("eva_fc1",1,0,2,11)
ShowMessage("\\n<Eva>That's your resistance?\nHahaha... Pathetic!")
ShowMessageFace("eva_fc1",1,0,2,12)
ShowMessage("\\n<Eva>Now I'm going to rape you...\nLet me see you fade away as you scream in pleasure.")
ShowMessageFace("",0,0,2,13)
ShowMessage("\\n<Luka>S-St... Aaaah!!")
245(bytes(0x04,0x08,0x6f,0x3a,0x0d,0x52,0x50,0x47,0x3a,0x3a,0x42,0x47,0x53,0x08,0x3a,0x0a,0x40,0x6e,0x61,0x6d,0x65,0x49,0x22,0x1e,0x6d,0x6f,0x6e,0x5f,0x68,0x73,0x65,0x61,0x6e,0x30,0x31,0x5f,0x69,0x6e,0x6e,0x65,0x72,0x77,0x6f,0x72,0x6b,0x73,0x5f,0x61,0x31,0x06,0x3a,0x06,0x45,0x54,0x3a,0x0c,0x40,0x76,0x6f,0x6c,0x75,0x6d,0x65,0x69,0x55,0x3a,0x0b,0x40,0x70,0x69,0x74,0x63,0x68,0x69,0x69))
PictureDisplay(5,"ev_eva_ha3",0,0,0,0,100,100,255,0)
ShowMessageFace("",0,0,2,14)
ShowMessage("Cutting my scream short, Eva drops down.")
ShowMessage("My penis pushes into her devilish vagina, spreading apart the folds and wet flesh of her insides as I pierce deep into her.")
ShowMessageFace("",0,0,2,15)
ShowMessage("Her soft flesh rubs against my glans as I enter her, the feeling alone almost enough to make me orgasm on the spot.")
ShowMessageFace("",0,0,2,16)
ShowMessage("\\n<Luka>Ah, Oooh...!")
ShowMessageFace("eva_fc1",1,0,2,17)
ShowMessage("\\n<Eva>Hehe... You can't resist it, can you?\nThis is where I absorb men's semen... and life.")
ShowMessageFace("eva_fc1",1,0,2,18)
ShowMessage("\\n<Eva>I'll squeeze out everything of yours, and feed on it.\nYou should feel honored... fufufu.")
ShowMessageFace("",0,0,2,19)
ShowMessage("\\n<Luka>Unnngh...\nI-I don't want this... Noo...")
ShowMessageFace("eva_fc1",1,0,2,20)
ShowMessage("\\n<Eva>If you don't want me to squeeze you dry, then just don't ejaculate.")
ShowMessageFace("eva_fc1",1,0,2,21)
ShowMessage("\\n<Eva>...If you can manage to do that, of course.")
ShowMessageFace("",0,0,2,22)
ShowMessage("Eva laughs at me, and wiggles her hips at the same time.")
ShowMessageFace("",0,0,2,23)
ShowMessage("With just that small movement, her vaginal walls rub hard against my penis, sending a shock of pleasure through my lower body.") 
ShowMessageFace("",0,0,2,24)
ShowMessage("\\n<Luka>Ah, uhh...")
ShowMessageFace("",0,0,2,25)
ShowMessage("Even though I grit my teeth, a moan still leaks out.")
ShowMessage("If I come, she's going to make me keep coming until I'm dead...")
ShowMessageFace("eva_fc1",1,0,2,26)
ShowMessage("\\n<Eva>You're already feeling it...?\nThen you won't even last a minute.")
ShowMessageFace("",0,0,2,27)
ShowMessage("Eva starts to slowly grind her waist against mine.")
ShowMessage("Feeling like my penis is being massaged inside her, I already feel like I could melt away in pleasure.")
ShowMessageFace("",0,0,2,28)
ShowMessage("Even if I tried desperately to endure it, my resistance would be futile.")
ShowMessage("In the face of a succubus' vagina, no man can endure.")
ShowMessageFace("",0,0,2,29)
ShowMessage("\\n<Luka>Unnngh...Th-that feels good...")
ShowMessageFace("",0,0,2,30)
ShowMessage("My male instinct takes over my body as the touch of her incredible vagina washes through me.")
ShowMessage("I'm already unable to suppress the desire to come inside her.")
ShowMessageFace("eva_fc1",1,0,2,31)
ShowMessage("\\n<Eva>Hehe... It's time for the finish.\nI'll finish it off by tightening the insides...")
ShowMessageFace("",0,0,2,32)
ShowMessage("Eva looks down at me in triumph as she moves to finish me off.")
ShowMessage("Clenching her muscles, she suddenly squeezes my penis hard inside her vagina.")
ShowMessageFace("",0,0,2,33)
ShowMessage("\\n<Luka>Ngh... Ah, aaaah...")
ShowMessageFace("",0,0,2,34)
ShowMessage("My head goes pure white as my penis pulses in complete surrender.")
RunCommonEvent(104)
PictureDisplay(5,"ev_eva_ha4",0,0,0,0,100,100,255,0)
RunCommonEvent(105)
ShowMessageFace("",0,0,2,35)
ShowMessage("As the melting pleasure takes over my body, I explode inside her tight vagina.")
ShowMessage("I came so quickly inside her...")
ShowMessageFace("",0,0,2,36)
ShowMessage("Now she's going to squeeze me dry.")
ShowMessageFace("",0,0,2,37)
ShowMessage("\\n<Luka>S...Stop...Don't...")
ShowMessageFace("eva_fc1",1,0,2,38)
ShowMessage("\\n<Eva>Hehe, are you scared?\nDon't worry, it will feel good...")
ShowMessageFace("eva_fc1",1,0,2,39)
ShowMessage("\\n<Eva>Here, I'm going to start sucking now...\nBoth your semen, and your life.")
ShowMessageFace("",0,0,2,40)
ShowMessage("\\n<Luka>D-don't...don't...")
ShowMessageFace("",0,0,2,41)
ShowMessage("Eva looks straight into my eyes as a sadistic smile crosses her face.")
ShowMessageFace("eva_fc1",1,0,2,42)
ShowMessage("\\n<Eva>Here I go... Energy Drain...")
ShowMessageFace("",0,0,2,43)
ShowMessage("\\n<Luka>Ahii... Aaaaaah!!")
245(bytes(0x04,0x08,0x6f,0x3a,0x0d,0x52,0x50,0x47,0x3a,0x3a,0x42,0x47,0x53,0x08,0x3a,0x0a,0x40,0x6e,0x61,0x6d,0x65,0x49,0x22,0x17,0x6d,0x6f,0x6e,0x5f,0x68,0x73,0x65,0x61,0x6e,0x31,0x36,0x5f,0x6b,0x79,0x75,0x69,0x6e,0x33,0x06,0x3a,0x06,0x45,0x54,0x3a,0x0c,0x40,0x76,0x6f,0x6c,0x75,0x6d,0x65,0x69,0x55,0x3a,0x0b,0x40,0x70,0x69,0x74,0x63,0x68,0x69,0x69))
ShowMessageFace("",0,0,2,44)
ShowMessage("Announcing my execution out loud, her vaginal walls suddenly start to squirm around my penis.")
ShowMessageFace("",0,0,2,45)
ShowMessage("Contracting around me as they rub my penis, it feels like her entire vagina is starting to suck and pull at my penis.")
ShowMessageFace("",0,0,2,46)
ShowMessage("\\n<Luka>St... Help me!\nAh, Ah, aaaah...!")
RunCommonEvent(104)
PictureDisplay(5,"ev_eva_ha5",0,0,0,0,100,100,255,0)
RunCommonEvent(105)
ShowMessageFace("",0,0,2,47)
ShowMessage("I explode inside of her, my life and semen both flooding into her.")
ShowMessage("With my arms and legs being held down, there's nothing I can do to stop the flood of ecstasy from taking over my body.")
ShowMessageFace("eva_fc1",1,0,2,48)
ShowMessage("\\n<Eva>Hehe, now dry up...\nYou should be happy at meeting your end by being sucked dry by a Succubus...")
ShowMessageFace("",0,0,2,49)
ShowMessage("\\n<Luka>Stop...Stoop...\nHyaaa...!")
ShowMessageFace("",0,0,2,50)
ShowMessage("Squirming, shrinking, and sucking...")
ShowMessage("Her vagina continues the rhythmic motion, forcibly drawing out my semen and life itself.")
ShowMessageFace("",0,0,2,51)
ShowMessage("This is a succubus' predation...")
ShowMessage("Taking everything from a man, and feeding on his life itself.")
ShowMessageFace("",0,0,2,52)
ShowMessage("The man being preyed on has no choice but to be paralyzed in ecstasy as he's fed on.")
ShowMessageFace("",0,0,2,53)
ShowMessage("The realization of my coming fate hits me at the same time as another orgasm.")
ShowMessageFace("",0,0,2,54)
ShowMessage("\\n<Luka>Ahii... Ah, aaaaaah!!")
RunCommonEvent(104)
PictureDisplay(5,"ev_eva_ha6",0,0,0,0,100,100,255,0)
RunCommonEvent(105)
ShowMessageFace("",0,0,2,55)
ShowMessage("Each time I explode inside her, my thoughts dim as I feel my body getting weaker.")
ShowMessage("After a few moments, even my vision starts to slowly flicker black.")
ShowMessageFace("",0,0,2,56)
ShowMessage("\\n<Luka>Ah... Huaaa...")
ShowMessageFace("",0,0,2,57)
ShowMessage("Before I was even aware of it, I had completely surrendered to her.")
ShowMessage("Laying underneath her, I just wait for the next burst of pleasure to hit me.")
ShowMessageFace("eva_fc1",1,0,2,58)
ShowMessage("\\n<Eva>Hehe, so you broke.\nWith one more ejaculation, I'll have taken everything...")
ShowMessageFace("eva_fc1",1,0,2,59)
ShowMessage("\\n<Eva>With this, I'll take your soul itself...\nNow die inside me...")
ShowMessageFace("",0,0,2,60)
ShowMessage("\\n<Luka>Ah...ah...")
ShowMessageFace("",0,0,2,61)
ShowMessage("Her vagina contracts, pulling at my penis again...")
RunCommonEvent(104)
RunCommonEvent(105)
ShowMessageFace("",0,0,2,62)
ShowMessage("\\n<Luka>Ngh...Uh...")
ShowMessageFace("",0,0,2,63)
ShowMessage("With a single weak pulse, a tiny drop of semen leaks out of my penis.")
ShowMessage("My life itself is contained in that final drop...")
246(1)
ShowMessageFace("",0,0,2,64)
ShowMessage("\\n<Luka>......")
ShowMessageFace("",0,0,2,65)
ShowMessage("\\n<Luka>Eh... I didn't die?")
ShowMessageFace("eva_fc1",1,0,2,66)
ShowMessage("\\n<Eva>Fufu, you thought you would?\nI can't squeeze such delicious prey like you to death.")
ShowMessageFace("eva_fc1",1,0,2,67)
ShowMessage("\\n<Eva>Save up your semen, and give it all to me again.\nI'll give you plenty of pleasure in trade...")
ShowMessageFace("",0,0,2,68)
ShowMessage("Eva is looking at me, as if I'm no more than food.")
ShowMessage("I should still be happy she didn't kill me, though...")
ShowMessageFace("eva_fc1",1,0,2,69)
ShowMessage("\\n<Eva>Ah, but next time...\nPerhaps I will squeeze you to death...?")
ShowMessageFace("",0,0,2,70)
ShowMessage("\\n<Luka>......")
ShowMessageFace("",0,0,2,71)
ShowMessage("This is dangerous...")
221()
PictureClear(5)
ShowMessageFace("",0,0,2,72)
ShowMessage("......")
242(2)
Wait(120)
241(bytes(0x04,0x08,0x6f,0x3a,0x0d,0x52,0x50,0x47,0x3a,0x3a,0x42,0x47,0x4d,0x08,0x3a,0x0a,0x40,0x6e,0x61,0x6d,0x65,0x49,0x22,0x0c,0x63,0x61,0x73,0x74,0x6c,0x65,0x36,0x06,0x3a,0x06,0x45,0x54,0x3a,0x0c,0x40,0x76,0x6f,0x6c,0x75,0x6d,0x65,0x69,0x69,0x3a,0x0b,0x40,0x70,0x69,0x74,0x63,0x68,0x69,0x69))
0()
