// EVENT 7021
Name "Stella: Talk"

If(0,25,1)
 ShowMessageFace("",0,0,2,0)
 ShowMessage("You cannot challenge this BF without copying over the pictures from the first chapter.")
 PictureClear(5)
 EndEventProcessing()
 0()
EndIf()
If(1,803,0,0,0)
 ChangeVariable(803,803,0,0,1)
 0()
EndIf()
241(bytes(0x04,0x08,0x6f,0x3a,0x0d,0x52,0x50,0x47,0x3a,0x3a,0x42,0x47,0x4d,0x08,0x3a,0x0a,0x40,0x6e,0x61,0x6d,0x65,0x49,0x22,0x09,0x65,0x72,0x6f,0x32,0x06,0x3a,0x06,0x45,0x54,0x3a,0x0c,0x40,0x76,0x6f,0x6c,0x75,0x6d,0x65,0x69,0x50,0x3a,0x0b,0x40,0x70,0x69,0x74,0x63,0x68,0x69,0x69))
PictureDisplay(5,"80_mob_hurou_st01",0,0,0,0,100,100,0,0)
PictureMove(5,null,0,0,0,0,100,100,255,0,30,true)
If(1,803,0,2,1)
 ShowMessageFace("mob_hurou_fc1",0,0,2,1)
 ShowMessage("\\n<Stella>Hey, how about a battle fuck? I don't have anything to give if you win though...")
 ShowMessageFace("mob_hurou_fc1",0,0,2,2)
 ShowMessage("\\n<Stella>It'll still cost you 25G if you lose. I'll squeeze out your semen until this empty bottle is full, by the way.")
 0()
Else()
 ShowMessageFace("mob_hurou_fc1",0,0,2,3)
 ShowMessage("\\n<Stella>Hey, how about a battle fuck? If you win, I'll give you a \\ia[1734]...")
 ShowMessageFace("mob_hurou_fc1",0,0,2,4)
 ShowMessage("\\n<Stella>In exchange, if you lose, you owe 25G. I'll squeeze out your semen until this empty bottle is full, by the way.")
 0()
EndIf()
ShowMessageFace("mob_hurou_fc1",0,0,2,5)
ShowMessage("\\n<Stella>I can sell the fresh semen to a monster and make even more money. Hey come on, please challenge me...")
ShowChoices(strings("Battle Fuck Challenge","Reconsider"),2)
IfPlayerPicksChoice(0,"バトルファックを挑む")
 If(7,25,0)
  RunCommonEvent(7022)
  EndEventProcessing()
  0()
 Else()
  ShowMessageFace("mob_hurou_fc1",0,0,2,6)
  ShowMessage("\\n<Stella>It doesn't look like you have enough gold to cover losing.")
  PictureClear(5)
  EndEventProcessing()
  0()
 EndIf()
 0()
IfPlayerPicksChoice(1,"やめておく")
 ShowMessageFace("mob_hurou_fc1",0,0,2,7)
 ShowMessage("\\n<Stella>Come back again and let me squeeze you out...")
 PictureClear(5)
 EndEventProcessing()
 0()
404()
0()
