// EVENT 3013
Name "Rat Girl"

If(0,25,1)
 JumpToLabel("反省会")
 0()
EndIf()
PictureDisplay(5,"80_nezumi_st02",0,0,0,0,100,100,0,0)
PictureMove(5,null,0,0,0,0,100,100,255,0,30,true)
241(bytes(0x04,0x08,0x6f,0x3a,0x0d,0x52,0x50,0x47,0x3a,0x3a,0x42,0x47,0x4d,0x08,0x3a,0x0a,0x40,0x6e,0x61,0x6d,0x65,0x49,0x22,0x09,0x65,0x72,0x6f,0x31,0x06,0x3a,0x06,0x45,0x54,0x3a,0x0c,0x40,0x76,0x6f,0x6c,0x75,0x6d,0x65,0x69,0x69,0x3a,0x0b,0x40,0x70,0x69,0x74,0x63,0x68,0x69,0x69))
ShowMessageFace("",0,0,2,1)
ShowMessage("\\n<Luka>Unnngh....")
ShowMessageFace("nezumi_fc1",1,0,2,2)
ShowMessage("\\n<Rat Girl>Wow, you're really weak to lose to a rat...")
ShowMessage("Hehehe, your sperm is all mine now♪")
ShowMessageFace("",0,0,2,3)
ShowMessage("With a triumphant expression on her face, the Rat Girl walks over to me.")
ShowMessageFace("",0,0,2,4)
ShowMessage("\\n<Luka>N-no, please don't...")
PictureDisplay(5,"ev_nezumi_hb1",0,0,0,0,100,100,0,0)
PictureMove(5,null,0,0,0,0,100,100,255,0,30,true)
ShowMessageFace("",0,0,2,5)
ShowMessage("Ignoring my plea, the Rat Girl gets on top of me. She looks down at my penis, erect in anticipation, and smiles.")
ShowMessageFace("nezumi_fc1",1,0,2,6)
ShowMessage("\\n<Rat Girl>Ahaha, you're already so big...")
ShowMessage("That means you want to mate with me, right?")
ShowMessageFace("nezumi_fc1",1,0,2,7)
ShowMessage("\\n<Rat Girl>Don't worry, we'll be doing it plenty.")
ShowMessage("I want all your virile sperm inside me...")
ShowMessageFace("",0,0,2,8)
ShowMessage("\\n<Luka>No, that's not what I want...")
ShowMessageFace("nezumi_fc1",1,0,2,9)
ShowMessage("\\n<Rat Girl>There's no point in complaining now. I'm going to rape you whether you want it or not♪")
ShowMessageFace("",0,0,2,10)
ShowMessage("With that, the Rat Girl rises up and guides me between her legs--")
245(bytes(0x04,0x08,0x6f,0x3a,0x0d,0x52,0x50,0x47,0x3a,0x3a,0x42,0x47,0x53,0x08,0x3a,0x0a,0x40,0x6e,0x61,0x6d,0x65,0x49,0x22,0x1e,0x6d,0x6f,0x6e,0x5f,0x68,0x73,0x65,0x61,0x6e,0x30,0x32,0x5f,0x69,0x6e,0x6e,0x65,0x72,0x77,0x6f,0x72,0x6b,0x73,0x5f,0x61,0x32,0x06,0x3a,0x06,0x45,0x54,0x3a,0x0c,0x40,0x76,0x6f,0x6c,0x75,0x6d,0x65,0x69,0x55,0x3a,0x0b,0x40,0x70,0x69,0x74,0x63,0x68,0x69,0x69))
PictureDisplay(5,"ev_nezumi_hc1",0,0,0,0,100,100,255,0)
ShowMessageFace("",0,0,2,11)
ShowMessage("Pushing past her lips, my penis is swallowed inside her vagina!")
ShowMessageFace("",0,0,2,12)
ShowMessage("\\n<Luka>Ah... aaaaah!")
ShowMessageFace("nezumi_fc1",1,0,2,13)
ShowMessage("\\n<Rat Girl>Hehehe, I violated a man...")
PictureDisplay(5,"ev_nezumi_hc2",0,0,0,0,100,100,255,0)
ShowMessageFace("",0,0,2,14)
ShowMessage("With her small build, the Rat Girl's vagina is so tight that her walls press hard against my penis.")
ShowMessageFace("",0,0,2,15)
ShowMessage("The narrow canal feels like it's trying to squeeze my semen out, but her flesh is slick and lubricated.")
ShowMessageFace("nezumi_fc1",1,0,2,16)
ShowMessage("\\n<Rat Girl>Ahaha, how does it feel to be raped by a rat? Come on, let's get your seed into me♪")
ShowMessageFace("",0,0,2,17)
ShowMessage("The Rat Girl firms up her abdomen, making her vagina even tighter than before. It feels like a hand taking a strong grip on my penis.")
ShowMessageFace("",0,0,2,18)
ShowMessage("\\n<Luka>Ahhh... So tight...")
ShowMessageFace("nezumi_fc1",1,0,2,19)
ShowMessage("\\n<Rat Girl>Hehehe, that's because I'm squeezing you, of course. It feels good on your dick, doesn't it?")
ShowMessageFace("nezumi_fc1",1,0,2,20)
ShowMessage("\\n<Rat Girl>Just let yourself come... Shoot all your semen into my womb!")
ShowMessageFace("",0,0,2,21)
ShowMessage("\\n<Luka>Please no...")
ShowMessage("Ah, aaaaaah!")
ShowMessageFace("",0,0,2,22)
ShowMessage("Her vaginal walls close in, continuing their sweet pressure from all sides. The pleasure is maddening and I feel a sense of release building up.")
ShowMessageFace("",0,0,2,23)
ShowMessage("If this keeps up, I'm going to come inside the Rat Girl. I can't lose to my desires and inseminate a monster!")
ShowMessageFace("nezumi_fc1",1,0,2,24)
ShowMessage("\\n<Rat Girl>Hehehe, you're about to come, aren't you? Don't hold back♪")
ShowMessageFace("",0,0,2,25)
ShowMessage("The Rat Girl's pussy contracts, bringing me to the edge as she squeezes me from base to tip.")
ShowMessageFace("",0,0,2,26)
ShowMessage("\\n<Luka>Aaah, I shouldn't, but... I can't hold on...")
ShowMessageFace("",0,0,2,27)
ShowMessage("I finally hit my limit. The maddening pressure is just too amazing...")
ShowMessageFace("",0,0,2,28)
ShowMessage("\\n<Luka>Aaaaah!")
ShowMessageFace("",0,0,2,29)
ShowMessage("I couldn't hold on long enough. My penis begins to twitch--")
RunCommonEvent(104)
PictureDisplay(5,"ev_nezumi_hc3",0,0,0,0,100,100,255,0)
RunCommonEvent(105)
ShowMessageFace("nezumi_fc1",1,0,2,30)
ShowMessage("\\n<Rat Girl>Ahaha, you're coming! I feel your hot cum pouring into me! ♪")
ShowMessageFace("",0,0,2,31)
ShowMessage("Each time my dick pulses, a large quantity of semen shoots out into her. The Rat Girl's vagina stays tight, welcoming my seed inside.")
ShowMessageFace("",0,0,2,32)
ShowMessage("\\n<Luka>Huaaaa...")
ShowMessageFace("",0,0,2,33)
ShowMessage("While basking in the sweet tightness, I enjoy every spurt of cum. I can never undo mating with a monster, but at least I got to experience this amazing pleasure.")
PictureDisplay(5,"ev_nezumi_hc4",0,0,0,0,100,100,255,0)
ShowMessageFace("nezumi_fc1",1,0,2,34)
ShowMessage("\\n<Rat Girl>Hehehe, you inseminated me good. My tight pussy was nice, wasn't it?")
ShowMessageFace("nezumi_fc1",1,0,2,35)
ShowMessage("\\n<Rat Girl>One time isn't nearly enough though♪")
ShowMessage("I'm sure you've got another round in you♪")
ShowMessageFace("",0,0,2,36)
ShowMessage("\\n<Luka>N-no, stop! Aaaah!")
ShowMessageFace("",0,0,2,37)
ShowMessage("This immoral mating isn't over yet, apparently. She's going to milk me for even more of my semen...")
ShowMessageFace("",0,0,2,38)
ShowMessage("\\n<Luka>Don't! Ah, aaah!")
ShowMessageFace("nezumi_fc1",1,0,2,39)
ShowMessage("\\n<Rat Girl>You're complaining, but I bet you can still come. If I squeeze hard enough, you can't resist♪")
ShowMessageFace("",0,0,2,40)
ShowMessage("\\n<Luka>Hyaa... Aaaah!")
ShowMessageFace("",0,0,2,41)
ShowMessage("Her soft flesh wraps me up, pressing into every inch of my penis. It's especially intense at the front and back.")
ShowMessageFace("",0,0,2,42)
ShowMessage("Her entrance pleasures the base of my penis and the deepest part thoroughly works my glans.")
ShowMessageFace("",0,0,2,43)
ShowMessage("It feels like my glans is fit into a soft, fleshy pouch that slowly tightens around it. This combination of textures and friction would drive any man over the edge.")
ShowMessageFace("",0,0,2,44)
ShowMessage("\\n<Luka>Auuuu... Coming again!")
ShowMessageFace("",0,0,2,45)
ShowMessage("Her crazy tightness already has me throwing in the towel for a second time. My waist shoots up as I'm overpowered by my need to come.")
ShowMessageFace("nezumi_fc1",1,0,2,46)
ShowMessage("\\n<Rat Girl>Already? Hehe, okay let me finish you off♪")
ShowMessageFace("",0,0,2,47)
ShowMessage("The interior of her vagina suddenly constricts, pressing her soft flesh into my glans and massaging my most sensitive areas.")
ShowMessageFace("",0,0,2,48)
ShowMessage("\\n<Luka>Th-that's... too much... Aaaah!")
RunCommonEvent(104)
PictureDisplay(5,"ev_nezumi_hc5",0,0,0,0,100,100,255,0)
RunCommonEvent(105)
ShowMessageFace("",0,0,2,49)
ShowMessage("Unable to resist, I yield to the pleasure. My penis pulses, gushing out semen into her.")
ShowMessageFace("",0,0,2,50)
ShowMessage("\\n<Luka>Aaah...")
ShowMessageFace("",0,0,2,51)
ShowMessage("Her walls relax and gently massage me as I unload inside, as if rewarding me for all the seed I've offered up to her.")
246(2)
PictureDisplay(5,"ev_nezumi_hc6",0,0,0,0,100,100,255,0)
ShowMessageFace("nezumi_fc1",1,0,2,52)
ShowMessage("\\n<Rat Girl>Ahaha, my womb is full of your sperm. I'm going to give birth to so many little rats♪")
ShowMessageFace("nezumi_fc1",1,0,2,53)
ShowMessage("\\n<Rat Girl>We'll raise them together, papa♪")
ShowMessageFace("",0,0,2,54)
ShowMessage("\\n<Luka>......")
ShowMessageFace("",0,0,2,55)
ShowMessage("Now that I've impregnated the Rat Girl, it seems that I'll end up spending the rest of my life as her mate--")
221()
PictureClear(5)
DefineLabel("反省会")
ShowMessageFace("",0,0,2,56)
ShowMessage("......")
221()
242(1)
Wait(120)
355("memory_interruption")
ShowMessageFace("",0,0,2,57)
ShowMessage("You hear Ilias' voice calling out to you...")
ShowMessage("Receive her evaluation?")
ShowChoices(strings("Receive evaluation","Change difficulty","Reincarnate"),3)
IfPlayerPicksChoice(0,null)
 241(bytes(0x04,0x08,0x6f,0x3a,0x0d,0x52,0x50,0x47,0x3a,0x3a,0x42,0x47,0x4d,0x08,0x3a,0x0a,0x40,0x6e,0x61,0x6d,0x65,0x49,0x22,0x0a,0x69,0x72,0x69,0x61,0x73,0x06,0x3a,0x06,0x45,0x54,0x3a,0x0c,0x40,0x76,0x6f,0x6c,0x75,0x6d,0x65,0x69,0x5f,0x3a,0x0b,0x40,0x70,0x69,0x74,0x63,0x68,0x69,0x6e))
 PictureDisplay(1,"bg001",0,0,0,0,100,100,255,0)
 222()
 PictureDisplay(5,"80_iriasu_st04",0,0,0,0,100,100,0,0)
 PictureMove(5,null,0,0,0,0,100,100,255,0,30,true)
 ShowMessageFace("iriasu_fc1",3,0,2,58)
 ShowMessage("\\n<Ilias>What kind of hero mates with a rat? Were you that desperate to do it with something that wasn't human?")
 PictureDisplay(5,"80_iriasu_st01",0,0,0,0,100,100,255,0)
 ShowMessageFace("iriasu_fc1",0,0,2,59)
 ShowMessage("\\n<Ilias>Other than her high agility, Rat Girls aren't very scary. Her poison can be a nuisance, but it isn't particularly threatening.")
 ShowMessageFace("iriasu_fc1",0,0,2,60)
 ShowMessage("\\n<Ilias>If they appear in groups, things could get dangerous though. Simply concentrate your attacks and take them down one at a time.")
 ShowMessageFace("iriasu_fc1",0,0,2,61)
 ShowMessage("\\n<Ilias>The Hunter's [Beast Killer] skill will do a lot of damage, and don't forget that pleasure attacks are extremely effective too.")
 PictureDisplay(5,"80_iriasu_st02",0,0,0,0,100,100,255,0)
 ShowMessageFace("iriasu_fc1",1,0,2,62)
 ShowMessage("\\n<Ilias>Now go, oh brave Luka.")
 ShowMessage("Throw that rat back into the gutter where she belongs.")
 242(1)
 221()
 PictureClear(5)
 PictureClear(1)
 Wait(60)
 0()
IfPlayerPicksChoice(1,null)
 ShowMessageFace("",0,0,2,63)
 ShowMessage("Please choose a difficulty level.")
 RunCommonEvent(110)
 0()
IfPlayerPicksChoice(2,null)
 0()
404()
RunCommonEvent(3000)
0()
