﻿// EVENT 3123
Name "Naccubus"

If(0,25,1)
 JumpToLabel("反省会")
 0()
EndIf()
PictureDisplay(5,"80_narcubus_st11",0,0,0,0,100,100,0,0)
PictureMove(5,null,0,0,0,0,100,100,255,0,30,true)
241(bytes(0x04,0x08,0x6f,0x3a,0x0d,0x52,0x50,0x47,0x3a,0x3a,0x42,0x47,0x4d,0x08,0x3a,0x0a,0x40,0x6e,0x61,0x6d,0x65,0x49,0x22,0x09,0x65,0x72,0x6f,0x31,0x06,0x3a,0x06,0x45,0x54,0x3a,0x0c,0x40,0x76,0x6f,0x6c,0x75,0x6d,0x65,0x69,0x69,0x3a,0x0b,0x40,0x70,0x69,0x74,0x63,0x68,0x69,0x69))
ShowMessageFace("",0,0,2,1)
ShowMessage("\\n<Luka>Unnngh...")
ShowMessageFace("",0,0,2,2)
ShowMessage("Left too weak, I can't resist any longer.\nThe Naccubus smiles at the sight of me weakened.")
ShowMessageFace("narcubus_fc1",0,0,2,3)
ShowMessage("\\n<Naccubus>All right, I'll suck out your semen...\nDon't be scared, it will feel really good♪")
PictureDisplay(5,"ev_narcubus_ha1",0,0,0,0,100,100,255,0)
ShowMessageFace("",0,0,2,4)
ShowMessage("The Naccubus pushes an oversized syringe toward my penis.\nThe sexy touch of it makes me shake.")
ShowMessageFace("",0,0,2,5)
ShowMessage("My penis is sucked inside of the strange tip.")
ShowMessageFace("",0,0,2,6)
ShowMessage("\\n<Luka>S...stop...!")
ShowMessageFace("narcubus_fc1",0,0,2,7)
ShowMessage("\\n<Naccubus>It's time to collect your semen♪\nJust relax your body♪")
245(bytes(0x04,0x08,0x6f,0x3a,0x0d,0x52,0x50,0x47,0x3a,0x3a,0x42,0x47,0x53,0x08,0x3a,0x0a,0x40,0x6e,0x61,0x6d,0x65,0x49,0x22,0x17,0x6d,0x6f,0x6e,0x5f,0x68,0x73,0x65,0x61,0x6e,0x31,0x34,0x5f,0x6b,0x79,0x75,0x69,0x6e,0x31,0x06,0x3a,0x06,0x45,0x54,0x3a,0x0c,0x40,0x76,0x6f,0x6c,0x75,0x6d,0x65,0x69,0x55,0x3a,0x0b,0x40,0x70,0x69,0x74,0x63,0x68,0x69,0x69))
ShowMessageFace("",0,0,2,8)
ShowMessage("The Naccubus starts to use the syringe.\nA strange feeling of suction pulls on my penis.")
ShowMessageFace("",0,0,2,9)
ShowMessage("It's less like suction, and more like absorption...\nIt's sucking up everything from my penis.")
ShowMessageFace("",0,0,2,10)
ShowMessage("\\n<Luka>Ah, huaaa...")
ShowMessageFace("",0,0,2,11)
ShowMessage("Wrapped in the soft flesh, I don't feel any pain.\nOnly the sweet sensation of being sucked.")
ShowMessageFace("",0,0,2,12)
ShowMessage("I moan in ecstasy at the sensation.\nThe Naccubus looks down at me and giggles as I moan.")
ShowMessageFace("narcubus_fc1",0,0,2,13)
ShowMessage("\\n<Naccubus>Aha. Does it feel nice?\nGo ahead and come, then♪")
ShowMessageFace("",0,0,2,14)
ShowMessage("The Naccubus continues operating the syringe.\nPleasure creeps up my body from the strange device.")
ShowMessageFace("",0,0,2,15)
ShowMessage("Feeling too good, the desire to ejaculate is already bubbling up.")
ShowMessageFace("",0,0,2,16)
ShowMessage("My back arches up at the crazed suction.\nNot resisting at all, I hand myself over to that sensation.")
ShowMessageFace("narcubus_fc1",0,0,2,17)
ShowMessage("\\n<Naccubus>Ah... Coming so soon?\nOkay, please pew-pew it out♪")
ShowMessageFace("",0,0,2,18)
ShowMessage("\\n<Luka>Hnnaaa...")
RunCommonEvent(104)
PictureDisplay(5,"ev_narcubus_ha2",0,0,0,0,100,100,255,0)
RunCommonEvent(105)
ShowMessageFace("",0,0,2,19)
ShowMessage("Urged by the sweet absorption, my semen flows out.\nMy semen is sucked up by the syringe as it shoots out.")
ShowMessageFace("narcubus_fc1",0,0,2,20)
ShowMessage("\\n<Naccubus>Ehe, it's coming out♪\nIf I suck on your penis while you ejaculate like this, then...♪")
245(bytes(0x04,0x08,0x6f,0x3a,0x0d,0x52,0x50,0x47,0x3a,0x3a,0x42,0x47,0x53,0x08,0x3a,0x0a,0x40,0x6e,0x61,0x6d,0x65,0x49,0x22,0x17,0x6d,0x6f,0x6e,0x5f,0x68,0x73,0x65,0x61,0x6e,0x31,0x36,0x5f,0x6b,0x79,0x75,0x69,0x6e,0x33,0x06,0x3a,0x06,0x45,0x54,0x3a,0x0c,0x40,0x76,0x6f,0x6c,0x75,0x6d,0x65,0x69,0x55,0x3a,0x0b,0x40,0x70,0x69,0x74,0x63,0x68,0x69,0x69))
ShowMessageFace("",0,0,2,21)
ShowMessage("The Naccubus pulls back harder on the syringe as I come.\nEven more suction pulls on me!")
ShowMessageFace("",0,0,2,22)
ShowMessage("\\n<Luka>Ah...! Hyaaaa!!")
ShowMessageFace("",0,0,2,23)
ShowMessage("Even before another climax, more semen is pulled out of me.\nThe crazed pleasure makes me writhe.")
ShowMessageFace("",0,0,2,24)
ShowMessage("Every new spurt of semen doubles the pleasure.\nI'm forced to ejaculate even against my body's wishes.")
ShowMessageFace("",0,0,2,25)
ShowMessage("\\n<Luka>Ah... Ahiii!!")
ShowMessageFace("",0,0,2,26)
ShowMessage("The forced suction causes my ejaculation to continue on. Without having finished coming, my body squirms in another climax.")
RunCommonEvent(104)
PictureDisplay(5,"ev_narcubus_ha3",0,0,0,0,100,100,255,0)
RunCommonEvent(105)
ShowMessageFace("",0,0,2,27)
ShowMessage("My body jerks as I hit another orgasm.\nBefore my first ejaculation had finished, I was forced to a second.")
ShowMessageFace("",0,0,2,28)
ShowMessage("It felt twice as good as a normal orgasm.\nAnd the amount of semen I shot out is far more than from two ejaculations.")
ShowMessageFace("narcubus_fc1",0,0,2,29)
ShowMessage("\\n<Naccubus>Ahaha, you came again?\nNormally I get everything out with one, that's amazing! ♪")
ShowMessageFace("",0,0,2,30)
ShowMessage("\\n<Luka>Ah... Ahhg...")
ShowMessageFace("",0,0,2,31)
ShowMessage("My body shakes as all of my semen is shot out.")
ShowMessageFace("",0,0,2,32)
ShowMessage("The amount of semen is far too much for only two orgasms.\nIt must have been sucked out by her syringe.")
ShowMessageFace("",0,0,2,33)
ShowMessage("The intense pleasure makes my body go slack.\nAs if my soul itself was drawn out, I feel like I could fall asleep here.")
246(1)
PictureDisplay(5,"80_narcubus_st14",0,0,0,0,100,100,255,0)
ShowMessageFace("",0,0,2,34)
ShowMessage("\\n<Luka>Ah... Oooh...")
ShowMessageFace("narcubus_fc1",0,0,2,35)
ShowMessage("\\n<Naccubus>Ahaha, are your balls empty now?\nOnce your semen accumulates again, I'll come back to extract it all♪")
ShowMessageFace("",0,0,2,36)
ShowMessage("\\n<Luka>Ah...a...")
PictureClear(5)
ShowMessageFace("",0,0,2,37)
ShowMessage("Leaving me on the ground, the Naccubus walks away.\nLaying on the ground, a miserable feeling comes over me.")
221()
PictureClear(5)
ShowMessageFace("",0,0,2,38)
ShowMessage("After that, I was taken prisoner in the tower.\nI'm treated as livestock, my semen milked dry.")
ShowMessageFace("",0,0,2,39)
ShowMessage("My heart and soul break down as a result of the fierce violation.\nEventually losing my sanity, I'm no more than livestock...")
DefineLabel("反省会")
ShowMessageFace("",0,0,2,40)
ShowMessage("......")
221()
242(1)
Wait(120)
355("memory_interruption")
ShowMessageFace("",0,0,2,41)
ShowMessage("You hear Ilias' voice calling out to you...\nReceive her evaluation?")
ShowChoices(strings("Receive evaluation","Change difficulty","Reincarnate"),3)
IfPlayerPicksChoice(0,null)
 241(bytes(0x04,0x08,0x6f,0x3a,0x0d,0x52,0x50,0x47,0x3a,0x3a,0x42,0x47,0x4d,0x08,0x3a,0x0a,0x40,0x6e,0x61,0x6d,0x65,0x49,0x22,0x0a,0x69,0x72,0x69,0x61,0x73,0x06,0x3a,0x06,0x45,0x54,0x3a,0x0c,0x40,0x76,0x6f,0x6c,0x75,0x6d,0x65,0x69,0x5f,0x3a,0x0b,0x40,0x70,0x69,0x74,0x63,0x68,0x69,0x6e))
 PictureDisplay(1,"bg001",0,0,0,0,100,100,255,0)
 222()
 PictureDisplay(5,"80_iriasu_st02",0,0,0,0,100,100,0,0)
 PictureMove(5,null,0,0,0,0,100,100,255,0,30,true)
 ShowMessageFace("iriasu_fc1",1,0,2,42)
 ShowMessage("\\n<Ilias>Yes, well done!\nLay down on the chair, and say \"Ahhh.\"")
 PictureDisplay(5,"80_iriasu_st04",0,0,0,0,100,100,255,0)
 ShowMessageFace("iriasu_fc1",3,0,2,43)
 ShowMessage("\\n<Ilias>...What did you think that was?\nYou don't need more nursing, you need to fight.")
 PictureDisplay(5,"80_iriasu_st01",0,0,0,0,100,100,255,0)
 ShowMessageFace("iriasu_fc1",0,0,2,44)
 ShowMessage("\\n<Ilias>The Naccubus is a nasty enemy who can heal.\nBe careful of her incontinence techniques as well.")
 ShowMessageFace("iriasu_fc1",0,0,2,45)
 ShowMessage("\\n<Ilias>Her defense is low, so attack her first.\nApart from wind, elemental attacks can work well.")
 ShowMessageFace("iriasu_fc1",0,0,2,46)
 ShowMessage("\\n<Ilias>She's a succubus, so pleasure attacks don't work well. If you use physical or elemental attacks, she shouldn't be so tough.")
 PictureDisplay(5,"80_iriasu_st02",0,0,0,0,100,100,255,0)
 ShowMessageFace("iriasu_fc1",1,0,2,47)
 ShowMessage("\\n<Ilias>Now go, oh brave Luka.\nMake that shameless monster need nursing herself.")
 242(1)
 221()
 PictureClear(5)
 PictureClear(1)
 Wait(60)
 0()
IfPlayerPicksChoice(1,null)
 ShowMessageFace("",0,0,2,48)
 ShowMessage("Please choose a difficulty level.")
 RunCommonEvent(110)
 0()
IfPlayerPicksChoice(2,null)
 0()
404()
RunCommonEvent(3000)
0()
