﻿// EVENT 7282
Name "Augusta: Match"

ChangeSwitch(96,96,0)
ChangeSwitch(98,98,0)
ShowMessageFace("mob_heisi_fc1",0,0,2,1)
ShowMessage("\\n<Augusta>Then let's begin!\nFirst, I'll squeeze it with my hand!")
250(bytes(0x04,0x08,0x6f,0x3a,0x0c,0x52,0x50,0x47,0x3a,0x3a,0x53,0x45,0x08,0x3a,0x0a,0x40,0x6e,0x61,0x6d,0x65,0x49,0x22,0x12,0x6d,0x6f,0x6e,0x5f,0x65,0x72,0x6f,0x5f,0x6b,0x6f,0x6b,0x69,0x31,0x06,0x3a,0x06,0x45,0x54,0x3a,0x0b,0x40,0x70,0x69,0x74,0x63,0x68,0x69,0x69,0x3a,0x0c,0x40,0x76,0x6f,0x6c,0x75,0x6d,0x65,0x69,0x69))
PictureDisplay(6,"ev_mob_heisi_ct31",0,0,240,50,100,100,255,0)
ChangeVariable(11,11,0,2,200,220)
311(0,1,1,1,11,true)
ShowMessageFace("",0,0,2,2)
ShowMessage("Augusta gripped Luka's penis with her hand!\nShe tightly squeezed his dick through her glove!\\D")
ShowMessage("Luka takes \\V[11] damage!")
ChangeVariable(27,27,0,3,3,1,2)
If(1,27,0,0,0)
 RunCommonEvent(7285)
 EndEventProcessing()
 0()
EndIf()
ShowMessageFace("mob_heisi_fc1",0,0,2,3)
ShowMessage("\\n<Augusta>It's already getting bigger.\nI'll then stimulate it like this...")
250(bytes(0x04,0x08,0x6f,0x3a,0x0c,0x52,0x50,0x47,0x3a,0x3a,0x53,0x45,0x08,0x3a,0x0a,0x40,0x6e,0x61,0x6d,0x65,0x49,0x22,0x12,0x6d,0x6f,0x6e,0x5f,0x65,0x72,0x6f,0x5f,0x6b,0x6f,0x6b,0x69,0x31,0x06,0x3a,0x06,0x45,0x54,0x3a,0x0b,0x40,0x70,0x69,0x74,0x63,0x68,0x69,0x69,0x3a,0x0c,0x40,0x76,0x6f,0x6c,0x75,0x6d,0x65,0x69,0x69))
ChangeVariable(11,11,0,2,200,220)
311(0,1,1,1,11,true)
ShowMessageFace("",0,0,2,4)
ShowMessage("Augusta strokes Luka's penis with her gloved hand!\nHer firm touch forcibly stimulates his dick!\\D")
ShowMessage("Luka takes \\V[11] damage!")
ChangeVariable(27,27,0,3,3,1,2)
If(1,27,0,0,0)
 RunCommonEvent(7285)
 EndEventProcessing()
 0()
EndIf()
ShowMessageFace("mob_heisi_fc1",0,0,2,5)
ShowMessage("\\n<Augusta>Now I'll stimulate it with my chest!\nIt will go over my armor, but...")
250(bytes(0x04,0x08,0x6f,0x3a,0x0c,0x52,0x50,0x47,0x3a,0x3a,0x53,0x45,0x08,0x3a,0x0a,0x40,0x6e,0x61,0x6d,0x65,0x49,0x22,0x12,0x6d,0x6f,0x6e,0x5f,0x65,0x72,0x6f,0x5f,0x6b,0x6f,0x6b,0x69,0x31,0x06,0x3a,0x06,0x45,0x54,0x3a,0x0b,0x40,0x70,0x69,0x74,0x63,0x68,0x69,0x69,0x3a,0x0c,0x40,0x76,0x6f,0x6c,0x75,0x6d,0x65,0x69,0x69))
PictureDisplay(6,"ev_mob_heisi_ct11",0,0,240,50,100,100,255,0)
ChangeVariable(11,11,0,2,200,220)
311(0,1,1,1,11,true)
ShowMessageFace("",0,0,2,6)
ShowMessage("Augusta pushed Luka's penis up against her breastplate!\nA cold sensation was transmitted to his glans!\\D")
ShowMessage("Luka takes \\V[11] damage!")
ChangeVariable(27,27,0,3,3,1,2)
If(1,27,0,0,0)
 RunCommonEvent(7286)
 EndEventProcessing()
 0()
EndIf()
250(bytes(0x04,0x08,0x6f,0x3a,0x0c,0x52,0x50,0x47,0x3a,0x3a,0x53,0x45,0x08,0x3a,0x0a,0x40,0x6e,0x61,0x6d,0x65,0x49,0x22,0x12,0x6d,0x6f,0x6e,0x5f,0x65,0x72,0x6f,0x5f,0x6b,0x6f,0x6b,0x69,0x31,0x06,0x3a,0x06,0x45,0x54,0x3a,0x0b,0x40,0x70,0x69,0x74,0x63,0x68,0x69,0x69,0x3a,0x0c,0x40,0x76,0x6f,0x6c,0x75,0x6d,0x65,0x69,0x69))
ChangeVariable(11,11,0,2,200,220)
311(0,1,1,1,11,true)
ShowMessageFace("",0,0,2,7)
ShowMessage("She rubbed his penis against her breastplate!\nA peculiar sensation of pressure tormented his glans!\\D")
ShowMessage("Luka takes \\V[11] damage!")
ChangeVariable(27,27,0,3,3,1,2)
If(1,27,0,0,0)
 RunCommonEvent(7286)
 EndEventProcessing()
 0()
EndIf()
ShowMessageFace("mob_heisi_fc1",0,0,2,8)
ShowMessage("\\n<Augusta>I'm afraid this isn't paizuri.\nBut this should feel pretty good too!")
250(bytes(0x04,0x08,0x6f,0x3a,0x0c,0x52,0x50,0x47,0x3a,0x3a,0x53,0x45,0x08,0x3a,0x0a,0x40,0x6e,0x61,0x6d,0x65,0x49,0x22,0x12,0x6d,0x6f,0x6e,0x5f,0x65,0x72,0x6f,0x5f,0x6b,0x6f,0x6b,0x69,0x31,0x06,0x3a,0x06,0x45,0x54,0x3a,0x0b,0x40,0x70,0x69,0x74,0x63,0x68,0x69,0x69,0x3a,0x0c,0x40,0x76,0x6f,0x6c,0x75,0x6d,0x65,0x69,0x69))
ChangeVariable(11,11,0,2,200,220)
311(0,1,1,1,11,true)
ShowMessageFace("",0,0,2,9)
ShowMessage("Augusta continued to rub Luka's penis against her breastplate! Her cold armor massaged his glans, giving a unique stimulation!\\D")
ShowMessage("Luka takes \\V[11] damage!")
ChangeVariable(27,27,0,3,3,1,2)
If(1,27,0,0,0)
 RunCommonEvent(7286)
 EndEventProcessing()
 0()
EndIf()
If(1,27,0,175,4)
 ShowMessageFace("ruka_fc1",0,0,2,10)
 ShowMessage("\\n<Luka>Ah, ahh...")
 ShowMessageFace("mob_heisi_fc1",0,0,2,11)
 ShowMessage("\\n<Augusta>It's almost time, isn't it?\nThen I'll move onto the finishing touches!")
 0()
Else()
 ShowMessageFace("mob_heisi_fc1",0,0,2,12)
 ShowMessage("\\n<Augusta>With this, my preparations are complete.\nNow I'll move onto the finishing touches!")
 0()
EndIf()
250(bytes(0x04,0x08,0x6f,0x3a,0x0c,0x52,0x50,0x47,0x3a,0x3a,0x53,0x45,0x08,0x3a,0x0a,0x40,0x6e,0x61,0x6d,0x65,0x49,0x22,0x13,0x6d,0x6f,0x6e,0x5f,0x65,0x72,0x6f,0x5f,0x62,0x75,0x63,0x68,0x75,0x31,0x06,0x3a,0x06,0x45,0x54,0x3a,0x0b,0x40,0x70,0x69,0x74,0x63,0x68,0x69,0x69,0x3a,0x0c,0x40,0x76,0x6f,0x6c,0x75,0x6d,0x65,0x69,0x69))
PictureDisplay(6,"ev_mob_heisi_ct01",0,0,240,50,100,100,255,0)
ChangeVariable(11,11,0,2,200,220)
311(0,1,1,1,11,true)
ShowMessageFace("",0,0,2,13)
ShowMessage("Augusta brought Luka's penis into her mouth!\nHis dick is greeted by her warm, moist mouth!\\D")
ShowMessage("Luka takes \\V[11] damage!")
ChangeVariable(27,27,0,3,3,1,2)
If(1,27,0,0,0)
 RunCommonEvent(7287)
 EndEventProcessing()
 0()
EndIf()
250(bytes(0x04,0x08,0x6f,0x3a,0x0c,0x52,0x50,0x47,0x3a,0x3a,0x53,0x45,0x08,0x3a,0x0a,0x40,0x6e,0x61,0x6d,0x65,0x49,0x22,0x13,0x6d,0x6f,0x6e,0x5f,0x65,0x72,0x6f,0x5f,0x62,0x75,0x63,0x68,0x75,0x32,0x06,0x3a,0x06,0x45,0x54,0x3a,0x0b,0x40,0x70,0x69,0x74,0x63,0x68,0x69,0x69,0x3a,0x0c,0x40,0x76,0x6f,0x6c,0x75,0x6d,0x65,0x69,0x69))
ChangeVariable(11,11,0,2,200,220)
311(0,1,1,1,11,true)
ShowMessageFace("",0,0,2,14)
ShowMessage("Like that, she greedily sucked on his penis!\nA sweet pleasure was given by her fierce suction!\\D")
ShowMessage("Luka takes \\V[11] damage!")
ChangeVariable(27,27,0,3,3,1,2)
If(1,27,0,0,0)
 RunCommonEvent(7287)
 EndEventProcessing()
 0()
EndIf()
ShowMessageFace("mob_heisi_fc1",0,0,2,15)
ShowMessage("\\n<Augusta>I'm confident in my vacuum!\nI'll suck out your semen like this!")
250(bytes(0x04,0x08,0x6f,0x3a,0x0c,0x52,0x50,0x47,0x3a,0x3a,0x53,0x45,0x08,0x3a,0x0a,0x40,0x6e,0x61,0x6d,0x65,0x49,0x22,0x13,0x6d,0x6f,0x6e,0x5f,0x65,0x72,0x6f,0x5f,0x62,0x75,0x63,0x68,0x75,0x32,0x06,0x3a,0x06,0x45,0x54,0x3a,0x0b,0x40,0x70,0x69,0x74,0x63,0x68,0x69,0x69,0x3a,0x0c,0x40,0x76,0x6f,0x6c,0x75,0x6d,0x65,0x69,0x69))
ChangeVariable(11,11,0,2,200,220)
311(0,1,1,1,11,true)
ShowMessageFace("",0,0,2,16)
ShowMessage("Augusta continued sucking Luka's penis!\nThe exhaustive sucking of her fierce vacuum stimulated him!\\D")
ShowMessage("Luka takes \\V[11] damage!")
ChangeVariable(27,27,0,3,3,1,2)
If(1,27,0,0,0)
 RunCommonEvent(7287)
 EndEventProcessing()
 0()
EndIf()
250(bytes(0x04,0x08,0x6f,0x3a,0x0c,0x52,0x50,0x47,0x3a,0x3a,0x53,0x45,0x08,0x3a,0x0a,0x40,0x6e,0x61,0x6d,0x65,0x49,0x22,0x13,0x6d,0x6f,0x6e,0x5f,0x65,0x72,0x6f,0x5f,0x62,0x75,0x63,0x68,0x75,0x32,0x06,0x3a,0x06,0x45,0x54,0x3a,0x0b,0x40,0x70,0x69,0x74,0x63,0x68,0x69,0x69,0x3a,0x0c,0x40,0x76,0x6f,0x6c,0x75,0x6d,0x65,0x69,0x69))
ChangeVariable(11,11,0,2,200,220)
311(0,1,1,1,11,true)
ShowMessageFace("",0,0,2,17)
ShowMessage("Augusta's mouth narrowed, bringing her oral mucosa into tight contact with his penis! She continued to suck without pause, giving him melting pleasure!\\D")
ShowMessage("Luka takes \\V[11] damage!")
ChangeVariable(27,27,0,3,3,1,2)
If(1,27,0,0,0)
 RunCommonEvent(7287)
 EndEventProcessing()
 0()
EndIf()
ShowMessageFace("mob_heisi_fc1",0,0,2,18)
ShowMessage("\\n<Augusta>This is the final stretch!\nI'll suck out your semen in one go!")
250(bytes(0x04,0x08,0x6f,0x3a,0x0c,0x52,0x50,0x47,0x3a,0x3a,0x53,0x45,0x08,0x3a,0x0a,0x40,0x6e,0x61,0x6d,0x65,0x49,0x22,0x13,0x6d,0x6f,0x6e,0x5f,0x65,0x72,0x6f,0x5f,0x62,0x75,0x63,0x68,0x75,0x32,0x06,0x3a,0x06,0x45,0x54,0x3a,0x0b,0x40,0x70,0x69,0x74,0x63,0x68,0x69,0x69,0x3a,0x0c,0x40,0x76,0x6f,0x6c,0x75,0x6d,0x65,0x69,0x69))
ChangeVariable(11,11,0,2,200,220)
311(0,1,1,1,11,true)
ShowMessageFace("",0,0,2,19)
ShowMessage("Augusta strengthened her vacuum, instantly pushing Luka over the edge! His waist was numbed by the sweet pleasure, as if being forcibly sucked out!\\D")
ShowMessage("Luka takes \\V[11] damage!")
ChangeVariable(27,27,0,3,3,1,2)
If(1,27,0,0,0)
 RunCommonEvent(7287)
 EndEventProcessing()
 0()
EndIf()
RunCommonEvent(7284)
EndEventProcessing()
0()
