// EVENT 5217
Name "Succubus Harem 2"

PictureDisplay(5,"80_succubuses_st02",0,0,0,0,100,100,0,0)
PictureDisplay(6,"80_succubuses_st12",0,0,0,0,100,100,0,0)
PictureDisplay(7,"80_succubuses_st22",0,0,0,0,100,100,0,0)
PictureDisplay(8,"80_succubuses_st32",0,0,0,0,100,100,0,0)
PictureMove(5,null,0,0,0,0,100,100,255,0,30,false)
PictureMove(6,null,0,0,0,0,100,100,255,0,30,false)
PictureMove(7,null,0,0,0,0,100,100,255,0,30,false)
PictureMove(8,null,0,0,0,0,100,100,255,0,30,true)
ShowMessageFace("succubuses_fc2",1,0,2,1)
ShowMessage("\\n<Succubus A>")
ShowMessage("Ufufu, you want to play with us...?")
ShowMessageFace("succubuses_fc3",1,0,2,2)
ShowMessage("\\n<Succubus B>")
ShowMessage("It's time for some fun! ♪")
ShowMessageFace("succubuses_fc4",1,0,2,3)
ShowMessage("\\n<Succubus C>")
ShowMessage("We'll make you feel amazing...")
ShowMessage("Fufu, aren't you glad?")
ShowMessageFace("succubuses_fc5",1,0,2,4)
ShowMessage("\\n<Succubus D>")
ShowMessage("Let's take off those annoying clothes of yours.")
ShowMessageFace("",0,0,2,5)
ShowMessage("My clothes are ripped off in seconds.")
ShowMessage("The Succubi are all over me...")
ShowMessageFace("succubuses_fc2",1,0,2,6)
ShowMessage("\\n<Succubus A>")
ShowMessage("We'll show you heaven...")
ShowMessageFace("succubuses_fc3",1,0,2,7)
ShowMessage("\\n<Succubus B>")
ShowMessage("I'm putting it in right away~♪ Yah!♪")
241(bytes(0x04,0x08,0x6f,0x3a,0x0d,0x52,0x50,0x47,0x3a,0x3a,0x42,0x47,0x4d,0x08,0x3a,0x0a,0x40,0x6e,0x61,0x6d,0x65,0x49,0x22,0x09,0x65,0x72,0x6f,0x31,0x06,0x3a,0x06,0x45,0x54,0x3a,0x0c,0x40,0x76,0x6f,0x6c,0x75,0x6d,0x65,0x69,0x69,0x3a,0x0b,0x40,0x70,0x69,0x74,0x63,0x68,0x69,0x69))
245(bytes(0x04,0x08,0x6f,0x3a,0x0d,0x52,0x50,0x47,0x3a,0x3a,0x42,0x47,0x53,0x08,0x3a,0x0a,0x40,0x6e,0x61,0x6d,0x65,0x49,0x22,0x1e,0x6d,0x6f,0x6e,0x5f,0x68,0x73,0x65,0x61,0x6e,0x30,0x34,0x5f,0x69,0x6e,0x6e,0x65,0x72,0x77,0x6f,0x72,0x6b,0x73,0x5f,0x61,0x34,0x06,0x3a,0x06,0x45,0x54,0x3a,0x0c,0x40,0x76,0x6f,0x6c,0x75,0x6d,0x65,0x69,0x55,0x3a,0x0b,0x40,0x70,0x69,0x74,0x63,0x68,0x69,0x69))
PictureClear(6)
PictureClear(7)
PictureClear(8)
PictureDisplay(5,"ev_succubuses_hb01",0,0,0,0,100,100,0,0)
PictureMove(5,null,0,0,0,0,100,100,255,0,30,true)
ShowMessageFace("",0,0,2,8)
ShowMessage("One of the Succubi jumps on me, riding me.")
ShowMessage("She deftly slips me into her warm entrance.")
ShowMessageFace("",0,0,2,9)
ShowMessage("A tight, sucking feeling pulls on me.")
ShowMessage("A melting warmth fills me at the same time, making me go limp at her touch.")
ShowMessageFace("",0,0,2,10)
ShowMessage("\\n<Luka>")
ShowMessage("Ah... Hauu...!")
ShowMessageFace("",0,0,2,11)
ShowMessage("My voice betrays how good it feels.")
ShowMessage("The Succubi around me all giggle at my quick reaction.")
ShowMessageFace("succubuses_fc4",1,0,2,12)
ShowMessage("\\n<Succubus C>")
ShowMessage("Aha, listen to that...")
ShowMessageFace("succubuses_fc5",1,0,2,13)
ShowMessage("\\n<Succubus D>")
ShowMessage("Did your penis like that?")
ShowMessage("Succubi have amazing pussies, after all~♪")
ShowMessageFace("succubuses_fc2",1,0,2,14)
ShowMessage("\\n<Succubus A>")
ShowMessage("Ufufu, such a cute expression...")
ShowMessageFace("",0,0,2,15)
ShowMessage("One of the Succubi holds my head.")
ShowMessage("Every time she opens her mouth, her sweet breath washes over me.")
ShowMessageFace("succubuses_fc2",1,0,2,16)
ShowMessage("\\n<Succubus A>")
ShowMessage("*Blowing*")
ShowMessage("Take a deep breath....")
ShowMessageFace("",0,0,2,17)
ShowMessage("\\n<Luka>")
ShowMessage("Hauuu...")
ShowMessageFace("",0,0,2,18)
ShowMessage("Just tasting her breath makes me feel drunk on ecstasy.")
ShowMessage("My thoughts start to get muddled as my body untenses.")
ShowMessageFace("succubuses_fc5",1,0,2,19)
ShowMessage("\\n<Succubus D>")
ShowMessage("Ahaha, he's already melting away...")
ShowMessage("Should we just drain him dry in an instant?")
ShowMessageFace("succubuses_fc3",1,0,2,20)
ShowMessage("\\n<Succubus B>")
ShowMessage("That would be such a waste.")
ShowMessage("But I will move a little bit...♪")
PictureDisplay(5,"ev_succubuses_hb02",0,0,0,0,100,100,255,0)
ShowMessageFace("",0,0,2,21)
ShowMessage("\\n<Luka>")
ShowMessage("Ah... Ahhh...!!")
ShowMessageFace("",0,0,2,22)
ShowMessage("The Succubus raping me starts to slowly move up and down.")
ShowMessage("Every movement transmits through my penis right to my brain.")
ShowMessageFace("",0,0,2,23)
ShowMessage("Her hot flesh pulls and pushes on my penis as she bounces.")
ShowMessage("The rhythmic movements leave me gasping in no time.")
ShowMessageFace("succubuses_fc3",1,0,2,24)
ShowMessage("\\n<Succubus B>")
ShowMessage("Hora, hora... Well?")
ShowMessage("Don't you just love my pussy?")
ShowMessageFace("",0,0,2,25)
ShowMessage("\\n<Luka>")
ShowMessage("A-Amazing... Hauu...")
ShowMessageFace("",0,0,2,26)
ShowMessage("The desire to release quickly rises in me.")
ShowMessage("Her movements are too much, and she just feels too good.")
ShowMessageFace("succubuses_fc3",1,0,2,27)
ShowMessage("\\n<Succubus B>")
ShowMessage("You can't endure it, can you?")
ShowMessage("Let's see you come~♪")
ShowMessageFace("succubuses_fc2",1,0,2,28)
ShowMessage("\\n<Succubus A>")
ShowMessage("Ahaha, look at him gasping.")
ShowMessage("Since he's going to come, I'll do this...")
ShowMessageFace("",0,0,2,29)
ShowMessage("The Succubus leans in...")
PictureDisplay(5,"ev_succubuses_hb03",0,0,0,0,100,100,255,0)
ShowMessageFace("succubuses_fc2",1,0,2,30)
ShowMessage("\\n<Succubus A>")
ShowMessage("Nnn... *Kiss*♪")
ShowMessageFace("",0,0,2,31)
ShowMessage("The sudden kiss makes my eyes go wide in surprise.")
ShowMessage("The sweet feel of her lips explodes all of my senses into ecstasy.")
ShowMessageFace("",0,0,2,32)
ShowMessage("\\n<Luka>")
ShowMessage("Nnnnnnnnnnn~~!!")
RunCommonEvent(104)
PictureDisplay(5,"ev_succubuses_hb04",0,0,0,0,100,100,255,0)
RunCommonEvent(105)
ShowMessageFace("",0,0,2,33)
ShowMessage("I instantly reach a powerful orgasm.")
ShowMessage("I shoot shot after shot into the Succubus riding me.")
ShowMessageFace("",0,0,2,34)
ShowMessage("Being ridden, then suddenly kissed...")
ShowMessage("I came in an instant.")
PictureDisplay(5,"ev_succubuses_hb05",0,0,0,0,100,100,255,0)
ShowMessageFace("",0,0,2,35)
ShowMessage("\\n<Luka>")
ShowMessage("Ah... Hauu...")
ShowMessageFace("succubuses_fc3",1,0,2,36)
ShowMessage("\\n<Succubus B>")
ShowMessage("Ahaha, he came~♪")
ShowMessage("Your semen is spurting out♪")
ShowMessageFace("succubuses_fc2",1,0,2,37)
ShowMessage("\\n<Succubus A>")
ShowMessage("Nnnnn... He came as soon as I kissed him.")
ShowMessageFace("succubuses_fc4",1,0,2,38)
ShowMessage("\\n<Succubus C>")
ShowMessage("Ufufu, such a loose looking face.")
ShowMessage("He's totally enraptured.")
ShowMessageFace("succubuses_fc5",1,0,2,39)
ShowMessage("\\n<Succubus D>")
ShowMessage("Shall we swap?")
ShowMessage("Or are you going to play with him a bit more first?")
ShowMessageFace("succubuses_fc3",1,0,2,40)
ShowMessage("\\n<Succubus B>")
ShowMessage("Ehehe... I think I'll go a few more rounds.")
PictureDisplay(5,"ev_succubuses_hb06",0,0,0,0,100,100,255,0)
ShowMessageFace("",0,0,2,41)
ShowMessage("Saying that, her intense movements start back up.")
ShowMessage("Stuck inside her, the Succubi's riding gets even more frenzied.")
ShowMessageFace("",0,0,2,42)
ShowMessage("\\n<Luka>")
ShowMessage("Nnnnn...")
ShowMessageFace("",0,0,2,43)
ShowMessage("Still being kissed, I can't even tell her to stop.")
ShowMessage("Being violated so one-sidedly, I can't do anything but accept it...")
ShowMessageFace("succubuses_fc2",1,0,2,44)
ShowMessage("\\n<Succubus A>")
ShowMessage("Do you like my kiss?")
ShowMessage("Couldn't you just melt away in my lips...?")
ShowMessageFace("",0,0,2,45)
ShowMessage("\\n<Luka>")
ShowMessage("Nnnnn...")
ShowMessageFace("succubuses_fc3",1,0,2,46)
ShowMessage("\\n<Succubus B>")
ShowMessage("Does her kiss make you feel caught in a dream?")
ShowMessage("Hora, hora, hora...♪")
ShowMessageFace("",0,0,2,47)
ShowMessage("The Succubus rides me harder, grinding herself against me.")
ShowMessage("Moving so fast, her hips are almost a blur.")
ShowMessageFace("",0,0,2,48)
ShowMessage("\\n<Luka>")
ShowMessage("Nnnn... Nnnnn~~!!")
ShowMessageFace("succubuses_fc4",1,0,2,49)
ShowMessage("\\n<Succubus C>")
ShowMessage("Hey... Are you trying to make him come as fast as you can?")
ShowMessageFace("succubuses_fc3",1,0,2,50)
ShowMessage("\\n<Succubus B>")
ShowMessage("Sure am♪ Hora, now come...♪")
ShowMessageFace("",0,0,2,51)
ShowMessage("\\n<Luka>")
ShowMessage("Nnnn... Nnnnn~!!")
ShowMessageFace("",0,0,2,52)
ShowMessage("With no mercy, she continues raping me.")
ShowMessage("Grinding and bouncing on me, I can't even scream due to the other Succubus kissing me.")
ShowMessageFace("",0,0,2,53)
ShowMessage("I'm completely overwhelmed.")
ShowMessage("I quickly surrender myself to them again.")
RunCommonEvent(104)
PictureDisplay(5,"ev_succubuses_hb07",0,0,0,0,100,100,255,0)
RunCommonEvent(105)
ShowMessageFace("",0,0,2,54)
ShowMessage("I'm forced to another orgasm in no time at all.")
ShowMessage("I shoot more semen into her for the second time in a row.")
PictureDisplay(5,"ev_succubuses_hb08",0,0,0,0,100,100,255,0)
ShowMessageFace("",0,0,2,55)
ShowMessage("\\n<Luka>")
ShowMessage("Nnnnn...")
ShowMessageFace("succubuses_fc5",1,0,2,56)
ShowMessage("\\n<Succubus D>")
ShowMessage("You were pretty forceful there~")
ShowMessage("Is this boy's semen that delicious?")
ShowMessageFace("succubuses_fc3",1,0,2,57)
ShowMessage("\\n<Succubus B>")
ShowMessage("It's amazing...♪")
ShowMessage("You all need to get a good taste later, too.")
ShowMessageFace("succubuses_fc4",1,0,2,58)
ShowMessage("\\n<Succubus C>")
ShowMessage("Then hurry up and let someone else have a turn...")
ShowMessageFace("succubuses_fc3",1,0,2,59)
ShowMessage("\\n<Succubus B>")
ShowMessage("Well... Just one more... Ok? ♪")
PictureDisplay(5,"ev_succubuses_hb09",0,0,0,0,100,100,255,0)
ShowMessageFace("",0,0,2,60)
ShowMessage("The Succubus greedily starts moving again.")
ShowMessage("My eyes go wide in ecstasy as they fight over me.")
ShowMessageFace("succubuses_fc2",1,0,2,61)
ShowMessage("\\n<Succubus A>")
ShowMessage("I'll put the boy back into a trance with my kiss...")
ShowMessage("Nnn... *Kiss*")
ShowMessageFace("",0,0,2,62)
ShowMessage("\\n<Luka>")
ShowMessage("Nnnnnn~~!!")
ShowMessageFace("",0,0,2,63)
ShowMessage("Her sweet kiss melts my thoughts away again.")
ShowMessage("At the same time, the intense riding sends shocks of pleasure through me.")
ShowMessageFace("",0,0,2,64)
ShowMessage("\\n<Luka>")
ShowMessage("Nngg... Nnnnnn~~!!")
RunCommonEvent(104)
PictureDisplay(5,"ev_succubuses_hb10",0,0,0,0,100,100,255,0)
RunCommonEvent(105)
ShowMessageFace("",0,0,2,65)
ShowMessage("I reach another climax.")
ShowMessage("But even still, the Succubus doesn't stop moving.")
ShowMessageFace("succubuses_fc3",1,0,2,66)
ShowMessage("\\n<Succubus B>")
ShowMessage("Ahaha, don't you love this?")
ShowMessageFace("succubuses_fc2",1,0,2,67)
ShowMessage("\\n<Succubus A>")
ShowMessage("Nnn... *Kiss*")
ShowMessageFace("",0,0,2,68)
ShowMessage("\\n<Luka>")
ShowMessage("Nnnnnnn~~!!")
ShowMessageFace("",0,0,2,69)
ShowMessage("I tremble in crazed pleasure as she keeps riding me through my orgasm.")
ShowMessage("At the same time, the wet kiss gets even deeper...")
RunCommonEvent(104)
PictureDisplay(5,"ev_succubuses_hb11",0,0,0,0,100,100,255,0)
RunCommonEvent(105)
ShowMessageFace("",0,0,2,70)
ShowMessage("\\n<Luka>")
ShowMessage("Nnnn...")
ShowMessageFace("",0,0,2,71)
ShowMessage("I explode in her yet again.")
ShowMessage("Stuck in a trance at the same time, it feels even better than before.")
ShowMessageFace("succubuses_fc3",1,0,2,72)
ShowMessage("\\n<Succubus B>")
ShowMessage("Ahhhh... This boy tastes so good...")
ShowMessageFace("succubuses_fc5",1,0,2,73)
ShowMessage("\\n<Succubus D>")
ShowMessage("Hey! Did you break him?")
ShowMessageFace("succubuses_fc3",1,0,2,74)
ShowMessage("\\n<Succubus B>")
ShowMessage("Ahh, that's right...")
ShowMessage("He tasted so good, I lost myself for a moment there...")
ShowMessageFace("",0,0,2,75)
ShowMessage("With a flushed face, the Succubus finally stops moving.")
ShowMessage("Finally stopped, I'm finally released from the hell of pleasure I was stuck in.")
ShowMessageFace("succubuses_fc4",1,0,2,76)
ShowMessage("\\n<Succubus C>")
ShowMessage("I'm up next then.")
ShowMessage("I want a taste of this boy you're praising so much...♪")
ShowMessageFace("succubuses_fc5",1,0,2,77)
ShowMessage("\\n<Succubus D>")
ShowMessage("I call next after you! ♪")
ShowMessageFace("succubuses_fc2",1,0,2,78)
ShowMessage("\\n<Succubus A>")
ShowMessage("I'll just keep kissing him...")
ShowMessage("You love being in a trance anyway, don't you?")
ShowMessageFace("",0,0,2,79)
ShowMessage("\\n<Luka>")
ShowMessage("Ah... Ahh...")
ShowMessageFace("",0,0,2,80)
ShowMessage("This gangbang will continue on and on...")
ShowMessage("Unable to get away, I'm the main dish of their feast...")
221()
PictureClear(5)
PictureClear(6)
246(2)
ShowMessageFace("",0,0,2,81)
ShowMessage("......")
RunCommonEvent(3998)
0()
