﻿// EVENT 7341
Name "Cresta: Talk"

If(1,835,0,0,0)
 ChangeVariable(835,835,0,0,1)
 0()
EndIf()
241(bytes(0x04,0x08,0x6f,0x3a,0x0d,0x52,0x50,0x47,0x3a,0x3a,0x42,0x47,0x4d,0x08,0x3a,0x0a,0x40,0x6e,0x61,0x6d,0x65,0x49,0x22,0x09,0x65,0x72,0x6f,0x32,0x06,0x3a,0x06,0x45,0x54,0x3a,0x0c,0x40,0x76,0x6f,0x6c,0x75,0x6d,0x65,0x69,0x50,0x3a,0x0b,0x40,0x70,0x69,0x74,0x63,0x68,0x69,0x69))
PictureDisplay(5,"80_mob_kaizoku2_st01",0,0,0,0,100,100,0,0)
PictureMove(5,null,0,0,0,0,100,100,255,0,30,true)
ShowMessageFace("mob_kaizoku2_fc1",0,0,2,1)
ShowMessage("\\n<Cresta>Now then, let's have a fair and square match.\nI'm pretty good at battle fucking, y'know?")
If(1,835,0,2,1)
 ShowMessageFace("mob_kaizoku2_fc1",0,0,2,2)
 ShowMessage("\\n<Cresta>The bet will be 1500G.\nEven if you win, I won't have any items to give you.")
 0()
Else()
 ShowMessageFace("mob_kaizoku2_fc1",0,0,2,3)
 ShowMessage("\\n<Cresta>The bet will be 1500G.\nIf you win, I'll give you an accessory that lets you use gun skills.")
 0()
EndIf()
ShowMessageFace("mob_kaizoku2_fc1",0,0,2,4)
ShowMessage("\\n<Cresta>Well, will you challenge me?\nOr are you giving up?")
ShowChoices(strings("Battle Fuck Challenge","Reconsider"),2)
IfPlayerPicksChoice(0,"バトルファックを挑む")
 If(7,1500,0)
  RunCommonEvent(7342)
  EndEventProcessing()
  0()
 Else()
  ShowMessageFace("mob_kaizoku2_fc1",1,0,2,5)
  ShowMessage("\\n<Cresta>Uwah, you don't have enough money... Is that even possible?")
  If(0,2331,1)
   PictureClear(5)
   241(bytes(0x04,0x08,0x6f,0x3a,0x0d,0x52,0x50,0x47,0x3a,0x3a,0x42,0x47,0x4d,0x08,0x3a,0x0a,0x40,0x6e,0x61,0x6d,0x65,0x49,0x22,0x0a,0x6b,0x69,0x6b,0x69,0x34,0x06,0x3a,0x06,0x45,0x54,0x3a,0x0c,0x40,0x76,0x6f,0x6c,0x75,0x6d,0x65,0x69,0x69,0x3a,0x0b,0x40,0x70,0x69,0x74,0x63,0x68,0x69,0x69))
   0()
  EndIf()
  EndEventProcessing()
  0()
 EndIf()
 0()
IfPlayerPicksChoice(1,"やめておく")
 ShowMessageFace("mob_kaizoku2_fc1",0,0,2,6)
 ShowMessage("\\n<Cresta>Sure, turn tail and run away.\nIt might be better than coming disgracefully.")
 If(0,2331,1)
  PictureClear(5)
  241(bytes(0x04,0x08,0x6f,0x3a,0x0d,0x52,0x50,0x47,0x3a,0x3a,0x42,0x47,0x4d,0x08,0x3a,0x0a,0x40,0x6e,0x61,0x6d,0x65,0x49,0x22,0x0a,0x6b,0x69,0x6b,0x69,0x34,0x06,0x3a,0x06,0x45,0x54,0x3a,0x0c,0x40,0x76,0x6f,0x6c,0x75,0x6d,0x65,0x69,0x69,0x3a,0x0b,0x40,0x70,0x69,0x74,0x63,0x68,0x69,0x69))
  0()
 EndIf()
 EndEventProcessing()
 0()
404()
0()
