﻿// EVENT 3113
Name "Devil Fighter"

If(0,25,1)
 JumpToLabel("反省会")
 0()
EndIf()
PictureDisplay(5,"80_d_fighter_st02",0,0,0,0,100,100,0,0)
PictureMove(5,null,0,0,0,0,100,100,255,0,30,true)
241(bytes(0x04,0x08,0x6f,0x3a,0x0d,0x52,0x50,0x47,0x3a,0x3a,0x42,0x47,0x4d,0x08,0x3a,0x0a,0x40,0x6e,0x61,0x6d,0x65,0x49,0x22,0x09,0x65,0x72,0x6f,0x31,0x06,0x3a,0x06,0x45,0x54,0x3a,0x0c,0x40,0x76,0x6f,0x6c,0x75,0x6d,0x65,0x69,0x69,0x3a,0x0b,0x40,0x70,0x69,0x74,0x63,0x68,0x69,0x69))
ShowMessageFace("",0,0,2,1)
ShowMessage("\\n<Luka>I-I lost...")
ShowMessageFace("d_fighter_fc1",1,0,2,2)
ShowMessage("\\n<Devil Fighter>Hmph. You're weak.\nI shall... Err...")
ShowMessageFace("d_fighter_fc1",2,0,2,3)
ShowMessage("\\n<Devil Fighter>......")
ShowMessageFace("",0,0,2,4)
ShowMessage("The Devil Fighter suddenly blushes.\nShe starts to cast some sort of spell.")
ShowMessageFace("",0,0,2,5)
ShowMessage("\\n<Luka>Wh-what are you... Waah!")
ShowMessageFace("",0,0,2,6)
ShowMessage("In the next instant, my body is wrapped in purple light.")
221()
PictureClear(5)
ShowMessageFace("",0,0,2,7)
ShowMessage("I lose consciousness...")
ShowMessageFace("",0,0,2,8)
ShowMessage("......")
ShowMessageFace("",0,0,2,9)
ShowMessage("\\n<Luka>U-ugh...")
ShowMessageFace("",0,0,2,10)
ShowMessage("I slowly start to wake up.\nI feel something warm on my body...")
ShowMessageFace("",0,0,2,11)
ShowMessage("Just what happened...?")
PictureDisplay(5,"ev_d_fighter_hb1",0,0,0,0,100,100,0,0)
PictureMove(5,null,0,0,0,0,100,100,255,0,30,true)
222()
ShowMessageFace("d_fighter_fc1",1,0,2,12)
ShowMessage("\\n<Devil Fighter>I-it looks like you woke up...")
ShowMessageFace("",0,0,2,13)
ShowMessage("\\n<Luka>Where are we...?")
ShowMessageFace("",0,0,2,14)
ShowMessage("It's pitch black.\nNo, actually there's something like a hand blocking my vision.")
ShowMessageFace("",0,0,2,15)
ShowMessage("I'm sitting in a chair.\nAnd I think the Devil Fighter is sitting on top of me...")
ShowMessageFace("d_fighter_fc1",1,0,2,16)
ShowMessage("\\n<Devil Fighter>This is an alternate space I created.\nI'm a yoma, so I'm capable of this much at least.")
ShowMessageFace("d_fighter_fc1",2,0,2,17)
ShowMessage("\\n<Devil Fighter>Then... Well, err... Now...\nI'll...r-rape...")
ShowMessageFace("",0,0,2,18)
ShowMessage("\\n<Luka>N...no way... You can't do that!")
ShowMessageFace("d_fighter_fc1",3,0,2,19)
ShowMessage("\\n<Devil Fighter>It's too late to resist now!\nThis is the fate of the loser!")
ShowMessageFace("d_fighter_fc1",2,0,2,20)
ShowMessage("\\n<Devil Fighter>W-well then...\nI'm going to put it in... Okay?")
ShowMessageFace("",0,0,2,21)
ShowMessage("The Devil Fighter's waist slowly starts to move.\nThe tip of my penis presses against her slit.")
ShowMessageFace("",0,0,2,22)
ShowMessage("I feel her wetness dripping down onto my penis.")
ShowMessageFace("",0,0,2,23)
ShowMessage("\\n<Luka>Ah, aaah... Don't...")
245(bytes(0x04,0x08,0x6f,0x3a,0x0d,0x52,0x50,0x47,0x3a,0x3a,0x42,0x47,0x53,0x08,0x3a,0x0a,0x40,0x6e,0x61,0x6d,0x65,0x49,0x22,0x1e,0x6d,0x6f,0x6e,0x5f,0x68,0x73,0x65,0x61,0x6e,0x30,0x36,0x5f,0x69,0x6e,0x6e,0x65,0x72,0x77,0x6f,0x72,0x6b,0x73,0x5f,0x61,0x36,0x06,0x3a,0x06,0x45,0x54,0x3a,0x0c,0x40,0x76,0x6f,0x6c,0x75,0x6d,0x65,0x69,0x55,0x3a,0x0b,0x40,0x70,0x69,0x74,0x63,0x68,0x69,0x69))
PictureDisplay(5,"ev_d_fighter_hb2",0,0,0,0,100,100,255,0)
ShowMessageFace("",0,0,2,24)
ShowMessage("She sits down, taking me into her vagina.\nAs if pushing an obstacle aside, my penis pushes her flesh away as I go inside.")
ShowMessageFace("d_fighter_fc1",1,0,2,25)
ShowMessage("\\n<Devil Fighter>It's in...♪\nOh hey, it isn't painful at all.")
ShowMessageFace("d_fighter_fc1",1,0,2,26)
ShowMessage("\\n<Devil Fighter>Actually, it feels really good...\nNnfufufufu...♪")
ShowMessageFace("",0,0,2,27)
ShowMessage("Her vagina twitches and shrinks around me.\nThe intermittent, tight contractions feel amazing.")
ShowMessageFace("",0,0,2,28)
ShowMessage("\\n<Luka>Ah, unnngh...")
ShowMessageFace("d_fighter_fc1",1,0,2,29)
ShowMessage("\\n<Devil Fighter>Aha... Are you moaning?\nDo I really feel that good...?")
ShowMessageFace("d_fighter_fc1",1,0,2,30)
ShowMessage("\\n<Devil Fighter>Then let me do something even better.\nWhat if I squeeze it like this...?")
ShowMessageFace("",0,0,2,31)
ShowMessage("The Devil Fighter clenches her stomach...\nwhich causes her already-tight vagina to get even tighter!")
ShowMessageFace("",0,0,2,32)
ShowMessage("\\n<Luka>Ah, aaaah...!")
ShowMessageFace("",0,0,2,33)
ShowMessage("Her soft flesh presses down on me from every side.\nIt's a crazy tightness...")
ShowMessageFace("",0,0,2,34)
ShowMessage("A forced pleasure, ignoring the man.\nSince she's inexperienced with sex, she's going as hard as she can right from the start.")
ShowMessageFace("",0,0,2,35)
ShowMessage("\\n<Luka>Urhg... Aaah...")
ShowMessageFace("d_fighter_fc1",0,0,2,36)
ShowMessage("\\n<Devil Fighter>What's wrong...? That didn't feel good...?")
ShowMessageFace("",0,0,2,37)
ShowMessage("The moment the Devil Fighter relaxes her crazy tightness...")
RunCommonEvent(104)
PictureDisplay(5,"ev_d_fighter_hb3",0,0,0,0,100,100,255,0)
RunCommonEvent(105)
ShowMessageFace("",0,0,2,38)
ShowMessage("I surrender without delay.\nMy semen pours into her tight vagina.")
ShowMessageFace("",0,0,2,39)
ShowMessage("\\n<Luka>Nnngh...")
ShowMessageFace("d_fighter_fc1",0,0,2,40)
ShowMessage("\\n<Devil Fighter>Eh?! Did you just come...?")
ShowMessageFace("d_fighter_fc1",1,0,2,41)
ShowMessage("\\n<Devil Fighter>My virgin pussy made him come...\nOr are you just an unusually quick shot? Fufu.")
ShowMessageFace("",0,0,2,42)
ShowMessage("Accepting my semen pouring into her, the Devil Fighter laughs. She keeps squeezing me until all of my semen has been squeezed out.")
PictureDisplay(5,"ev_d_fighter_hb4",0,0,0,0,100,100,255,0)
ShowMessageFace("",0,0,2,43)
ShowMessage("\\n<Luka>L-let me go now...")
ShowMessageFace("d_fighter_fc1",1,0,2,44)
ShowMessage("\\n<Devil Fighter>Making men come is actually pretty simple, isn't it...? All right, how about this then?")
ShowMessageFace("",0,0,2,45)
ShowMessage("\\n<Luka>Ngh... Ah, aaaah...!")
ShowMessageFace("",0,0,2,46)
ShowMessage("Her pussy tightens again, crushing my penis between her soft flesh.")
PictureDisplay(5,"ev_d_fighter_hb5",0,0,0,0,100,100,255,0)
ShowMessageFace("",0,0,2,47)
ShowMessage("At the same time, a tentacle reaches up toward my ass.\nThe tip of it aims at my anus...")
ShowMessageFace("",0,0,2,48)
ShowMessage("\\n<Luka>Ah, aaaaaah!!")
ShowMessageFace("",0,0,2,49)
ShowMessage("It easily slips into my ass!")
ShowMessageFace("",0,0,2,50)
ShowMessage("Invading me, it presses against my prostate.\nIn that instant, my penis starts to pulse in her tight pussy.")
246(2)
RunCommonEvent(104)
PictureDisplay(5,"ev_d_fighter_hb6",0,0,0,0,100,100,255,0)
RunCommonEvent(105)
ShowMessageFace("",0,0,2,51)
ShowMessage("I come inside of her for a second time.\nIt's as if she pushed an ejaculation switch.")
PictureDisplay(5,"ev_d_fighter_hb7",0,0,0,0,100,100,255,0)
ShowMessageFace("d_fighter_fc1",1,0,2,52)
ShowMessage("\\n<Devil Fighter>Ahaha, you came...!\nUsing the ass, it's really simple...!")
ShowMessageFace("",0,0,2,53)
ShowMessage("\\n<Luka>Unnngh...")
ShowMessageFace("",0,0,2,54)
ShowMessage("I'm left totally weak after the forced ejaculation.")
ShowMessage("My state seems to make the Devil Fighter really happy.")
ShowMessageFace("d_fighter_fc1",1,0,2,55)
ShowMessage("\\n<Devil Fighter>I never imagined this would make you so weak...\nYou're totally pitiful right now, aren't you?")
ShowMessageFace("d_fighter_fc1",1,0,2,56)
ShowMessage("\\n<Devil Fighter>I'll be trying a ton of different techniques from now on. Look forward to them... Ahaha!")
ShowMessageFace("",0,0,2,57)
ShowMessage("\\n<Luka>......")
ShowMessageFace("",0,0,2,58)
ShowMessage("Too weak underneath her, I can't reply to the Devil Fighter.")
221()
PictureClear(5)
ShowMessageFace("",0,0,2,59)
ShowMessage("Ever after that, I'm raped in this alternate space.\nKept bound here, I'm no more than her plaything.")
ShowMessageFace("",0,0,2,60)
ShowMessage("Thus ends my adventure.\nImprisoned in this alternate space, I'm endlessly raped...")
DefineLabel("反省会")
ShowMessageFace("",0,0,2,61)
ShowMessage("......")
221()
242(1)
Wait(120)
355("memory_interruption")
ShowMessageFace("",0,0,2,62)
ShowMessage("You hear Ilias' voice calling out to you...\nReceive her evaluation?")
ShowChoices(strings("Receive evaluation","Change difficulty","Reincarnate"),3)
IfPlayerPicksChoice(0,null)
 241(bytes(0x04,0x08,0x6f,0x3a,0x0d,0x52,0x50,0x47,0x3a,0x3a,0x42,0x47,0x4d,0x08,0x3a,0x0a,0x40,0x6e,0x61,0x6d,0x65,0x49,0x22,0x0a,0x69,0x72,0x69,0x61,0x73,0x06,0x3a,0x06,0x45,0x54,0x3a,0x0c,0x40,0x76,0x6f,0x6c,0x75,0x6d,0x65,0x69,0x5f,0x3a,0x0b,0x40,0x70,0x69,0x74,0x63,0x68,0x69,0x6e))
 PictureDisplay(1,"bg001",0,0,0,0,100,100,255,0)
 222()
 PictureDisplay(5,"80_iriasu_st02",0,0,0,0,100,100,0,0)
 PictureMove(5,null,0,0,0,0,100,100,255,0,30,true)
 ShowMessageFace("iriasu_fc1",1,0,2,63)
 ShowMessage("\\n<Ilias>What a shameless situation you found yourself in. Perhaps I should keep you here forever, too. Of course, I jest.")
 PictureDisplay(5,"80_iriasu_st01",0,0,0,0,100,100,255,0)
 ShowMessageFace("iriasu_fc1",0,0,2,64)
 ShowMessage("\\n<Ilias>The Devil Fighter is good with a sword, especially after she charges her power.")
 ShowMessageFace("iriasu_fc1",0,0,2,65)
 ShowMessage("\\n<Ilias>Since she's a yoma, status effects are mostly ineffective. However, blind can work, so use that to take away her sword skills.")
 PictureDisplay(5,"80_iriasu_st02",0,0,0,0,100,100,255,0)
 ShowMessageFace("iriasu_fc1",1,0,2,66)
 ShowMessage("\\n<Ilias>Now go, oh brave Luka.\nLose again, and I'll make you fight dressed up like her.")
 242(1)
 221()
 PictureClear(5)
 PictureClear(1)
 Wait(60)
 0()
IfPlayerPicksChoice(1,null)
 ShowMessageFace("",0,0,2,67)
 ShowMessage("Please choose a difficulty level.")
 RunCommonEvent(110)
 0()
IfPlayerPicksChoice(2,null)
 0()
404()
RunCommonEvent(3000)
0()
