﻿// EVENT 0561
Name "RC:ノビスタ娘"

If(0,2375,1)
 If(1,1109,0,1,0)
  ShowMessageFace("ruka_fc1",0,0,2,1)
  ShowMessage("【ルカ】")
  ShowMessage("サキュバスが呼んでるよ。")
  ShowMessage("三時のおいもの時間だって。")
  ShowMessageFace("nobisutam_fc1",0,0,2,2)
  ShowMessage("【ノービィ】")
  ShowMessage("…………♪♪♪")
  221()
  ChangeSwitch(2375,2375,0)
  ShowMessageFace("",0,0,2,3)
  ShowMessage("ノービィはサキュバスの元へ向かった！")
  222()
  EndEventProcessing()
  0()
 Else()
  ShowMessageFace("nobisutam_fc1",0,0,2,4)
  ShowMessage("【ノービィ】")
  ShowMessage("売り物は、食べちゃだめ……")
  ShowMessage("ちゃんと知ってるよ……")
  ShowMessageFace("nobisutam_fc1",1,0,2,5)
  ShowMessage("【ノービィ】")
  ShowMessage("……………………")
  ShowMessageFace("",0,0,2,6)
  ShowMessage("とても食べたそうだ……")
  0()
 EndIf()
 0()
EndIf()
If(0,2375,0)
 If(0,2377,0)
  ShowMessageFace("imomusi_fc1",1,0,2,7)
  ShowMessage("【のどか】")
  ShowMessage("おいも！　おいも！")
  ShowMessageFace("succubus_fc1",1,0,2,8)
  ShowMessage("【サキュバス】")
  ShowMessage("うふふふっ……")
  0()
 EndIf()
 If(0,2375,0)
  ShowMessageFace("nobisutam_fc1",0,0,2,9)
  ShowMessage("【ノービィ】")
  ShowMessage("おいも、むしゃむしゃ……")
  ShowMessageFace("succubus_fc1",1,0,2,10)
  ShowMessage("【サキュバス】")
  ShowMessage("おなかいっぱい食べてね。")
  0()
 EndIf()
 If(0,2376,0)
  ShowMessageFace("okikumusi_fc1",1,0,2,11)
  ShowMessage("【なのは】")
  ShowMessage("おいも、おいしい♪")
  ShowMessageFace("succubus_fc1",1,0,2,12)
  ShowMessage("【サキュバス】")
  ShowMessage("うふふっ、とっても可愛い子達……")
  0()
 EndIf()
 ShowMessageFace("succubus_fc1",0,0,2,13)
 ShowMessage("【サキュバス】")
 ShowMessage("あなたも、おやつにおいもはいかがです？")
 ShowMessage("たくさん用意しているわよ……")
 0()
EndIf()
DefineLabel("メイン")
If(0,2375,1)
 355("ex_choice_add(\"盗み食いを見張る（時間経過）\",1,")
 655("\"v[1098] >= 5\",0)")
 0()
EndIf()
If(0,2375,0)
 355("ex_choice_add(\"イモを食べる（時間経過）\",1,")
 655("\"v[1098] >= 5\",0)")
 0()
EndIf()
355("ex_choice_add(\"異変について相談する\",2,")
655("\"s[2341]\",0)")
655("ex_choice_add(\"後悔していることについて聞く\",3,")
655("\"s[2342]\",0)")
655("ex_choice_add(\"時を繰り返す道具について聞く\",4,")
655("\"s[2343]\",0)")
655("ex_choice_add(\"ピザを注文したか聞く\",5,")
655("\"s[2345]\",0)")
355("ex_choice_add(\"謎のマキナについて聞く\",6,")
655("\"s[2365]\",0)")
655("ex_choice_add(\"作戦に必要な品について聞く\",7,")
655("\"s[2364]\",0)")
655("ex_choice_add(\"お茶会に誘う\",8,")
655("\"s[2378]\",0)")
655("ex_choice_add(\"立ち去る\",10)")
355("ex_choice_show(0,11,[0,0])")
If(1,9,0,1,0)
 If(0,2375,1)
  221()
  205(25,bytes(0x04,0x08,0x6f,0x3a,0x13,0x52,0x50,0x47,0x3a,0x3a,0x4d,0x6f,0x76,0x65,0x52,0x6f,0x75,0x74,0x65,0x09,0x3a,0x0c,0x40,0x72,0x65,0x70,0x65,0x61,0x74,0x46,0x3a,0x0f,0x40,0x73,0x6b,0x69,0x70,0x70,0x61,0x62,0x6c,0x65,0x46,0x3a,0x0a,0x40,0x77,0x61,0x69,0x74,0x54,0x3a,0x0a,0x40,0x6c,0x69,0x73,0x74,0x5b,0x07,0x6f,0x3a,0x15,0x52,0x50,0x47,0x3a,0x3a,0x4d,0x6f,0x76,0x65,0x43,0x6f,0x6d,0x6d,0x61,0x6e,0x64,0x07,0x3a,0x0a,0x40,0x63,0x6f,0x64,0x65,0x69,0x15,0x3a,0x10,0x40,0x70,0x61,0x72,0x61,0x6d,0x65,0x74,0x65,0x72,0x73,0x5b,0x00,0x6f,0x3b,0x0a,0x07,0x3b,0x0b,0x69,0x00,0x3b,0x0c,0x5b,0x00))
  TeleportPlayer(0,77,34,28,6,2)
  222()
  ShowMessageFace("ruka_fc1",0,0,2,14)
  ShowMessage("【ルカ】")
  ShowMessage("……………………")
  ShowMessageFace("nobisutam_fc1",2,0,2,15)
  ShowMessage("【ノービィ】")
  ShowMessage("……………………")
  ShowMessageFace("",0,0,2,16)
  ShowMessage("緊迫感のあるやり取りだ……")
  RunCommonEvent(540)
  EndEventProcessing()
  0()
 EndIf()
 If(0,2375,0)
  221()
  205(32,bytes(0x04,0x08,0x6f,0x3a,0x13,0x52,0x50,0x47,0x3a,0x3a,0x4d,0x6f,0x76,0x65,0x52,0x6f,0x75,0x74,0x65,0x09,0x3a,0x0c,0x40,0x72,0x65,0x70,0x65,0x61,0x74,0x46,0x3a,0x0f,0x40,0x73,0x6b,0x69,0x70,0x70,0x61,0x62,0x6c,0x65,0x46,0x3a,0x0a,0x40,0x77,0x61,0x69,0x74,0x54,0x3a,0x0a,0x40,0x6c,0x69,0x73,0x74,0x5b,0x07,0x6f,0x3a,0x15,0x52,0x50,0x47,0x3a,0x3a,0x4d,0x6f,0x76,0x65,0x43,0x6f,0x6d,0x6d,0x61,0x6e,0x64,0x07,0x3a,0x0a,0x40,0x63,0x6f,0x64,0x65,0x69,0x17,0x3a,0x10,0x40,0x70,0x61,0x72,0x61,0x6d,0x65,0x74,0x65,0x72,0x73,0x5b,0x00,0x6f,0x3b,0x0a,0x07,0x3b,0x0b,0x69,0x00,0x3b,0x0c,0x5b,0x00))
  TeleportPlayer(0,84,29,23,8,2)
  222()
  ShowMessageFace("nobisutam_fc1",0,0,2,17)
  ShowMessage("【ノービィ】")
  ShowMessage("おいも、むしゃむしゃ……")
  ShowMessageFace("succubus_fc1",0,0,2,18)
  ShowMessage("【サキュバス】")
  ShowMessage("そう言えば、こんな教訓があるわ。")
  ShowMessage("私の村にも、イモ嫌いの男の子達がいたのよ。")
  ShowMessageFace("succubus_fc1",0,0,2,19)
  ShowMessage("【サキュバス】")
  ShowMessage("無理矢理に食べさせると、かえって嫌いになるから……")
  ShowMessage("イモを食べるたび、エッチなご褒美をあげたのよ。")
  ShowMessageFace("succubus_fc1",0,0,2,20)
  ShowMessage("【サキュバス】")
  ShowMessage("すると、男の子達はイモを食べたがるようになったけど……")
  ShowMessage("イモを見るたび、勃起するようになってしまったのよ。")
  ShowMessageFace("ruka_fc1",0,0,2,21)
  ShowMessage("【ルカ】")
  ShowMessage("その話から、僕はどんな教訓を得たらいいんです？")
  ShowMessageFace("",0,0,2,22)
  ShowMessage("イモを食べて時間を過ごした……")
  RunCommonEvent(540)
  EndEventProcessing()
  0()
 EndIf()
 0()
EndIf()
If(1,9,0,2,0)
 ShowMessageFace("",0,0,2,23)
 ShowMessage("ルカは、異変について相談した……")
 ShowMessageFace("nobisutam_fc1",0,0,2,24)
 ShowMessage("【ノービィ】")
 ShowMessage("むずかしいこと……")
 ShowMessage("分からないよ……")
 ShowMessageFace("",0,0,2,25)
 ShowMessage("ノービィは頼れそうにない……")
 JumpToLabel("メイン")
 0()
EndIf()
If(1,9,0,3,0)
 ShowMessageFace("nobisutam_fc1",0,0,2,26)
 ShowMessage("【ノービィ】")
 ShowMessage("後悔……？")
 ShowMessage("それって、おいしい……？")
 ShowMessageFace("",0,0,2,27)
 ShowMessage("有益な情報は得られなかった……")
 JumpToLabel("メイン")
 0()
EndIf()
If(1,9,0,4,0)
 ShowMessageFace("nobisutam_fc1",0,0,2,28)
 ShowMessage("【ノービィ】")
 ShowMessage("時間が戻ったら……")
 ShowMessage("毎日、おいしいもの食べられる？")
 ShowMessageFace("",0,0,2,29)
 ShowMessage("有益な情報は得られなかった……")
 JumpToLabel("メイン")
 0()
EndIf()
If(1,9,0,5,0)
 ShowMessageFace("nobisutam_fc1",0,0,2,30)
 ShowMessage("【ノービィ】")
 ShowMessage("知らないよ……")
 ShowMessageFace("",0,0,2,31)
 ShowMessage("ピザを頼んだのはノービィではないようだ……")
 JumpToLabel("メイン")
 0()
EndIf()
If(1,9,0,6,0)
 ShowMessageFace("nobisutam_fc1",0,0,2,32)
 ShowMessage("【ノービィ】")
 ShowMessage("……？？？")
 ShowMessageFace("",0,0,2,33)
 ShowMessage("有益な情報は得られなかった……")
 JumpToLabel("メイン")
 0()
EndIf()
If(1,9,0,7,0)
 ShowMessageFace("nobisutam_fc1",0,0,2,34)
 ShowMessage("【ノービィ】")
 ShowMessage("何も、持ってない……")
 ShowMessageFace("",0,0,2,35)
 ShowMessage("有益なアイテムは得られなかった……")
 JumpToLabel("メイン")
 0()
EndIf()
If(1,9,0,8,0)
 ShowMessageFace("nobisutam_fc1",2,0,2,36)
 ShowMessage("【ノービィ】")
 ShowMessage("！？！？！？！？")
 ShowMessageFace("",0,0,2,37)
 ShowMessage("ノービィはお茶会の誘いを断った……")
 JumpToLabel("メイン")
 0()
EndIf()
EndEventProcessing()
0()
