// EVENT 0171
Name "Colosseum: Lamia Matches"

355("ex_choice_add(\"Long Snake Cup\",1,\"v[713] >= 0\",1)")
655("ex_choice_add(\"Elegant Snake Cup\",2,\"v[713] >= 1\",2)")
655("ex_choice_add(\"Snake Empress Cup\",3,\"v[713] >= 2\",3)")
655("ex_choice_add(\"Never mind\",4)")
355("ex_choice_show")
If(1,9,0,1,0)
 ShowMessageFace("",0,0,2,1)
 ShowMessage("\\n<Official>You are participating in the Long Snake Cup!\nIn that case, please proceed to the arena!")
 TeleportPlayer(0,483,32,31,6,0)
 ShowMessageFace("",0,0,2,2)
 ShowMessage("\\n<Referee>Team Luka has entered!\nWithout further ado, the first match shall begin at once!!")
 ChangeVariable(702,702,0,0,1)
 RunCommonEvent(160)
 ShowMessageFace("",0,0,2,3)
 ShowMessage("\\n<Referee>Team Luka has won the first match!\nContinuing on, the second match shall now commence!!")
 ChangeVariable(702,702,0,0,2)
 RunCommonEvent(160)
 ShowMessageFace("",0,0,2,4)
 ShowMessage("\\n<Referee>Team Luka has won the second match!\nAt last, the finals shall now commence!")
 ChangeVariable(702,702,0,0,3)
 RunCommonEvent(160)
 ShowMessageFace("",0,0,2,5)
 ShowMessage("\\n<Referee>And the winners of the finals are...Team Luka!!\nLet's all give a round of applause for Team Luka!!")
 If(1,713,0,0,0)
  250(bytes(0x04,0x08,0x6f,0x3a,0x0c,0x52,0x50,0x47,0x3a,0x3a,0x53,0x45,0x08,0x3a,0x0a,0x40,0x6e,0x61,0x6d,0x65,0x49,0x22,0x11,0x6d,0x6f,0x6e,0x5f,0x66,0x61,0x6e,0x66,0x61,0x6c,0x65,0x32,0x06,0x3a,0x06,0x45,0x54,0x3a,0x0b,0x40,0x70,0x69,0x74,0x63,0x68,0x69,0x69,0x3a,0x0c,0x40,0x76,0x6f,0x6c,0x75,0x6d,0x65,0x69,0x69))
  ShowMessageFace("",0,0,2,6)
  ShowMessage("You have mastered the Long Snake Cup!!")
  250(bytes(0x04,0x08,0x6f,0x3a,0x0c,0x52,0x50,0x47,0x3a,0x3a,0x53,0x45,0x08,0x3a,0x0a,0x40,0x6e,0x61,0x6d,0x65,0x49,0x22,0x0a,0x49,0x74,0x65,0x6d,0x31,0x06,0x3a,0x06,0x45,0x54,0x3a,0x0b,0x40,0x70,0x69,0x74,0x63,0x68,0x69,0x69,0x3a,0x0c,0x40,0x76,0x6f,0x6c,0x75,0x6d,0x65,0x69,0x55))
  ChangeInventoryArmor(1381,0,0,1,false)
  If(8,549)
   0()
  Else()
   ChangeSwitch(2284,2284,0)
   ChangeInventory_Item(549,0,0,1)
   0()
  EndIf()
  ChangeVariable(713,713,0,0,1)
  0()
 Else()
  250(bytes(0x04,0x08,0x6f,0x3a,0x0c,0x52,0x50,0x47,0x3a,0x3a,0x53,0x45,0x08,0x3a,0x0a,0x40,0x6e,0x61,0x6d,0x65,0x49,0x22,0x0a,0x49,0x74,0x65,0x6d,0x31,0x06,0x3a,0x06,0x45,0x54,0x3a,0x0b,0x40,0x70,0x69,0x74,0x63,0x68,0x69,0x69,0x3a,0x0c,0x40,0x76,0x6f,0x6c,0x75,0x6d,0x65,0x69,0x55))
  ChangeInventory_Item(36,0,0,1)
  ChangeInventory_Item(40,0,0,1)
  ChangeInventory_Item(44,0,0,1)
  If(8,549)
   0()
  Else()
   ChangeSwitch(2284,2284,0)
   ChangeInventory_Item(549,0,0,1)
   0()
  EndIf()
  0()
 EndIf()
 TeleportPlayer(0,484,14,10,8,0)
 355("gain_medal(1611)")
 ShowMessageFace("",0,0,2,7)
 ShowMessage("\\n<Official>Congratulations on winning the Long Snake Cup championship!\nAs one would expect of top-notch fighters!")
 RunCommonEvent(159)
 EndEventProcessing()
 0()
EndIf()
If(1,9,0,2,0)
 If(1,1001,0,30,1)
  ShowMessageFace("",0,0,2,8)
  ShowMessage("\\n<Official>You are participating in the Elegant Snake Cup!\nIn that case, please proceed to the arena!")
  TeleportPlayer(0,483,32,31,6,0)
  ShowMessageFace("",0,0,2,9)
  ShowMessage("\\n<Referee>Team Luka has entered!\nWithout further ado, the first match shall begin at once!!")
  ChangeVariable(702,702,0,0,3)
  RunCommonEvent(160)
  ShowMessageFace("",0,0,2,10)
  ShowMessage("\\n<Referee>Team Luka has won the first match!\nContinuing on, the second match shall now commence!!")
  ChangeVariable(702,702,0,0,4)
  RunCommonEvent(160)
  ShowMessageFace("",0,0,2,11)
  ShowMessage("\\n<Referee>Team Luka has won the second match!\nAt last, the finals shall now commence!")
  ChangeVariable(702,702,0,0,6)
  RunCommonEvent(160)
  ShowMessageFace("",0,0,2,12)
  ShowMessage("\\n<Referee>And the winners of the finals are...Team Luka!!\nLet's all give a round of applause for Team Luka!!")
  If(1,713,0,1,0)
   250(bytes(0x04,0x08,0x6f,0x3a,0x0c,0x52,0x50,0x47,0x3a,0x3a,0x53,0x45,0x08,0x3a,0x0a,0x40,0x6e,0x61,0x6d,0x65,0x49,0x22,0x11,0x6d,0x6f,0x6e,0x5f,0x66,0x61,0x6e,0x66,0x61,0x6c,0x65,0x32,0x06,0x3a,0x06,0x45,0x54,0x3a,0x0b,0x40,0x70,0x69,0x74,0x63,0x68,0x69,0x69,0x3a,0x0c,0x40,0x76,0x6f,0x6c,0x75,0x6d,0x65,0x69,0x69))
   ShowMessageFace("",0,0,2,13)
   ShowMessage("You have mastered the Elegant Snake Cup!!")
   250(bytes(0x04,0x08,0x6f,0x3a,0x0c,0x52,0x50,0x47,0x3a,0x3a,0x53,0x45,0x08,0x3a,0x0a,0x40,0x6e,0x61,0x6d,0x65,0x49,0x22,0x0a,0x49,0x74,0x65,0x6d,0x31,0x06,0x3a,0x06,0x45,0x54,0x3a,0x0b,0x40,0x70,0x69,0x74,0x63,0x68,0x69,0x69,0x3a,0x0c,0x40,0x76,0x6f,0x6c,0x75,0x6d,0x65,0x69,0x55))
   ChangeInventoryArmor(1675,0,0,1,false)
   ChangeVariable(713,713,0,0,2)
   0()
  Else()
   250(bytes(0x04,0x08,0x6f,0x3a,0x0c,0x52,0x50,0x47,0x3a,0x3a,0x53,0x45,0x08,0x3a,0x0a,0x40,0x6e,0x61,0x6d,0x65,0x49,0x22,0x0a,0x49,0x74,0x65,0x6d,0x31,0x06,0x3a,0x06,0x45,0x54,0x3a,0x0b,0x40,0x70,0x69,0x74,0x63,0x68,0x69,0x69,0x3a,0x0c,0x40,0x76,0x6f,0x6c,0x75,0x6d,0x65,0x69,0x55))
   ChangeInventory_Item(41,0,0,1)
   0()
  EndIf()
  TeleportPlayer(0,484,14,10,8,0)
  355("gain_medal(1612)")
  ShowMessageFace("",0,0,2,14)
  ShowMessage("\\n<Official>Congratulations on winning the Elegant Snake Cup championship! You're on the verge of becoming unrivaled, ultra top-class fighters!")
  RunCommonEvent(159)
  EndEventProcessing()
  0()
 Else()
  ShowMessageFace("",0,0,2,15)
  ShowMessage("\\n<Official>I'm sorry, but that title is currently being prepared. Please come back another time.")
  JumpToLabel("メニュー")
  0()
 EndIf()
 0()
EndIf()
If(1,9,0,3,0)
 If(1,1001,0,34,1)
  ShowMessageFace("",0,0,2,16)
  ShowMessage("\\n<Official>You are participating in the Snake Empress Cup!\nIn that case, please proceed to the arena!")
  TeleportPlayer(0,483,32,31,6,0)
  ShowMessageFace("",0,0,2,17)
  ShowMessage("\\n<Referee>Team Luka has entered!\nWithout further ado, the first match shall begin at once!!")
  ChangeVariable(702,702,0,0,5)
  RunCommonEvent(160)
  ShowMessageFace("",0,0,2,18)
  ShowMessage("\\n<Referee>Team Luka has won the first match!\nContinuing on, the second match shall now commence!!")
  ChangeVariable(702,702,0,0,6)
  RunCommonEvent(160)
  ShowMessageFace("",0,0,2,19)
  ShowMessage("\\n<Referee>Team Luka has won the second match!\nAt last, the finals shall now commence!")
  ChangeVariable(702,702,0,0,7)
  RunCommonEvent(160)
  ShowMessageFace("",0,0,2,20)
  ShowMessage("\\n<Referee>And the winners of the finals are...Team Luka!!\nLet's all give a round of applause for Team Luka!!")
  If(1,713,0,2,0)
   250(bytes(0x04,0x08,0x6f,0x3a,0x0c,0x52,0x50,0x47,0x3a,0x3a,0x53,0x45,0x08,0x3a,0x0a,0x40,0x6e,0x61,0x6d,0x65,0x49,0x22,0x11,0x6d,0x6f,0x6e,0x5f,0x66,0x61,0x6e,0x66,0x61,0x6c,0x65,0x32,0x06,0x3a,0x06,0x45,0x54,0x3a,0x0b,0x40,0x70,0x69,0x74,0x63,0x68,0x69,0x69,0x3a,0x0c,0x40,0x76,0x6f,0x6c,0x75,0x6d,0x65,0x69,0x69))
   ShowMessageFace("",0,0,2,21)
   ShowMessage("You have mastered the Snake Empress Cup!!")
   250(bytes(0x04,0x08,0x6f,0x3a,0x0c,0x52,0x50,0x47,0x3a,0x3a,0x53,0x45,0x08,0x3a,0x0a,0x40,0x6e,0x61,0x6d,0x65,0x49,0x22,0x0a,0x49,0x74,0x65,0x6d,0x31,0x06,0x3a,0x06,0x45,0x54,0x3a,0x0b,0x40,0x70,0x69,0x74,0x63,0x68,0x69,0x69,0x3a,0x0c,0x40,0x76,0x6f,0x6c,0x75,0x6d,0x65,0x69,0x55))
   ChangeInventoryArmor(1382,0,0,1,false)
   ChangeVariable(713,713,0,0,3)
   0()
  Else()
   250(bytes(0x04,0x08,0x6f,0x3a,0x0c,0x52,0x50,0x47,0x3a,0x3a,0x53,0x45,0x08,0x3a,0x0a,0x40,0x6e,0x61,0x6d,0x65,0x49,0x22,0x0a,0x49,0x74,0x65,0x6d,0x31,0x06,0x3a,0x06,0x45,0x54,0x3a,0x0b,0x40,0x70,0x69,0x74,0x63,0x68,0x69,0x69,0x3a,0x0c,0x40,0x76,0x6f,0x6c,0x75,0x6d,0x65,0x69,0x55))
   ChangeInventory_Item(37,0,0,1)
   ChangeInventory_Item(41,0,0,1)
   ChangeInventory_Item(45,0,0,1)
   0()
  EndIf()
  TeleportPlayer(0,484,14,10,8,0)
  355("gain_medal(1613)")
  ShowMessageFace("",0,0,2,22)
  ShowMessage("\\n<Official>Congratulations on winning the Snake Empress Cup championship! You have achieved a glorious record!")
  RunCommonEvent(159)
  EndEventProcessing()
  0()
 Else()
  ShowMessageFace("",0,0,2,23)
  ShowMessage("\\n<Official>I'm sorry, but that title is currently being prepared. Please come back another time.")
  JumpToLabel("メニュー")
  0()
 EndIf()
 0()
EndIf()
0()
