﻿// EVENT 2124
Name "Seduction: Lucia"

If(0,25,1)
 EndEventProcessing()
 0()
EndIf()
355("$game_troop.lose_event_id = 3124")
ChangeVariable(26,26,0,3,3,1,4)
ChangeVariable(26,26,4,0,10)
ShowMessageFace("lusia_fc1",1,0,2,1)
ShowMessage("\\n<Lucia>If you're showing this much power...\nThen I shall take your semen by any means.")
355("battler_graphic_hide")
PictureDisplay(5,"80_lusia_st04",0,0,0,0,100,100,255,0)
ShowMessageFace("lusia_fc1",3,0,2,2)
ShowMessage("\\n<Lucia>Shall I have this tongue crawl around your penis?\nI will give you the greatest pleasure as I suck your semen...")
ShowMessageFace("",0,0,2,3)
ShowMessage("Lucia's tongue swells suspiciously like a tentacle...")
ChangeSwitch(98,98,0)
ChangeSwitch(96,96,0)
ShowChoices(strings("Ignore her","Give in to temptation"),1)
IfPlayerPicksChoice(0,"Ignore her")
 ShowMessageFace("",0,0,2,4)
 ShowMessage("Luka resists her temptation!")
 RunCommonEvent(1999)
 EndEventProcessing()
 0()
IfPlayerPicksChoice(1,"Give in to temptation")
 0()
404()
ShowMessageFace("lusia_fc1",3,0,2,5)
ShowMessage("\\n<Lucia>You want your semen sucked by me...?\nI did not think you were so pitiful to be unable to overcome your lust...")
ChangeVariable(26,26,3,0,4)
250(bytes(0x04,0x08,0x6f,0x3a,0x0c,0x52,0x50,0x47,0x3a,0x3a,0x53,0x45,0x08,0x3a,0x0a,0x40,0x6e,0x61,0x6d,0x65,0x49,0x22,0x13,0x6d,0x6f,0x6e,0x5f,0x65,0x72,0x6f,0x5f,0x62,0x75,0x63,0x68,0x75,0x33,0x06,0x3a,0x06,0x45,0x54,0x3a,0x0b,0x40,0x70,0x69,0x74,0x63,0x68,0x69,0x69,0x3a,0x0c,0x40,0x76,0x6f,0x6c,0x75,0x6d,0x65,0x69,0x69))
PictureDisplay(5,"ev_lusia_ha1",0,0,0,0,100,100,255,0)
311(0,1,1,1,26,true)
ShowMessageFace("",0,0,2,6)
ShowMessage("Lucia's tongue rolls around Luka's penis!\nHer warm mucosa wraps around as she licks all over it!\\D")
ShowMessage("Luka takes \\V[26] damage!")
ChangeVariable(27,27,0,3,3,1,2)
If(1,27,0,0,0)
 JumpToLabel("射精1")
 0()
EndIf()
ShowMessageFace("lusia_fc1",3,0,2,7)
ShowMessage("\\n<Lucia>Fufu, you're getting weaker.\nI'm absorbing your energy through my tongue's mucosa.")
250(bytes(0x04,0x08,0x6f,0x3a,0x0c,0x52,0x50,0x47,0x3a,0x3a,0x53,0x45,0x08,0x3a,0x0a,0x40,0x6e,0x61,0x6d,0x65,0x49,0x22,0x13,0x6d,0x6f,0x6e,0x5f,0x65,0x72,0x6f,0x5f,0x62,0x75,0x63,0x68,0x75,0x33,0x06,0x3a,0x06,0x45,0x54,0x3a,0x0b,0x40,0x70,0x69,0x74,0x63,0x68,0x69,0x69,0x3a,0x0c,0x40,0x76,0x6f,0x6c,0x75,0x6d,0x65,0x69,0x69))
311(0,1,1,1,26,true)
ShowMessageFace("",0,0,2,8)
ShowMessage("Lucia's tongue winds around Luka's penis!\nA sweet pleasure is given as his energy is absorbed!\\D")
ShowMessage("Luka takes \\V[26] damage!")
ChangeVariable(27,27,0,3,3,1,2)
If(1,27,0,0,0)
 JumpToLabel("射精1")
 0()
EndIf()
ShowMessageFace("lusia_fc1",3,0,2,9)
ShowMessage("\\n<Lucia>Having your semen sucked is the greatest pleasure for a man... There are many who would throw their lives away for a taste of it.")
250(bytes(0x04,0x08,0x6f,0x3a,0x0c,0x52,0x50,0x47,0x3a,0x3a,0x53,0x45,0x08,0x3a,0x0a,0x40,0x6e,0x61,0x6d,0x65,0x49,0x22,0x13,0x6d,0x6f,0x6e,0x5f,0x65,0x72,0x6f,0x5f,0x62,0x75,0x63,0x68,0x75,0x33,0x06,0x3a,0x06,0x45,0x54,0x3a,0x0b,0x40,0x70,0x69,0x74,0x63,0x68,0x69,0x69,0x3a,0x0c,0x40,0x76,0x6f,0x6c,0x75,0x6d,0x65,0x69,0x69))
311(0,1,1,1,26,true)
ShowMessageFace("",0,0,2,10)
ShowMessage("Lucia's tongue meanders, giving incredible pleasure!\nThe mucosa of her tongue undulates as she absorbs Luka's energy, soaking him in ecstasy!\\D")
ShowMessage("Luka takes \\V[26] damage!")
ChangeVariable(27,27,0,3,3,1,2)
If(1,27,0,0,0)
 JumpToLabel("射精1")
 0()
EndIf()
DefineLabel("射精1")
ShowMessageFace("",0,0,2,11)
ShowMessage("\\n<Luka>Fwaaah... So good...")
RunCommonEvent(104)
PictureDisplay(5,"ev_lusia_ha2",0,0,0,0,100,100,255,0)
RunCommonEvent(105)
ShowMessageFace("",0,0,2,12)
ShowMessage("As I taste the melting sensation of Lucia's tongue, I miserably come. Her tongue was stained with my semen.")
ShowMessageFace("lusia_fc1",3,0,2,13)
ShowMessage("\\n<Lucia>To offer up your sperm so readily to this devilish tongue... Men really are such miserable creatures.")
RunCommonEvent(2000)
EndEventProcessing()
0()
