// EVENT 0106
Name "Vanilla's Shop"

If(1,1005,0,4,2)
 Shop(0,441,0,0,false)
 605(0,445,0,0)
 605(0,446,0,0)
 605(0,447,0,0)
 605(0,448,0,0)
 605(0,449,0,0)
 EndEventProcessing()
 0()
EndIf()
If(1,1005,0,5,0)
 Shop(0,441,0,0,false)
 605(0,445,0,0)
 605(0,446,0,0)
 605(0,447,0,0)
 605(0,448,0,0)
 605(0,449,0,0)
 ShowMessageFace("vgirl_fc1",0,0,2,1)
 ShowMessage("\\n<Vanilla>I need to deal in many, many more goods than I have now. I can hardly even call this a shop without herbs in stock.")
 ShowMessageFace("vgirl_fc1",0,0,2,2)
 ShowMessage("\\n<Vanilla>I'll never keep up with demand picking them myself. Hey, can you use your connections to introduce me to a merchant?")
 ShowMessageFace("",0,0,2,3)
 ShowMessage("I guess I could take her to the merchant in the item shop in Iliasville. He seemed dependable enough.")
 ChangeSwitch(2065,2065,0)
 EndEventProcessing()
 0()
EndIf()
If(1,1005,0,6,0)
 Shop(0,1,0,0,false)
 605(0,441,0,0)
 605(0,445,0,0)
 605(0,446,0,0)
 605(0,447,0,0)
 605(0,448,0,0)
 605(0,449,0,0)
 355("gain_medal(1501)")
 ShowMessageFace("vgirl_fc1",0,0,2,4)
 ShowMessage("\\n<Vanilla>Next, I want to deal in curative items.\nAntidote Grass, Full Moon Grass, and Eye Drops are the three essentials...")
 ShowMessageFace("vgirl_fc1",0,0,2,5)
 ShowMessage("\\n<Vanilla>Should I ask the merchant in Iliasville?\nI don't want to rely only on him though...")
 ChangeSwitch(2065,2065,0)
 EndEventProcessing()
 0()
EndIf()
If(1,1005,0,7,0)
 Shop(0,1,0,0,false)
 605(0,13,0,0)
 605(0,14,0,0)
 605(0,17,0,0)
 605(0,441,0,0)
 605(0,445,0,0)
 605(0,446,0,0)
 605(0,447,0,0)
 605(0,448,0,0)
 605(0,449,0,0)
 ShowMessageFace("vgirl_fc1",0,0,2,6)
 ShowMessage("\\n<Vanilla>Good shops need to keep a stock of Phoenix Tails on hand, but their distribution is heavily regulated...")
 ShowMessageFace("vgirl_fc1",0,0,2,7)
 ShowMessage("\\n<Vanilla>I know! I'll get them right from the source! Now where did that Phoenix Girl go...")
 ChangeSwitch(2065,2065,0)
 EndEventProcessing()
 0()
EndIf()
If(1,1005,0,8,0)
 Shop(0,1,0,0,false)
 605(0,11,0,0)
 605(0,13,0,0)
 605(0,14,0,0)
 605(0,17,0,0)
 605(0,441,0,0)
 605(0,445,0,0)
 605(0,446,0,0)
 605(0,447,0,0)
 605(0,448,0,0)
 605(0,449,0,0)
 If(1,1011,0,3,2)
  ShowMessageFace("vgirl_fc1",0,0,2,8)
  ShowMessage("\\n<Vanilla>Now I need to get some Harpy Feathers.\nNegotiating with harpies would be best, but...")
  ShowMessageFace("vgirl_fc1",2,0,2,9)
  ShowMessage("\\n<Vanilla>I heard that the Harpy Village is uninhabited now.\nThat's bad for business...")
  0()
 Else()
  ShowMessageFace("vgirl_fc1",0,0,2,10)
  ShowMessage("\\n<Vanilla>Now I need to get some Harpy Feathers.\nLet's go negotiate with the harpies!")
  ChangeSwitch(2065,2065,0)
  0()
 EndIf()
 EndEventProcessing()
 0()
EndIf()
If(1,1005,0,9,0)
 Shop(0,1,0,0,false)
 605(0,11,0,0)
 605(0,13,0,0)
 605(0,14,0,0)
 605(0,17,0,0)
 605(0,23,0,0)
 605(0,35,0,0)
 605(0,441,0,0)
 605(0,445,0,0)
 605(0,446,0,0)
 605(0,447,0,0)
 605(0,448,0,0)
 605(0,449,0,0)
 ShowMessageFace("vgirl_fc1",0,0,2,11)
 ShowMessage("\\n<Vanilla>Now I need to get Fire Stones, Water Stones, and Thunder Stones.\nThese magical stones used to be mined in Rostrum but...")
 If(1,1014,0,1,2)
  ShowMessageFace("vgirl_fc1",2,0,2,12)
  ShowMessage("\\n<Vanilla>The village of Rostrum has been destroyed.\nThere's nothing I can do about that now.")
  0()
 Else()
  ShowMessageFace("vgirl_fc1",0,0,2,13)
  ShowMessage("\\n<Vanilla>The village of Rostrum has been destroyed.\nBut the Rostrum in the other world is still there...")
  ChangeSwitch(2065,2065,0)
  0()
 EndIf()
 EndEventProcessing()
 0()
EndIf()
If(1,1005,0,10,0)
 Shop(0,1,0,0,false)
 605(0,11,0,0)
 605(0,13,0,0)
 605(0,14,0,0)
 605(0,17,0,0)
 605(0,23,0,0)
 605(0,35,0,0)
 605(0,51,0,0)
 605(0,55,0,0)
 605(0,59,0,0)
 605(0,441,0,0)
 605(0,445,0,0)
 605(0,446,0,0)
 605(0,447,0,0)
 605(0,448,0,0)
 605(0,449,0,0)
 ShowMessageFace("vgirl_fc1",0,0,2,14)
 ShowMessage("\\n<Vanilla>Now I need some Echo Grass and Restoratives.\nOnly a skilled doctor would deal in these kinds of drugs...")
 If(1,1020,0,2,2)
  ShowMessageFace("ruka_fc1",0,0,2,15)
  ShowMessage("\\n<Luka>A skilled doctor... I can't think of any.")
  0()
 Else()
  ShowMessageFace("ruka_fc1",0,0,2,16)
  ShowMessage("\\n<Luka>A skilled doctor...\nMaybe the dark elf in Enrika could help?")
  ChangeSwitch(2065,2065,0)
  0()
 EndIf()
 EndEventProcessing()
 0()
EndIf()
If(1,1005,0,11,0)
 Shop(0,1,0,0,false)
 605(0,11,0,0)
 605(0,13,0,0)
 605(0,14,0,0)
 605(0,15,0,0)
 605(0,16,0,0)
 605(0,17,0,0)
 605(0,23,0,0)
 605(0,35,0,0)
 605(0,51,0,0)
 605(0,55,0,0)
 605(0,59,0,0)
 605(0,441,0,0)
 605(0,445,0,0)
 605(0,446,0,0)
 605(0,447,0,0)
 605(0,448,0,0)
 605(0,449,0,0)
 If(1,1001,0,12,2)
  ShowMessageFace("vgirl_fc1",0,0,2,17)
  ShowMessage("\\n<Vanilla>My business is looking up these days!\nWhat should I add to my inventory next...")
  0()
 Else()
  ShowMessageFace("vgirl_fc1",0,0,2,18)
  ShowMessage("\\n<Vanilla>I know! My new product will be shurikens!\nBut where can I get some...")
  ShowMessageFace("ruka_fc1",0,0,2,19)
  ShowMessage("\\n<Luka>Maybe we should ask someone who sells them.\nI remember seeing them for sale at the item shop in Iliasport.")
  ShowMessageFace("vgirl_fc1",0,0,2,20)
  ShowMessage("\\n<Vanilla>They probably won't reveal their source that easily, but let's go check it out at least!")
  ChangeSwitch(2065,2065,0)
  0()
 EndIf()
 EndEventProcessing()
 0()
EndIf()
If(1,1005,0,12,0)
 Shop(0,1,0,0,false)
 605(0,11,0,0)
 605(0,13,0,0)
 605(0,14,0,0)
 605(0,15,0,0)
 605(0,16,0,0)
 605(0,17,0,0)
 605(0,23,0,0)
 605(0,35,0,0)
 605(0,51,0,0)
 605(0,55,0,0)
 605(0,59,0,0)
 605(0,101,0,0)
 605(0,441,0,0)
 605(0,445,0,0)
 605(0,446,0,0)
 605(0,447,0,0)
 605(0,448,0,0)
 605(0,449,0,0)
 If(1,1001,0,13,2)
  ShowMessageFace("vgirl_fc1",0,0,2,21)
  ShowMessage("\\n<Vanilla>The item shops on the continent of Sentora sell lots of good items.\nI want my shop to rise to their levels!")
  0()
 Else()
  ShowMessageFace("vgirl_fc1",0,0,2,22)
  ShowMessage("\\n<Vanilla>The item shops on the continent of Sentora sell lots of good items.\nThe shelves of items in San Ilia took my breath away!")
  ShowMessageFace("vgirl_fc1",0,0,2,23)
  ShowMessage("\\n<Vanilla>I'd definitely like to ask how I could open up a trade route there!")
  ChangeSwitch(2065,2065,0)
  0()
 EndIf()
 EndEventProcessing()
 0()
EndIf()
If(1,1005,0,13,0)
 Shop(0,1,0,0,false)
 605(0,2,0,0)
 605(0,7,0,0)
 605(0,11,0,0)
 605(0,13,0,0)
 605(0,14,0,0)
 605(0,15,0,0)
 605(0,16,0,0)
 605(0,17,0,0)
 605(0,18,0,0)
 605(0,19,0,0)
 605(0,23,0,0)
 605(0,35,0,0)
 605(0,51,0,0)
 605(0,55,0,0)
 605(0,59,0,0)
 605(0,63,0,0)
 605(0,67,0,0)
 605(0,71,0,0)
 605(0,101,0,0)
 605(0,441,0,0)
 605(0,445,0,0)
 605(0,446,0,0)
 605(0,447,0,0)
 605(0,448,0,0)
 605(0,449,0,0)
 If(0,2122,1)
  ShowMessageFace("vgirl_fc1",0,0,2,24)
  ShowMessage("\\n<Vanilla>Now I can sell all the usual items on the continent, but I'm not stopping there!")
  0()
 Else()
  ShowMessageFace("vgirl_fc1",0,0,2,25)
  ShowMessage("\\n<Vanilla>I saw Fuma Shurikens in the item shop in Sabasa.\nI want to stock them in my shop too!")
  ShowMessageFace("vgirl_fc1",0,0,2,26)
  ShowMessage("\\n<Vanilla>Rather than going to Sabasa, I will speak to my shuriken supplier!")
  ShowMessageFace("ruka_fc1",0,0,2,27)
  ShowMessage("\\n<Luka>Hmm, if I remember right, that was Ryoma on the ground floor of Ilias Temple.")
  ChangeSwitch(2065,2065,0)
  0()
 EndIf()
 EndEventProcessing()
 0()
EndIf()
If(1,1005,0,14,0)
 Shop(0,1,0,0,false)
 605(0,2,0,0)
 605(0,7,0,0)
 605(0,11,0,0)
 605(0,13,0,0)
 605(0,14,0,0)
 605(0,15,0,0)
 605(0,16,0,0)
 605(0,17,0,0)
 605(0,18,0,0)
 605(0,19,0,0)
 605(0,23,0,0)
 605(0,35,0,0)
 605(0,51,0,0)
 605(0,55,0,0)
 605(0,59,0,0)
 605(0,63,0,0)
 605(0,67,0,0)
 605(0,71,0,0)
 605(0,101,0,0)
 605(0,102,0,0)
 605(0,441,0,0)
 605(0,445,0,0)
 605(0,446,0,0)
 605(0,447,0,0)
 605(0,448,0,0)
 605(0,449,0,0)
 If(1,1029,0,1,2)
  ShowMessageFace("vgirl_fc1",0,0,2,28)
  ShowMessage("\\n<Vanilla>Now I can sell all the usual items on the continent, but I'm not stopping there!")
  0()
 Else()
  ShowMessageFace("vgirl_fc1",0,0,2,29)
  ShowMessage("\\n<Vanilla>I saw these Dark Stones in Magistea Village...\nI should take this chance to stock Holy Stones and Dark Stones!")
  ShowMessageFace("vgirl_fc1",0,0,2,30)
  ShowMessage("\\n<Vanilla>Let's go hunt down a supplier in Witch Hunt Village!")
  ChangeSwitch(2065,2065,0)
  0()
 EndIf()
 EndEventProcessing()
 0()
EndIf()
If(1,1005,0,15,0)
 Shop(0,1,0,0,false)
 605(0,2,0,0)
 605(0,7,0,0)
 605(0,11,0,0)
 605(0,13,0,0)
 605(0,14,0,0)
 605(0,15,0,0)
 605(0,16,0,0)
 605(0,17,0,0)
 605(0,18,0,0)
 605(0,19,0,0)
 605(0,23,0,0)
 605(0,35,0,0)
 605(0,51,0,0)
 605(0,55,0,0)
 605(0,59,0,0)
 605(0,63,0,0)
 605(0,67,0,0)
 605(0,71,0,0)
 605(0,75,0,0)
 605(0,79,0,0)
 605(0,101,0,0)
 605(0,102,0,0)
 605(0,440,0,0)
 605(0,441,0,0)
 605(0,445,0,0)
 605(0,446,0,0)
 605(0,447,0,0)
 605(0,448,0,0)
 605(0,449,0,0)
 If(1,1001,0,23,2)
  ShowMessageFace("vgirl_fc1",0,0,2,31)
  ShowMessage("\\n<Vanilla>My shop has become rather impressive now!\nBut I am far from being the queen of merchants!")
  0()
 Else()
  ShowMessageFace("vgirl_fc1",0,0,2,32)
  ShowMessage("\\n<Vanilla>I saw grimoire pages and gold needles at the shop in Grand Noah. I'd like to stock them in my shop!")
  ShowMessageFace("vgirl_fc1",0,0,2,33)
  ShowMessage("\\n<Vanilla>For the gold needles, I recall there was a scorpion girl merchant at the Pyramid's entrance. As for the grimoire pages, I should try negotiating with a book monster!")
  ChangeSwitch(2065,2065,0)
  0()
 EndIf()
 EndEventProcessing()
 0()
EndIf()
If(1,1005,0,16,0)
 Shop(0,1,0,0,false)
 605(0,2,0,0)
 605(0,7,0,0)
 605(0,11,0,0)
 605(0,13,0,0)
 605(0,14,0,0)
 605(0,15,0,0)
 605(0,16,0,0)
 605(0,17,0,0)
 605(0,18,0,0)
 605(0,19,0,0)
 605(0,20,0,0)
 605(0,23,0,0)
 605(0,35,0,0)
 605(0,51,0,0)
 605(0,55,0,0)
 605(0,59,0,0)
 605(0,63,0,0)
 605(0,67,0,0)
 605(0,71,0,0)
 605(0,75,0,0)
 605(0,79,0,0)
 605(0,101,0,0)
 605(0,102,0,0)
 605(0,109,0,0)
 605(0,440,0,0)
 605(0,441,0,0)
 605(0,445,0,0)
 605(0,446,0,0)
 605(0,447,0,0)
 605(0,448,0,0)
 605(0,449,0,0)
 If(1,1061,0,0,0)
  ShowMessageFace("vgirl_fc1",0,0,2,34)
  ShowMessage("\\n<Vanilla>My assortment of goods is now comparable to tool shops in the big cities! But my ambition know no bounds!")
  0()
 Else()
  ShowMessageFace("vgirl_fc1",0,0,2,35)
  ShowMessage("\\n<Vanilla>The mermaid merchant in Plansect Village was selling high-rank magic stones. I'll definitely want to sell magic stones of the three nature elements in my shop.")
  ShowMessageFace("vgirl_fc1",0,0,2,36)
  ShowMessage("\\n<Vanilla>Let's go do some business negotiation in Plansect Village at once!")
  ChangeSwitch(2065,2065,0)
  0()
 EndIf()
 EndEventProcessing()
 0()
EndIf()
If(1,1005,0,17,0)
 Shop(0,1,0,0,false)
 605(0,2,0,0)
 605(0,7,0,0)
 605(0,11,0,0)
 605(0,13,0,0)
 605(0,14,0,0)
 605(0,15,0,0)
 605(0,16,0,0)
 605(0,17,0,0)
 605(0,18,0,0)
 605(0,19,0,0)
 605(0,20,0,0)
 605(0,23,0,0)
 605(0,35,0,0)
 605(0,51,0,0)
 605(0,55,0,0)
 605(0,59,0,0)
 605(0,63,0,0)
 605(0,64,0,0)
 605(0,67,0,0)
 605(0,68,0,0)
 605(0,71,0,0)
 605(0,72,0,0)
 605(0,75,0,0)
 605(0,79,0,0)
 605(0,101,0,0)
 605(0,102,0,0)
 605(0,109,0,0)
 605(0,440,0,0)
 605(0,441,0,0)
 605(0,445,0,0)
 605(0,446,0,0)
 605(0,447,0,0)
 605(0,448,0,0)
 605(0,449,0,0)
 If(1,1001,0,25,2)
  ShowMessageFace("vgirl_fc1",0,0,2,37)
  ShowMessage("\\n<Vanilla>My assortment of goods is first-class!\nI've also started employing my bat familiars to do peddling!")
  0()
 Else()
  ShowMessageFace("vgirl_fc1",0,0,2,38)
  ShowMessage("\\n<Vanilla>As expected, Grangold is the city of magic...\nTheir tool shop was selling high-rank fire, ice, and lightning stones.")
  ShowMessageFace("vgirl_fc1",0,0,2,39)
  ShowMessage("\\n<Vanilla>Let's head to the tool shop in Grangold and begin negotiating!")
  ChangeSwitch(2065,2065,0)
  0()
 EndIf()
 EndEventProcessing()
 0()
EndIf()
If(1,1005,0,18,0)
 Shop(0,1,0,0,false)
 605(0,2,0,0)
 605(0,7,0,0)
 605(0,11,0,0)
 605(0,13,0,0)
 605(0,14,0,0)
 605(0,15,0,0)
 605(0,16,0,0)
 605(0,17,0,0)
 605(0,18,0,0)
 605(0,19,0,0)
 605(0,20,0,0)
 605(0,23,0,0)
 605(0,35,0,0)
 605(0,51,0,0)
 605(0,52,0,0)
 605(0,55,0,0)
 605(0,56,0,0)
 605(0,59,0,0)
 605(0,60,0,0)
 605(0,63,0,0)
 605(0,64,0,0)
 605(0,67,0,0)
 605(0,68,0,0)
 605(0,71,0,0)
 605(0,72,0,0)
 605(0,75,0,0)
 605(0,79,0,0)
 605(0,101,0,0)
 605(0,102,0,0)
 605(0,109,0,0)
 605(0,440,0,0)
 605(0,441,0,0)
 605(0,445,0,0)
 605(0,446,0,0)
 605(0,447,0,0)
 605(0,448,0,0)
 605(0,449,0,0)
 If(1,1065,0,2,2)
  ShowMessageFace("vgirl_fc1",0,0,2,40)
  ShowMessage("\\n<Vanilla>My assortment of goods rivals the large shops of the magic nation! I'm also peddling in various places, so business is going extremely well!")
  0()
 Else()
  ShowMessageFace("vgirl_fc1",0,0,2,41)
  ShowMessage("\\n<Vanilla>I saw de-love potions being sold at the tool shop in Succubus Village. I'd like to provide them in my shop.")
  ShowMessageFace("vgirl_fc1",0,0,2,42)
  ShowMessage("\\n<Vanilla>The de-love potions are undoubtedly a specialty product of Succubus Village. I'll have to go negotiate with them to procure some for my shop!")
  ChangeSwitch(2065,2065,0)
  0()
 EndIf()
 EndEventProcessing()
 0()
EndIf()
If(1,1005,0,19,0)
 Shop(0,1,0,0,false)
 605(0,2,0,0)
 605(0,7,0,0)
 605(0,11,0,0)
 605(0,13,0,0)
 605(0,14,0,0)
 605(0,15,0,0)
 605(0,16,0,0)
 605(0,17,0,0)
 605(0,18,0,0)
 605(0,19,0,0)
 605(0,20,0,0)
 605(0,21,0,0)
 605(0,23,0,0)
 605(0,35,0,0)
 605(0,51,0,0)
 605(0,52,0,0)
 605(0,55,0,0)
 605(0,56,0,0)
 605(0,59,0,0)
 605(0,60,0,0)
 605(0,63,0,0)
 605(0,64,0,0)
 605(0,67,0,0)
 605(0,68,0,0)
 605(0,71,0,0)
 605(0,72,0,0)
 605(0,75,0,0)
 605(0,79,0,0)
 605(0,101,0,0)
 605(0,102,0,0)
 605(0,109,0,0)
 605(0,319,0,0)
 605(0,440,0,0)
 605(0,441,0,0)
 605(0,445,0,0)
 605(0,446,0,0)
 605(0,447,0,0)
 605(0,448,0,0)
 605(0,449,0,0)
 If(1,1081,0,3,2)
  ShowMessageFace("vgirl_fc1",0,0,2,43)
  ShowMessage("\\n<Vanilla>My peddler familiars are also doing fine.\nMy Vanilla's Shop trading company doesn't know the meaning of staying in one place!")
  0()
 Else()
  ShowMessageFace("vgirl_fc1",0,0,2,44)
  ShowMessage("\\n<Vanilla>A merchant sent from the elf village was dealing in high-rank holy and dark magic stones. Naturally, I'd like to stock them in my shop too.")
  ShowMessageFace("vgirl_fc1",0,0,2,45)
  ShowMessage("\\n<Vanilla>Come on, let's go to where the merchants are in Yamatai Village! We'll bring those stones into my shop!")
  ChangeSwitch(2065,2065,0)
  0()
 EndIf()
 EndEventProcessing()
 0()
EndIf()
If(1,1005,0,20,0)
 Shop(0,1,0,0,false)
 605(0,2,0,0)
 605(0,7,0,0)
 605(0,11,0,0)
 605(0,13,0,0)
 605(0,14,0,0)
 605(0,15,0,0)
 605(0,16,0,0)
 605(0,17,0,0)
 605(0,18,0,0)
 605(0,19,0,0)
 605(0,20,0,0)
 605(0,21,0,0)
 605(0,23,0,0)
 605(0,35,0,0)
 605(0,51,0,0)
 605(0,52,0,0)
 605(0,55,0,0)
 605(0,56,0,0)
 605(0,59,0,0)
 605(0,60,0,0)
 605(0,63,0,0)
 605(0,64,0,0)
 605(0,67,0,0)
 605(0,68,0,0)
 605(0,71,0,0)
 605(0,72,0,0)
 605(0,75,0,0)
 605(0,76,0,0)
 605(0,79,0,0)
 605(0,80,0,0)
 605(0,101,0,0)
 605(0,102,0,0)
 605(0,109,0,0)
 605(0,319,0,0)
 605(0,440,0,0)
 605(0,441,0,0)
 605(0,445,0,0)
 605(0,446,0,0)
 605(0,447,0,0)
 605(0,448,0,0)
 605(0,449,0,0)
 If(1,1076,0,3,2)
  ShowMessageFace("vgirl_fc1",0,0,2,46)
  ShowMessage("\\n<Vanilla>My shop is growing bigger and bigger...\nBut overconfidence is taboo, as it's times like these when there are unexpected pitfalls.")
  0()
 Else()
  ShowMessageFace("vgirl_fc1",0,0,2,47)
  ShowMessage("\\n<Vanilla>I could hardly believe my eyes at Snow Heaven's tool shop. They were selling miracle drugs as a general product.")
  ShowMessageFace("vgirl_fc1",0,0,2,48)
  ShowMessage("\\n<Vanilla>Miracle drugs aren't distributed anywhere in the outside world... If I can stock in my shop, it will be earth-shaking to the mercantile industry!")
  ShowMessageFace("vgirl_fc1",0,0,2,49)
  ShowMessage("\\n<Vanilla>Let's head to Snow Heaven at once!\nI'll give it everything I've got for this negotiation!")
  ChangeSwitch(2065,2065,0)
  0()
 EndIf()
 EndEventProcessing()
 0()
EndIf()
If(1,1005,0,21,0)
 Shop(0,1,0,0,false)
 605(0,2,0,0)
 605(0,4,0,0)
 605(0,7,0,0)
 605(0,11,0,0)
 605(0,13,0,0)
 605(0,14,0,0)
 605(0,15,0,0)
 605(0,16,0,0)
 605(0,17,0,0)
 605(0,18,0,0)
 605(0,19,0,0)
 605(0,20,0,0)
 605(0,21,0,0)
 605(0,23,0,0)
 605(0,35,0,0)
 605(0,51,0,0)
 605(0,52,0,0)
 605(0,55,0,0)
 605(0,56,0,0)
 605(0,59,0,0)
 605(0,60,0,0)
 605(0,63,0,0)
 605(0,64,0,0)
 605(0,67,0,0)
 605(0,68,0,0)
 605(0,71,0,0)
 605(0,72,0,0)
 605(0,75,0,0)
 605(0,76,0,0)
 605(0,79,0,0)
 605(0,80,0,0)
 605(0,101,0,0)
 605(0,102,0,0)
 605(0,109,0,0)
 605(0,319,0,0)
 605(0,440,0,0)
 605(0,441,0,0)
 605(0,445,0,0)
 605(0,446,0,0)
 605(0,447,0,0)
 605(0,448,0,0)
 605(0,449,0,0)
 If(2,"A",1)
  ChangeSelfSwitch("A",0)
  355("gain_medal(1504)")
  ShowMessageFace("vgirl_fc1",0,0,2,50)
  ShowMessage("\\n<Vanilla>I've been making a lot of money from my shop.\nI'd like to return that money to the party soon...")
  ShowMessageFace("ruka_fc1",0,0,2,51)
  ShowMessage("\\n<Luka>I can't accept that money...\nVanilla, you earned that money through your own wit and hard work.")
  ShowMessageFace("vgirl_fc1",0,0,2,52)
  ShowMessage("\\n<Vanilla>But my shop has come this far because of everyone's help. I have to repay you somehow...")
  If(0,4,0)
   ShowMessageFace("alice_fc5",1,0,2,53)
   ShowMessage("\\n<Alice>If you want to return the favor, become the world's best merchant. Isn't there still a long way to go...?")
   0()
  EndIf()
  If(0,5,0)
   ShowMessageFace("iriasu_fc4",0,0,2,54)
   ShowMessage("\\n<Ilias>If you want to return the favor, become the world's best merchant. It's still a long way to the top...")
   0()
  EndIf()
  ShowMessageFace("vgirl_fc1",0,0,2,55)
  ShowMessage("\\n<Vanilla>I've realized that!\nI shall make Vanilla's Shop into a multinational company!")
  0()
 Else()
  ShowMessageFace("vgirl_fc1",0,0,2,56)
  ShowMessage("\\n<Vanilla>I shall make Vanilla's Shop into a multinational company! I'll do my best for everyone who has helped!")
  0()
 EndIf()
 EndEventProcessing()
 0()
EndIf()
0()
