// EVENT 2015
Name "Seduction: Phoenix Girl"

If(0,25,1)
 EndEventProcessing()
 0()
EndIf()
355("$game_troop.lose_event_id = 3015")
ChangeVariable(26,26,0,3,3,1,4)
ChangeVariable(26,26,4,0,10)
ShowMessageFace("phoenix_fc1",3,0,2,1)
ShowMessage("\\n<Phoenix Girl>I'm gonna lose at this rate...\nI heard a human rule that says the loser gets in trouble.")
ShowMessageFace("phoenix_fc1",3,0,2,2)
ShowMessage("\\n<Phoenix Girl>To be killed or raped...\nBeing killed is a no-go, but being raped is certainly better.")
ShowMessageFace("",0,0,2,3)
ShowMessage("It seems the Phoenix Girl got defenseless...")
ShowMessage("Rape the Phoenix Girl?")
ChangeSwitch(98,98,0)
ChangeSwitch(96,96,0)
ShowChoices(strings("Ignore her","Rape"),1)
IfPlayerPicksChoice(0,"Ignore her")
 ShowMessageFace("",0,0,2,4)
 ShowMessage("Luka resists her temptation!")
 RunCommonEvent(1999)
 EndEventProcessing()
 0()
IfPlayerPicksChoice(1,"犯す")
 JumpToLabel("挿入")
 0()
404()
DefineLabel("挿入")
ChangeVariable(26,26,3,0,11)
250(bytes(0x04,0x08,0x6f,0x3a,0x0c,0x52,0x50,0x47,0x3a,0x3a,0x53,0x45,0x08,0x3a,0x0a,0x40,0x6e,0x61,0x6d,0x65,0x49,0x22,0x11,0x6d,0x6f,0x6e,0x5f,0x65,0x72,0x6f,0x5f,0x70,0x79,0x75,0x31,0x06,0x3a,0x06,0x45,0x54,0x3a,0x0b,0x40,0x70,0x69,0x74,0x63,0x68,0x69,0x69,0x3a,0x0c,0x40,0x76,0x6f,0x6c,0x75,0x6d,0x65,0x69,0x69))
311(0,1,1,1,26,true)
ShowMessageFace("",0,0,2,5)
ShowMessage("Luka put his penis into the Phoenix Girl's vagina!")
ShowMessage("A melting feeling assaults Luka's penis!\\D")
ShowMessage("Luka takes \\V[26] damage!")
ChangeVariable(27,27,0,3,3,1,2)
ShowMessageFace("",0,0,2,6)
ShowMessage("\\n<Luka>I-inside...\nIt's amazingly hot...")
ShowMessageFace("",0,0,2,7)
ShowMessage("\\n<Luka>Th-that's so... fwaaaah...")
ShowMessageFace("",0,0,2,8)
ShowMessage("With his penis wrapped by a hot vagina, Luka can't suppress the urge to ejaculate.")
RunCommonEvent(104)
RunCommonEvent(105)
ShowMessageFace("",0,0,2,9)
ShowMessage("A moment after he put it in, he came because of too much pleasure...")
ShowMessageFace("phoenix_fc1",3,0,2,10)
ShowMessage("\\n<Phoenix Girl>...Huh? Did you come already?\nIs it over just like this?")
RunCommonEvent(2000)
EndEventProcessing()
0()
