﻿// EVENT 5783
Name "Rミュスカ4"

If(0,443,0)
 205(-1,bytes(0x04,0x08,0x6f,0x3a,0x13,0x52,0x50,0x47,0x3a,0x3a,0x4d,0x6f,0x76,0x65,0x52,0x6f,0x75,0x74,0x65,0x09,0x3a,0x0c,0x40,0x72,0x65,0x70,0x65,0x61,0x74,0x46,0x3a,0x0f,0x40,0x73,0x6b,0x69,0x70,0x70,0x61,0x62,0x6c,0x65,0x46,0x3a,0x0a,0x40,0x77,0x61,0x69,0x74,0x54,0x3a,0x0a,0x40,0x6c,0x69,0x73,0x74,0x5b,0x07,0x6f,0x3a,0x15,0x52,0x50,0x47,0x3a,0x3a,0x4d,0x6f,0x76,0x65,0x43,0x6f,0x6d,0x6d,0x61,0x6e,0x64,0x07,0x3a,0x0a,0x40,0x63,0x6f,0x64,0x65,0x69,0x16,0x3a,0x10,0x40,0x70,0x61,0x72,0x61,0x6d,0x65,0x74,0x65,0x72,0x73,0x5b,0x00,0x6f,0x3b,0x0a,0x07,0x3b,0x0b,0x69,0x00,0x3b,0x0c,0x5b,0x00))
 ChangeSwitch(35,35,0)
 222()
 0()
EndIf()
241(bytes(0x04,0x08,0x6f,0x3a,0x0d,0x52,0x50,0x47,0x3a,0x3a,0x42,0x47,0x4d,0x08,0x3a,0x0a,0x40,0x6e,0x61,0x6d,0x65,0x49,0x22,0x09,0x65,0x72,0x6f,0x31,0x06,0x3a,0x06,0x45,0x54,0x3a,0x0c,0x40,0x76,0x6f,0x6c,0x75,0x6d,0x65,0x69,0x69,0x3a,0x0b,0x40,0x70,0x69,0x74,0x63,0x68,0x69,0x69))
ShowMessageFace("",0,0,2,1)
ShowMessage("【ルカ】")
ShowMessage("あぁ、そんな……")
ShowMessageFace("myuska_fc1",5,0,2,2)
ShowMessage("【ミュスカ】")
ShowMessage("次は、キミの番だよ♡")
ShowMessage("美味しく食べてあげるね……♡")
ShowMessageFace("",0,0,2,3)
ShowMessage("ミュスカは、僕の顔に唇を近付けてくる。")
ShowMessage("このキスを受ければ、命はない――")
ShowMessageFace("",0,0,2,4)
ShowMessage("それが分かっていながら、僕は動けなかった。")
ShowMessage("魅入られたように身を竦め、餌食になるのを待つのみ――")
ShowMessageFace("",0,0,2,5)
ShowMessage("【ルカ】")
ShowMessage("あぁぁぁ……")
ShowMessageFace("",0,0,2,6)
ShowMessage("艶やかな唇が、間近まで近付く――")
ShowMessage("このまま、ミュスカに食べられてしまう――")
245(bytes(0x04,0x08,0x6f,0x3a,0x0d,0x52,0x50,0x47,0x3a,0x3a,0x42,0x47,0x53,0x08,0x3a,0x0a,0x40,0x6e,0x61,0x6d,0x65,0x49,0x22,0x10,0x6d,0x6f,0x6e,0x5f,0x68,0x76,0x6f,0x69,0x63,0x65,0x31,0x06,0x3a,0x06,0x45,0x54,0x3a,0x0c,0x40,0x76,0x6f,0x6c,0x75,0x6d,0x65,0x69,0x55,0x3a,0x0b,0x40,0x70,0x69,0x74,0x63,0x68,0x69,0x69))
ChangeSwitch(36,36,0)
211(0)
ShowMessageFace("myuska_fc1",6,0,2,7)
ShowMessage("【ミュスカ】")
ShowMessage("ん……ちゅ……")
ShowMessageFace("",0,0,2,8)
ShowMessage("ついに、唇が重ねられ――")
ShowMessage("その瞬間、僕は快感の電流に貫かれた。")
ChangeSwitch(37,37,0)
ShowMessageFace("",0,0,2,9)
ShowMessage("【ルカ】")
ShowMessage("うぁ……あ、あぅぅぅ～～！！")
ShowMessageFace("",0,0,2,10)
ShowMessage("甘く柔らかなキス――")
ShowMessage("そして、全身に回る猛毒のような快楽。")
ShowMessageFace("",0,0,2,11)
ShowMessage("僕はミュスカとキスを交わしたまま、")
ShowMessage("全身をガクガクと震わせてしまった。")
ShowMessageFace("myuska_fc1",6,0,2,12)
ShowMessage("【ミュスカ】")
ShowMessage("一気に吸っちゃうよ……♡")
ShowMessage("ちゅぅぅぅっ……♡")
ShowMessageFace("",0,0,2,13)
ShowMessage("【ルカ】")
ShowMessage("ひぁぁぁぁぁ～～！！")
ShowMessageFace("",0,0,2,14)
ShowMessage("狂おしい快感に、僕の体ががくがくと跳ね上がる。")
ShowMessage("下着の中で、ペニスがびくびくと脈動し――")
RunCommonEvent(104)
RunCommonEvent(105)
ShowMessageFace("",0,0,2,15)
ShowMessage("そのまま、ドクドクと射精してしまった。")
ShowMessage("肉棒は何度も何度も脈打ち、屈服の証を吐き出していく。")
ShowMessageFace("myuska_fc1",6,0,2,16)
ShowMessage("【ミュスカ】")
ShowMessage("あはっ、もうイっちゃった？")
ShowMessage("勇者なのにキスだけでイっちゃうんだぁ……♡")
ShowMessageFace("",0,0,2,17)
ShowMessage("僕の唇を奪ったまま、ミュスカはくすくす笑った。")
ShowMessage("その吐息の甘さも脳を侵蝕し、魂まで犯し尽くす。")
ShowMessageFace("myuska_fc1",6,0,2,18)
ShowMessage("【ミュスカ】")
ShowMessage("別に、気にしなくていいよぉ。")
ShowMessage("あたしのキスで、みんな下着汚しちゃうし……")
ShowMessageFace("myuska_fc1",6,0,2,19)
ShowMessage("【ミュスカ】")
ShowMessage("それに、どうせキミ、今から死ぬんだから。")
ShowMessage("パンツ汚れたって、関係ないよねぇ……♡")
ShowMessageFace("",0,0,2,20)
ShowMessage("【ルカ】")
ShowMessage("あぅぅぅぅ――！！")
RunCommonEvent(104)
RunCommonEvent(105)
ShowMessageFace("",0,0,2,21)
ShowMessage("視界が明滅するほどの快感に、僕は身悶えた。")
ShowMessage("ペニスは脈動を繰り返し、ドクドクと精を吐き出し続ける。")
ShowMessageFace("",0,0,2,22)
ShowMessage("キスを通じての無慈悲な吸精で、みるみる体が衰弱し――")
ShowMessage("力が失われ、意識が薄れていき――")
246(2)
ChangeSwitch(38,38,0)
ShowMessageFace("",0,0,2,23)
ShowMessage("【ルカ】")
ShowMessage("……………………")
ShowMessageFace("",0,0,2,24)
ShowMessage("そのまま、あっという間に干涸らびてしまった。")
ShowMessage("ミュスカのキスで、根こそぎ精を吸い尽くされたのだ――")
ShowMessageFace("myuska_fc1",6,0,2,25)
ShowMessage("【ミュスカ】")
ShowMessage("あはっ、とっても美味しかったよ。")
ShowMessage("ごちそうさまぁ……♡")
221()
246(2)
PictureClear(5)
PictureClear(6)
ShowMessageFace("",0,0,2,26)
ShowMessage("・・・・・・・・")
221()
242(1)
Wait(120)
If(0,443,0)
 EndEventProcessing()
 0()
EndIf()
RunCommonEvent(541)
0()
