﻿// EVENT 0041
Name "Skill: Play 11-20"

ChangeVariable(11,11,0,2,1,5)
If(1,100,0,12,0)
 If(1,11,0,1,0)
  ShowMessageFace("sylph_fc1",7,0,2,1)
  ShowMessage("\\n<Sylph>Chi Pa Pa! Chi Pa Pa!\nThe flower on my head goes Chi Pa Pa!")
  ShowMessageFace("",0,0,2,2)
  ShowMessage("Sylph is singing...")
  EndEventProcessing()
  0()
 EndIf()
 If(1,11,0,2,0)
  ShowMessageFace("sylph_fc1",7,0,2,3)
  ShowMessage("\\n<Sylph>Chi Pa Pa! Chi Pa Pa!\nEveryone together now, Chi Pa Pa!")
  ShowMessageFace("",0,0,2,4)
  ShowMessage("Sylph calls companions.")
  ChangeInventory_Item(450,0,0,3)
  ShowMessageFace("",0,0,2,5)
  ShowMessage("You obtain 3 \\ii[450]!")
  EndEventProcessing()
  0()
 EndIf()
 If(1,11,0,3,0)
  ShowMessageFace("sylph_fc1",4,0,2,6)
  ShowMessage("\\n<Sylph>Achoo!")
  ShowMessageFace("",0,0,2,7)
  ShowMessage("Sylph sneezes...")
  355("interrupt_skill(3038)")
  EndEventProcessing()
  0()
 EndIf()
 If(1,11,0,4,0)
  ShowMessageFace("sylph_fc2",0,0,2,8)
  ShowMessage("\\n<Sylph>I'm going to go play with Mandy!")
  ShowMessageFace("",0,0,2,9)
  ShowMessage("Sylph left to go play.")
  ShowMessageFace("sylph_fc2",4,0,2,10)
  ShowMessage("\\n<Sylph>I'm back...")
  ShowMessageFace("",0,0,2,11)
  ShowMessage("She comes back looking crispy!")
  EndEventProcessing()
  0()
 EndIf()
 If(1,11,0,5,0)
  ShowMessageFace("sylph_fc2",2,0,2,12)
  ShowMessage("\\n<Sylph>Blub, blub, blub...")
  ShowMessageFace("",0,0,2,13)
  ShowMessage("Sylph is playing in the water.")
  EndEventProcessing()
  0()
 EndIf()
 0()
EndIf()
If(1,100,0,13,0)
 If(1,11,0,1,0)
  ShowMessageFace("gnome_fc1",1,0,2,14)
  ShowMessage("\\n<Gnome>............")
  313(0,13,0,11)
  ShowMessageFace("",0,0,2,15)
  ShowMessage("Gnome nods off to sleep!")
  EndEventProcessing()
  0()
 EndIf()
 If(1,11,0,2,0)
  ShowMessageFace("gnome_fc1",1,0,2,16)
  ShowMessage("\\n<Gnome>............")
  ShowMessageFace("",0,0,2,17)
  ShowMessage("Gnome keeps slapping at the air with her hand!")
  EndEventProcessing()
  0()
 EndIf()
 If(1,11,0,3,0)
  ShowMessageFace("gnome_fc1",1,0,2,18)
  ShowMessage("\\n<Gnome>............")
  ShowMessageFace("",0,0,2,19)
  ShowMessage("Gnome dances together with her mud dolls!")
  ShowMessage("But nothing happens.")
  EndEventProcessing()
  0()
 EndIf()
 If(1,11,0,4,0)
  ShowMessageFace("gnome_fc1",1,0,2,20)
  ShowMessage("\\n<Gnome>............")
  355("interrupt_skill(3297)")
  EndEventProcessing()
  0()
 EndIf()
 If(1,11,0,5,0)
  ShowMessageFace("gnome_fc1",1,0,2,21)
  ShowMessage("\\n<Gnome>............")
  355("interrupt_skill(3298)")
  EndEventProcessing()
  0()
 EndIf()
 0()
EndIf()
If(1,100,0,14,0)
 If(1,11,0,1,0)
  ShowMessageFace("undine_fc1",2,0,2,22)
  ShowMessage("\\n<Undine>............")
  ShowMessageFace("",0,0,2,23)
  ShowMessage("Undine is quietly meditating...")
  EndEventProcessing()
  0()
 EndIf()
 If(1,11,0,2,0)
  ShowMessageFace("undine_fc1",0,0,2,24)
  ShowMessage("\\n<Undine>............")
  ShowMessageFace("",0,0,2,25)
  ShowMessage("Undine makes a sidelong glance...\nHowever, it appeared to be more like a glare!")
  EndEventProcessing()
  0()
 EndIf()
 If(1,11,0,3,0)
  ShowMessageFace("undine_fc1",1,0,2,26)
  ShowMessage("\\n<Undine>Shall I dance a little...♪")
  ShowMessageFace("",0,0,2,27)
  ShowMessage("Undine danced the dance of water!\nBut nothing happened...")
  EndEventProcessing()
  0()
 EndIf()
 If(1,11,0,4,0)
  ShowMessageFace("undine_fc1",0,0,2,28)
  ShowMessage("\\n<Undine>If I condense my power, I can create a magic stone...")
  ShowMessageFace("",0,0,2,29)
  ShowMessage("Undine presents a gift!")
  250(bytes(0x04,0x08,0x6f,0x3a,0x0c,0x52,0x50,0x47,0x3a,0x3a,0x53,0x45,0x08,0x3a,0x0a,0x40,0x6e,0x61,0x6d,0x65,0x49,0x22,0x0a,0x49,0x74,0x65,0x6d,0x31,0x06,0x3a,0x06,0x45,0x54,0x3a,0x0b,0x40,0x70,0x69,0x74,0x63,0x68,0x69,0x69,0x3a,0x0c,0x40,0x76,0x6f,0x6c,0x75,0x6d,0x65,0x69,0x55))
  ChangeInventory_Item(72,0,0,1)
  ShowMessageFace("",0,0,2,30)
  ShowMessage("You obtain a \\ii[72]!")
  EndEventProcessing()
  0()
 EndIf()
 If(1,11,0,5,0)
  ShowMessageFace("undine_fc1",0,0,2,31)
  ShowMessage("\\n<Undine>I'll multiply a little...")
  355("interrupt_skill(2670)")
  EndEventProcessing()
  0()
 EndIf()
 0()
EndIf()
If(1,100,0,15,0)
 If(1,11,0,1,0)
  ShowMessageFace("salamander_fc1",2,0,2,32)
  ShowMessage("\\n<Salamander>Youngsters these days are utterly pathetic...")
  ShowMessageFace("",0,0,2,33)
  ShowMessage("Salamander began preaching!\n...But nobody was listening.")
  EndEventProcessing()
  0()
 EndIf()
 If(1,11,0,2,0)
  ShowMessageFace("salamander_fc1",0,0,2,34)
  ShowMessage("\\n<Salamander>*stare*...")
  ShowMessageFace("",0,0,2,35)
  ShowMessage("Salamander makes a sidelong glance...\nHowever, it appeared to be more like a glare!")
  EndEventProcessing()
  0()
 EndIf()
 If(1,11,0,3,0)
  ShowMessageFace("salamander_fc1",2,0,2,36)
  ShowMessage("\\n<Salamander>Fua... Aachoo!")
  355("interrupt_skill(3069)")
  EndEventProcessing()
  0()
 EndIf()
 If(1,11,0,4,0)
  ShowMessageFace("salamander_fc1",1,0,2,37)
  ShowMessage("\\n<Salamander>Yeah, let's get fired up!")
  355("interrupt_skill(3294)")
  EndEventProcessing()
  0()
 EndIf()
 If(1,11,0,5,0)
  ShowMessageFace("salamander_fc1",0,0,2,38)
  ShowMessage("\\n<Salamander>If it's not a problem, would you like to set off some fireworks?")
  ShowMessageFace("",0,0,2,39)
  ShowMessage("Salamander's fire lit some fireworks!")
  355("interrupt_skill(3306)")
  EndEventProcessing()
  0()
 EndIf()
 0()
EndIf()
If(1,100,0,19,0)
 If(1,11,0,1,0)
  ShowMessageFace("arumaeruma_fc2",0,0,2,40)
  ShowMessage("\\n<Alma Elma>Let's have some fun...♪")
  ShowMessageFace("",0,0,2,41)
  ShowMessage("Alma Elma is singing cheerfully and dancing...")
  EndEventProcessing()
  0()
 EndIf()
 If(1,11,0,2,0)
  ShowMessageFace("arumaeruma_fc2",6,0,2,42)
  ShowMessage("\\n<Alma Elma>Ufufu...♪")
  355("interrupt_skill(3296)")
  EndEventProcessing()
  0()
 EndIf()
 If(1,11,0,3,0)
  ShowMessageFace("arumaeruma_fc2",5,0,2,43)
  ShowMessage("\\n<Alma Elma>Haa!")
  355("interrupt_skill(3294)")
  EndEventProcessing()
  0()
 EndIf()
 If(1,11,0,4,0)
  ShowMessageFace("arumaeruma_fc2",0,0,2,44)
  ShowMessage("\\n<Alma Elma>Hustle♪ Hustle♪")
  355("interrupt_skill(2047)")
  EndEventProcessing()
  0()
 EndIf()
 If(1,11,0,5,0)
  ShowMessageFace("arumaeruma_fc2",6,0,2,45)
  ShowMessage("\\n<Alma Elma>Sexy Typhoon...♪")
  355("interrupt_skill(3150)")
  EndEventProcessing()
  0()
 EndIf()
 0()
EndIf()
0()
