﻿// EVENT 5812
Name "R小鬼"

If(0,443,0)
 PictureDisplay(5,"80_kooni_st01",0,0,0,0,100,100,255,0)
 0()
EndIf()
242(1)
250(bytes(0x04,0x08,0x6f,0x3a,0x0c,0x52,0x50,0x47,0x3a,0x3a,0x53,0x45,0x08,0x3a,0x0a,0x40,0x6e,0x61,0x6d,0x65,0x49,0x22,0x0a,0x7a,0x69,0x68,0x6f,0x75,0x06,0x3a,0x06,0x45,0x54,0x3a,0x0b,0x40,0x70,0x69,0x74,0x63,0x68,0x69,0x69,0x3a,0x0c,0x40,0x76,0x6f,0x6c,0x75,0x6d,0x65,0x69,0x55))
Wait(60)
ShowMessageFace("",0,0,2,1)
ShowMessage("その時――城内に、五時の鐘が鳴り響いた。")
241(bytes(0x04,0x08,0x6f,0x3a,0x0d,0x52,0x50,0x47,0x3a,0x3a,0x42,0x47,0x4d,0x08,0x3a,0x0a,0x40,0x6e,0x61,0x6d,0x65,0x49,0x22,0x09,0x65,0x72,0x6f,0x31,0x06,0x3a,0x06,0x45,0x54,0x3a,0x0c,0x40,0x76,0x6f,0x6c,0x75,0x6d,0x65,0x69,0x69,0x3a,0x0b,0x40,0x70,0x69,0x74,0x63,0x68,0x69,0x69))
ShowMessageFace("kooni_fc1",1,0,2,2)
ShowMessage("【雫】")
ShowMessage("おなかいっぱいになったところで……")
ShowMessage("少し、運動しようかな！")
ShowMessageFace("",0,0,2,3)
ShowMessage("【ルカ】")
ShowMessage("えっ……！？　食後に運動！？")
ShowMessageFace("kooni_fc1",1,0,2,4)
ShowMessage("【雫】")
ShowMessage("運動着に着替えて……っと。")
ShowMessage("ルカ、一緒に運動しようよ♪")
ShowMessageFace("",0,0,2,5)
ShowMessage("【ルカ】")
ShowMessage("それは、水着じゃないか――うわぁっ！！")
PictureDisplay(5,"ev_kooni_hb1",0,0,0,0,100,100,255,0)
ShowMessageFace("",0,0,2,6)
ShowMessage("あぶない水着を着た雫が、僕を力強く押し倒してきた。")
ShowMessage("そのまま、馬乗りにされてしまう――")
ShowMessageFace("kooni_fc1",0,0,2,7)
ShowMessage("【雫】")
ShowMessage("こうやって、おちんちんを下敷きにして……")
ShowMessage("えい、えい、え～い♪")
ShowMessageFace("",0,0,2,8)
ShowMessage("【ルカ】")
ShowMessage("あ……あぁぁぁぁっ！！")
245(bytes(0x04,0x08,0x6f,0x3a,0x0d,0x52,0x50,0x47,0x3a,0x3a,0x42,0x47,0x53,0x08,0x3a,0x0a,0x40,0x6e,0x61,0x6d,0x65,0x49,0x22,0x17,0x6d,0x6f,0x6e,0x5f,0x68,0x73,0x65,0x61,0x6e,0x31,0x37,0x5f,0x73,0x69,0x67,0x6f,0x6b,0x69,0x06,0x3a,0x06,0x45,0x54,0x3a,0x0c,0x40,0x76,0x6f,0x6c,0x75,0x6d,0x65,0x69,0x55,0x3a,0x0b,0x40,0x70,0x69,0x74,0x63,0x68,0x69,0x69))
ShowMessageFace("",0,0,2,9)
ShowMessage("雫は僕のモノを股下に敷いたまま、腰をぐりぐりと動かした。")
ShowMessage("激しい素股で責めたてられ、僕は体をがくがくと震わせてしまう。")
ShowMessageFace("",0,0,2,10)
ShowMessage("【ルカ】")
ShowMessage("やめてぇ、こんなぁ……あぁぁぁっ！！")
ShowMessageFace("kooni_fc1",0,0,2,11)
ShowMessage("【雫】")
ShowMessage("暴れちゃダメだよ～！")
ShowMessageFace("",0,0,2,12)
ShowMessage("雫は、僕の両手首をぐいっと掴み――")
ShowMessage("跳ね上がる体を、強引に押さえ込んできた。")
ShowMessageFace("",0,0,2,13)
ShowMessage("【ルカ】")
ShowMessage("はぅっ……あ、あぁぁっ……！！")
ShowMessageFace("",0,0,2,14)
ShowMessage("そのまま、激しく腰を動かされ――")
ShowMessage("みるみるうちに、放出感が湧き上がり――")
ShowMessageFace("",0,0,2,15)
ShowMessage("【ルカ】")
ShowMessage("出ちゃうよぉ……あ、あぁぁっ！！")
RunCommonEvent(104)
RunCommonEvent(105)
ShowMessageFace("",0,0,2,16)
ShowMessage("雫の股下で、ペニスがびくびくと脈打ち――")
ShowMessage("そして、白い体液をドクドクと吐き出していた。")
ShowMessageFace("kooni_fc1",0,0,2,17)
ShowMessage("【雫】")
ShowMessage("あはっ、イっちゃったね～♪")
ShowMessage("あたしの腰遣い、気持ち良かった？")
ShowMessageFace("",0,0,2,18)
ShowMessage("【ルカ】")
ShowMessage("はぅぅぅ……")
ShowMessageFace("kooni_fc1",0,0,2,19)
ShowMessage("【雫】")
ShowMessage("でも、まだまだ運動し足りないから……")
ShowMessage("腰の運動、続けるよ～♪")
ShowMessageFace("",0,0,2,20)
ShowMessage("【ルカ】")
ShowMessage("そんなぁ……あ、あぁぁぁっ！！")
ShowMessageFace("",0,0,2,21)
ShowMessage("そのまま僕は、雫に素股で延々と責めたてられ――")
ShowMessage("何度も何度も、その股下で射精させられたのだった。")
ShowMessageFace("",0,0,2,22)
ShowMessage("精液を出し尽くし、意識を失ってしまうまで――")
221()
PictureClear(5)
242(1)
246(1)
ShowMessageFace("",0,0,2,23)
ShowMessage("・・・・・・・・")
221()
Wait(120)
If(0,443,0)
 EndEventProcessing()
 0()
EndIf()
RunCommonEvent(541)
0()
