// EVENT 0122
Name "Stage 2"

355("ex_choice_add(\"Forest Friends\",1,")
655("\"s[1088] and s[1097] and s[1136] and ")
655("s[1137] and s[1138] and s[1139]\",1)")
655("ex_choice_add(\"Curse of the Ghosts\",2,")
655("\"s[1091] and s[1130] and s[1172] and ")
655("s[1180]\",1)")
655("ex_choice_add(\"Resident Evil\",3,")
655("\"s[1132] and s[1133] and s[1135] and ")
655("s[1150]\",1)")
655("ex_choice_add(\"Sonya's Thousand Knocks\",4,")
655("\"s[1080] and s[1164] and s[1525]\",1)")
355("ex_choice_add(\"Boomerang, How I Love You\",5,")
655("\"s[1053]\",1)")
655("ex_choice_add(\"Slug Show\",6,")
655("\"s[1055] and s[1085] and s[1086] and ")
655("s[1087]\",1)")
655("ex_choice_add(\"A Slimy Stage\",7,")
655("\"s[1055] and s[1061] and s[1073]\",1)")
655("ex_choice_add(\"Imp Show\",8,")
655("\"s[1056] and s[1057] and s[1058]\",1)")
655("ex_choice_add(\"The Bunny Slime Hop\",9,")
655("\"s[1054]\",1)")
355("ex_choice_add(\"Bunny Hop\",10,")
655("\"s[1054] and s[1074]\",1)")
655("ex_choice_add(\"Cancel\",11)")
355("ex_choice_show(0,11,[0,0])")
If(1,9,0,1,0)
 ChangeSwitch(611,611,0)
 221()
 242(1)
 Wait(60)
 211(0)
 TeleportPlayer(0,638,0,1,0,2)
 222()
 EndEventProcessing()
 0()
EndIf()
If(1,9,0,2,0)
 ChangeSwitch(612,612,0)
 221()
 242(1)
 Wait(60)
 211(0)
 TeleportPlayer(0,638,0,1,0,2)
 222()
 EndEventProcessing()
 0()
EndIf()
If(1,9,0,3,0)
 ChangeSwitch(613,613,0)
 221()
 242(1)
 Wait(60)
 211(0)
 TeleportPlayer(0,638,0,1,0,2)
 222()
 EndEventProcessing()
 0()
EndIf()
If(1,9,0,4,0)
 ChangeSwitch(614,614,0)
 221()
 242(1)
 Wait(60)
 211(0)
 TeleportPlayer(0,638,0,1,0,2)
 222()
 EndEventProcessing()
 0()
EndIf()
If(1,9,0,5,0)
 ChangeSwitch(615,615,0)
 221()
 242(1)
 Wait(60)
 211(0)
 TeleportPlayer(0,638,0,1,0,2)
 222()
 EndEventProcessing()
 0()
EndIf()
If(1,9,0,6,0)
 ChangeSwitch(616,616,0)
 221()
 242(1)
 Wait(60)
 211(0)
 TeleportPlayer(0,638,0,1,0,2)
 222()
 EndEventProcessing()
 0()
EndIf()
If(1,9,0,7,0)
 ChangeSwitch(617,617,0)
 221()
 242(1)
 Wait(60)
 211(0)
 TeleportPlayer(0,638,0,1,0,2)
 222()
 EndEventProcessing()
 0()
EndIf()
If(1,9,0,8,0)
 ChangeSwitch(618,618,0)
 221()
 242(1)
 Wait(60)
 211(0)
 TeleportPlayer(0,638,0,1,0,2)
 222()
 EndEventProcessing()
 0()
EndIf()
If(1,9,0,9,0)
 ChangeSwitch(619,619,0)
 221()
 242(1)
 Wait(60)
 211(0)
 TeleportPlayer(0,638,0,1,0,2)
 222()
 EndEventProcessing()
 0()
EndIf()
If(1,9,0,10,0)
 ChangeSwitch(620,620,0)
 221()
 242(1)
 Wait(60)
 211(0)
 TeleportPlayer(0,638,0,1,0,2)
 222()
 EndEventProcessing()
 0()
EndIf()
0()
