// EVENT 3068
Name "Succubus Nun"

If(0,25,1)
 JumpToLabel("反省会")
 0()
EndIf()
PictureDisplay(5,"80_sisccubus_st03",0,0,0,0,100,100,0,0)
PictureMove(5,null,0,0,0,0,100,100,255,0,30,true)
241(bytes(0x04,0x08,0x6f,0x3a,0x0d,0x52,0x50,0x47,0x3a,0x3a,0x42,0x47,0x4d,0x08,0x3a,0x0a,0x40,0x6e,0x61,0x6d,0x65,0x49,0x22,0x09,0x65,0x72,0x6f,0x31,0x06,0x3a,0x06,0x45,0x54,0x3a,0x0c,0x40,0x76,0x6f,0x6c,0x75,0x6d,0x65,0x69,0x69,0x3a,0x0b,0x40,0x70,0x69,0x74,0x63,0x68,0x69,0x69))
ShowMessageFace("",0,0,2,1)
ShowMessage("\\n<Luka>Unnngh...")
ShowMessageFace("sisccubus_fc1",2,0,2,2)
ShowMessage("\\n<Succubus Nun>Ahh, I'm so glad I won...\nMy body was getting so hot...")
ShowMessageFace("",0,0,2,3)
ShowMessage("The Succubus Nun lays down on her back, pulling off her clothes.")
ShowMessage("A strange smell starts coming off of her naked body...")
ShowMessageFace("",0,0,2,4)
ShowMessage("\\n<Luka>Wh-What's that smell... Aah...")
ShowMessageFace("",0,0,2,5)
ShowMessage("The sweet smell goes straight to my head.")
ShowMessage("In the next moment, my body was moving against my will.")
PictureDisplay(5,"80_sisccubus_st01",0,0,0,0,100,100,255,0)
ShowMessageFace("sisccubus_fc1",0,0,2,6)
ShowMessage("\\n<Succubus Nun>You desire me...\nThen I shall accept you...")
ShowMessageFace("sisccubus_fc1",0,0,2,7)
ShowMessage("\\n<Succubus Nun>Now, come here...")
PictureDisplay(5,"ev_sisccubus_h01",0,0,0,0,100,100,0,0)
PictureMove(5,null,0,0,0,0,100,100,255,0,30,true)
ShowMessageFace("",0,0,2,8)
ShowMessage("Like a moth to a flame, I'm drawn to her body.")
ShowMessage("I eagerly cling to her body.")
ShowMessageFace("",0,0,2,9)
ShowMessage("\\n<Luka>Aaah...I can't control my body...")
ShowMessageFace("sisccubus_fc1",0,0,2,10)
ShowMessage("\\n<Succubus Nun>Ufufu, do you want to insert yourself in here...?\nGo ahead, it will feel amazing...")
245(bytes(0x04,0x08,0x6f,0x3a,0x0d,0x52,0x50,0x47,0x3a,0x3a,0x42,0x47,0x53,0x08,0x3a,0x0a,0x40,0x6e,0x61,0x6d,0x65,0x49,0x22,0x1e,0x6d,0x6f,0x6e,0x5f,0x68,0x73,0x65,0x61,0x6e,0x30,0x35,0x5f,0x69,0x6e,0x6e,0x65,0x72,0x77,0x6f,0x72,0x6b,0x73,0x5f,0x61,0x35,0x06,0x3a,0x06,0x45,0x54,0x3a,0x0c,0x40,0x76,0x6f,0x6c,0x75,0x6d,0x65,0x69,0x55,0x3a,0x0b,0x40,0x70,0x69,0x74,0x63,0x68,0x69,0x69))
ShowMessageFace("",0,0,2,11)
ShowMessage("Thus, invited by the Succubus...")
ShowMessage("I thrust my erect penis into her!")
ShowMessageFace("",0,0,2,12)
ShowMessage("\\n<Luka>Aaah...! S-So good...!!")
ShowMessageFace("",0,0,2,13)
ShowMessage("The moment I push in, I moan.")
ShowMessage("Her hot flesh welcomes me in as it wraps around me.")
ShowMessageFace("",0,0,2,14)
ShowMessage("My cock is drawn deep inside of her.")
ShowMessage("And once I'm deep inside, she tightens around me.")
ShowMessageFace("",0,0,2,15)
ShowMessage("\\n<Luka>Unnngh...It's so tight...")
ShowMessageFace("sisccubus_fc1",0,0,2,16)
ShowMessage("\\n<Succubus Nun>Oh Goddess, please forgive me...\nAllow me to guide this young boy to heaven...")
ShowMessageFace("",0,0,2,17)
ShowMessage("\\n<Luka>Aaah...! It's moving inside...!")
ShowMessageFace("",0,0,2,18)
ShowMessage("Her hot flesh starts to move.")
ShowMessage("Rubbing, stroking my penis from every side.")
ShowMessageFace("",0,0,2,19)
ShowMessage("It's as if I'm inside of a greedy mouth.")
ShowMessage("The sweet smell washes over me, bringing me to a fast climax.")
ShowMessageFace("",0,0,2,20)
ShowMessage("\\n<Luka>It's so good... It's going to leak...\nAh, aaaah...!!")
RunCommonEvent(104)
PictureDisplay(5,"ev_sisccubus_h02",0,0,0,0,100,100,255,0)
RunCommonEvent(105)
ShowMessageFace("",0,0,2,21)
ShowMessage("Unable to endure it at all, I finish quickly inside her.")
ShowMessage("My semen pours inside of her.")
ShowMessageFace("sisccubus_fc1",0,0,2,22)
ShowMessage("\\n<Succubus Nun>Ahh, you've already come...\nThis delicious semen... Give me more...")
PictureDisplay(5,"ev_sisccubus_h04",0,0,0,0,100,100,255,0)
ShowMessageFace("",0,0,2,23)
ShowMessage("The Succubus Nun's veil somehow vanishes.")
ShowMessage("At the same time, a strange mark appears on her body.")
ShowMessageFace("",0,0,2,24)
ShowMessage("\\n<Luka>Hyaaa...! Aaaaaah!!")
ShowMessageFace("",0,0,2,25)
ShowMessage("In the next moment, the movements inside her vagina get even more intense.")
ShowMessage("They rub and stroke my penis almost like a hand.")
ShowMessageFace("",0,0,2,26)
ShowMessage("My eyes roll back into my head in pleasure.")
ShowMessage("I cling to her body to hold on, my body going stiff.")
ShowMessageFace("sisccubus_fc1",0,0,2,27)
ShowMessage("\\n<Succubus Nun>You're bad...\nYou brought forth the instinct I was suppressing...")
ShowMessageFace("",0,0,2,28)
ShowMessage("If that curse mark appeared after the veil vanished...")
ShowMessage("Then...")
PictureDisplay(5,"ev_sisccubus_h05",0,0,0,0,100,100,255,0)
ShowMessageFace("",0,0,2,29)
ShowMessage("The once Nun has totally become a true Succubus!")
ShowMessageFace("",0,0,2,30)
ShowMessage("\\n<Luka>N-no way... Aaahhh...!")
ShowMessageFace("sisccubus_fc1",0,0,2,31)
ShowMessage("\\n<Succubus Nun>Fufu, there's no stopping...\nI want much more than this...")
ShowMessageFace("",0,0,2,32)
ShowMessage("\\n<Luka>D-don't... Aaaaaah!!")
ShowMessageFace("",0,0,2,33)
ShowMessage("Her vaginal movements get even more intense.")
ShowMessage("Everything inside of her contracts and squeezes, wanting nothing more than for me to come.")
ShowMessageFace("",0,0,2,34)
ShowMessage("\\n<Luka>It's so good... It's sucking me...\nAh, aaaaaah!!")
RunCommonEvent(104)
PictureDisplay(5,"ev_sisccubus_h06",0,0,0,0,100,100,255,0)
RunCommonEvent(105)
ShowMessageFace("",0,0,2,35)
ShowMessage("I explode inside of her yet again.")
ShowMessage("The overwhelming feeling of release floods me as I spurt my semen into her.")
ShowMessageFace("",0,0,2,36)
ShowMessage("\\n<Luka>Huaaa...So good...")
ShowMessageFace("sisccubus_fc1",0,0,2,37)
ShowMessage("\\n<Succubus Nun>It's not over yet...\nNot until I suck every drop out...")
PictureDisplay(5,"ev_sisccubus_h07",0,0,0,0,100,100,255,0)
ShowMessageFace("",0,0,2,38)
ShowMessage("The Succubus holds my body down.")
ShowMessage("As my face is pressed against her breasts, a sweet bliss spreads through me.")
ShowMessageFace("",0,0,2,39)
ShowMessage("At the same time, her soft vaginal flesh squeezes down on me.")
ShowMessage("Like a mouth sucking on me, I feel more semen about to shoot into her.")
ShowMessageFace("",0,0,2,40)
ShowMessage("\\n<Luka>Don't...I'm going to leak again...")
RunCommonEvent(104)
RunCommonEvent(105)
ShowMessageFace("",0,0,2,41)
ShowMessage("It feels like my ejaculation was sucked out.")
ShowMessage("With the pleasure, an intense weakness spreads through me.")
ShowMessageFace("",0,0,2,42)
ShowMessage("There's no doubt that my energy itself is being sucked...")
ShowMessage("But even knowing that, there's no resistance left in me.")
ShowMessageFace("sisccubus_fc1",0,0,2,43)
ShowMessage("\\n<Succubus Nun>Ufufu... I started my Energy Drain.\nI'll drain out everything of yours like this...")
ShowMessageFace("sisccubus_fc1",0,0,2,44)
ShowMessage("\\n<Succubus Nun>Spurt, spurt...\nDo you feel your life itself spurting into me?")
ShowMessageFace("",0,0,2,45)
ShowMessage("\\n<Luka>Huaaa...No...")
RunCommonEvent(104)
RunCommonEvent(105)
ShowMessageFace("",0,0,2,46)
ShowMessage("My semen keeps shooting into her.")
ShowMessage("Every climax and spurt is more of my life leaking into her.")
ShowMessageFace("",0,0,2,47)
ShowMessage("I drown in pleasure despite understanding what's happening.")
ShowMessage("I cling to her, giving my body itself over.")
ShowMessageFace("sisccubus_fc1",0,0,2,48)
ShowMessage("\\n<Succubus Nun>Arara, no resisting?\nThen allow me to reward you...")
PictureDisplay(5,"ev_sisccubus_h08",0,0,0,0,100,100,255,0)
ShowMessageFace("",0,0,2,49)
ShowMessage("\\n<Luka>Auu... Aah!")
ShowMessageFace("",0,0,2,50)
ShowMessage("The tip of her tail invades my ass.")
ShowMessage("Her tip suddenly swells soon after entering me.")
PictureDisplay(5,"ev_sisccubus_h09",0,0,0,0,100,100,255,0)
ShowMessageFace("",0,0,2,51)
ShowMessage("It suddenly pours a liquid inside of me.")
ShowMessage("As soon as it enters me, a warm feeling spreads through my body.")
ShowMessageFace("",0,0,2,52)
ShowMessage("\\n<Luka>Aaah...Huaaa...")
RunCommonEvent(104)
RunCommonEvent(105)
ShowMessageFace("",0,0,2,53)
ShowMessage("I reach another climax inside of her.")
ShowMessage("With a sweet pulsing, my ejaculation continues on and on without stopping.")
ShowMessageFace("sisccubus_fc1",0,0,2,54)
ShowMessage("\\n<Succubus Nun>I gave you a special aphrodisiac...\nYou can feel good all the way until you're dried up.")
ShowMessageFace("",0,0,2,55)
ShowMessage("\\n<Luka>Aaaaah...")
RunCommonEvent(104)
RunCommonEvent(105)
ShowMessageFace("",0,0,2,56)
ShowMessage("I've already turned into nothing more than a man who can do nothing but come.")
ShowMessage("But I can still feel every inch of her amazing pussy.")
ShowMessageFace("",0,0,2,57)
ShowMessage("I give myself over to this crazy pleasure.")
ShowMessage("Along with my semen, my life itself is being sucked out by her...")
RunCommonEvent(104)
RunCommonEvent(105)
ShowMessageFace("",0,0,2,58)
ShowMessage("\\n<Luka>Ah...a...")
ShowMessageFace("",0,0,2,59)
ShowMessage("I feel myself fading away into a white fog.")
ShowMessage("The remaining amounts of my life are being drained away...")
ShowMessageFace("",0,0,2,60)
ShowMessage("Everything of mine is being taken by the Succubus Nun...")
RunCommonEvent(104)
RunCommonEvent(105)
ShowMessageFace("",0,0,2,61)
ShowMessage("\\n<Luka>......")
ShowMessageFace("",0,0,2,62)
ShowMessage("At last, every drop of energy was taken from me.")
ShowMessage("My consciousness itself disappears in a white fog...")
221()
PictureClear(5)
246(2)
ShowMessageFace("sisccubus_fc1",2,0,2,63)
ShowMessage("\\n<Succubus Nun>Ahh, I've done it again...\nOh Goddess, please forgive me...")
ShowMessageFace("",0,0,2,64)
ShowMessage("The last words I heard before my death.")
ShowMessage("My life ends having given everything to this Succubus.")
DefineLabel("反省会")
ShowMessageFace("",0,0,2,65)
ShowMessage("......")
221()
242(1)
Wait(120)
355("memory_interruption")
ShowMessageFace("",0,0,2,66)
ShowMessage("You hear Ilias' voice calling out to you...")
ShowMessage("Receive her evaluation?")
ShowChoices(strings("Receive evaluation","Change difficulty","Reincarnate"),3)
IfPlayerPicksChoice(0,null)
 241(bytes(0x04,0x08,0x6f,0x3a,0x0d,0x52,0x50,0x47,0x3a,0x3a,0x42,0x47,0x4d,0x08,0x3a,0x0a,0x40,0x6e,0x61,0x6d,0x65,0x49,0x22,0x0a,0x69,0x72,0x69,0x61,0x73,0x06,0x3a,0x06,0x45,0x54,0x3a,0x0c,0x40,0x76,0x6f,0x6c,0x75,0x6d,0x65,0x69,0x5f,0x3a,0x0b,0x40,0x70,0x69,0x74,0x63,0x68,0x69,0x6e))
 PictureDisplay(1,"bg001",0,0,0,0,100,100,255,0)
 222()
 PictureDisplay(5,"80_iriasu_st04",0,0,0,0,100,100,0,0)
 PictureMove(5,null,0,0,0,0,100,100,255,0,30,true)
 ShowMessageFace("iriasu_fc1",3,0,2,67)
 ShowMessage("\\n<Ilias>A Succubus Nun?\nThat's like a firefighter who does nothing but light fires.")
 PictureDisplay(5,"80_iriasu_st01",0,0,0,0,100,100,255,0)
 ShowMessageFace("iriasu_fc1",0,0,2,68)
 ShowMessage("\\n<Ilias>This monster can use Succubus and Priest moves.\nSo in addition to wind and pleasure, she can use recovery magic.")
 ShowMessageFace("iriasu_fc1",0,0,2,69)
 ShowMessage("\\n<Ilias>Silence is effective to seal her magic.\nWith Silence, you'll only need to worry about her pleasure attacks.")
 ShowMessageFace("iriasu_fc1",0,0,2,70)
 ShowMessage("\\n<Ilias>Since she's a Succubus, don't forget her weak point is Earth.\nIf you deal with her properly, it shouldn't be a tough fight.")
 PictureDisplay(5,"80_iriasu_st02",0,0,0,0,100,100,255,0)
 ShowMessageFace("iriasu_fc1",1,0,2,71)
 ShowMessage("\\n<Ilias>Now go, oh brave Luka.\nGet rid of that arsonist firefighter wannabe.")
 242(1)
 221()
 PictureClear(5)
 PictureClear(1)
 Wait(60)
 0()
IfPlayerPicksChoice(1,null)
 ShowMessageFace("",0,0,2,72)
 ShowMessage("Please choose a difficulty level.")
 RunCommonEvent(110)
 0()
IfPlayerPicksChoice(2,null)
 0()
404()
RunCommonEvent(3000)
0()
