// EVENT 4811
Name "Hitodama Girl 1"

PictureDisplay(5,"80_hitodama_st02",0,0,0,0,100,100,0,0)
PictureMove(5,null,0,0,0,0,100,100,255,0,30,true)
ShowMessageFace("hitodama_fc1",2,0,2,1)
ShowMessage("\\n<Fear>")
ShowMessage("Eh, you want to have sex with me?")
ShowMessage("I'm a hitodama though, is that ok...?")
ShowMessageFace("",0,0,2,2)
ShowMessage("\\n<Luka>Y-Yes... Please...")
ShowMessageFace("hitodama_fc1",2,0,2,3)
ShowMessage("\\n<Fear>")
ShowMessage("But when you come in contact with a spirit, we drain energy you know?")
ShowMessage("If you're careless, you could die you know...?")
ShowMessageFace("",0,0,2,4)
ShowMessage("\\n<Luka>That's a little scary...")
ShowMessageFace("hitodama_fc1",0,0,2,5)
ShowMessage("\\n<Fear>")
ShowMessage("I'll do something good instead.")
ShowMessage("Come on, take out your penis.♪")
ShowMessageFace("",0,0,2,6)
ShowMessage("\\n<Luka>O-Ok...")
241(bytes(0x04,0x08,0x6f,0x3a,0x0d,0x52,0x50,0x47,0x3a,0x3a,0x42,0x47,0x4d,0x08,0x3a,0x0a,0x40,0x6e,0x61,0x6d,0x65,0x49,0x22,0x09,0x65,0x72,0x6f,0x31,0x06,0x3a,0x06,0x45,0x54,0x3a,0x0c,0x40,0x76,0x6f,0x6c,0x75,0x6d,0x65,0x69,0x69,0x3a,0x0b,0x40,0x70,0x69,0x74,0x63,0x68,0x69,0x69))
PictureDisplay(5,"ev_hitodama_hb1",0,0,0,0,100,100,255,0)
ShowMessageFace("",0,0,2,7)
ShowMessage("I expose myself in front of Fear, as told.")
ShowMessage("But how can it feel good without touching...?")
ShowMessageFace("hitodama_fc1",1,0,2,8)
ShowMessage("\\n<Fear>")
ShowMessage("Aha, it's already so big.")
ShowMessage("In order to not touch it directly with my body...")
ShowMessageFace("",0,0,2,9)
ShowMessage("Fear gazes hard at my erect penis.")
ShowMessage("As she concentrates...")
ShowMessageFace("hitodama_fc1",1,0,2,10)
ShowMessage("\\n<Fear>")
ShowMessage("Yaaa!!")
250(bytes(0x04,0x08,0x6f,0x3a,0x0c,0x52,0x50,0x47,0x3a,0x3a,0x53,0x45,0x08,0x3a,0x0a,0x40,0x6e,0x61,0x6d,0x65,0x49,0x22,0x0d,0x54,0x68,0x75,0x6e,0x64,0x65,0x72,0x31,0x06,0x3a,0x06,0x45,0x54,0x3a,0x0b,0x40,0x70,0x69,0x74,0x63,0x68,0x69,0x69,0x3a,0x0c,0x40,0x76,0x6f,0x6c,0x75,0x6d,0x65,0x69,0x55))
PictureDisplay(5,"ev_hitodama_hb2",0,0,0,0,100,100,255,0)
ShowMessageFace("",0,0,2,11)
ShowMessage("In the next instant, a huge shock strikes my penis!")
ShowMessage("Fear's thoughts become a bolt of lightning, directly striking me!")
ShowMessageFace("",0,0,2,12)
ShowMessage("\\n<Luka>Hyaaaa!!")
ShowMessageFace("",0,0,2,13)
ShowMessage("An incredible stimulus runs from my penis up my back.")
ShowMessage("The numbness runs through me, reaching my prostate.")
RunCommonEvent(104)
RunCommonEvent(105)
ShowMessageFace("",0,0,2,14)
ShowMessage("My hips thrust forward as I come.")
ShowMessage("It's like a bolt of power directly to my nerves.")
ShowMessageFace("",0,0,2,15)
ShowMessage("My penis pulses as my semen shoots out.")
ShowMessage("But the numb pleasure is almost nothing.")
ShowMessageFace("",0,0,2,16)
ShowMessage("\\n<Luka>Ahhh... What the...")
ShowMessage("How did that make me come...")
ShowMessageFace("",0,0,2,17)
ShowMessage("Rather than pleasure, I feel slightly ashamed.")
ShowMessage("My body came without my permission, from something like that?")
ShowMessageFace("hitodama_fc1",1,0,2,18)
ShowMessage("\\n<Fear>")
ShowMessage("You didn't know that men ejaculate due to electrical stimulation?")
ShowMessage("It's not just used for torture, you know?")
ShowMessageFace("",0,0,2,19)
ShowMessage("\\n<Luka>But it doesn't really feel that good...")
ShowMessageFace("hitodama_fc1",2,0,2,20)
ShowMessage("\\n<Fear>")
ShowMessage("What are you complaining about?")
ShowMessage("You wanted me to make you come without touching you, right?")
ShowMessageFace("hitodama_fc1",1,0,2,21)
ShowMessage("\\n<Fear>")
ShowMessage("If you wanna complain... Then once more!")
ShowMessageFace("",0,0,2,22)
ShowMessage("\\n<Luka>Stop, stop... Ahhhh~!!!")
250(bytes(0x04,0x08,0x6f,0x3a,0x0c,0x52,0x50,0x47,0x3a,0x3a,0x53,0x45,0x08,0x3a,0x0a,0x40,0x6e,0x61,0x6d,0x65,0x49,0x22,0x0d,0x54,0x68,0x75,0x6e,0x64,0x65,0x72,0x31,0x06,0x3a,0x06,0x45,0x54,0x3a,0x0b,0x40,0x70,0x69,0x74,0x63,0x68,0x69,0x69,0x3a,0x0c,0x40,0x76,0x6f,0x6c,0x75,0x6d,0x65,0x69,0x55))
RunCommonEvent(104)
PictureDisplay(5,"ev_hitodama_hb3",0,0,0,0,100,100,255,0)
RunCommonEvent(105)
ShowMessageFace("",0,0,2,23)
ShowMessage("The shock hits me again in the next moment.")
ShowMessage("At the same time, I come for a second time.")
ShowMessageFace("",0,0,2,24)
ShowMessage("Making my prostate go numb, it lead to another climax.")
ShowMessage("It's a miserable climax, one with almost no pleasure attached.")
ShowMessageFace("",0,0,2,25)
ShowMessage("\\n<Luka>Hau... Uhh...")
ShowMessageFace("hitodama_fc1",1,0,2,26)
ShowMessage("\\n<Fear>")
ShowMessage("Aha, how was that?")
ShowMessage("Your semen's out now, isn't it? Are you refreshed?")
ShowMessageFace("",0,0,2,27)
ShowMessage("\\n<Luka>Hauu... Not at all...")
ShowMessageFace("",0,0,2,28)
ShowMessage("My semen is scattered all over the floor.")
ShowMessage("Looking down at the aftermath, my misery compounds.")
ShowMessageFace("hitodama_fc1",2,0,2,29)
ShowMessage("\\n<Fear>")
ShowMessage("Geez, you're so demanding.")
ShowMessage("I made you come without even touching you.")
ShowMessageFace("hitodama_fc1",0,0,2,30)
ShowMessage("\\n<Fear>")
ShowMessage("If you want to complain so much, I'll touch you next time.")
ShowMessage("You'll be drained of energy, but I don't wanna hear you complain.")
ShowMessageFace("",0,0,2,31)
ShowMessage("\\n<Luka>......")
ShowMessageFace("",0,0,2,32)
ShowMessage("The next time I'll be drained of energy...")
ShowMessage("If something goes wrong, the damage may be irreparable.")
ShowMessageFace("",0,0,2,33)
ShowMessage("As I get weak, I start to regret complaining.")
ShowMessage("I can only pray I don't lose my life...")
221()
PictureClear(5)
PictureClear(6)
246(2)
ShowMessageFace("",0,0,2,34)
ShowMessage("......")
RunCommonEvent(3998)
0()
