﻿// EVENT 5831
Name "Rヤマタノオロチ"

If(0,443,0)
 PictureDisplay(5,"80_yamatanooroti_st01",0,0,0,0,100,100,255,0)
 0()
EndIf()
242(1)
250(bytes(0x04,0x08,0x6f,0x3a,0x0c,0x52,0x50,0x47,0x3a,0x3a,0x53,0x45,0x08,0x3a,0x0a,0x40,0x6e,0x61,0x6d,0x65,0x49,0x22,0x0a,0x7a,0x69,0x68,0x6f,0x75,0x06,0x3a,0x06,0x45,0x54,0x3a,0x0b,0x40,0x70,0x69,0x74,0x63,0x68,0x69,0x69,0x3a,0x0c,0x40,0x76,0x6f,0x6c,0x75,0x6d,0x65,0x69,0x55))
Wait(60)
ShowMessageFace("",0,0,2,1)
ShowMessage("その時――城内に、五時の鐘が鳴り響いた。")
241(bytes(0x04,0x08,0x6f,0x3a,0x0d,0x52,0x50,0x47,0x3a,0x3a,0x42,0x47,0x4d,0x08,0x3a,0x0a,0x40,0x6e,0x61,0x6d,0x65,0x49,0x22,0x09,0x65,0x72,0x6f,0x31,0x06,0x3a,0x06,0x45,0x54,0x3a,0x0c,0x40,0x76,0x6f,0x6c,0x75,0x6d,0x65,0x69,0x69,0x3a,0x0b,0x40,0x70,0x69,0x74,0x63,0x68,0x69,0x69))
ShowMessageFace("yamatanooroti_fc1",3,0,2,2)
ShowMessage("【ヤマタノオロチ】")
ShowMessage("では、祭りに赴く前に精を付けるとしよう。")
ShowMessage("お主の体、味わわせてもらうぞ……")
ShowMessageFace("",0,0,2,3)
ShowMessage("【ルカ】")
ShowMessage("えっ、そんな――")
ShowMessageFace("",0,0,2,4)
ShowMessage("戸惑う僕の体を、八つの首が取り巻き――")
245(bytes(0x04,0x08,0x6f,0x3a,0x0d,0x52,0x50,0x47,0x3a,0x3a,0x42,0x47,0x53,0x08,0x3a,0x0a,0x40,0x6e,0x61,0x6d,0x65,0x49,0x22,0x10,0x6d,0x6f,0x6e,0x5f,0x68,0x76,0x6f,0x69,0x63,0x65,0x32,0x06,0x3a,0x06,0x45,0x54,0x3a,0x0c,0x40,0x76,0x6f,0x6c,0x75,0x6d,0x65,0x69,0x55,0x3a,0x0b,0x40,0x70,0x69,0x74,0x63,0x68,0x69,0x69))
PictureDisplay(5,"ev_yamatanooroti_hb1",0,0,0,0,100,100,255,0)
ShowMessageFace("",0,0,2,5)
ShowMessage("【ルカ】")
ShowMessage("あ……あぁぁぁっ！！")
ShowMessageFace("",0,0,2,6)
ShowMessage("ヤマタノオロチ達は舌を伸ばし、体中をべろべろと舐め回してくる。")
ShowMessage("全身を這い回る舌粘膜の感触に、僕は悶えてしまった。")
ShowMessageFace("",0,0,2,7)
ShowMessage("【ルカ】")
ShowMessage("はぅ……あ、あぅぅっ……！！")
ShowMessageFace("yamatanooroti_fc1",3,0,2,8)
ShowMessage("【ヤマタノオロチ】")
ShowMessage("くく、実に美味いオスよ。")
ShowMessage("こうやって、丹念にねぶり尽くしてやるのも良いが……")
ShowMessageFace("",0,0,2,9)
ShowMessage("ヤマタノオロチが、大きく口を開け――")
ShowMessage("人をも丸呑みに出来るほど、ぱっくりと開いた口腔を見せつけた。")
ShowMessageFace("yamatanooroti_fc1",3,0,2,10)
ShowMessage("【ヤマタノオロチ】")
ShowMessage("一息に、丸呑みにしてくれるのも良かろう。")
ShowMessage("くくく、お主の体はさぞ美味かろうな……")
ShowMessageFace("",0,0,2,11)
ShowMessage("【ルカ】")
ShowMessage("い、いやだ……あぁぁぁ……")
ShowMessageFace("",0,0,2,12)
ShowMessage("怯える僕を弄ぶように、体中に舌が這い回り――")
ShowMessage("そして、ペニスもべろべろと舐め尽くされる。")
ShowMessageFace("",0,0,2,13)
ShowMessage("先端から根元まで、丹念に味わい尽くそうとするかのような舌遣い。")
ShowMessage("あまりの気持ち良さに、僕はぶるっと腰を震わせ――")
ShowMessageFace("",0,0,2,14)
ShowMessage("【ルカ】")
ShowMessage("はぅぅ……あぁぁぁぁっ！！")
RunCommonEvent(104)
RunCommonEvent(105)
ShowMessageFace("",0,0,2,15)
ShowMessage("そのまま、ドクドクと射精してしまった。")
ShowMessage("放出された精液を、無数の舌が舐め取っていく――")
ShowMessageFace("",0,0,2,16)
ShowMessage("【ルカ】")
ShowMessage("あ……はぅぅぅっ……")
ShowMessageFace("yamatanooroti_fc1",3,0,2,17)
ShowMessage("【ヤマタノオロチ】")
ShowMessage("くく……極上の子種、味わわせてもらったぞ。")
ShowMessage("次は、その肉を賞味させてもらおうか……")
ShowMessageFace("",0,0,2,18)
ShowMessage("ヤマタノオロチの口が、眼前にまで迫り――")
ShowMessageFace("",0,0,2,19)
ShowMessage("【ルカ】")
ShowMessage("あ……うぁぁぁぁっ！！")
ShowMessageFace("",0,0,2,20)
ShowMessage("そのまま僕は、丸呑みにされてしまった――")
221()
Wait(60)
PictureDisplay(5,"ev_yamatanooroti_hb2",0,0,0,0,100,100,255,0)
245(bytes(0x04,0x08,0x6f,0x3a,0x0d,0x52,0x50,0x47,0x3a,0x3a,0x42,0x47,0x53,0x08,0x3a,0x0a,0x40,0x6e,0x61,0x6d,0x65,0x49,0x22,0x1e,0x6d,0x6f,0x6e,0x5f,0x68,0x73,0x65,0x61,0x6e,0x30,0x38,0x5f,0x69,0x6e,0x6e,0x65,0x72,0x77,0x6f,0x72,0x6b,0x73,0x5f,0x61,0x38,0x06,0x3a,0x06,0x45,0x54,0x3a,0x0c,0x40,0x76,0x6f,0x6c,0x75,0x6d,0x65,0x69,0x55,0x3a,0x0b,0x40,0x70,0x69,0x74,0x63,0x68,0x69,0x69))
222()
ShowMessageFace("yamatanooroti_fc1",3,0,2,21)
ShowMessage("【ヤマタノオロチ】")
ShowMessage("くく、やはり極上の味よな。")
ShowMessage("このまま、ゆっくり消化してくれよう……")
ShowMessageFace("",0,0,2,22)
ShowMessage("ヤマタノオロチの腹部は大きく膨らみ――")
ShowMessage("その胃の中に、消化中の獲物がいる事がうかがえた。")
ShowMessageFace("",0,0,2,23)
ShowMessage("そして彼女達は、実に満足そうな表情を浮かべている。")
ShowMessage("極上の獲物を捕食し、食欲が満たされているのだ――")
ShowMessageFace("yamatanooroti_fc1",3,0,2,24)
ShowMessage("【ヤマタノオロチ】")
ShowMessage("おやおや、中で射精しおったぞ。")
ShowMessage("このオスも、なかなかご満悦のようだ……")
ShowMessageFace("yamatanooroti_fc1",1,0,2,25)
ShowMessage("【ヤマタノオロチ】")
ShowMessage("消化されておるのに、精を漏らすとはのう……")
ShowMessage("オスというのは、浅ましいものよ。")
ShowMessageFace("yamatanooroti_fc1",2,0,2,26)
ShowMessage("【ヤマタノオロチ】")
ShowMessage("ふふふ……だが、実に美味。")
ShowMessage("満足であるぞ。")
ShowMessageFace("",0,0,2,27)
ShowMessage("その胃の中で、獲物が溶かされ消化されてしまうまで――")
ShowMessage("ヤマタノオロチは、捕食者の愉悦に浸ったのだった。")
221()
PictureClear(5)
242(1)
246(1)
ShowMessageFace("",0,0,2,28)
ShowMessage("・・・・・・・・")
221()
Wait(120)
If(0,443,0)
 EndEventProcessing()
 0()
EndIf()
RunCommonEvent(541)
0()
