// EVENT 2097
Name "Seduction: Bandersnatch Girl"

If(0,25,1)
 EndEventProcessing()
 0()
EndIf()
355("$game_troop.lose_event_id = 3097")
ChangeVariable(26,26,0,3,3,1,4)
ChangeVariable(26,26,4,0,10)
ShowMessageFace("bander_fc1",2,0,2,1)
ShowMessage("\\n<Bandersnatch Girl>I'm using too much energy here...\nI'll be in trouble at this rate. In that case...!")
ShowMessageFace("",0,0,2,2)
ShowMessage("The Bandersnatch Girl grabs Luka with her huge arm!")
ShowMessage("Luka has been bound by the Bandersnatch Girl!")
ShowMessageFace("bander_fc1",0,0,2,3)
ShowMessage("\\n<Bandersnatch Girl>I'll suck out your energy.\nIt will feel good for you in trade, so don't fight it...")
ChangeSwitch(98,98,0)
ChangeSwitch(96,96,0)
ShowChoices(strings("Struggle","Let her continue"),1)
IfPlayerPicksChoice(0,"もがく")
 ShowMessageFace("",0,0,2,4)
 ShowMessage("Luka struggles and breaks free!")
 RunCommonEvent(1999)
 EndEventProcessing()
 0()
IfPlayerPicksChoice(1,"なすがまま")
 0()
404()
ShowMessageFace("bander_fc1",1,0,2,5)
ShowMessage("\\n<Bandersnatch Girl>No resistance? That's good...\nI'll give the finest of pleasures...")
ChangeVariable(26,26,3,0,4)
250(bytes(0x04,0x08,0x6f,0x3a,0x0c,0x52,0x50,0x47,0x3a,0x3a,0x53,0x45,0x08,0x3a,0x0a,0x40,0x6e,0x61,0x6d,0x65,0x49,0x22,0x12,0x6d,0x6f,0x6e,0x5f,0x65,0x72,0x6f,0x5f,0x6b,0x6f,0x6b,0x69,0x31,0x06,0x3a,0x06,0x45,0x54,0x3a,0x0b,0x40,0x70,0x69,0x74,0x63,0x68,0x69,0x69,0x3a,0x0c,0x40,0x76,0x6f,0x6c,0x75,0x6d,0x65,0x69,0x69))
355("battler_graphic_hide")
PictureDisplay(5,"ev_bander_hb1",0,0,0,0,100,100,255,0)
311(0,1,1,1,26,true)
ShowMessageFace("",0,0,2,6)
ShowMessage("The Bandersnatch Girl presses Luka's penis between her breasts!")
ShowMessage("Like that, she starts to suck his energy!\\D")
ShowMessage("Luka takes \\V[26] damage!")
ChangeVariable(27,27,0,3,3,1,2)
If(1,27,0,0,0)
 JumpToLabel("射精1")
 0()
EndIf()
ShowMessageFace("",0,0,2,7)
ShowMessage("\\n<Luka>Aaah...What... Is this...!?")
ShowMessageFace("bander_fc1",1,0,2,8)
ShowMessage("\\n<Bandersnatch Girl>Isn't it nice...?\nI can suck energy from anywhere on my body...")
250(bytes(0x04,0x08,0x6f,0x3a,0x0c,0x52,0x50,0x47,0x3a,0x3a,0x53,0x45,0x08,0x3a,0x0a,0x40,0x6e,0x61,0x6d,0x65,0x49,0x22,0x12,0x6d,0x6f,0x6e,0x5f,0x65,0x72,0x6f,0x5f,0x6b,0x6f,0x6b,0x69,0x31,0x06,0x3a,0x06,0x45,0x54,0x3a,0x0b,0x40,0x70,0x69,0x74,0x63,0x68,0x69,0x69,0x3a,0x0c,0x40,0x76,0x6f,0x6c,0x75,0x6d,0x65,0x69,0x69))
311(0,1,1,1,26,true)
ShowMessageFace("",0,0,2,9)
ShowMessage("Luka's penis is caught between her huge breasts!")
ShowMessage("Everywhere he touches her skin, pleasure radiates outwards!\\D")
ShowMessage("Luka takes \\V[26] damage!")
ChangeVariable(27,27,0,3,3,1,2)
If(1,27,0,0,0)
 JumpToLabel("射精1")
 0()
EndIf()
ShowMessageFace("bander_fc1",1,0,2,10)
ShowMessage("\\n<Bandersnatch Girl>All men come when I absorb their energy like this...\nYou're about to leak yourself, aren't you?")
250(bytes(0x04,0x08,0x6f,0x3a,0x0c,0x52,0x50,0x47,0x3a,0x3a,0x53,0x45,0x08,0x3a,0x0a,0x40,0x6e,0x61,0x6d,0x65,0x49,0x22,0x12,0x6d,0x6f,0x6e,0x5f,0x65,0x72,0x6f,0x5f,0x6b,0x6f,0x6b,0x69,0x31,0x06,0x3a,0x06,0x45,0x54,0x3a,0x0b,0x40,0x70,0x69,0x74,0x63,0x68,0x69,0x69,0x3a,0x0c,0x40,0x76,0x6f,0x6c,0x75,0x6d,0x65,0x69,0x69))
311(0,1,1,1,26,true)
ShowMessageFace("",0,0,2,11)
ShowMessage("Luka's energy is absorbed by the Bandersnatch Girl's breasts!")
ShowMessage("A melancholy pleasure fills his body!\\D")
ShowMessage("Luka takes \\V[26] damage!")
ChangeVariable(27,27,0,3,3,1,2)
If(1,27,0,0,0)
 JumpToLabel("射精1")
 0()
EndIf()
DefineLabel("射精1")
ShowMessageFace("",0,0,2,12)
ShowMessage("\\n<Luka>Aaah...I'm leaking...")
RunCommonEvent(104)
PictureDisplay(5,"ev_bander_hb2",0,0,0,0,100,100,255,0)
RunCommonEvent(105)
ShowMessageFace("",0,0,2,13)
ShowMessage("While caught in her breasts, my energy itself is sucked out of me.")
ShowMessage("It felt too good, I couldn't help but climax...")
ShowMessageFace("bander_fc1",1,0,2,14)
ShowMessage("\\n<Bandersnatch Girl>You finished...\nI'll take your energy and semen both.")
RunCommonEvent(2000)
EndEventProcessing()
0()
