﻿// EVENT 0055
Name "Skill: Play 151-160"

ChangeVariable(11,11,0,2,1,5)
If(1,100,0,151,0)
 If(1,11,0,1,0)
  ShowMessageFace("kobura_fc1",2,0,2,1)
  ShowMessage("\\n<Lila>Hisss! ...That sound was not good enough. Hissss! Not good enough, am I missing something?")
  ShowMessageFace("",0,0,2,2)
  ShowMessage("Lila is practicing intimidation.")
  EndEventProcessing()
  0()
 EndIf()
 If(1,11,0,2,0)
  ShowMessageFace("kobura_fc1",1,0,2,3)
  ShowMessage("\\n<Lila>Exteeeeend.")
  ShowMessageFace("",0,0,2,4)
  ShowMessage("Lila spreads her snake body out while laying on the ground.\nIt's very inconvenient!")
  EndEventProcessing()
  0()
 EndIf()
 If(1,11,0,3,0)
  ShowMessageFace("kobura_fc1",1,0,2,5)
  ShowMessage("\\n<Lila>Kobra come ooon♪\nTweedle-lee♪")
  ShowMessageFace("",0,0,2,6)
  ShowMessage("Lila danced a fun dance.\nBut nothing happened.")
  EndEventProcessing()
  0()
 EndIf()
 If(1,11,0,4,0)
  ShowMessageFace("kobura_fc1",2,0,2,7)
  ShowMessage("\\n<Lila>I'm not going to move, let me know when you're finished.")
  250(bytes(0x04,0x08,0x6f,0x3a,0x0c,0x52,0x50,0x47,0x3a,0x3a,0x53,0x45,0x08,0x3a,0x0a,0x40,0x6e,0x61,0x6d,0x65,0x49,0x22,0x0a,0x49,0x74,0x65,0x6d,0x31,0x06,0x3a,0x06,0x45,0x54,0x3a,0x0b,0x40,0x70,0x69,0x74,0x63,0x68,0x69,0x69,0x3a,0x0c,0x40,0x76,0x6f,0x6c,0x75,0x6d,0x65,0x69,0x55))
  ChangeInventory_Item(445,0,0,1)
  ShowMessageFace("",0,0,2,8)
  ShowMessage("Lila is pulling weeds.\nYou obtain some \\ii[445]!")
  EndEventProcessing()
  0()
 EndIf()
 If(1,11,0,5,0)
  ShowMessageFace("kobura_fc1",1,0,2,9)
  ShowMessage("\\n<Lila>This is my entertainment, ufufuu...")
  355("interrupt_skill(3295)")
  EndEventProcessing()
  0()
 EndIf()
 0()
EndIf()
If(1,100,0,152,0)
 If(1,11,0,1,0)
  ShowMessageFace("lamias_fc2",4,0,2,10)
  ShowMessage("\\n<Nefertiti Lamias>Yeah, yeah, the pudding from there is so delicious♪")
  ShowMessageFace("",0,0,2,11)
  ShowMessage("The Nefertiti Lamias are having girl talk.")
  EndEventProcessing()
  0()
 EndIf()
 If(1,11,0,2,0)
  ShowMessageFace("lamias_fc2",4,0,2,12)
  ShowMessage("\\n<Nefertiti Lamias>Feeling heavy...")
  ShowMessageFace("",0,0,2,13)
  ShowMessage("The four lamias' bodies spread out as they lay on the ground.\nIt goes beyond a hindrance and becomes a disturbance!")
  EndEventProcessing()
  0()
 EndIf()
 If(1,11,0,3,0)
  ShowMessageFace("lamias_fc2",4,0,2,14)
  ShowMessage("\\n<Nefertiti Lamias>Everyone did their best to make this!")
  ShowMessageFace("",0,0,2,15)
  ShowMessage("The Nefertiti Lamias present a gift!")
  250(bytes(0x04,0x08,0x6f,0x3a,0x0c,0x52,0x50,0x47,0x3a,0x3a,0x53,0x45,0x08,0x3a,0x0a,0x40,0x6e,0x61,0x6d,0x65,0x49,0x22,0x0a,0x49,0x74,0x65,0x6d,0x31,0x06,0x3a,0x06,0x45,0x54,0x3a,0x0b,0x40,0x70,0x69,0x74,0x63,0x68,0x69,0x69,0x3a,0x0c,0x40,0x76,0x6f,0x6c,0x75,0x6d,0x65,0x69,0x55))
  ChangeInventory_Item(380,0,0,1)
  ShowMessageFace("",0,0,2,16)
  ShowMessage("You obtain a \\ii[380]!")
  EndEventProcessing()
  0()
 EndIf()
 If(1,11,0,4,0)
  ShowMessageFace("lamias_fc2",4,0,2,17)
  ShowMessage("\\n<Nefertiti Lamias>Play with all your heart!")
  ShowMessageFace("",0,0,2,18)
  ShowMessage("The Nefertiti Lamias are singing and dancing happily.")
  EndEventProcessing()
  0()
 EndIf()
 If(1,11,0,5,0)
  ShowMessageFace("lamias_fc2",4,0,2,19)
  ShowMessage("\\n<Nefertiti Lamias>Rock-Paper-Scissors Go!")
  ShowMessageFace("",0,0,2,20)
  ShowMessage("The Nefertiti Lamias are playing Rock-Paper-Scissors!")
  EndEventProcessing()
  0()
 EndIf()
 0()
EndIf()
If(1,100,0,153,0)
 If(1,11,0,1,0)
  ShowMessageFace("sphinx_fc1",0,0,2,21)
  ShowMessage("\\n<Sphinx>Ah, the dreams I lose every day...")
  ShowMessageFace("",0,0,2,22)
  ShowMessage("Sphinx is lost in thought...")
  EndEventProcessing()
  0()
 EndIf()
 If(1,11,0,2,0)
  ShowMessageFace("sphinx_fc1",1,0,2,23)
  ShowMessage("\\n<Sphinx>Fufufu...")
  355("interrupt_skill(3296)")
  EndEventProcessing()
  0()
 EndIf()
 If(1,11,0,3,0)
  ShowMessageFace("sphinx_fc1",0,0,2,24)
  ShowMessage("\\n<Sphinx>I suppose I should have a little rest...")
  313(0,191,0,11)
  ShowMessageFace("",0,0,2,25)
  ShowMessage("Sphinx fell asleep...")
  EndEventProcessing()
  0()
 EndIf()
 If(1,11,0,4,0)
  ShowMessageFace("sphinx_fc1",0,0,2,26)
  ShowMessage("\\n<Sphinx>This should be good to fill your stomach with...")
  ShowMessageFace("",0,0,2,27)
  ShowMessage("Sphinx presents a gift!")
  250(bytes(0x04,0x08,0x6f,0x3a,0x0c,0x52,0x50,0x47,0x3a,0x3a,0x53,0x45,0x08,0x3a,0x0a,0x40,0x6e,0x61,0x6d,0x65,0x49,0x22,0x0a,0x49,0x74,0x65,0x6d,0x31,0x06,0x3a,0x06,0x45,0x54,0x3a,0x0b,0x40,0x70,0x69,0x74,0x63,0x68,0x69,0x69,0x3a,0x0c,0x40,0x76,0x6f,0x6c,0x75,0x6d,0x65,0x69,0x55))
  ChangeInventory_Item(359,0,0,1)
  ShowMessageFace("",0,0,2,28)
  ShowMessage("You obtain a \\ii[359]!")
  EndEventProcessing()
  0()
 EndIf()
 If(1,11,0,5,0)
  ShowMessageFace("sphinx_fc1",1,0,2,29)
  ShowMessage("\\n<Sphinx>Kukuku, this is the secret to pleasure...")
  355("interrupt_skill(3295)")
  EndEventProcessing()
  0()
 EndIf()
 0()
EndIf()
If(1,100,0,154,0)
 If(1,11,0,1,0)
  ShowMessageFace("wani_fc1",0,0,2,30)
  ShowMessage("\\n<Gaa>Ga... *Yawn*")
  ShowMessageFace("",0,0,2,31)
  ShowMessage("Gaa yawns.")
  EndEventProcessing()
  0()
 EndIf()
 If(1,11,0,2,0)
  ShowMessageFace("wani_fc1",0,0,2,32)
  ShowMessage("\\n<Gaa>Ga...")
  ShowMessageFace("",0,0,2,33)
  ShowMessage("Gaa has spaced out.")
  EndEventProcessing()
  0()
 EndIf()
 If(1,11,0,3,0)
  ShowMessageFace("wani_fc1",2,0,2,34)
  ShowMessage("\\n<Gaa>......")
  313(0,154,0,11)
  ShowMessageFace("",0,0,2,35)
  ShowMessage("Gaa has fallen asleep.")
  EndEventProcessing()
  0()
 EndIf()
 If(1,11,0,4,0)
  ShowMessageFace("wani_fc1",0,0,2,36)
  ShowMessage("\\n<Gaa>......")
  ShowMessageFace("",0,0,2,37)
  ShowMessage("In the midst of battle, the enemy accidentally stepped on Gaa's tail!")
  ShowMessageFace("wani_fc1",0,0,2,38)
  ShowMessage("\\n<Gaa>Gaaaaaaaaa!!")
  355("interrupt_skill(2695)")
  EndEventProcessing()
  0()
 EndIf()
 If(1,11,0,5,0)
  ShowMessageFace("wani_fc1",0,0,2,39)
  ShowMessage("\\n<Gaa>Ga...")
  ShowMessageFace("",0,0,2,40)
  ShowMessage("Gaa is confused.")
  EndEventProcessing()
  0()
 EndIf()
 0()
EndIf()
If(1,100,0,155,0)
 If(1,11,0,1,0)
  ShowMessageFace("saki_fc1",3,0,2,41)
  ShowMessage("\\n<Saki>Everyoooone! ♪\nThaaank you for coming together for me today! ♪")
  ShowMessageFace("",0,0,2,42)
  ShowMessage("Saki appeals to her fans!\n...But nobody was listening.")
  EndEventProcessing()
  0()
 EndIf()
 If(1,11,0,2,0)
  ShowMessageFace("saki_fc1",3,0,2,43)
  ShowMessage("\\n<Saki>Heeere I gooo! Sparkle! ☆")
  355("interrupt_skill(2081)")
  EndEventProcessing()
  0()
 EndIf()
 If(1,11,0,3,0)
  ShowMessageFace("saki_fc1",3,0,2,44)
  ShowMessage("\\n<Saki>All right everyone, this is for health! ♪ Health! ♪")
  355("interrupt_skill(2047)")
  EndEventProcessing()
  0()
 EndIf()
 If(1,11,0,4,0)
  ShowMessageFace("saki_fc1",3,0,2,45)
  ShowMessage("\\n<Saki>Now, let's play to the fullest! ♪")
  ShowMessageFace("",0,0,2,46)
  ShowMessage("Saki is singing and dancing happily...")
  EndEventProcessing()
  0()
 EndIf()
 If(1,11,0,5,0)
  ShowMessageFace("saki_fc1",3,0,2,47)
  ShowMessage("\\n<Saki>Thank you for your hard work, please accept this gift♪")
  ShowMessageFace("",0,0,2,48)
  ShowMessage("Saki presents a gift!")
  250(bytes(0x04,0x08,0x6f,0x3a,0x0c,0x52,0x50,0x47,0x3a,0x3a,0x53,0x45,0x08,0x3a,0x0a,0x40,0x6e,0x61,0x6d,0x65,0x49,0x22,0x0a,0x49,0x74,0x65,0x6d,0x31,0x06,0x3a,0x06,0x45,0x54,0x3a,0x0b,0x40,0x70,0x69,0x74,0x63,0x68,0x69,0x69,0x3a,0x0c,0x40,0x76,0x6f,0x6c,0x75,0x6d,0x65,0x69,0x55))
  ChangeInventory_Item(417,0,0,1)
  ShowMessageFace("",0,0,2,49)
  ShowMessage("You obtain some \\ii[417]!")
  EndEventProcessing()
  0()
 EndIf()
 0()
EndIf()
If(1,100,0,156,0)
 If(1,11,0,1,0)
  ShowMessageFace("d_fighter_fc1",0,0,2,50)
  ShowMessage("\\n<Regina>Don't stare at me so much...")
  ShowMessageFace("",0,0,2,51)
  ShowMessage("Regina is embarrassed.")
  EndEventProcessing()
  0()
 EndIf()
 If(1,11,0,2,0)
  ShowMessageFace("d_fighter_fc1",3,0,2,52)
  ShowMessage("\\n<Regina>I'm just training. Ehehh!")
  355("interrupt_skill(3291)")
  EndEventProcessing()
  0()
 EndIf()
 If(1,11,0,3,0)
  ShowMessageFace("d_fighter_fc1",2,0,2,53)
  ShowMessage("\\n<Regina>Geez, stop looking at me!")
  250(bytes(0x04,0x08,0x6f,0x3a,0x0c,0x52,0x50,0x47,0x3a,0x3a,0x53,0x45,0x08,0x3a,0x0a,0x40,0x6e,0x61,0x6d,0x65,0x49,0x22,0x08,0x52,0x75,0x6e,0x06,0x3a,0x06,0x45,0x54,0x3a,0x0b,0x40,0x70,0x69,0x74,0x63,0x68,0x69,0x69,0x3a,0x0c,0x40,0x76,0x6f,0x6c,0x75,0x6d,0x65,0x69,0x55))
  ShowMessageFace("",0,0,2,54)
  ShowMessage("Regina ran away!\n...But she got turned around and immediately came back.")
  EndEventProcessing()
  0()
 EndIf()
 If(1,11,0,4,0)
  ShowMessageFace("d_fighter_fc1",3,0,2,55)
  ShowMessage("\\n<Regina>This is my new skill! Stare Tearing Sword!")
  355("interrupt_skill(3292)")
  EndEventProcessing()
  0()
 EndIf()
 If(1,11,0,5,0)
  ShowMessageFace("d_fighter_fc1",3,0,2,56)
  ShowMessage("\\n<Regina>If it's going to be like this, I'd rather be naked!")
  ShowMessageFace("",0,0,2,57)
  ShowMessage("Regina began to undress!")
  EndEventProcessing()
  0()
 EndIf()
 0()
EndIf()
If(1,100,0,157,0)
 If(1,11,0,1,0)
  ShowMessageFace("oogumo_fc1",2,0,2,58)
  ShowMessage("\\n<Ashidaka>Whoaaa! I was fliiiped on my baaack!")
  355("interrupt_skill(3310)")
  EndEventProcessing()
  0()
 EndIf()
 If(1,11,0,2,0)
  ShowMessageFace("oogumo_fc1",0,0,2,59)
  ShowMessage("\\n<Ashidaka>If I don't catch prey from time to time...")
  355("interrupt_skill(3297)")
  EndEventProcessing()
  0()
 EndIf()
 If(1,11,0,3,0)
  ShowMessageFace("oogumo_fc1",0,0,2,60)
  ShowMessage("\\n<Ashidaka>If I don't catch prey from time to time...")
  355("interrupt_skill(3298)")
  EndEventProcessing()
  0()
 EndIf()
 If(1,11,0,4,0)
  ShowMessageFace("oogumo_fc1",0,0,2,61)
  ShowMessage("\\n<Ashidaka>*Yawn* This is my time off.")
  ShowMessageFace("",0,0,2,62)
  ShowMessage("Ashidaka has spaced out.")
  EndEventProcessing()
  0()
 EndIf()
 If(1,11,0,5,0)
  ShowMessageFace("oogumo_fc1",0,0,2,63)
  ShowMessage("\\n<Ashidaka>Eaiyaa! Eat thiiis!")
  355("interrupt_skill(3308)")
  EndEventProcessing()
  0()
 EndIf()
 0()
EndIf()
If(1,100,0,158,0)
 If(1,11,0,1,0)
  ShowMessageFace("suckvore_fc1",2,0,2,64)
  ShowMessage("\\n<Anna>......")
  ShowMessageFace("",0,0,2,65)
  ShowMessage("It looks like Anna is thinking of something.")
  EndEventProcessing()
  0()
 EndIf()
 If(1,11,0,2,0)
  ShowMessageFace("suckvore_fc1",1,0,2,66)
  ShowMessage("\\n<Anna>*munch* *munch*")
  ShowMessageFace("",0,0,2,67)
  ShowMessage("Anna is eating some food she stole.")
  ShowMessageFace("suckvore_fc1",1,0,2,68)
  ShowMessage("\\n<Anna>...Ah!?")
  ShowMessageFace("suckvore_fc1",2,0,2,69)
  ShowMessage("\\n<Anna>......")
  EndEventProcessing()
  0()
 EndIf()
 If(1,11,0,3,0)
  ShowMessageFace("suckvore_fc1",1,0,2,70)
  ShowMessage("\\n<Anna>Y-You can do it...")
  ShowMessageFace("suckvore_fc1",2,0,2,71)
  ShowMessage("\\n<Anna>......")
  ShowMessageFace("",0,0,2,72)
  ShowMessage("Anna cheers for everyone!\n...But nobody heard her.")
  EndEventProcessing()
  0()
 EndIf()
 If(1,11,0,4,0)
  ShowMessageFace("suckvore_fc1",1,0,2,73)
  ShowMessage("\\n<Anna>Ehh, ehhh!")
  355("interrupt_skill(3308)")
  EndEventProcessing()
  0()
 EndIf()
 If(1,11,0,5,0)
  ShowMessageFace("suckvore_fc1",1,0,2,74)
  ShowMessage("\\n<Anna>I'm going home...")
  250(bytes(0x04,0x08,0x6f,0x3a,0x0c,0x52,0x50,0x47,0x3a,0x3a,0x53,0x45,0x08,0x3a,0x0a,0x40,0x6e,0x61,0x6d,0x65,0x49,0x22,0x08,0x52,0x75,0x6e,0x06,0x3a,0x06,0x45,0x54,0x3a,0x0b,0x40,0x70,0x69,0x74,0x63,0x68,0x69,0x69,0x3a,0x0c,0x40,0x76,0x6f,0x6c,0x75,0x6d,0x65,0x69,0x55))
  ShowMessageFace("",0,0,2,75)
  ShowMessage("Anna ran away!\nBut she got turned around and immediately came back.")
  EndEventProcessing()
  0()
 EndIf()
 0()
EndIf()
If(1,100,0,159,0)
 If(1,11,0,1,0)
  ShowMessageFace("ironmaiden_fc1",0,0,2,76)
  ShowMessage("\\n<Maiden>......")
  ShowMessageFace("",0,0,2,77)
  ShowMessage("Maiden is a little sleepy.")
  EndEventProcessing()
  0()
 EndIf()
 If(1,11,0,2,0)
  ShowMessageFace("ironmaiden_fc1",0,0,2,78)
  ShowMessage("\\n<Maiden>......")
  ShowMessageFace("",0,0,2,79)
  ShowMessage("Maiden flashes a sexy grin...\nHowever, it looked like she was just staring!")
  EndEventProcessing()
  0()
 EndIf()
 If(1,11,0,3,0)
  ShowMessageFace("ironmaiden_fc1",0,0,2,80)
  ShowMessage("\\n<Maiden>......")
  ShowMessageFace("",0,0,2,81)
  ShowMessage("Maiden smiles!\n...But nothing happened.")
  EndEventProcessing()
  0()
 EndIf()
 If(1,11,0,4,0)
  ShowMessageFace("ironmaiden_fc1",0,0,2,82)
  ShowMessage("\\n<Maiden>......")
  ShowMessageFace("",0,0,2,83)
  ShowMessage("Maiden has spaced out.")
  EndEventProcessing()
  0()
 EndIf()
 If(1,11,0,5,0)
  ShowMessageFace("ironmaiden_fc1",0,0,2,84)
  ShowMessage("\\n<Maiden>......")
  355("interrupt_skill(3293)")
  EndEventProcessing()
  0()
 EndIf()
 0()
EndIf()
If(1,100,0,160,0)
 If(1,11,0,1,0)
  ShowMessageFace("wormv_fc1",1,0,2,85)
  ShowMessage("\\n<Julia>Fufufufuu...")
  ShowMessageFace("",0,0,2,86)
  ShowMessage("Julia is giggling.")
  EndEventProcessing()
  0()
 EndIf()
 If(1,11,0,2,0)
  ShowMessageFace("wormv_fc1",0,0,2,87)
  ShowMessage("\\n<Julia>I've been eating too much. If I don't go on a diet...")
  ShowMessageFace("",0,0,2,88)
  ShowMessage("Julia is using her tentacles as a jump rope.")
  EndEventProcessing()
  0()
 EndIf()
 If(1,11,0,3,0)
  ShowMessageFace("wormv_fc1",1,0,2,89)
  ShowMessage("\\n<Julia>Fufufufuu, such lovely weather.")
  ShowMessageFace("",0,0,2,90)
  ShowMessage("Julia is laying on the ground, sun tanning.")
  EndEventProcessing()
  0()
 EndIf()
 If(1,11,0,4,0)
  ShowMessageFace("wormv_fc1",0,0,2,91)
  ShowMessage("\\n<Julia>If I don't write back to my family...")
  ShowMessageFace("",0,0,2,92)
  ShowMessage("Julia wrote a letter.")
  EndEventProcessing()
  0()
 EndIf()
 If(1,11,0,5,0)
  ShowMessageFace("wormv_fc1",1,0,2,93)
  ShowMessage("\\n<Julia>Come on! Let's party!")
  ShowMessageFace("",0,0,2,94)
  ShowMessage("Julia popped a party cracker!\n...But nobody joined the party.")
  EndEventProcessing()
  0()
 EndIf()
 0()
EndIf()
0()
