// EVENT 7141
Name "Naia: Talk"

If(0,25,1)
 ShowMessageFace("",0,0,2,0)
 ShowMessage("You cannot challenge this BF without copying over the pictures from the first chapter.")
 PictureClear(5)
 EndEventProcessing()
 0()
EndIf()
If(1,815,0,0,0)
 ChangeVariable(815,815,0,0,1)
 0()
EndIf()
241(bytes(0x04,0x08,0x6f,0x3a,0x0d,0x52,0x50,0x47,0x3a,0x3a,0x42,0x47,0x4d,0x08,0x3a,0x0a,0x40,0x6e,0x61,0x6d,0x65,0x49,0x22,0x09,0x65,0x72,0x6f,0x32,0x06,0x3a,0x06,0x45,0x54,0x3a,0x0c,0x40,0x76,0x6f,0x6c,0x75,0x6d,0x65,0x69,0x50,0x3a,0x0b,0x40,0x70,0x69,0x74,0x63,0x68,0x69,0x69))
PictureDisplay(5,"80_mob_uranai1_st01",0,0,0,0,100,100,0,0)
PictureMove(5,null,0,0,0,0,100,100,255,0,30,true)
If(0,2331,1)
 ShowMessageFace("mob_uranai1_fc1",0,0,2,1)
 ShowMessage("\\n<Naia>Uhm... Do you want your fortune read?\nOr are you here for a Battle Fuck...?")
 0()
EndIf()
If(1,815,0,2,1)
 ShowMessageFace("mob_uranai1_fc1",0,0,2,2)
 ShowMessage("\\n<Naia>The bet is 270G.\nIf I lose, I can't offer anything...")
 0()
Else()
 ShowMessageFace("mob_uranai1_fc1",0,0,2,3)
 ShowMessage("\\n<Naia>The bet is 270G.\nIf I lose, I'll give you an accessory for black magic...")
 0()
EndIf()
ShowMessageFace("mob_uranai1_fc1",0,0,2,4)
ShowMessage("\\n<Naia>Uhm... Do you want a match?\nOr will you pass for now?")
ShowChoices(strings("Battle Fuck Challenge","Reconsider"),2)
IfPlayerPicksChoice(0,"バトルファックを挑む")
 If(7,270,0)
  If(0,2331,1)
   216(1)
   ShowMessageFace("",0,0,2,5)
   ShowMessage("Luka's friends leave the alley...")
   0()
  EndIf()
  RunCommonEvent(7142)
  EndEventProcessing()
  0()
 Else()
  ShowMessageFace("mob_uranai1_fc1",0,0,2,6)
  ShowMessage("\\n<Naia>Ah, you're short on money.\nMaybe some other time...")
  If(0,2331,1)
   PictureClear(5)
   241(bytes(0x04,0x08,0x6f,0x3a,0x0d,0x52,0x50,0x47,0x3a,0x3a,0x42,0x47,0x4d,0x08,0x3a,0x0a,0x40,0x6e,0x61,0x6d,0x65,0x49,0x22,0x0a,0x6d,0x75,0x72,0x61,0x36,0x06,0x3a,0x06,0x45,0x54,0x3a,0x0c,0x40,0x76,0x6f,0x6c,0x75,0x6d,0x65,0x69,0x69,0x3a,0x0b,0x40,0x70,0x69,0x74,0x63,0x68,0x69,0x69))
   0()
  EndIf()
  EndEventProcessing()
  0()
 EndIf()
 0()
IfPlayerPicksChoice(1,"やめておく")
 ShowMessageFace("mob_uranai1_fc1",0,0,2,7)
 ShowMessage("\\n<Naia>I see.\nMaybe some other time...")
 If(0,2331,1)
  PictureClear(5)
  241(bytes(0x04,0x08,0x6f,0x3a,0x0d,0x52,0x50,0x47,0x3a,0x3a,0x42,0x47,0x4d,0x08,0x3a,0x0a,0x40,0x6e,0x61,0x6d,0x65,0x49,0x22,0x0a,0x6d,0x75,0x72,0x61,0x36,0x06,0x3a,0x06,0x45,0x54,0x3a,0x0c,0x40,0x76,0x6f,0x6c,0x75,0x6d,0x65,0x69,0x69,0x3a,0x0b,0x40,0x70,0x69,0x74,0x63,0x68,0x69,0x69))
  0()
 EndIf()
 EndEventProcessing()
 0()
404()
0()
