// EVENT 2301
Name "Seduction: Manta Girl"

355("$game_troop.lose_event_id = 3301")
ChangeVariable(26,26,0,3,3,1,4)
ChangeVariable(26,26,4,0,10)
ShowMessageFace("manta_fc1",1,0,2,1)
ShowMessage("\\n<Manta Girl>")
ShowMessage("You are a strong one, aren't you?")
ShowMessage("I'll take your seed, and have a strong child!")
355("battler_graphic_hide")
PictureDisplay(5,"ev_manta_hb1",0,0,0,0,100,100,255,0)
ShowMessageFace("",0,0,2,2)
ShowMessage("Manta Girl forcibly presses Luka down!")
ShowMessageFace("manta_fc1",1,0,2,3)
ShowMessage("\\n<Manta Girl>")
ShowMessage("Let's mate!")
ShowMessage("Shoot all of your high quality semen into me!")
ChangeSwitch(98,98,0)
ChangeSwitch(96,96,0)
ShowChoices(strings("Struggle","Let her continue"),1)
IfPlayerPicksChoice(0,null)
 ShowMessageFace("",0,0,2,4)
 ShowMessage("Luka struggles, and breaks free!")
 RunCommonEvent(1999)
 EndEventProcessing()
 0()
IfPlayerPicksChoice(1,null)
 0()
404()
ShowMessageFace("manta_fc1",1,0,2,5)
ShowMessage("\\n<Manta Girl>")
ShowMessage("So you want to make a child with me...")
ShowMessage("All right, let's mate.")
ChangeVariable(26,26,3,0,4)
250(bytes(0x04,0x08,0x6f,0x3a,0x0c,0x52,0x50,0x47,0x3a,0x3a,0x53,0x45,0x08,0x3a,0x0a,0x40,0x6e,0x61,0x6d,0x65,0x49,0x22,0x11,0x6d,0x6f,0x6e,0x5f,0x65,0x72,0x6f,0x5f,0x70,0x79,0x75,0x31,0x06,0x3a,0x06,0x45,0x54,0x3a,0x0b,0x40,0x70,0x69,0x74,0x63,0x68,0x69,0x69,0x3a,0x0c,0x40,0x76,0x6f,0x6c,0x75,0x6d,0x65,0x69,0x69))
311(0,1,1,1,26,true)
ShowMessageFace("",0,0,2,6)
ShowMessage("The Manta Girl presses down, forcing Luka into her!")
ShowMessage("Her soft, tight vagina wraps around his penis!\\D")
ShowMessage("Luka takes \\V[26] damage!")
ChangeVariable(27,27,0,3,3,1,2)
If(1,27,0,0,0)
 JumpToLabel("射精1")
 0()
EndIf()
ShowMessageFace("manta_fc1",1,0,2,7)
ShowMessage("\\n<Manta Girl>")
ShowMessage("All you have to do is come now.")
ShowMessage("Here, I'll make it nice and tight...")
250(bytes(0x04,0x08,0x6f,0x3a,0x0c,0x52,0x50,0x47,0x3a,0x3a,0x53,0x45,0x08,0x3a,0x0a,0x40,0x6e,0x61,0x6d,0x65,0x49,0x22,0x13,0x6d,0x6f,0x6e,0x5f,0x65,0x72,0x6f,0x5f,0x63,0x68,0x75,0x70,0x61,0x34,0x06,0x3a,0x06,0x45,0x54,0x3a,0x0b,0x40,0x70,0x69,0x74,0x63,0x68,0x69,0x69,0x3a,0x0c,0x40,0x76,0x6f,0x6c,0x75,0x6d,0x65,0x69,0x69))
311(0,1,1,1,26,true)
ShowMessageFace("",0,0,2,8)
ShowMessage("The Manta Girl's vagina tightens around Luka!")
ShowMessage("Her hot flesh squeezes around him!\\D")
ShowMessage("Luka takes \\V[26] damage!")
ChangeVariable(27,27,0,3,3,1,2)
If(1,27,0,0,0)
 JumpToLabel("射精2")
 0()
EndIf()
ShowMessageFace("manta_fc1",1,0,2,9)
ShowMessage("\\n<Manta Girl>")
ShowMessage("Now, it's time to impregnate me.")
ShowMessage("I'll make it nice and tight, so do your job and come!")
250(bytes(0x04,0x08,0x6f,0x3a,0x0c,0x52,0x50,0x47,0x3a,0x3a,0x53,0x45,0x08,0x3a,0x0a,0x40,0x6e,0x61,0x6d,0x65,0x49,0x22,0x13,0x6d,0x6f,0x6e,0x5f,0x65,0x72,0x6f,0x5f,0x63,0x68,0x75,0x70,0x61,0x34,0x06,0x3a,0x06,0x45,0x54,0x3a,0x0b,0x40,0x70,0x69,0x74,0x63,0x68,0x69,0x69,0x3a,0x0c,0x40,0x76,0x6f,0x6c,0x75,0x6d,0x65,0x69,0x69))
311(0,1,1,1,26,true)
ShowMessageFace("",0,0,2,10)
ShowMessage("The Manta Girl tightens even more!")
ShowMessage("Getting even tighter, the stimulus forces Luka to come!\\D")
ShowMessage("Luka takes \\V[26] damage!")
ChangeVariable(27,27,0,3,3,1,2)
If(1,27,0,0,0)
 JumpToLabel("射精2")
 0()
EndIf()
DefineLabel("射精1")
ShowMessageFace("",0,0,2,11)
ShowMessage("\\n<Luka>No, I'm coming... Ahhh...")
RunCommonEvent(104)
PictureDisplay(5,"ev_manta_hb2",0,0,0,0,100,100,255,0)
RunCommonEvent(105)
ShowMessageFace("",0,0,2,12)
ShowMessage("The moment I'm forced into her, I come.")
ShowMessage("My semen pours deep into her...")
ShowMessageFace("manta_fc1",1,0,2,13)
ShowMessage("\\n<Manta Girl>")
ShowMessage("Even if we're just trying to make a baby, don't you think that was a bit too quick?")
ShowMessage("Ending it that fast isn't very fun...")
RunCommonEvent(2000)
EndEventProcessing()
DefineLabel("射精2")
ShowMessageFace("",0,0,2,14)
ShowMessage("\\n<Luka>No, I'm coming... Ahhh...")
RunCommonEvent(104)
PictureDisplay(5,"ev_manta_hb2",0,0,0,0,100,100,255,0)
RunCommonEvent(105)
ShowMessageFace("",0,0,2,15)
ShowMessage("As the Manta Girl's tight vagina seems to milk me, I come.")
ShowMessage("My semen pours deep into her...")
ShowMessageFace("manta_fc1",1,0,2,16)
ShowMessage("\\n<Manta Girl>")
ShowMessage("Fufu, so much seed.")
ShowMessage("With this, we can have a healthy baby...")
RunCommonEvent(2000)
EndEventProcessing()
0()
