// EVENT 0008
Name "Medal Queen"

ChangeVariable(10,10,0,3,0,32,0)
If(1,10,0,0,0)
 ShowMessageFace("grandnoa_fc1",3,0,2,1)
 ShowMessage("\\n<Medal Queen>You don't currently possess any small medals.\nHere is the list of items you can exchange any medals you find for.")
 0()
Else()
 ShowMessageFace("grandnoa_fc1",3,0,2,2)
 ShowMessage("\\n<Medal Queen>You currently possess \\V[10] small medals.\nWhich treasure would you like to exchange them for?")
 0()
EndIf()
DefineLabel("リスト")
ChangeVariable(10,10,0,3,0,32,0)
355("unlimited_choices(11,[\"Noble's Family Tree (3)\",")
655("\"Falcon Sword (5)\",\"Magic Cape (8)\",")
655("\"Magical Shield (10)\",")
655("\"Rainbow Dress (20)\",")
655("\"King's Proof (30)\",\"Caladbolg (40)\",")
655("\"Recruit Medal Queen (45)\",")
655("\"Archangel Bra (50)\",\"Never mind\"])")
If(1,11,0,0,0)
 If(8,619)
  ShowMessageFace("grandnoa_fc1",3,0,2,3)
  ShowMessage("\\n<Medal Queen>I believe you have already purchased a \\ii[619].\nAre there any other items you wish to purchase?")
  JumpToLabel("リスト")
  0()
 Else()
  If(1,10,0,3,1)
   ChangeInventory_Item(32,1,0,3)
   ChangeVariable(55,55,1,0,3)
   ShowMessageFace("grandnoa_fc1",3,0,2,4)
   ShowMessage("\\n<Medal Queen>It's a deal. Here you go.\nYou can now change your job to Noble.")
   250(bytes(0x04,0x08,0x6f,0x3a,0x0c,0x52,0x50,0x47,0x3a,0x3a,0x53,0x45,0x08,0x3a,0x0a,0x40,0x6e,0x61,0x6d,0x65,0x49,0x22,0x0a,0x49,0x74,0x65,0x6d,0x31,0x06,0x3a,0x06,0x45,0x54,0x3a,0x0b,0x40,0x70,0x69,0x74,0x63,0x68,0x69,0x69,0x3a,0x0c,0x40,0x76,0x6f,0x6c,0x75,0x6d,0x65,0x69,0x55))
   ChangeInventory_Item(619,0,0,1)
   ChangeInventoryArmor(259,0,0,1,false)
   ShowMessageFace("grandnoa_fc1",3,0,2,5)
   ShowMessage("\\n<Medal Queen>Are there any other items you wish to purchase?")
   JumpToLabel("リスト")
   0()
  Else()
   ShowMessageFace("grandnoa_fc1",3,0,2,6)
   ShowMessage("\\n<Medal Queen>I'm sorry, but you do not appear to have enough medals for that item.")
   JumpToLabel("リスト")
   0()
  EndIf()
  0()
 EndIf()
 0()
EndIf()
If(1,11,0,1,0)
 If(1,10,0,5,1)
  ChangeInventory_Item(32,1,0,5)
  ChangeVariable(55,55,1,0,5)
  ShowMessageFace("grandnoa_fc1",3,0,2,7)
  ShowMessage("\\n<Medal Queen>It's a deal. Here you go.")
  250(bytes(0x04,0x08,0x6f,0x3a,0x0c,0x52,0x50,0x47,0x3a,0x3a,0x53,0x45,0x08,0x3a,0x0a,0x40,0x6e,0x61,0x6d,0x65,0x49,0x22,0x0a,0x49,0x74,0x65,0x6d,0x31,0x06,0x3a,0x06,0x45,0x54,0x3a,0x0b,0x40,0x70,0x69,0x74,0x63,0x68,0x69,0x69,0x3a,0x0c,0x40,0x76,0x6f,0x6c,0x75,0x6d,0x65,0x69,0x55))
  ChangeInventoryWeapon(54,0,0,1,false)
  ShowMessageFace("grandnoa_fc1",3,0,2,8)
  ShowMessage("\\n<Medal Queen>Are there any other items you wish to purchase?")
  JumpToLabel("リスト")
  0()
 Else()
  ShowMessageFace("grandnoa_fc1",3,0,2,9)
  ShowMessage("\\n<Medal Queen>I'm sorry, but you do not appear to have enough medals for that item.")
  JumpToLabel("リスト")
  0()
 EndIf()
 0()
EndIf()
If(1,11,0,2,0)
 If(1,10,0,8,1)
  ChangeInventory_Item(32,1,0,8)
  ChangeVariable(55,55,1,0,8)
  ShowMessageFace("grandnoa_fc1",3,0,2,10)
  ShowMessage("\\n<Medal Queen>It's a deal. Here you go.")
  250(bytes(0x04,0x08,0x6f,0x3a,0x0c,0x52,0x50,0x47,0x3a,0x3a,0x53,0x45,0x08,0x3a,0x0a,0x40,0x6e,0x61,0x6d,0x65,0x49,0x22,0x0a,0x49,0x74,0x65,0x6d,0x31,0x06,0x3a,0x06,0x45,0x54,0x3a,0x0b,0x40,0x70,0x69,0x74,0x63,0x68,0x69,0x69,0x3a,0x0c,0x40,0x76,0x6f,0x6c,0x75,0x6d,0x65,0x69,0x55))
  ChangeInventoryArmor(10,0,0,1,false)
  ShowMessageFace("grandnoa_fc1",3,0,2,11)
  ShowMessage("\\n<Medal Queen>Are there any other items you wish to purchase?")
  JumpToLabel("リスト")
  0()
 Else()
  ShowMessageFace("grandnoa_fc1",3,0,2,12)
  ShowMessage("\\n<Medal Queen>I'm sorry, but you do not appear to have enough medals for that item.")
  JumpToLabel("リスト")
  0()
 EndIf()
 0()
EndIf()
If(1,11,0,3,0)
 If(1,10,0,10,1)
  ChangeInventory_Item(32,1,0,10)
  ChangeVariable(55,55,1,0,10)
  ShowMessageFace("grandnoa_fc1",3,0,2,13)
  ShowMessage("\\n<Medal Queen>It's a deal. Here you go.")
  250(bytes(0x04,0x08,0x6f,0x3a,0x0c,0x52,0x50,0x47,0x3a,0x3a,0x53,0x45,0x08,0x3a,0x0a,0x40,0x6e,0x61,0x6d,0x65,0x49,0x22,0x0a,0x49,0x74,0x65,0x6d,0x31,0x06,0x3a,0x06,0x45,0x54,0x3a,0x0b,0x40,0x70,0x69,0x74,0x63,0x68,0x69,0x69,0x3a,0x0c,0x40,0x76,0x6f,0x6c,0x75,0x6d,0x65,0x69,0x55))
  ChangeInventoryArmor(277,0,0,1,false)
  ShowMessageFace("grandnoa_fc1",3,0,2,14)
  ShowMessage("\\n<Medal Queen>Are there any other items you wish to purchase?")
  JumpToLabel("リスト")
  0()
 Else()
  ShowMessageFace("grandnoa_fc1",3,0,2,15)
  ShowMessage("\\n<Medal Queen>I'm sorry, but you do not appear to have enough medals for that item.")
  JumpToLabel("リスト")
  0()
 EndIf()
 0()
EndIf()
If(1,11,0,4,0)
 If(1,10,0,20,1)
  ChangeInventory_Item(32,1,0,20)
  ChangeVariable(55,55,1,0,20)
  ShowMessageFace("grandnoa_fc1",3,0,2,16)
  ShowMessage("\\n<Medal Queen>It's a deal. Here you go.")
  250(bytes(0x04,0x08,0x6f,0x3a,0x0c,0x52,0x50,0x47,0x3a,0x3a,0x53,0x45,0x08,0x3a,0x0a,0x40,0x6e,0x61,0x6d,0x65,0x49,0x22,0x0a,0x49,0x74,0x65,0x6d,0x31,0x06,0x3a,0x06,0x45,0x54,0x3a,0x0b,0x40,0x70,0x69,0x74,0x63,0x68,0x69,0x69,0x3a,0x0c,0x40,0x76,0x6f,0x6c,0x75,0x6d,0x65,0x69,0x55))
  ChangeInventoryArmor(156,0,0,1,false)
  ShowMessageFace("grandnoa_fc1",3,0,2,17)
  ShowMessage("\\n<Medal Queen>Are there any other items you wish to purchase?")
  JumpToLabel("リスト")
  0()
 Else()
  ShowMessageFace("grandnoa_fc1",3,0,2,18)
  ShowMessage("\\n<Medal Queen>I'm sorry, but you do not appear to have enough medals for that item.")
  JumpToLabel("リスト")
  0()
 EndIf()
 0()
EndIf()
If(1,11,0,5,0)
 If(8,620)
  ShowMessageFace("grandnoa_fc1",3,0,2,19)
  ShowMessage("\\n<Medal Queen>I believe you have already purchased the \\ii[620].\nAre there any other items you wish to purchase?")
  JumpToLabel("リスト")
  0()
 Else()
  If(1,10,0,30,1)
   ChangeInventory_Item(32,1,0,30)
   ChangeVariable(55,55,1,0,30)
   ShowMessageFace("grandnoa_fc1",3,0,2,20)
   ShowMessage("\\n<Medal Queen>It's a deal. Here you go.\nYou can now change your job to King.")
   ShowMessageFace("grandnoa_fc1",3,0,2,21)
   ShowMessage("\\n<Medal Queen>Keep in mind that mastering Warrior and Noble are prerequisites to being a King.")
   250(bytes(0x04,0x08,0x6f,0x3a,0x0c,0x52,0x50,0x47,0x3a,0x3a,0x53,0x45,0x08,0x3a,0x0a,0x40,0x6e,0x61,0x6d,0x65,0x49,0x22,0x0a,0x49,0x74,0x65,0x6d,0x31,0x06,0x3a,0x06,0x45,0x54,0x3a,0x0b,0x40,0x70,0x69,0x74,0x63,0x68,0x69,0x69,0x3a,0x0c,0x40,0x76,0x6f,0x6c,0x75,0x6d,0x65,0x69,0x55))
   ChangeInventory_Item(620,0,0,1)
   ChangeInventoryArmor(269,0,0,1,false)
   ShowMessageFace("grandnoa_fc1",3,0,2,22)
   ShowMessage("\\n<Medal Queen>Are there any other items you wish to purchase?")
   JumpToLabel("リスト")
   0()
  Else()
   ShowMessageFace("grandnoa_fc1",3,0,2,23)
   ShowMessage("\\n<Medal Queen>I'm sorry, but you do not appear to have enough medals for that item.")
   JumpToLabel("リスト")
   0()
  EndIf()
  0()
 EndIf()
 0()
EndIf()
If(1,11,0,6,0)
 If(1,10,0,40,1)
  ChangeInventory_Item(32,1,0,40)
  ChangeVariable(55,55,1,0,40)
  ShowMessageFace("grandnoa_fc1",3,0,2,24)
  ShowMessage("\\n<Medal Queen>It's a deal. Here you go.")
  250(bytes(0x04,0x08,0x6f,0x3a,0x0c,0x52,0x50,0x47,0x3a,0x3a,0x53,0x45,0x08,0x3a,0x0a,0x40,0x6e,0x61,0x6d,0x65,0x49,0x22,0x0a,0x49,0x74,0x65,0x6d,0x31,0x06,0x3a,0x06,0x45,0x54,0x3a,0x0b,0x40,0x70,0x69,0x74,0x63,0x68,0x69,0x69,0x3a,0x0c,0x40,0x76,0x6f,0x6c,0x75,0x6d,0x65,0x69,0x55))
  ChangeInventoryWeapon(182,0,0,1,false)
  ShowMessageFace("grandnoa_fc1",3,0,2,25)
  ShowMessage("\\n<Medal Queen>Are there any other items you wish to purchase?")
  JumpToLabel("リスト")
  0()
 Else()
  ShowMessageFace("grandnoa_fc1",3,0,2,26)
  ShowMessage("\\n<Medal Queen>I'm sorry, but you do not appear to have enough medals for that item.")
  JumpToLabel("リスト")
  0()
 EndIf()
 0()
EndIf()
If(1,11,0,7,0)
 If(0,1533,1)
  If(1,10,0,45,1)
   If(1,10,0,19,2)
    ShowMessageFace("grandnoa_fc1",3,0,2,27)
    ShowMessage("\\n<Medal Queen>You are not yet strong enough for me to join. Please reach level 20 first.")
    JumpToLabel("リスト")
    0()
   Else()
    ChangeInventory_Item(32,1,0,45)
    ChangeVariable(55,55,1,0,45)
    ShowMessageFace("grandnoa_fc1",3,0,2,28)
    ShowMessage("\\n<Medal Queen>You want me to join your party?\nI suppose if you have the medals, I have to honor the deal...")
    ChangeVariable(11,11,0,4,"$game_actors[1].base_level")
    ShowMessageFace("grandnoa_fc1",3,0,2,29)
    ShowMessage("\\n<Medal Queen>If you want to exchange medals in the future, remove me from the party and I'll be waiting here in this castle for you.")
    205(0,bytes(0x04,0x08,0x6f,0x3a,0x13,0x52,0x50,0x47,0x3a,0x3a,0x4d,0x6f,0x76,0x65,0x52,0x6f,0x75,0x74,0x65,0x09,0x3a,0x0c,0x40,0x72,0x65,0x70,0x65,0x61,0x74,0x46,0x3a,0x0f,0x40,0x73,0x6b,0x69,0x70,0x70,0x61,0x62,0x6c,0x65,0x46,0x3a,0x0a,0x40,0x77,0x61,0x69,0x74,0x54,0x3a,0x0a,0x40,0x6c,0x69,0x73,0x74,0x5b,0x09,0x6f,0x3a,0x15,0x52,0x50,0x47,0x3a,0x3a,0x4d,0x6f,0x76,0x65,0x43,0x6f,0x6d,0x6d,0x61,0x6e,0x64,0x07,0x3a,0x0a,0x40,0x63,0x6f,0x64,0x65,0x69,0x2a,0x3a,0x10,0x40,0x70,0x61,0x72,0x61,0x6d,0x65,0x74,0x65,0x72,0x73,0x5b,0x00,0x6f,0x3b,0x0a,0x07,0x3b,0x0b,0x69,0x0f,0x3b,0x0c,0x5b,0x00,0x6f,0x3b,0x0a,0x07,0x3b,0x0b,0x69,0x2c,0x3b,0x0c,0x5b,0x00,0x6f,0x3b,0x0a,0x07,0x3b,0x0b,0x69,0x00,0x3b,0x0c,0x5b,0x00))
    505(bytes(0x04,0x08,0x6f,0x3a,0x15,0x52,0x50,0x47,0x3a,0x3a,0x4d,0x6f,0x76,0x65,0x43,0x6f,0x6d,0x6d,0x61,0x6e,0x64,0x07,0x3a,0x0a,0x40,0x63,0x6f,0x64,0x65,0x69,0x2a,0x3a,0x10,0x40,0x70,0x61,0x72,0x61,0x6d,0x65,0x74,0x65,0x72,0x73,0x5b,0x00))
    505(bytes(0x04,0x08,0x6f,0x3a,0x15,0x52,0x50,0x47,0x3a,0x3a,0x4d,0x6f,0x76,0x65,0x43,0x6f,0x6d,0x6d,0x61,0x6e,0x64,0x07,0x3a,0x0a,0x40,0x63,0x6f,0x64,0x65,0x69,0x0f,0x3a,0x10,0x40,0x70,0x61,0x72,0x61,0x6d,0x65,0x74,0x65,0x72,0x73,0x5b,0x00))
    505(bytes(0x04,0x08,0x6f,0x3a,0x15,0x52,0x50,0x47,0x3a,0x3a,0x4d,0x6f,0x76,0x65,0x43,0x6f,0x6d,0x6d,0x61,0x6e,0x64,0x07,0x3a,0x0a,0x40,0x63,0x6f,0x64,0x65,0x69,0x2c,0x3a,0x10,0x40,0x70,0x61,0x72,0x61,0x6d,0x65,0x74,0x65,0x72,0x73,0x5b,0x00))
    355("add_actor_ex(533)")
    249(bytes(0x04,0x08,0x6f,0x3a,0x0c,0x52,0x50,0x47,0x3a,0x3a,0x4d,0x45,0x08,0x3a,0x0a,0x40,0x6e,0x61,0x6d,0x65,0x49,0x22,0x0c,0x66,0x61,0x6e,0x66,0x61,0x6c,0x65,0x06,0x3a,0x06,0x45,0x54,0x3a,0x0b,0x40,0x70,0x69,0x74,0x63,0x68,0x69,0x69,0x3a,0x0c,0x40,0x76,0x6f,0x6c,0x75,0x6d,0x65,0x69,0x69))
    ShowMessageFace("",0,0,2,30)
    ShowMessage("The Queen of Grand Noah has joined the party!")
    Wait(60)
    0()
   EndIf()
   0()
  Else()
   ShowMessageFace("grandnoa_fc1",3,0,2,31)
   ShowMessage("\\n<Medal Queen>I'm sorry, but you do not appear to have enough medals for that item.")
   JumpToLabel("リスト")
   0()
  EndIf()
  0()
 Else()
  ShowMessageFace("grandnoa_fc1",3,0,2,32)
  ShowMessage("\\n<Medal Queen>I am already your companion.\nAre there any other items you wish to purchase?")
  JumpToLabel("リスト")
  0()
 EndIf()
 0()
EndIf()
If(1,11,0,8,0)
 If(1,10,0,50,1)
  ChangeInventory_Item(32,1,0,50)
  ChangeVariable(55,55,1,0,50)
  ShowMessageFace("grandnoa_fc1",3,0,2,33)
  ShowMessage("\\n<Medal Queen>It's a deal. Here you go.")
  250(bytes(0x04,0x08,0x6f,0x3a,0x0c,0x52,0x50,0x47,0x3a,0x3a,0x53,0x45,0x08,0x3a,0x0a,0x40,0x6e,0x61,0x6d,0x65,0x49,0x22,0x0a,0x49,0x74,0x65,0x6d,0x31,0x06,0x3a,0x06,0x45,0x54,0x3a,0x0b,0x40,0x70,0x69,0x74,0x63,0x68,0x69,0x69,0x3a,0x0c,0x40,0x76,0x6f,0x6c,0x75,0x6d,0x65,0x69,0x55))
  ChangeInventoryArmor(174,0,0,1,false)
  ShowMessageFace("grandnoa_fc1",3,0,2,34)
  ShowMessage("\\n<Medal Queen>Are there any other items you wish to purchase?")
  JumpToLabel("リスト")
  0()
 Else()
  ShowMessageFace("grandnoa_fc1",3,0,2,35)
  ShowMessage("\\n<Medal Queen>I'm sorry, but you do not appear to have enough medals for that item.")
  JumpToLabel("リスト")
  0()
 EndIf()
 0()
EndIf()
ShowMessageFace("grandnoa_fc1",3,0,2,36)
ShowMessage("\\n<Medal Queen>Please collect more medals and return. I look forward to seeing you again.")
If(1,55,0,3,1)
 355("gain_medal(1401)")
 0()
EndIf()
If(1,55,0,15,1)
 355("gain_medal(1402)")
 0()
EndIf()
If(1,55,0,50,1)
 355("gain_medal(1403)")
 0()
EndIf()
PictureClear(5)
EndEventProcessing()
0()
