﻿// EVENT 7332
Name "Ariadne: Match"

ChangeSwitch(96,96,0)
ChangeSwitch(98,98,0)
ShowMessageFace("mob_kaizoku1_fc1",0,0,2,1)
ShowMessage("\\n<Ariadne>All right, it's a match!\nI'll play with you using these breasts!")
250(bytes(0x04,0x08,0x6f,0x3a,0x0c,0x52,0x50,0x47,0x3a,0x3a,0x53,0x45,0x08,0x3a,0x0a,0x40,0x6e,0x61,0x6d,0x65,0x49,0x22,0x12,0x6d,0x6f,0x6e,0x5f,0x65,0x72,0x6f,0x5f,0x6b,0x6f,0x6b,0x69,0x31,0x06,0x3a,0x06,0x45,0x54,0x3a,0x0b,0x40,0x70,0x69,0x74,0x63,0x68,0x69,0x69,0x3a,0x0c,0x40,0x76,0x6f,0x6c,0x75,0x6d,0x65,0x69,0x69))
PictureDisplay(5,"ev_mob_kaizoku1_h1",0,0,0,0,100,100,255,0)
ChangeVariable(11,11,0,2,280,320)
311(0,1,1,1,11,true)
ShowMessageFace("",0,0,2,2)
ShowMessage("Ariadne holds Luka's penis between her plump breasts!\nTheir soft elasticity squeezes tightly around his dick!\\D")
ShowMessage("Luka takes \\V[11] damage!")
ChangeVariable(27,27,0,3,3,1,2)
If(1,27,0,0,0)
 RunCommonEvent(7335)
 EndEventProcessing()
 0()
EndIf()
ShowMessageFace("mob_kaizoku1_fc1",0,0,2,3)
ShowMessage("\\n<Ariadne>First, I'll squeeze you slowly like this...")
250(bytes(0x04,0x08,0x6f,0x3a,0x0c,0x52,0x50,0x47,0x3a,0x3a,0x53,0x45,0x08,0x3a,0x0a,0x40,0x6e,0x61,0x6d,0x65,0x49,0x22,0x12,0x6d,0x6f,0x6e,0x5f,0x65,0x72,0x6f,0x5f,0x6b,0x6f,0x6b,0x69,0x31,0x06,0x3a,0x06,0x45,0x54,0x3a,0x0b,0x40,0x70,0x69,0x74,0x63,0x68,0x69,0x69,0x3a,0x0c,0x40,0x76,0x6f,0x6c,0x75,0x6d,0x65,0x69,0x69))
ChangeVariable(11,11,0,2,280,320)
311(0,1,1,1,11,true)
ShowMessageFace("",0,0,2,4)
ShowMessage("Ariadne skillfully manipulated her breasts using her bra!\nLuka's penis is gradually squeezed by the strengthened pressure between her cleavage!\\D")
ShowMessage("Luka takes \\V[11] damage!")
ChangeVariable(27,27,0,3,3,1,2)
If(1,27,0,0,0)
 RunCommonEvent(7336)
 EndEventProcessing()
 0()
EndIf()
250(bytes(0x04,0x08,0x6f,0x3a,0x0c,0x52,0x50,0x47,0x3a,0x3a,0x53,0x45,0x08,0x3a,0x0a,0x40,0x6e,0x61,0x6d,0x65,0x49,0x22,0x12,0x6d,0x6f,0x6e,0x5f,0x65,0x72,0x6f,0x5f,0x6b,0x6f,0x6b,0x69,0x31,0x06,0x3a,0x06,0x45,0x54,0x3a,0x0b,0x40,0x70,0x69,0x74,0x63,0x68,0x69,0x69,0x3a,0x0c,0x40,0x76,0x6f,0x6c,0x75,0x6d,0x65,0x69,0x69))
ChangeVariable(11,11,0,2,280,320)
311(0,1,1,1,11,true)
ShowMessageFace("",0,0,2,5)
ShowMessage("Luka's penis is squeezed tighter by her breasts!\nHis dick is given elastic pleasure as it is pressed harder between her cleavage!\\D")
ShowMessage("Luka takes \\V[11] damage!")
ChangeVariable(27,27,0,3,3,1,2)
If(1,27,0,0,0)
 RunCommonEvent(7336)
 EndEventProcessing()
 0()
EndIf()
ShowMessageFace("mob_kaizoku1_fc1",0,0,2,6)
ShowMessage("\\n<Ariadne>If I stroke you more like this...\n...Haha, does it feel good?")
250(bytes(0x04,0x08,0x6f,0x3a,0x0c,0x52,0x50,0x47,0x3a,0x3a,0x53,0x45,0x08,0x3a,0x0a,0x40,0x6e,0x61,0x6d,0x65,0x49,0x22,0x12,0x6d,0x6f,0x6e,0x5f,0x65,0x72,0x6f,0x5f,0x6b,0x6f,0x6b,0x69,0x31,0x06,0x3a,0x06,0x45,0x54,0x3a,0x0b,0x40,0x70,0x69,0x74,0x63,0x68,0x69,0x69,0x3a,0x0c,0x40,0x76,0x6f,0x6c,0x75,0x6d,0x65,0x69,0x69))
ChangeVariable(11,11,0,2,280,320)
311(0,1,1,1,11,true)
ShowMessageFace("",0,0,2,7)
ShowMessage("Ariadne skillfully shakes her breasts, stimulating Luka's penis! His dick is drawn through their flabby, elastic volume!\\D")
ShowMessage("Luka takes \\V[11] damage!")
ChangeVariable(27,27,0,3,3,1,2)
If(1,27,0,0,0)
 RunCommonEvent(7336)
 EndEventProcessing()
 0()
EndIf()
250(bytes(0x04,0x08,0x6f,0x3a,0x0c,0x52,0x50,0x47,0x3a,0x3a,0x53,0x45,0x08,0x3a,0x0a,0x40,0x6e,0x61,0x6d,0x65,0x49,0x22,0x12,0x6d,0x6f,0x6e,0x5f,0x65,0x72,0x6f,0x5f,0x6b,0x6f,0x6b,0x69,0x31,0x06,0x3a,0x06,0x45,0x54,0x3a,0x0b,0x40,0x70,0x69,0x74,0x63,0x68,0x69,0x69,0x3a,0x0c,0x40,0x76,0x6f,0x6c,0x75,0x6d,0x65,0x69,0x69))
ChangeVariable(11,11,0,2,280,320)
311(0,1,1,1,11,true)
ShowMessageFace("",0,0,2,8)
ShowMessage("She continues to torture Luka's penis between her cleavage!\nHer breasts give a soft stimulation as she carefully strokes it!\\D")
ShowMessage("Luka takes \\V[11] damage!")
ChangeVariable(27,27,0,3,3,1,2)
If(1,27,0,0,0)
 RunCommonEvent(7336)
 EndEventProcessing()
 0()
EndIf()
If(1,27,0,175,4)
 ShowMessageFace("ruka_fc1",0,0,2,9)
 ShowMessage("\\n<Luka>Ah, ahh...")
 ShowMessageFace("mob_kaizoku1_fc1",0,0,2,10)
 ShowMessage("\\n<Ariadne>Aha, what a pathetic voice.\nAt this rate, you'll be spraying semen on my chest!")
 0()
Else()
 ShowMessageFace("mob_kaizoku1_fc1",0,0,2,11)
 ShowMessage("\\n<Ariadne>Haha, this is getting fun.\nI'll soon have you spraying semen on my chest!")
 0()
EndIf()
250(bytes(0x04,0x08,0x6f,0x3a,0x0c,0x52,0x50,0x47,0x3a,0x3a,0x53,0x45,0x08,0x3a,0x0a,0x40,0x6e,0x61,0x6d,0x65,0x49,0x22,0x12,0x6d,0x6f,0x6e,0x5f,0x65,0x72,0x6f,0x5f,0x6b,0x6f,0x6b,0x69,0x31,0x06,0x3a,0x06,0x45,0x54,0x3a,0x0b,0x40,0x70,0x69,0x74,0x63,0x68,0x69,0x69,0x3a,0x0c,0x40,0x76,0x6f,0x6c,0x75,0x6d,0x65,0x69,0x69))
ChangeVariable(11,11,0,2,280,320)
311(0,1,1,1,11,true)
ShowMessageFace("",0,0,2,12)
ShowMessage("Ariadne squeezes Luka's penis tighter between her cleavage! Her breasts adhere to his dick, pressuring it!\\D")
ShowMessage("Luka takes \\V[11] damage!")
ChangeVariable(27,27,0,3,3,1,2)
If(1,27,0,0,0)
 RunCommonEvent(7336)
 EndEventProcessing()
 0()
EndIf()
250(bytes(0x04,0x08,0x6f,0x3a,0x0c,0x52,0x50,0x47,0x3a,0x3a,0x53,0x45,0x08,0x3a,0x0a,0x40,0x6e,0x61,0x6d,0x65,0x49,0x22,0x12,0x6d,0x6f,0x6e,0x5f,0x65,0x72,0x6f,0x5f,0x6b,0x6f,0x6b,0x69,0x31,0x06,0x3a,0x06,0x45,0x54,0x3a,0x0b,0x40,0x70,0x69,0x74,0x63,0x68,0x69,0x69,0x3a,0x0c,0x40,0x76,0x6f,0x6c,0x75,0x6d,0x65,0x69,0x69))
ChangeVariable(11,11,0,2,280,320)
311(0,1,1,1,11,true)
ShowMessageFace("",0,0,2,13)
ShowMessage("She moves her breasts up and down, rubbing Luka's penis!\nHis dick is played with between her cleavage!\\D")
ShowMessage("Luka takes \\V[11] damage!")
ChangeVariable(27,27,0,3,3,1,2)
If(1,27,0,0,0)
 RunCommonEvent(7336)
 EndEventProcessing()
 0()
EndIf()
ShowMessageFace("mob_kaizoku1_fc1",0,0,2,14)
ShowMessage("\\n<Ariadne>Hora hora, how do you like my breasts?\nI won't let you endure any longer, so come quickly!")
250(bytes(0x04,0x08,0x6f,0x3a,0x0c,0x52,0x50,0x47,0x3a,0x3a,0x53,0x45,0x08,0x3a,0x0a,0x40,0x6e,0x61,0x6d,0x65,0x49,0x22,0x12,0x6d,0x6f,0x6e,0x5f,0x65,0x72,0x6f,0x5f,0x6b,0x6f,0x6b,0x69,0x31,0x06,0x3a,0x06,0x45,0x54,0x3a,0x0b,0x40,0x70,0x69,0x74,0x63,0x68,0x69,0x69,0x3a,0x0c,0x40,0x76,0x6f,0x6c,0x75,0x6d,0x65,0x69,0x69))
ChangeVariable(11,11,0,2,280,320)
311(0,1,1,1,11,true)
ShowMessageFace("",0,0,2,15)
ShowMessage("Ariadne applies force to her breasts and tightly presses against Luka's penis! His dick is given pleasure from the forceful softness!\\D")
ShowMessage("Luka takes \\V[11] damage!")
ChangeVariable(27,27,0,3,3,1,2)
If(1,27,0,0,0)
 RunCommonEvent(7336)
 EndEventProcessing()
 0()
EndIf()
250(bytes(0x04,0x08,0x6f,0x3a,0x0c,0x52,0x50,0x47,0x3a,0x3a,0x53,0x45,0x08,0x3a,0x0a,0x40,0x6e,0x61,0x6d,0x65,0x49,0x22,0x12,0x6d,0x6f,0x6e,0x5f,0x65,0x72,0x6f,0x5f,0x6b,0x6f,0x6b,0x69,0x31,0x06,0x3a,0x06,0x45,0x54,0x3a,0x0b,0x40,0x70,0x69,0x74,0x63,0x68,0x69,0x69,0x3a,0x0c,0x40,0x76,0x6f,0x6c,0x75,0x6d,0x65,0x69,0x69))
ChangeVariable(11,11,0,2,280,320)
311(0,1,1,1,11,true)
ShowMessageFace("",0,0,2,16)
ShowMessage("She kneads Luka's penis with her breasts!\nThe intense rubbing stimulation gives a sweet pleasure to his dick!\\D")
ShowMessage("Luka takes \\V[11] damage!")
ChangeVariable(27,27,0,3,3,1,2)
If(1,27,0,0,0)
 RunCommonEvent(7336)
 EndEventProcessing()
 0()
EndIf()
ShowMessageFace("mob_kaizoku1_fc1",0,0,2,17)
ShowMessage("\\n<Ariadne>Now, for the finisher!\nMeet an unsightly end from my breast skills!")
250(bytes(0x04,0x08,0x6f,0x3a,0x0c,0x52,0x50,0x47,0x3a,0x3a,0x53,0x45,0x08,0x3a,0x0a,0x40,0x6e,0x61,0x6d,0x65,0x49,0x22,0x12,0x6d,0x6f,0x6e,0x5f,0x65,0x72,0x6f,0x5f,0x6b,0x6f,0x6b,0x69,0x31,0x06,0x3a,0x06,0x45,0x54,0x3a,0x0b,0x40,0x70,0x69,0x74,0x63,0x68,0x69,0x69,0x3a,0x0c,0x40,0x76,0x6f,0x6c,0x75,0x6d,0x65,0x69,0x69))
ChangeVariable(11,11,0,2,280,320)
311(0,1,1,1,11,true)
ShowMessageFace("",0,0,2,18)
ShowMessage("Ariadne tightly squeezes Luka's penis between her cleavage! She skillfully moves her breasts up and down at the same time she's crushing his dick!\\D")
ShowMessage("Luka takes \\V[11] damage!")
ChangeVariable(27,27,0,3,3,1,2)
If(1,27,0,0,0)
 RunCommonEvent(7336)
 EndEventProcessing()
 0()
EndIf()
RunCommonEvent(7334)
EndEventProcessing()
0()
