﻿// EVENT 0541
Name "ループ：ループ後処理"

Wait(30)
PictureDisplay(1,"sys_black",0,0,0,0,100,100,255,0)
222()
250(bytes(0x04,0x08,0x6f,0x3a,0x0c,0x52,0x50,0x47,0x3a,0x3a,0x53,0x45,0x08,0x3a,0x0a,0x40,0x6e,0x61,0x6d,0x65,0x49,0x22,0x10,0x73,0x61,0x63,0x63,0x75,0x70,0x5f,0x72,0x6f,0x6f,0x70,0x06,0x3a,0x06,0x45,0x54,0x3a,0x0b,0x40,0x70,0x69,0x74,0x63,0x68,0x69,0x69,0x3a,0x0c,0x40,0x76,0x6f,0x6c,0x75,0x6d,0x65,0x69,0x69))
PictureDisplay(2,"iv_returna1",0,0,0,0,100,100,255,0)
Wait(3)
PictureDisplay(2,"iv_returna2",0,0,0,0,100,100,255,0)
Wait(3)
PictureDisplay(2,"iv_returna3",0,0,0,0,100,100,255,0)
Wait(3)
PictureDisplay(2,"iv_returna4",0,0,0,0,100,100,255,0)
Wait(3)
PictureDisplay(2,"iv_returna5",0,0,0,0,100,100,255,0)
Wait(3)
PictureDisplay(2,"iv_returna6",0,0,0,0,100,100,255,0)
Wait(3)
PictureDisplay(2,"iv_returna7",0,0,0,0,100,100,255,0)
Wait(3)
PictureDisplay(2,"iv_returna8",0,0,0,0,100,100,255,0)
Wait(3)
PictureDisplay(2,"iv_returna9",0,0,0,0,100,100,255,0)
Wait(3)
PictureDisplay(2,"iv_returna10",0,0,0,0,100,100,255,0)
Wait(10)
PictureDisplay(2,"iv_return6",0,0,0,0,100,100,255,0)
Wait(5)
PictureDisplay(2,"iv_return7",0,0,0,0,100,100,255,0)
Wait(5)
PictureDisplay(2,"iv_return8",0,0,0,0,100,100,255,0)
Wait(5)
PictureDisplay(2,"iv_return9",0,0,0,0,100,100,255,0)
Wait(5)
PictureDisplay(2,"iv_return10",0,0,0,0,100,100,255,0)
Wait(5)
PictureDisplay(2,"sys_white",0,0,0,0,100,100,255,0)
TeleportPlayer(0,77,3,18,6,2)
355("set_temp_actors(1)")
211(1)
ChangeVariable(1099,1099,0,0,1)
ChangeVariable(1100,1100,1,0,1)
ChangeVariable(1104,1104,0,0,0)
ChangeVariable(1108,1108,0,0,0)
ChangeVariable(1109,1109,0,0,0)
ChangeVariable(1110,1110,0,0,0)
ChangeVariable(1111,1111,0,0,0)
ChangeVariable(1120,1120,0,1,1112)
ChangeVariable(1112,1112,0,0,0)
ChangeVariable(1113,1113,0,0,0)
ChangeVariable(1114,1114,0,0,0)
ChangeVariable(1115,1115,0,0,0)
ChangeVariable(1116,1116,0,0,0)
ChangeVariable(1117,1117,0,0,0)
ChangeSwitch(31,39,1)
ChangeSwitch(2337,2337,0)
ChangeSwitch(2338,2338,1)
ChangeSwitch(2344,2344,1)
ChangeSwitch(2346,2346,1)
ChangeSwitch(2347,2347,1)
ChangeSwitch(2348,2348,1)
ChangeSwitch(2349,2349,1)
ChangeSwitch(2350,2350,1)
ChangeSwitch(2351,2351,1)
ChangeSwitch(2352,2352,1)
ChangeSwitch(2353,2353,1)
ChangeSwitch(2354,2354,1)
ChangeSwitch(2357,2357,1)
ChangeSwitch(2358,2358,1)
ChangeSwitch(2362,2362,1)
ChangeSwitch(2363,2363,1)
ChangeSwitch(2367,2367,1)
ChangeSwitch(2368,2368,1)
ChangeSwitch(2369,2369,1)
ChangeSwitch(2371,2371,1)
ChangeSwitch(2373,2373,1)
ChangeSwitch(2375,2375,1)
ChangeSwitch(2376,2376,1)
ChangeSwitch(2377,2377,1)
ChangeSwitch(2378,2378,1)
ChangeSwitch(2379,2379,1)
ChangeSwitch(2380,2380,1)
ChangeSwitch(2381,2381,1)
ChangeSwitch(2382,2382,1)
ChangeSwitch(2383,2383,1)
ChangeSwitch(2384,2384,1)
ChangeSwitch(2385,2385,1)
ChangeSwitch(2386,2386,1)
ChangeSwitch(2387,2387,1)
ChangeSwitch(2388,2388,1)
ChangeSwitch(2389,2389,1)
ChangeSwitch(2390,2390,1)
ChangeSwitch(2391,2391,1)
ChangeSwitch(2392,2392,1)
ChangeSwitch(2393,2393,1)
ChangeSwitch(2395,2395,1)
ChangeSwitch(2396,2396,1)
ChangeSwitch(2400,2400,1)
ChangeSwitch(2401,2401,1)
ChangeSwitch(2402,2402,1)
ChangeSwitch(2403,2403,1)
ChangeSwitch(2416,2416,1)
ChangeSwitch(2417,2417,1)
ChangeSwitch(2419,2419,1)
ChangeSwitch(2420,2420,1)
ChangeSwitch(2421,2421,1)
ChangeSwitch(2422,2422,1)
ChangeSwitch(2423,2423,1)
ChangeSwitch(2425,2425,1)
ChangeSwitch(2428,2428,1)
ChangeSwitch(2429,2429,1)
ChangeSwitch(2430,2430,1)
If(1,1105,0,6,0)
 ChangeVariable(1105,1105,0,0,5)
 0()
EndIf()
If(1,1107,0,4,1)
 ChangeVariable(1107,1107,0,0,3)
 0()
EndIf()
PictureMove(1,null,0,0,0,0,100,100,0,0,60,true)
PictureMove(2,null,0,0,0,0,100,100,0,0,60,true)
PictureClear(1)
PictureClear(2)
Wait(30)
241(bytes(0x04,0x08,0x6f,0x3a,0x0d,0x52,0x50,0x47,0x3a,0x3a,0x42,0x47,0x4d,0x08,0x3a,0x0a,0x40,0x6e,0x61,0x6d,0x65,0x49,0x22,0x0c,0x63,0x61,0x73,0x74,0x6c,0x65,0x36,0x06,0x3a,0x06,0x45,0x54,0x3a,0x0c,0x40,0x76,0x6f,0x6c,0x75,0x6d,0x65,0x69,0x69,0x3a,0x0b,0x40,0x70,0x69,0x74,0x63,0x68,0x69,0x69))
ShowMessageFace("",0,1,1,1)
ShowMessage("現在時刻　午後１：００")
If(1,1098,0,6,0)
 ChangeVariable(1098,1098,0,0,7)
 ShowMessageFace("ruka_fc1",0,0,2,2)
 ShowMessage("【ルカ】")
 ShowMessage("えっ……！？")
 ShowMessageFace("",0,0,2,3)
 ShowMessage("ラミアに丸呑みにされ、恍惚の中で意識が消え――")
 ShowMessage("気付けば僕は、ポケット魔王城の中で突っ立っていた。")
 ShowMessageFace("",0,0,2,4)
 ShowMessage("現在時刻は、午後一時。")
 ShowMessage("さっき、五時の鐘を聞いたはずなのに――")
 ShowMessageFace("ruka_fc1",0,0,2,5)
 ShowMessage("【ルカ】")
 ShowMessage("どうなってるんだ？　さっきのは……夢？")
 ShowMessageFace("",0,0,2,6)
 ShowMessage("ソニアともども、突然に仲間に丸呑みにされる――")
 ShowMessage("これが悪夢でなくて、何だというのだろう。")
 ShowMessageFace("ruka_fc1",0,0,2,7)
 ShowMessage("【ルカ】")
 ShowMessage("なんだか、生々しい夢だったな……")
 ShowMessageFace("gob_fc1",0,0,2,8)
 ShowMessage("【ゴブ】")
 ShowMessage("おーい！　ピザの配達だよー！")
 ShowMessageFace("ruka_fc1",0,0,2,9)
 ShowMessage("【ルカ】")
 ShowMessage("えっ……！？")
 205(-1,bytes(0x04,0x08,0x6f,0x3a,0x13,0x52,0x50,0x47,0x3a,0x3a,0x4d,0x6f,0x76,0x65,0x52,0x6f,0x75,0x74,0x65,0x09,0x3a,0x0c,0x40,0x72,0x65,0x70,0x65,0x61,0x74,0x46,0x3a,0x0f,0x40,0x73,0x6b,0x69,0x70,0x70,0x61,0x62,0x6c,0x65,0x46,0x3a,0x0a,0x40,0x77,0x61,0x69,0x74,0x54,0x3a,0x0a,0x40,0x6c,0x69,0x73,0x74,0x5b,0x09,0x6f,0x3a,0x15,0x52,0x50,0x47,0x3a,0x3a,0x4d,0x6f,0x76,0x65,0x43,0x6f,0x6d,0x6d,0x61,0x6e,0x64,0x07,0x3a,0x0a,0x40,0x63,0x6f,0x64,0x65,0x69,0x08,0x3a,0x10,0x40,0x70,0x61,0x72,0x61,0x6d,0x65,0x74,0x65,0x72,0x73,0x5b,0x00,0x6f,0x3b,0x0a,0x07,0x3b,0x0b,0x69,0x08,0x3b,0x0c,0x5b,0x00,0x6f,0x3b,0x0a,0x07,0x3b,0x0b,0x69,0x08,0x3b,0x0c,0x5b,0x00,0x6f,0x3b,0x0a,0x07,0x3b,0x0b,0x69,0x00,0x3b,0x0c,0x5b,0x00))
 205(-1,bytes(0x04,0x08,0x6f,0x3a,0x13,0x52,0x50,0x47,0x3a,0x3a,0x4d,0x6f,0x76,0x65,0x52,0x6f,0x75,0x74,0x65,0x09,0x3a,0x0c,0x40,0x72,0x65,0x70,0x65,0x61,0x74,0x46,0x3a,0x0f,0x40,0x73,0x6b,0x69,0x70,0x70,0x61,0x62,0x6c,0x65,0x46,0x3a,0x0a,0x40,0x77,0x61,0x69,0x74,0x46,0x3a,0x0a,0x40,0x6c,0x69,0x73,0x74,0x5b,0x09,0x6f,0x3a,0x15,0x52,0x50,0x47,0x3a,0x3a,0x4d,0x6f,0x76,0x65,0x43,0x6f,0x6d,0x6d,0x61,0x6e,0x64,0x07,0x3a,0x0a,0x40,0x63,0x6f,0x64,0x65,0x69,0x08,0x3a,0x10,0x40,0x70,0x61,0x72,0x61,0x6d,0x65,0x74,0x65,0x72,0x73,0x5b,0x00,0x6f,0x3b,0x0a,0x07,0x3b,0x0b,0x69,0x08,0x3b,0x0c,0x5b,0x00,0x6f,0x3b,0x0a,0x07,0x3b,0x0b,0x69,0x08,0x3b,0x0c,0x5b,0x00,0x6f,0x3b,0x0a,0x07,0x3b,0x0b,0x69,0x00,0x3b,0x0c,0x5b,0x00))
 221()
 Wait(60)
 281(1)
 TeleportPlayer(0,77,24,27,2,2)
 222()
 RunCommonEvent(583)
 EndEventProcessing()
 0()
EndIf()
If(1,1098,0,9,0)
 ChangeVariable(1098,1098,0,0,10)
 ShowMessageFace("ruka_fc1",0,0,2,10)
 ShowMessage("【ルカ】")
 ShowMessage("また、午後一時……")
 ShowMessageFace("",0,0,2,11)
 ShowMessage("気付けば午後一時、何事もなかったかのように突っ立ている。")
 ShowMessage("今までのも、全て夢――のわけがない！")
 ShowMessageFace("ruka_fc1",0,0,2,12)
 ShowMessage("【ルカ】")
 ShowMessage("もしかして……同じ時間を繰り返してるのか！？")
 ShowMessageFace("",0,0,2,13)
 ShowMessage("五時の鐘と同時に、側にいる仲間がおかしくなる。")
 ShowMessage("そして襲われたと思ったら、午後一時に戻されてしまう――")
 ShowMessageFace("ruka_fc1",0,0,2,14)
 ShowMessage("【ルカ】")
 ShowMessage("たぶん、同じ時間を繰り返してるんだ……")
 ShowMessage("いったい、なんでこんなことに……")
 ShowMessageFace("",0,0,2,15)
 ShowMessage("間違いなく、何かの異変が発生している。")
 ShowMessage("そして、僕以外の者は誰も気付いていないのだ――")
 ShowMessageFace("gob_fc1",0,0,2,16)
 ShowMessage("【ゴブ】")
 ShowMessage("おーい！　ピザの配達だよー！")
 ShowMessageFace("ruka_fc1",0,0,2,17)
 ShowMessage("【ルカ】")
 ShowMessage("ああ、またか……")
 ShowMessageFace("",0,0,2,18)
 ShowMessage("ゴブには悪いが、ピザどころではない。")
 ShowMessage("この異変の原因を探らないと――")
 ShowMessageFace("ruka_fc1",0,0,2,19)
 ShowMessage("【ルカ】")
 ShowMessage("とにかく、誰かに相談しないと。")
 ShowMessage("でも、時間がループしてるなんて信じてくれるかなぁ……")
 ShowMessageFace("",0,0,2,20)
 ShowMessage("当事者の僕自身、最初は夢だと思ったくらいだ。")
 ShowMessage("相手を選ばなければ、まともに相談にも乗ってくれないだろう。")
 ShowMessageFace("",0,0,2,21)
 ShowMessage("さて、頼れそうな仲間は――")
 ChangeSwitch(2341,2341,0)
 ChangeVariable(1106,1106,0,0,1)
 RunCommonEvent(542)
 EndEventProcessing()
 0()
EndIf()
If(0,2415,0)
 ChangeSwitch(2415,2415,1)
 ShowMessageFace("ruka_fc1",0,0,2,22)
 ShowMessage("【ルカ】")
 ShowMessage("速効で次ループか……")
 ShowMessage("流石だなぁ。")
 ShowMessageFace("",0,0,2,23)
 ShowMessage("さて、気を取り直して今回もがんばろう！")
 EndEventProcessing()
 0()
EndIf()
If(1,1103,0,2,0)
 ChangeVariable(1103,1103,0,0,3)
 ShowMessageFace("ruka_fc1",0,0,2,24)
 ShowMessage("【ルカ】")
 ShowMessage("……また、戻ったのか。")
 ShowMessageFace("",0,0,2,25)
 ShowMessage("結局、結末自体は変わらなかった。")
 ShowMessage("おかしくなったプロメスティンにより、僕は力尽きたのだ――")
 ShowMessageFace("gob_fc1",0,0,2,26)
 ShowMessage("【ゴブ】")
 ShowMessage("おーい！　ピザの配達だよー！")
 ShowMessageFace("ruka_fc1",0,0,2,27)
 ShowMessage("【ルカ】")
 ShowMessage("でも、プロメスティンに相談できたのは大きな成果だったな。")
 ShowMessage("前回あった事を、今回のプロメスティンに伝えないと……")
 ShowMessageFace("",0,0,2,28)
 ShowMessage("プロメスティンは、自室に訪れるように言っていた。")
 ShowMessage("時間の余裕があるうち、午後一時に来てほしいと――")
 205(-1,bytes(0x04,0x08,0x6f,0x3a,0x13,0x52,0x50,0x47,0x3a,0x3a,0x4d,0x6f,0x76,0x65,0x52,0x6f,0x75,0x74,0x65,0x09,0x3a,0x0c,0x40,0x72,0x65,0x70,0x65,0x61,0x74,0x46,0x3a,0x0f,0x40,0x73,0x6b,0x69,0x70,0x70,0x61,0x62,0x6c,0x65,0x46,0x3a,0x0a,0x40,0x77,0x61,0x69,0x74,0x54,0x3a,0x0a,0x40,0x6c,0x69,0x73,0x74,0x5b,0x07,0x6f,0x3a,0x15,0x52,0x50,0x47,0x3a,0x3a,0x4d,0x6f,0x76,0x65,0x43,0x6f,0x6d,0x6d,0x61,0x6e,0x64,0x07,0x3a,0x0a,0x40,0x63,0x6f,0x64,0x65,0x69,0x16,0x3a,0x10,0x40,0x70,0x61,0x72,0x61,0x6d,0x65,0x74,0x65,0x72,0x73,0x5b,0x00,0x6f,0x3b,0x0a,0x07,0x3b,0x0b,0x69,0x00,0x3b,0x0c,0x5b,0x00))
 ShowMessageFace("ruka_fc1",0,0,2,29)
 ShowMessage("【ルカ】")
 ShowMessage("それじゃあ……さっそく部屋に行くか。")
 ShowMessageFace("",0,0,2,30)
 ShowMessage("まず始めに、プロメスティンに相談しよう。")
 ShowMessage("今回こそ、異変の原因を解き明かしてくれるかもしれない。")
 ShowMessageFace("",0,0,2,31)
 ShowMessage("向かう場所は、三階の研究施設ではなくプロメスティンの部屋。")
 ShowMessage("この居住区を通って行けるはずだ――")
 EndEventProcessing()
 0()
EndIf()
If(1,1098,0,11,0)
 ShowMessageFace("ruka_fc1",0,0,2,32)
 ShowMessage("【ルカ】")
 ShowMessage("戻ったのか……")
 ShowMessage("まったく情報もないんじゃ、どうにもならないな。")
 ShowMessageFace("",0,0,2,33)
 ShowMessage("三人の淫魔がうろつく家で、何も情報はない。")
 ShowMessage("デタラメに動いたところで、脱出はおぼつかないだろう――")
 ShowMessageFace("ruka_fc1",0,0,2,34)
 ShowMessage("【ルカ】")
 ShowMessage("やっぱり、透から話を聞いた方が良かったかな……")
 ShowMessage("何も分からないと、対策も取れないし。")
 ShowMessageFace("",0,0,2,35)
 ShowMessage("次は、透からしっかり情報を得た方が良いかもしれない。")
 ShowMessage("また、作戦のやり直しだ――")
 EndEventProcessing()
 0()
EndIf()
If(1,1098,0,12,0)
 ChangeVariable(1098,1098,0,0,13)
 ShowMessageFace("ruka_fc1",0,0,2,36)
 ShowMessage("【ルカ】")
 ShowMessage("戻ったのか……")
 ShowMessage("やっぱり、対策もなく乗り込むのは無茶だったな。")
 ShowMessageFace("",0,0,2,37)
 ShowMessage("あの家で、ヴィヌム達に正面から太刀打ちできないのは明白。")
 ShowMessage("何か、足止めする手段を用意する必要があるだろう。")
 ShowMessageFace("ruka_fc1",0,0,2,38)
 ShowMessage("【ルカ】")
 ShowMessage("それに、家から脱出するのに必要なもの……")
 ShowMessage("色々と、事前準備が必要だな。")
 ShowMessageFace("",0,0,2,39)
 ShowMessage("サキュバスの毛髪が三人分――")
 ShowMessage("これは、このポケット魔王城で入手した方が良さそうだ。")
 ShowMessageFace("",0,0,2,40)
 ShowMessage("トラップを破るとなれば、普通のサキュバスの毛髪では心許ない。")
 ShowMessage("やはり、上位サキュバスの毛髪が良いだろう。")
 ShowMessageFace("ruka_fc1",0,0,2,41)
 ShowMessage("【ルカ】")
 ShowMessage("あとゴム手袋にハチミツ、悪魔の灰……だったかな。")
 ShowMessageFace("",0,0,2,42)
 ShowMessage("ゴム手袋とハチミツはどうにでもなる。")
 ShowMessage("問題は、悪魔の灰だ。")
 ShowMessageFace("",0,0,2,43)
 ShowMessage("小悪魔を倒せば手に入る――")
 ShowMessage("確か、透はそう言っていたはずだ。")
 ScrollMap(6,3,4)
 ShowMessageFace("ruka_fc1",0,0,2,44)
 ShowMessage("【ルカ】")
 ShowMessage("小悪魔なら、そこで飛び跳ねてるのがいるな……")
 ScrollMap(4,3,5)
 ShowMessageFace("",0,0,2,45)
 ShowMessage("まずは、このポケット魔王城で必要な品を集めよう。")
 ShowMessage("それから、あらためてミュスカ達の家に乗り込むのだ！")
 ChangeVariable(1107,1107,0,0,1)
 ChangeSwitch(2364,2364,0)
 EndEventProcessing()
 0()
EndIf()
If(1,1106,0,1,0)
 ChangeVariable(1106,1106,0,0,2)
 ShowMessageFace("ruka_fc1",0,0,2,46)
 ShowMessage("【ルカ】")
 ShowMessage("やっぱり、こうなるのか……")
 ShowMessageFace("",0,0,2,47)
 ShowMessage("五時の鐘と共に、一番近くにいた仲間がおかしくなる。")
 ShowMessage("そして強引に襲われた後、この時間に戻ってくる――")
 ShowMessageFace("",0,0,2,48)
 ShowMessage("異変が起きているのは、間違いない。")
 ShowMessage("それも同じ時間を繰り返すなんて、尋常ではない事態だ。")
 ShowMessageFace("ruka_fc1",0,0,2,49)
 ShowMessage("【ルカ】")
 ShowMessage("一刻も早く、原因を探らないと……")
 ShowMessageFace("gob_fc1",0,0,2,50)
 ShowMessage("【ゴブ】")
 ShowMessage("おーい！　ピザの配達だよー！")
 ShowMessageFace("ruka_fc1",0,0,2,51)
 ShowMessage("【ルカ】")
 ShowMessage("ピザはもういいよ……")
 ShowMessageFace("",0,0,2,52)
 ShowMessage("それよりも、この現実に対処しなければ。")
 ShowMessage("前のループでも検討したけれど、誰を頼るべきか――")
 RunCommonEvent(542)
 EndEventProcessing()
 0()
EndIf()
If(1,1106,0,2,0)
 ChangeVariable(1106,1106,0,0,3)
 ShowMessageFace("ruka_fc1",0,0,2,53)
 ShowMessage("【ルカ】")
 ShowMessage("また、一時に戻されたのか……")
 ShowMessage("どれだけこれを繰り返したらいいんだろう。")
 ShowMessageFace("",0,0,2,54)
 ShowMessage("努力の甲斐なく、同じ時間を繰り返している。")
 ShowMessage("いったい、どうすればこのループから抜け出せるんだ？")
 ShowMessageFace("gob_fc1",0,0,2,55)
 ShowMessage("【ゴブ】")
 ShowMessage("おーい！　ピザの配達だよー！")
 ShowMessageFace("ruka_fc1",0,0,2,56)
 ShowMessage("【ルカ】")
 ShowMessage("これも、いつも通りだな……")
 ShowMessageFace("",0,0,2,57)
 ShowMessage("さて、今回はどうするか。")
 ShowMessage("誰かに相談するか、それとも――")
 ShowChoices(strings("相談相手を検討する","自由に行動する"),5)
 IfPlayerPicksChoice(0,null)
  RunCommonEvent(542)
  EndEventProcessing()
  0()
 IfPlayerPicksChoice(1,null)
  EndEventProcessing()
  0()
 IfPlayerCancelsChoice()
  EndEventProcessing()
  0()
 404()
 0()
EndIf()
If(1,1106,0,3,0)
 ChangeVariable(1106,1106,0,0,4)
 ShowMessageFace("ruka_fc1",0,0,2,58)
 ShowMessage("【ルカ】")
 ShowMessage("また、一時に逆戻りか……")
 ShowMessage("いい加減、うんざりしてきたな。")
 ShowMessageFace("",0,0,2,59)
 ShowMessage("頑張っても頑張っても、元通り。")
 ShowMessage("いい加減、破れかぶれな気分にもなってくる。")
 ShowMessageFace("ruka_fc1",0,0,2,60)
 ShowMessage("【ルカ】")
 ShowMessage("おーい！　ピザの配達だよー！")
 ShowMessageFace("gob_fc1",4,0,2,61)
 ShowMessage("【ゴブ】")
 ShowMessage("おーい！　ピザの配達……なんで分かったの！？")
 ShowMessageFace("ruka_fc1",0,0,2,62)
 ShowMessage("【ルカ】")
 ShowMessage("……もう\\V[1100]巡目だからさ。")
 ShowMessageFace("",0,0,2,63)
 ShowMessage("さて、今回はどうするか。")
 ShowMessage("誰かに相談するか、それとも――")
 ShowChoices(strings("相談相手を検討する","自由に行動する"),5)
 IfPlayerPicksChoice(0,null)
  RunCommonEvent(542)
  EndEventProcessing()
  0()
 IfPlayerPicksChoice(1,null)
  EndEventProcessing()
  0()
 IfPlayerCancelsChoice()
  EndEventProcessing()
  0()
 404()
 0()
EndIf()
If(1,1106,0,4,0)
 ChangeVariable(1106,1106,0,0,5)
 ShowMessageFace("ruka_fc1",0,0,2,64)
 ShowMessage("【ルカ】")
 ShowMessage("やれやれ、上手くいかないなぁ……")
 ShowMessage("いったい、どうすればいいんだろう。")
 ShowMessageFace("",0,0,2,65)
 ShowMessage("調査は進んでいると言えるのだろうか。")
 ShowMessage("まあ時間はいくらでもループするんだ、焦らずにやっていこう。")
 ShowMessageFace("gob_fc1",0,0,2,66)
 ShowMessage("【ゴブ】")
 ShowMessage("おーい！　ピザの配達だよー！")
 If(1,1105,0,6,2)
  ShowMessageFace("ruka_fc1",0,0,2,67)
  ShowMessage("【ルカ】")
  ShowMessage("そう言えば……このピザ、いったい誰が頼んだんだ？")
  ShowMessageFace("",0,0,2,68)
  ShowMessage("もう\\V[1100]巡目なのに、未だに注文の主は分からないまま。")
  ShowMessage("もしかして、このピザが異変に関わっていたり――")
  ShowMessageFace("ruka_fc1",0,0,2,69)
  ShowMessage("【ルカ】")
  ShowMessage("さすがに、それはないか……")
  ShowMessage("さあ、今回の調査を始めよう！")
  0()
 EndIf()
 If(1,1105,0,7,1)
  ShowMessageFace("ruka_fc1",0,0,2,70)
  ShowMessage("【ルカ】")
  ShowMessage("さあ、今回の調査を始めよう！")
  0()
 EndIf()
 ShowChoices(strings("相談相手を検討する","自由に行動する"),5)
 IfPlayerPicksChoice(0,null)
  RunCommonEvent(542)
  EndEventProcessing()
  0()
 IfPlayerPicksChoice(1,null)
  EndEventProcessing()
  0()
 IfPlayerCancelsChoice()
  EndEventProcessing()
  0()
 404()
 0()
EndIf()
If(1,1106,0,5,0)
 ChangeVariable(1106,1106,0,0,6)
 ShowMessageFace("ruka_fc1",0,0,2,71)
 ShowMessage("【ルカ】")
 ShowMessage("また戻ったか……")
 ShowMessage("前回は、やるべきことをやったかな？")
 ShowMessageFace("",0,0,2,72)
 ShowMessage("時間はいくらでもある、少しずつでも調査を進めていこう。")
 ShowMessage("さあ、今回もなすべきことがあるはずだ――")
 ShowMessageFace("gob_fc1",0,0,2,73)
 ShowMessage("【ゴブ】")
 ShowMessage("おーい！　ピザの配達だよー！")
 ShowMessageFace("ruka_fc1",0,0,2,74)
 ShowMessage("【ルカ】")
 ShowMessage("ゴブも毎回元気だなぁ。")
 ShowMessage("よし、僕もやるぞ！")
 ShowChoices(strings("相談相手を検討する","自由に行動する"),5)
 IfPlayerPicksChoice(0,null)
  RunCommonEvent(542)
  EndEventProcessing()
  0()
 IfPlayerPicksChoice(1,null)
  EndEventProcessing()
  0()
 IfPlayerCancelsChoice()
  EndEventProcessing()
  0()
 404()
 0()
EndIf()
If(1,1106,0,6,1)
 ChangeVariable(1106,1106,0,0,7)
 ShowMessageFace("",0,0,2,75)
 ShowMessage("さて、新たな周回だ。")
 ShowMessage("今回はどれだけの進展があるだろうか――")
 If(1,1103,0,98,2)
  ShowChoices(strings("相談相手を検討する","自由に行動する"),5)
  IfPlayerPicksChoice(0,null)
   RunCommonEvent(542)
   EndEventProcessing()
   0()
  IfPlayerPicksChoice(1,null)
   EndEventProcessing()
   0()
  IfPlayerCancelsChoice()
   EndEventProcessing()
   0()
  404()
  0()
 EndIf()
 EndEventProcessing()
 0()
EndIf()
0()
