﻿


EVENT   4
 PAGE   1
  0()



EVENT   5
 PAGE   1
  0()



EVENT   6
 PAGE   1
  0()



EVENT   7
 PAGE   1
  0()



EVENT   8
 PAGE   1
  0()



EVENT   9
 PAGE   1
  0()



EVENT   10
 PAGE   1
  0()



EVENT   11
 PAGE   1
  0()



EVENT   12
 PAGE   1
  0()



EVENT   13
 PAGE   1
  0()



EVENT   14
 PAGE   1
  281(0)
  250(bytes(0x04,0x08,0x6f,0x3a,0x0c,0x52,0x50,0x47,0x3a,0x3a,0x53,0x45,0x08,0x3a,0x0a,0x40,0x6e,0x61,0x6d,0x65,0x49,0x22,0x09,0x4d,0x6f,0x76,0x65,0x06,0x3a,0x06,0x45,0x54,0x3a,0x0b,0x40,0x70,0x69,0x74,0x63,0x68,0x69,0x69,0x3a,0x0c,0x40,0x76,0x6f,0x6c,0x75,0x6d,0x65,0x69,0x55))
  TeleportPlayer(0,84,26,8,0,0)
  0()



EVENT   17
 PAGE   1
  281(0)
  250(bytes(0x04,0x08,0x6f,0x3a,0x0c,0x52,0x50,0x47,0x3a,0x3a,0x53,0x45,0x08,0x3a,0x0a,0x40,0x6e,0x61,0x6d,0x65,0x49,0x22,0x0a,0x4f,0x70,0x65,0x6e,0x31,0x06,0x3a,0x06,0x45,0x54,0x3a,0x0b,0x40,0x70,0x69,0x74,0x63,0x68,0x69,0x69,0x3a,0x0c,0x40,0x76,0x6f,0x6c,0x75,0x6d,0x65,0x69,0x55))
  205(0,bytes(0x04,0x08,0x6f,0x3a,0x13,0x52,0x50,0x47,0x3a,0x3a,0x4d,0x6f,0x76,0x65,0x52,0x6f,0x75,0x74,0x65,0x09,0x3a,0x0c,0x40,0x72,0x65,0x70,0x65,0x61,0x74,0x46,0x3a,0x0f,0x40,0x73,0x6b,0x69,0x70,0x70,0x61,0x62,0x6c,0x65,0x46,0x3a,0x0a,0x40,0x77,0x61,0x69,0x74,0x54,0x3a,0x0a,0x40,0x6c,0x69,0x73,0x74,0x5b,0x0c,0x6f,0x3a,0x15,0x52,0x50,0x47,0x3a,0x3a,0x4d,0x6f,0x76,0x65,0x43,0x6f,0x6d,0x6d,0x61,0x6e,0x64,0x07,0x3a,0x0a,0x40,0x63,0x6f,0x64,0x65,0x69,0x16,0x3a,0x10,0x40,0x70,0x61,0x72,0x61,0x6d,0x65,0x74,0x65,0x72,0x73,0x5b,0x00,0x6f,0x3b,0x0a,0x07,0x3b,0x0b,0x69,0x14,0x3b,0x0c,0x5b,0x06,0x69,0x08,0x6f,0x3b,0x0a,0x07,0x3b,0x0b,0x69,0x17,0x3b,0x0c,0x5b,0x00,0x6f,0x3b,0x0a,0x07,0x3b,0x0b,0x69,0x14,0x3b,0x0c,0x5b,0x06,0x69,0x08,0x6f,0x3b,0x0a,0x07,0x3b,0x0b,0x69,0x18,0x3b,0x0c,0x5b,0x00,0x6f,0x3b,0x0a,0x07,0x3b,0x0b,0x69,0x2a,0x3b,0x0c,0x5b,0x00,0x6f,0x3b,0x0a,0x07,0x3b,0x0b,0x69,0x00,0x3b,0x0c,0x5b,0x00))
  205(-1,bytes(0x04,0x08,0x6f,0x3a,0x13,0x52,0x50,0x47,0x3a,0x3a,0x4d,0x6f,0x76,0x65,0x52,0x6f,0x75,0x74,0x65,0x09,0x3a,0x0c,0x40,0x72,0x65,0x70,0x65,0x61,0x74,0x46,0x3a,0x0f,0x40,0x73,0x6b,0x69,0x70,0x70,0x61,0x62,0x6c,0x65,0x54,0x3a,0x0a,0x40,0x77,0x61,0x69,0x74,0x54,0x3a,0x0a,0x40,0x6c,0x69,0x73,0x74,0x5b,0x07,0x6f,0x3a,0x15,0x52,0x50,0x47,0x3a,0x3a,0x4d,0x6f,0x76,0x65,0x43,0x6f,0x6d,0x6d,0x61,0x6e,0x64,0x07,0x3a,0x0a,0x40,0x63,0x6f,0x64,0x65,0x69,0x11,0x3a,0x10,0x40,0x70,0x61,0x72,0x61,0x6d,0x65,0x74,0x65,0x72,0x73,0x5b,0x00,0x6f,0x3b,0x0a,0x07,0x3b,0x0b,0x69,0x00,0x3b,0x0c,0x5b,0x00))
  250(bytes(0x04,0x08,0x6f,0x3a,0x0c,0x52,0x50,0x47,0x3a,0x3a,0x53,0x45,0x08,0x3a,0x0a,0x40,0x6e,0x61,0x6d,0x65,0x49,0x22,0x09,0x4d,0x6f,0x76,0x65,0x06,0x3a,0x06,0x45,0x54,0x3a,0x0b,0x40,0x70,0x69,0x74,0x63,0x68,0x69,0x69,0x3a,0x0c,0x40,0x76,0x6f,0x6c,0x75,0x6d,0x65,0x69,0x55))
  TeleportPlayer(0,278,7,31,0,0)
  0()



EVENT   24
 PAGE   1
  // condition: switch 1041 is ON
  0()



EVENT   16
 PAGE   1
  ShowMessageFace("People3",5,0,2,1)
  ShowMessage("【メイド】")
  ShowMessage("ロイヤルルームは清掃中です。")
  ShowMessage("本日の使用はご容赦下さい。")
  0()



EVENT   18
 PAGE   1
  ShowMessageFace("queenvampire_fc1",0,0,2,1)
  ShowMessage("【ファティマ】")
  ShowMessage("少々、まとまった金が必要になってな……")
  ShowMessage("我が城に伝わる秘宝の一部を、処分することにした。")
  ShowMessageFace("queenvampire_fc1",0,0,2,2)
  ShowMessage("【ファティマ】")
  ShowMessage("何を残し、何を売るのかを吟味しているのだが……")
  ShowMessage("モノによっては、なかなか迷うこともある。")
  ShowMessageFace("queenvampire_fc1",0,0,2,3)
  ShowMessage("【ファティマ】")
  ShowMessage("時間があるなら、お主の意見も聞きたい。")
  ShowMessage("少々、付き合ってくれんか？")
  If(0,2338,0)
   ShowMessageFace("",0,0,2,4)
   ShowMessage("今は、荷物を運んでいる最中だ。")
   ShowMessage("大聖堂に向かうことを優先しよう。")
   EndEventProcessing()
   0()
  EndIf()
  DefineLabel("メイン")
  355("ex_choice_add(\"秘宝の吟味に付き合う（時間経過）\",1,")
  655("\"v[1098] >= 5\",0)")
  655("ex_choice_add(\"異変について相談する\",2,")
  655("\"s[2341]\",0)")
  655("ex_choice_add(\"後悔していることについて聞く\",3,")
  655("\"s[2342]\",0)")
  655("ex_choice_add(\"時を繰り返す道具について聞く\",4,")
  655("\"s[2343]\",0)")
  655("ex_choice_add(\"ピザを注文したか聞く\",5,")
  655("\"s[2345]\",0)")
  355("ex_choice_add(\"謎のマキナについて聞く\",6,")
  655("\"s[2365]\",0)")
  655("ex_choice_add(\"作戦に必要な品について聞く\",7,")
  655("\"s[2364]\",0)")
  655("ex_choice_add(\"お茶会に誘う\",8,")
  655("\"s[2378]\",0)")
  655("ex_choice_add(\"立ち去る\",10)")
  355("ex_choice_show(0,11,[0,0])")
  If(1,9,0,1,0)
   221()
   205(0,bytes(0x04,0x08,0x6f,0x3a,0x13,0x52,0x50,0x47,0x3a,0x3a,0x4d,0x6f,0x76,0x65,0x52,0x6f,0x75,0x74,0x65,0x09,0x3a,0x0c,0x40,0x72,0x65,0x70,0x65,0x61,0x74,0x46,0x3a,0x0f,0x40,0x73,0x6b,0x69,0x70,0x70,0x61,0x62,0x6c,0x65,0x46,0x3a,0x0a,0x40,0x77,0x61,0x69,0x74,0x54,0x3a,0x0a,0x40,0x6c,0x69,0x73,0x74,0x5b,0x07,0x6f,0x3a,0x15,0x52,0x50,0x47,0x3a,0x3a,0x4d,0x6f,0x76,0x65,0x43,0x6f,0x6d,0x6d,0x61,0x6e,0x64,0x07,0x3a,0x0a,0x40,0x63,0x6f,0x64,0x65,0x69,0x18,0x3a,0x10,0x40,0x70,0x61,0x72,0x61,0x6d,0x65,0x74,0x65,0x72,0x73,0x5b,0x00,0x6f,0x3b,0x0a,0x07,0x3b,0x0b,0x69,0x00,0x3b,0x0c,0x5b,0x00))
   TeleportPlayer(0,85,18,15,8,2)
   222()
   ShowMessageFace("ruka_fc1",0,0,2,5)
   ShowMessage("【ルカ】")
   ShowMessage("この変な像は、なに……？")
   ShowMessageFace("queenvampire_fc1",0,0,2,6)
   ShowMessage("【ファティマ】")
   ShowMessage("これは確か、先々代の……")
   ShowMessage("そうだ、シャーマン族から送られた呪いの像だ。")
   ShowMessageFace("ruka_fc1",0,0,2,7)
   ShowMessage("【ルカ】")
   ShowMessage("こっちの不気味な像は……")
   ShowMessage("これも、呪いの品かな？")
   ShowMessageFace("queenvampire_fc1",0,0,2,8)
   ShowMessage("【ファティマ】")
   ShowMessage("……これは、我が小さき頃に工作で作った品よ。")
   ShowMessage("こんなところから出て来るとはな。")
   ShowMessageFace("",0,0,2,9)
   ShowMessage("秘宝を吟味して時間を過ごした……")
   If(1,1099,0,4,0)
    RunCommonEvent(5824)
    EndEventProcessing()
    0()
   EndIf()
   RunCommonEvent(540)
   EndEventProcessing()
   0()
  EndIf()
  If(1,9,0,2,0)
   ShowMessageFace("",0,0,2,10)
   ShowMessage("ルカは、異変について相談した……")
   ShowMessageFace("queenvampire_fc1",0,0,2,11)
   ShowMessage("【ファティマ】")
   ShowMessage("ほう、面白いではないか……")
   ShowMessage("無限の時を楽しめ！　時間の全ては貴様のものだ！")
   ShowMessageFace("",0,0,2,12)
   ShowMessage("ファティマは頼れそうにない……")
   JumpToLabel("メイン")
   0()
  EndIf()
  If(1,9,0,3,0)
   ShowMessageFace("queenvampire_fc1",0,0,2,13)
   ShowMessage("【ファティマ】")
   ShowMessage("闇の女王に後悔などない！")
   ShowMessage("全ての道は、我が意志で進んでいるのだ！")
   ShowMessageFace("",0,0,2,14)
   ShowMessage("有益な情報は得られなかった……")
   JumpToLabel("メイン")
   0()
  EndIf()
  If(1,9,0,4,0)
   ShowMessageFace("queenvampire_fc1",0,0,2,15)
   ShowMessage("【ファティマ】")
   ShowMessage("そのような品は、この秘宝の中にもあるまい。")
   ShowMessage("まさしく、神の領域よ……")
   ShowMessageFace("",0,0,2,16)
   ShowMessage("有益な情報は得られなかった……")
   JumpToLabel("メイン")
   0()
  EndIf()
  If(1,9,0,5,0)
   ShowMessageFace("queenvampire_fc1",0,0,2,17)
   ShowMessage("【ファティマ】")
   ShowMessage("我ではないぞ。")
   ShowMessage("商売人とは、色々なことを考えおるわ……")
   ShowMessageFace("",0,0,2,18)
   ShowMessage("ピザを頼んだのはファティマではないようだ……")
   JumpToLabel("メイン")
   0()
  EndIf()
  If(1,9,0,6,0)
   ShowMessageFace("queenvampire_fc1",0,0,2,19)
   ShowMessage("【ファティマ】")
   ShowMessage("マキナは知らん。")
   ShowMessage("他の者に聞くが良い。")
   ShowMessageFace("",0,0,2,20)
   ShowMessage("有益な情報は得られなかった……")
   JumpToLabel("メイン")
   0()
  EndIf()
  If(1,9,0,7,0)
   ShowMessageFace("queenvampire_fc1",0,0,2,21)
   ShowMessage("【ファティマ】")
   ShowMessage("何か与えてやりたいところだが……")
   ShowMessage("ちょうど秘宝を整理中で、どこに何があるやら。")
   ShowMessageFace("queenvampire_fc1",0,0,2,22)
   ShowMessage("【ファティマ】")
   ShowMessage("どちらにしろ、多くは美術品の類よ。")
   ShowMessage("お主の役には立つまい……")
   ShowMessageFace("",0,0,2,23)
   ShowMessage("有益なアイテムは得られなかった……")
   JumpToLabel("メイン")
   0()
  EndIf()
  If(1,9,0,8,0)
   If(1,1113,0,14,5)
    If(1,1114,0,14,5)
     ShowMessageFace("queenvampire_fc1",0,0,2,24)
     ShowMessage("【ファティマ】")
     ShowMessage("おお、かの偉大なる魔王様に御謁見が適うとは！")
     ShowMessage("これは光栄の極み！")
     If(1,1116,0,2,0)
      ChangeVariable(1116,1116,0,0,3)
      ChangeVariable(1115,1115,0,0,14)
      ChangeSwitch(2378,2378,1)
      0()
     EndIf()
     If(1,1116,0,1,0)
      ChangeVariable(1116,1116,0,0,2)
      ChangeVariable(1114,1114,0,0,14)
      0()
     EndIf()
     If(1,1116,0,0,0)
      ChangeVariable(1116,1116,0,0,1)
      ChangeVariable(1113,1113,0,0,14)
      0()
     EndIf()
     249(bytes(0x04,0x08,0x6f,0x3a,0x0c,0x52,0x50,0x47,0x3a,0x3a,0x4d,0x45,0x08,0x3a,0x0a,0x40,0x6e,0x61,0x6d,0x65,0x49,0x22,0x10,0x6d,0x6f,0x6e,0x5f,0x66,0x61,0x6e,0x66,0x61,0x6c,0x65,0x06,0x3a,0x06,0x45,0x54,0x3a,0x0b,0x40,0x70,0x69,0x74,0x63,0x68,0x69,0x69,0x3a,0x0c,0x40,0x76,0x6f,0x6c,0x75,0x6d,0x65,0x69,0x69))
     ShowMessageFace("",0,0,2,25)
     ShowMessage("ファティマはお茶会の誘いに乗った！")
     If(1,1116,0,1,0)
      ShowMessageFace("",0,0,2,26)
      ShowMessage("黒のアリスのお茶会に招待したのは、これで一人。")
      ShowMessage("あと二人、参加者を集めよう！")
      0()
     EndIf()
     If(1,1116,0,2,0)
      ShowMessageFace("",0,0,2,27)
      ShowMessage("黒のアリスのお茶会に招待したのは、これで二人。")
      ShowMessage("あと一人、参加者を集めよう！")
      0()
     EndIf()
     If(1,1116,0,3,0)
      ShowMessageFace("",0,0,2,28)
      ShowMessage("黒のアリスのお茶会に招待したのは、これで三人。")
      ShowMessage("四時になったら、黒のアリスの部屋に行こう！")
      0()
     EndIf()
     JumpToLabel("メイン")
     0()
    EndIf()
    0()
   EndIf()
   ShowMessageFace("",0,0,2,29)
   ShowMessage("すでにお茶会に招待している……")
   JumpToLabel("メイン")
   0()
  EndIf()
  EndEventProcessing()
  0()



EVENT   21
 PAGE   1
  ShowMessageFace("ironmaiden_fc1",0,0,2,1)
  ShowMessage("【メイデン】")
  ShowMessage("……………………")
  If(0,2338,0)
   EndEventProcessing()
   0()
  EndIf()
  ShowMessageFace("",0,0,2,2)
  ShowMessage("アイアンメイデンの中に入って、時間を過ごそうか……？")
  DefineLabel("メイン")
  355("ex_choice_add(\"中に入る（時間経過）\",1,")
  655("\"v[1098] >= 5\",0)")
  655("ex_choice_add(\"異変について相談する\",2,")
  655("\"s[2341]\",0)")
  655("ex_choice_add(\"後悔していることについて聞く\",3,")
  655("\"s[2342]\",0)")
  655("ex_choice_add(\"時を繰り返す道具について聞く\",4,")
  655("\"s[2343]\",0)")
  655("ex_choice_add(\"ピザを注文したか聞く\",5,")
  655("\"s[2345]\",0)")
  355("ex_choice_add(\"謎のマキナについて聞く\",6,")
  655("\"s[2365]\",0)")
  655("ex_choice_add(\"作戦に必要な品について聞く\",7,")
  655("\"s[2364]\",0)")
  655("ex_choice_add(\"お茶会に誘う\",8,")
  655("\"s[2378]\",0)")
  655("ex_choice_add(\"立ち去る\",10)")
  355("ex_choice_show(0,11,[0,0])")
  If(1,9,0,1,0)
   221()
   205(0,bytes(0x04,0x08,0x6f,0x3a,0x13,0x52,0x50,0x47,0x3a,0x3a,0x4d,0x6f,0x76,0x65,0x52,0x6f,0x75,0x74,0x65,0x09,0x3a,0x0c,0x40,0x72,0x65,0x70,0x65,0x61,0x74,0x46,0x3a,0x0f,0x40,0x73,0x6b,0x69,0x70,0x70,0x61,0x62,0x6c,0x65,0x46,0x3a,0x0a,0x40,0x77,0x61,0x69,0x74,0x54,0x3a,0x0a,0x40,0x6c,0x69,0x73,0x74,0x5b,0x07,0x6f,0x3a,0x15,0x52,0x50,0x47,0x3a,0x3a,0x4d,0x6f,0x76,0x65,0x43,0x6f,0x6d,0x6d,0x61,0x6e,0x64,0x07,0x3a,0x0a,0x40,0x63,0x6f,0x64,0x65,0x69,0x15,0x3a,0x10,0x40,0x70,0x61,0x72,0x61,0x6d,0x65,0x74,0x65,0x72,0x73,0x5b,0x00,0x6f,0x3b,0x0a,0x07,0x3b,0x0b,0x69,0x00,0x3b,0x0c,0x5b,0x00))
   TeleportPlayer(0,85,10,33,2,2)
   211(0)
   222()
   250(bytes(0x04,0x08,0x6f,0x3a,0x0c,0x52,0x50,0x47,0x3a,0x3a,0x53,0x45,0x08,0x3a,0x0a,0x40,0x6e,0x61,0x6d,0x65,0x49,0x22,0x16,0x6d,0x6f,0x6e,0x5f,0x65,0x72,0x6f,0x5f,0x6d,0x61,0x6b,0x69,0x74,0x75,0x6b,0x69,0x32,0x06,0x3a,0x06,0x45,0x54,0x3a,0x0b,0x40,0x70,0x69,0x74,0x63,0x68,0x69,0x69,0x3a,0x0c,0x40,0x76,0x6f,0x6c,0x75,0x6d,0x65,0x69,0x69))
   ShowMessageFace("ruka_fc1",0,0,2,3)
   ShowMessage("【ルカ】")
   ShowMessage("ひぁぁぁぁぁ……！！")
   250(bytes(0x04,0x08,0x6f,0x3a,0x0c,0x52,0x50,0x47,0x3a,0x3a,0x53,0x45,0x08,0x3a,0x0a,0x40,0x6e,0x61,0x6d,0x65,0x49,0x22,0x16,0x6d,0x6f,0x6e,0x5f,0x65,0x72,0x6f,0x5f,0x6d,0x61,0x6b,0x69,0x74,0x75,0x6b,0x69,0x33,0x06,0x3a,0x06,0x45,0x54,0x3a,0x0b,0x40,0x70,0x69,0x74,0x63,0x68,0x69,0x69,0x3a,0x0c,0x40,0x76,0x6f,0x6c,0x75,0x6d,0x65,0x69,0x69))
   ShowMessageFace("ruka_fc1",0,0,2,4)
   ShowMessage("【ルカ】")
   ShowMessage("あひぃぃぃぃぃ……！！")
   ShowMessageFace("",0,0,2,5)
   ShowMessage("アイアンメイデンの中で、時間を過ごした――")
   If(1,1099,0,4,0)
    221()
    211(1)
    TeleportPlayer(0,85,10,33,8,2)
    222()
    RunCommonEvent(5807)
    EndEventProcessing()
    0()
   EndIf()
   221()
   211(1)
   RunCommonEvent(540)
   EndEventProcessing()
   0()
  EndIf()
  If(1,9,0,2,0)
   ShowMessageFace("",0,0,2,6)
   ShowMessage("ルカは、異変について相談した……")
   ShowMessageFace("ironmaiden_fc1",0,0,2,7)
   ShowMessage("【メイデン】")
   ShowMessage("……………………")
   ShowMessageFace("ruka_fc1",0,0,2,8)
   ShowMessage("【ルカ】")
   ShowMessage("聞いているのか、いないのか……")
   ShowMessageFace("",0,0,2,9)
   ShowMessage("メイデンは頼れそうにない……")
   JumpToLabel("メイン")
   0()
  EndIf()
  If(1,9,0,3,0)
   ShowMessageFace("ironmaiden_fc1",0,0,2,10)
   ShowMessage("【メイデン】")
   ShowMessage("……………………")
   ShowMessageFace("",0,0,2,11)
   ShowMessage("有益な情報は得られなかった……")
   JumpToLabel("メイン")
   0()
  EndIf()
  If(1,9,0,4,0)
   ShowMessageFace("ironmaiden_fc1",0,0,2,12)
   ShowMessage("【メイデン】")
   ShowMessage("……………………")
   ShowMessageFace("",0,0,2,13)
   ShowMessage("有益な情報は得られなかった……")
   JumpToLabel("メイン")
   0()
  EndIf()
  If(1,9,0,5,0)
   ShowMessageFace("ironmaiden_fc1",0,0,2,14)
   ShowMessage("【メイデン】")
   ShowMessage("……………………")
   ShowMessageFace("ruka_fc1",0,0,2,15)
   ShowMessage("【ルカ】")
   ShowMessage("まあ、違うよね……")
   ShowMessageFace("",0,0,2,16)
   ShowMessage("ピザを頼んだのは　メイデンではないようだ……")
   JumpToLabel("メイン")
   0()
  EndIf()
  If(1,9,0,6,0)
   ShowMessageFace("ironmaiden_fc1",0,0,2,17)
   ShowMessage("【メイデン】")
   ShowMessage("……………………")
   ShowMessageFace("ruka_fc1",0,0,2,18)
   ShowMessage("【ルカ】")
   ShowMessage("知らないか……")
   ShowMessageFace("",0,0,2,19)
   ShowMessage("有益な情報は得られなかった……")
   JumpToLabel("メイン")
   0()
  EndIf()
  If(1,9,0,7,0)
   ShowMessageFace("ironmaiden_fc1",0,0,2,20)
   ShowMessage("【メイデン】")
   ShowMessage("……………………")
   ShowMessageFace("ruka_fc1",0,0,2,21)
   ShowMessage("【ルカ】")
   ShowMessage("まあ、これ自体がアイテムのようなものだけど……")
   ShowMessageFace("ironmaiden_fc1",0,0,2,22)
   ShowMessage("【メイデン】")
   ShowMessage("……………………")
   ShowMessageFace("ruka_fc1",0,0,2,23)
   ShowMessage("【ルカ】")
   ShowMessage("……怒った？")
   ShowMessageFace("",0,0,2,24)
   ShowMessage("有益なアイテムは得られなかった……")
   JumpToLabel("メイン")
   0()
  EndIf()
  If(1,9,0,8,0)
   ShowMessageFace("ironmaiden_fc1",0,0,2,25)
   ShowMessage("【メイデン】")
   ShowMessage("……………………イヤ。")
   ShowMessageFace("ruka_fc1",0,0,2,26)
   ShowMessage("【ルカ】")
   ShowMessage("わぁっ！！　しゃべったー！！")
   ShowMessageFace("",0,0,2,27)
   ShowMessage("メイデンはお茶会の誘いを断った……")
   JumpToLabel("メイン")
   0()
  EndIf()
  EndEventProcessing()
  0()



EVENT   25
 PAGE   1
  If(0,2338,0)
   ShowMessageFace("stein_fc2",0,0,2,1)
   ShowMessage("【プロメスティン】")
   ShowMessage("なんでしょう？")
   ShowMessage("今、手が離せないのですが……")
   ShowMessageFace("",0,0,2,2)
   ShowMessage("今は、荷物を運んでいる最中だ。")
   ShowMessage("大聖堂に向かうことを優先しよう。")
   EndEventProcessing()
   0()
  EndIf()
  If(1,1103,0,3,1)
   ShowMessageFace("stein_fc2",0,0,2,3)
   ShowMessage("【プロメスティン】")
   ShowMessage("なんでしょう？")
   ShowMessage("今、手が離せないのですが……")
   ShowMessageFace("",0,0,2,4)
   ShowMessage("プロメスティンは、午後1時に自室に来るように言っていた。")
   ShowMessage("その約束を違えると、後が面倒かもしれない。")
   ShowMessageFace("ruka_fc1",0,0,2,5)
   ShowMessage("【ルカ】")
   ShowMessage("いや、なんでもないよ……")
   ShowMessageFace("stein_fc2",0,0,2,6)
   ShowMessage("【プロメスティン】")
   ShowMessage("…………？")
   EndEventProcessing()
   0()
  EndIf()
  RunCommonEvent(577)
  0()



EVENT   27
 PAGE   1
  // condition: variable 1099 >= 2
  ShowMessageFace("lusia_fc1",2,0,2,1)
  ShowMessage("【ルシア】")
  ShowMessage("進めたい実験がたくさんあります。")
  ShowMessage("時間が無限にあれば嬉しいのに……")
  ShowMessageFace("ruka_fc1",0,0,2,2)
  ShowMessage("【ルカ】")
  ShowMessage("……そんなに良いものじゃないよ。")
  DefineLabel("メイン")
  355("ex_choice_add(\"実験を手伝う（時間経過）\",1,")
  655("\"v[1098] >= 5\",0)")
  655("ex_choice_add(\"異変について相談する\",2,")
  655("\"s[2341]\",0)")
  655("ex_choice_add(\"後悔していることについて聞く\",3,")
  655("\"s[2342]\",0)")
  655("ex_choice_add(\"時を繰り返す道具について聞く\",4,")
  655("\"s[2343]\",0)")
  655("ex_choice_add(\"ピザを注文したか聞く\",5,")
  655("\"s[2345]\",0)")
  355("ex_choice_add(\"謎のマキナについて聞く\",6,")
  655("\"s[2365]\",0)")
  655("ex_choice_add(\"作戦に必要な品について聞く\",7,")
  655("\"s[2364]\",0)")
  655("ex_choice_add(\"お茶会に誘う\",8,")
  655("\"s[2378]\",0)")
  655("ex_choice_add(\"立ち去る\",10)")
  355("ex_choice_show(0,11,[0,0])")
  If(1,9,0,1,0)
   ShowMessageFace("lusia_fc1",0,0,2,3)
   ShowMessage("【ルシア】")
   ShowMessage("あら、手伝ってくれるのですか？")
   ShowMessage("それなら、魔力をその水晶に――")
   221()
   ShowMessageFace("",0,0,2,4)
   ShowMessage("ルシアの実験を手伝った……")
   222()
   ShowMessageFace("lusia_fc1",0,0,2,5)
   ShowMessage("【ルシア】")
   ShowMessage("おかげで、良質の火晶石が精製できました。")
   ShowMessage("あなたにも、一つ差し上げますね……")
   ChangeVariable(1110,1110,0,0,2)
   ChangeSwitch(2381,2381,0)
   250(bytes(0x04,0x08,0x6f,0x3a,0x0c,0x52,0x50,0x47,0x3a,0x3a,0x53,0x45,0x08,0x3a,0x0a,0x40,0x6e,0x61,0x6d,0x65,0x49,0x22,0x0a,0x49,0x74,0x65,0x6d,0x31,0x06,0x3a,0x06,0x45,0x54,0x3a,0x0b,0x40,0x70,0x69,0x74,0x63,0x68,0x69,0x69,0x3a,0x0c,0x40,0x76,0x6f,0x6c,0x75,0x6d,0x65,0x69,0x55))
   ShowMessageFace("",0,0,2,6)
   ShowMessage("ラケルの爆石を手に入れた！")
   If(0,2364,0)
    ShowMessageFace("lusia_fc1",0,0,2,7)
    ShowMessage("【ルシア】")
    ShowMessage("それを投げつければ、小規模な爆発が起きます。")
    ShowMessage("まあ、強力な妖魔には通用しないでしょうが……")
    ShowMessageFace("",0,0,2,8)
    ShowMessage("せっかく手に入れた攻撃アイテムだが――")
    ShowMessage("ミュスカ達の足止めに使えるかどうかは怪しいな。")
    0()
   EndIf()
   RunCommonEvent(540)
   EndEventProcessing()
   0()
  EndIf()
  If(1,9,0,2,0)
   ShowMessageFace("",0,0,2,9)
   ShowMessage("ルカは、異変について相談した……")
   ShowMessageFace("lusia_fc1",2,0,2,10)
   ShowMessage("【ルシア】")
   ShowMessage("私では、力になれませんね……")
   ShowMessage("物理畑は専門ではありませんので。")
   ShowMessageFace("",0,0,2,11)
   ShowMessage("ルシアは頼れそうにない……")
   JumpToLabel("メイン")
   0()
  EndIf()
  If(1,9,0,3,0)
   ShowMessageFace("lusia_fc1",2,0,2,12)
   ShowMessage("【ルシア】")
   ShowMessage("無論、後悔の多い人生ですが……")
   ShowMessage("それでいちいち、時間を巻き戻しはしませんよ。")
   ShowMessageFace("",0,0,2,13)
   ShowMessage("有益な情報は得られなかった……")
   JumpToLabel("メイン")
   0()
  EndIf()
  If(1,9,0,4,0)
   ShowMessageFace("lusia_fc1",2,0,2,14)
   ShowMessage("【ルシア】")
   ShowMessage("錬金分野において、該当する物はないですね。")
   ShowMessage("時間を繰り返すなど、神の域に達する技術では……？")
   ShowMessageFace("",0,0,2,15)
   ShowMessage("有益な情報は得られなかった……")
   JumpToLabel("メイン")
   0()
  EndIf()
  If(1,9,0,5,0)
   ShowMessageFace("lusia_fc1",0,0,2,16)
   ShowMessage("【ルシア】")
   ShowMessage("私ではありませんが……")
   ShowMessage("空腹の時に、利用してみるのも良いですね。")
   ShowMessageFace("",0,0,2,17)
   ShowMessage("ピザを頼んだのはルシアではないようだ……")
   JumpToLabel("メイン")
   0()
  EndIf()
  If(1,9,0,6,0)
   ShowMessageFace("lusia_fc1",2,0,2,18)
   ShowMessage("【ルシア】")
   ShowMessage("高度なマキナですね……")
   ShowMessage("錬金を極めるには、マキナの習得も必要でしょうか……")
   ShowMessageFace("",0,0,2,19)
   ShowMessage("有益な情報は得られなかった……")
   JumpToLabel("メイン")
   0()
  EndIf()
  If(1,9,0,7,0)
   ShowMessageFace("lusia_fc1",0,0,2,20)
   ShowMessage("【ルシア】")
   ShowMessage("有益なアイテムが欲しいのならば……")
   ShowMessage("私の錬金実験を、手伝ってくれませんか？")
   JumpToLabel("メイン")
   0()
  EndIf()
  If(1,9,0,8,0)
   ShowMessageFace("lusia_fc1",2,0,2,21)
   ShowMessage("【ルシア】")
   ShowMessage("虐殺を好んだ魔王などとは、相容れません。")
   ShowMessage("お断りします……")
   ShowMessageFace("",0,0,2,22)
   ShowMessage("ルシアはお茶会の誘いを断った……")
   JumpToLabel("メイン")
   0()
  EndIf()
  EndEventProcessing()
  0()
 PAGE   2
  // condition: variable 1099 >= 3
  0()



EVENT   28
 PAGE   1
  ShowMessageFace("lira_fc1",0,0,2,1)
  ShowMessage("【リラ】")
  ShowMessage("万能剣士さんも、懲りないわね。")
  ShowMessage("本当は、私達の体に興味があるんじゃない？")
  ShowMessageFace("lira_fc1",0,0,2,2)
  ShowMessage("【リラ】")
  ShowMessage("私達が腕につけてる武器が珍しいから見てる、")
  ShowMessage("なんて言い訳してたけどバレバレだよね♪")
  ShowMessageFace("lira_fc1",0,0,2,3)
  ShowMessage("【リラ】")
  ShowMessage("ほーんと、じろじろ見てくるいやらしい男がいると")
  ShowMessage("参っちゃうわねぇ♪")
  DefineLabel("メイン")
  355("ex_choice_add(\"異変について相談する\",2,")
  655("\"s[2341]\",0)")
  655("ex_choice_add(\"後悔していることについて聞く\",3,")
  655("\"s[2342]\",0)")
  655("ex_choice_add(\"時を繰り返す道具について聞く\",4,")
  655("\"s[2343]\",0)")
  655("ex_choice_add(\"ピザを注文したか聞く\",5,")
  655("\"s[2345]\",0)")
  355("ex_choice_add(\"謎のマキナについて聞く\",6,")
  655("\"s[2365]\",0)")
  655("ex_choice_add(\"作戦に必要な品について聞く\",7,")
  655("\"s[2364]\",0)")
  655("ex_choice_add(\"お茶会に誘う\",8,")
  655("\"s[2378]\",0)")
  655("ex_choice_add(\"立ち去る\",10)")
  355("ex_choice_show(0,11,[0,0])")
  If(1,9,0,2,0)
   ShowMessageFace("",0,0,2,4)
   ShowMessage("ルカは、異変について相談した……")
   ShowMessageFace("lira_fc1",0,0,2,5)
   ShowMessage("【リラ】")
   ShowMessage("さあね……")
   ShowMessageFace("lira_fc1",0,0,2,6)
   ShowMessage("【リラ】")
   ShowMessage("私達がやってるんだったら、あそこの万能剣士くんが")
   ShowMessage("真っ先に苦しんでるはずだから違うんじゃな～い？")
   ShowMessageFace("",0,0,2,7)
   ShowMessage("リラは頼れそうにない……")
   JumpToLabel("メイン")
   0()
  EndIf()
  If(1,9,0,3,0)
   ShowMessageFace("lira_fc1",0,0,2,8)
   ShowMessage("【リラ】")
   ShowMessage("万能剣士くんにちょっかい出しちゃったことは、")
   ShowMessage("ちょっと後悔してるかな～。")
   ShowMessageFace("lira_fc1",0,0,2,9)
   ShowMessage("【リラ】")
   ShowMessage("あんなにしつこく付け狙ってくるんだもん。")
   ShowMessageFace("",0,0,2,10)
   ShowMessage("有益な情報は得られなかった……")
   JumpToLabel("メイン")
   0()
  EndIf()
  If(1,9,0,4,0)
   ShowMessageFace("lira_fc1",0,0,2,11)
   ShowMessage("【リラ】")
   ShowMessage("謎よねぇ。")
   ShowMessage("万能剣士くんにだけ使えたら楽しそう～。")
   ShowMessageFace("",0,0,2,12)
   ShowMessage("有益な情報は得られなかった……")
   JumpToLabel("メイン")
   0()
  EndIf()
  If(1,9,0,5,0)
   ShowMessageFace("lira_fc1",0,0,2,13)
   ShowMessage("【リラ】")
   ShowMessage("えー、誰かが私のために注文してくれたんじゃないの？")
   ShowMessageFace("",0,0,2,14)
   ShowMessage("ピザを頼んだのはリラではないようだ……")
   JumpToLabel("メイン")
   0()
  EndIf()
  If(1,9,0,6,0)
   ShowMessageFace("lira_fc1",0,0,2,15)
   ShowMessage("【リラ】")
   ShowMessage("何これ、知らないよ～。")
   ShowMessageFace("",0,0,2,16)
   ShowMessage("有益な情報は得られなかった……")
   JumpToLabel("メイン")
   0()
  EndIf()
  If(1,9,0,7,0)
   ShowMessageFace("lira_fc1",0,0,2,17)
   ShowMessage("【リラ】")
   ShowMessage("悪いけど……")
   ShowMessage("あんまりいいアイテム、持ってないのよ。")
   ShowMessageFace("",0,0,2,18)
   ShowMessage("有益なアイテムは得られなかった……")
   JumpToLabel("メイン")
   0()
  EndIf()
  If(1,9,0,8,0)
   ShowMessageFace("lira_fc1",0,0,2,19)
   ShowMessage("【リラ】")
   ShowMessage("ミュゼット様は行かないの？")
   ShowMessage("じゃあ、私も行かない。")
   ShowMessageFace("",0,0,2,20)
   ShowMessage("リラはお茶会の誘いを断った……")
   JumpToLabel("メイン")
   0()
  EndIf()
  EndEventProcessing()
  0()
 PAGE   2
  // condition: variable 1099 >= 3
  0()



EVENT   29
 PAGE   1
  ShowMessageFace("muzet_fc1",0,0,2,1)
  ShowMessage("【ミュゼット】")
  ShowMessage("どうしたの、不審そうな顔をして……")
  ShowMessage("私は何も企んではいないわよ。")
  ShowMessageFace("ruka_fc1",0,0,2,2)
  ShowMessage("【ルカ】")
  ShowMessage("……………………")
  ShowMessageFace("muzet_fc1",0,0,2,3)
  ShowMessage("【ミュゼット】")
  ShowMessage("信じられないなら、調べてみる？")
  ShowMessage("私の体を、じっくりとね……")
  DefineLabel("メイン")
  355("ex_choice_add(\"体を調べる（時間経過）\",1,")
  655("\"v[1098] >= 5\",0)")
  655("ex_choice_add(\"異変について相談する\",2,")
  655("\"s[2341]\",0)")
  655("ex_choice_add(\"後悔していることについて聞く\",3,")
  655("\"s[2342]\",0)")
  655("ex_choice_add(\"時を繰り返す道具について聞く\",4,")
  655("\"s[2343]\",0)")
  655("ex_choice_add(\"ピザを注文したか聞く\",5,")
  655("\"s[2345]\",0)")
  355("ex_choice_add(\"謎のマキナについて聞く\",6,")
  655("\"s[2365]\",0)")
  655("ex_choice_add(\"作戦に必要な品について聞く\",7,")
  655("\"s[2364]\",0)")
  655("ex_choice_add(\"お茶会に誘う\",8,")
  655("\"s[2378]\",0)")
  655("ex_choice_add(\"立ち去る\",10)")
  355("ex_choice_show(0,11,[0,0])")
  If(1,9,0,1,0)
   ShowMessageFace("muzet_fc1",0,0,2,4)
   ShowMessage("【ミュゼット】")
   ShowMessage("じゃあ、ここから……ね。")
   ShowMessageFace("ruka_fc1",0,0,2,5)
   ShowMessage("【ルカ】")
   ShowMessage("あっ、こ……これは……")
   ShowMessageFace("muzet_fc1",0,0,2,6)
   ShowMessage("【ミュゼット】")
   ShowMessage("こっちも調べたいの？")
   ShowMessage("ほら、好きなようにしなさい……")
   ShowMessageFace("ruka_fc1",0,0,2,7)
   ShowMessage("【ルカ】")
   ShowMessage("う、うぅぅ……")
   ShowMessageFace("",0,0,2,8)
   ShowMessage("ミュゼットの体を調べ、時間を過ごした……")
   RunCommonEvent(540)
   EndEventProcessing()
   0()
  EndIf()
  If(1,9,0,2,0)
   ShowMessageFace("",0,0,2,9)
   ShowMessage("ルカは、異変について相談した……")
   ShowMessageFace("muzet_fc1",0,0,2,10)
   ShowMessage("【ミュゼット】")
   ShowMessage("見当がつかないわね。でも、この謎を解明できれば")
   ShowMessage("いろんなコトに使えるかも……ふふふ……")
   ShowMessageFace("",0,0,2,11)
   ShowMessage("ミュゼットは頼れそうにない……")
   JumpToLabel("メイン")
   0()
  EndIf()
  If(1,9,0,3,0)
   ShowMessageFace("muzet_fc1",0,0,2,12)
   ShowMessage("【ミュゼット】")
   ShowMessage("有翼魔に生まれちゃったことかしら？")
   ShowMessage("強すぎる力を持て余しちゃうものね、あははっ！")
   ShowMessageFace("",0,0,2,13)
   ShowMessage("有益な情報は得られなかった……")
   JumpToLabel("メイン")
   0()
  EndIf()
  If(1,9,0,4,0)
   ShowMessageFace("muzet_fc1",0,0,2,14)
   ShowMessage("【ミュゼット】")
   ShowMessage("正直言って全く心当たりがないわ。")
   ShowMessage("ぜひ製法を私のものに……いや、ゴホンゴホン。")
   ShowMessageFace("",0,0,2,15)
   ShowMessage("有益な情報は得られなかった……")
   JumpToLabel("メイン")
   0()
  EndIf()
  If(1,9,0,5,0)
   ShowMessageFace("muzet_fc1",0,0,2,16)
   ShowMessage("【ミュゼット】")
   ShowMessage("そんなこと、この私がするわけないでしょ？")
   ShowMessageFace("",0,0,2,17)
   ShowMessage("ピザを頼んだのはミュゼットではないようだ……")
   JumpToLabel("メイン")
   0()
  EndIf()
  If(1,9,0,6,0)
   ShowMessageFace("muzet_fc1",0,0,2,18)
   ShowMessage("【ミュゼット】")
   ShowMessage("教えてあげる代わり、私の僕にならない……？")
   ShowMessageFace("muzet_fc1",0,0,2,19)
   ShowMessage("【ミュゼット】")
   ShowMessage("……なんて、知ってたらそんな取引を持ちかけるんだけど。")
   ShowMessage("残念ながら、知らないわ。")
   ShowMessageFace("",0,0,2,20)
   ShowMessage("有益な情報は得られなかった……")
   JumpToLabel("メイン")
   0()
  EndIf()
  If(1,9,0,7,0)
   ShowMessageFace("muzet_fc1",0,0,2,21)
   ShowMessage("【ミュゼット】")
   ShowMessage("そんな便利な道具はないわねぇ……")
   ShowMessage("あっても、そう簡単には渡さないけど。")
   ShowMessageFace("",0,0,2,22)
   ShowMessage("有益なアイテムは得られなかった……")
   JumpToLabel("メイン")
   0()
  EndIf()
  If(1,9,0,8,0)
   ShowMessageFace("muzet_fc1",0,0,2,23)
   ShowMessage("【ミュゼット】")
   ShowMessage("魔王のお茶会なんて……")
   ShowMessage("これ以上、腹の探り合いはうんざりなのよ。")
   ShowMessageFace("",0,0,2,24)
   ShowMessage("ミュゼットはお茶会の誘いを断った……")
   JumpToLabel("メイン")
   0()
  EndIf()
  EndEventProcessing()
  0()
 PAGE   2
  // condition: variable 1099 >= 3
  0()



EVENT   30
 PAGE   1
  ShowMessageFace("bell_fc1",0,0,2,1)
  ShowMessage("【ベル】")
  ShowMessage("ほら、また万能剣士くんが見張ってる。")
  ShowMessage("ちょっと胸を見せつけたら、顔を赤らめて……")
  ShowMessageFace("bell_fc1",0,0,2,2)
  ShowMessage("【ベル】")
  ShowMessage("ほぉら、うふふっ……")
  ShowMessage("からかい甲斐があるわね。")
  ShowMessageFace("bell_fc1",0,0,2,3)
  ShowMessage("【ベル】")
  ShowMessage("ま、どうしてもやるっていうなら構わないけどね。")
  ShowMessage("万能剣士くんはどうせ甘ちゃんだから手を止めてくれるもの。")
  ShowMessageFace("bell_fc1",0,0,2,4)
  ShowMessage("【ベル】")
  ShowMessage("そこにつけこんで勝っちゃえば……うふふふふ♪")
  DefineLabel("メイン")
  355("ex_choice_add(\"異変について相談する\",2,")
  655("\"s[2341]\",0)")
  655("ex_choice_add(\"後悔していることについて聞く\",3,")
  655("\"s[2342]\",0)")
  655("ex_choice_add(\"時を繰り返す道具について聞く\",4,")
  655("\"s[2343]\",0)")
  655("ex_choice_add(\"ピザを注文したか聞く\",5,")
  655("\"s[2345]\",0)")
  355("ex_choice_add(\"謎のマキナについて聞く\",6,")
  655("\"s[2365]\",0)")
  655("ex_choice_add(\"作戦に必要な品について聞く\",7,")
  655("\"s[2364]\",0)")
  655("ex_choice_add(\"お茶会に誘う\",8,")
  655("\"s[2378]\",0)")
  655("ex_choice_add(\"立ち去る\",10)")
  355("ex_choice_show(0,11,[0,0])")
  If(1,9,0,2,0)
   ShowMessageFace("",0,0,2,5)
   ShowMessage("ルカは、異変について相談した……")
   ShowMessageFace("bell_fc1",0,0,2,6)
   ShowMessage("【ベル】")
   ShowMessage("謎だよね～。")
   ShowMessage("でも同じ日を繰り返すミュゼット様もなかなか素敵よね！")
   ShowMessageFace("",0,0,2,7)
   ShowMessage("ベルは頼れそうにない……")
   JumpToLabel("メイン")
   0()
  EndIf()
  If(1,9,0,3,0)
   ShowMessageFace("bell_fc1",0,0,2,8)
   ShowMessage("【ベル】")
   ShowMessage("リラとの立ち位置かな……？")
   ShowMessageFace("bell_fc1",0,0,2,9)
   ShowMessage("【ベル】")
   ShowMessage("なんか逆のほうがしっくりくる気がするんだけど、")
   ShowMessage("今更変えられない気がしてね。")
   ShowMessageFace("",0,0,2,10)
   ShowMessage("有益な情報は得られなかった……")
   JumpToLabel("メイン")
   0()
  EndIf()
  If(1,9,0,4,0)
   ShowMessageFace("bell_fc1",0,0,2,11)
   ShowMessage("【ベル】")
   ShowMessage("ミュゼット様もご存知ないことなんだもの。")
   ShowMessage("私が知ってるわけないでしょ？")
   ShowMessageFace("",0,0,2,12)
   ShowMessage("有益な情報は得られなかった……")
   JumpToLabel("メイン")
   0()
  EndIf()
  If(1,9,0,5,0)
   ShowMessageFace("bell_fc1",0,0,2,13)
   ShowMessage("【ベル】")
   ShowMessage("私はしてないわよ。")
   ShowMessageFace("",0,0,2,14)
   ShowMessage("ピザを頼んだのはベルではないようだ……")
   JumpToLabel("メイン")
   0()
  EndIf()
  If(1,9,0,6,0)
   ShowMessageFace("bell_fc1",0,0,2,15)
   ShowMessage("【ベル】")
   ShowMessage("こんな機械、見たこともないわね……")
   ShowMessageFace("",0,0,2,16)
   ShowMessage("有益な情報は得られなかった……")
   JumpToLabel("メイン")
   0()
  EndIf()
  If(1,9,0,7,0)
   ShowMessageFace("bell_fc1",0,0,2,17)
   ShowMessage("【ベル】")
   ShowMessage("私達が、あなたを助ける義理があると思う？")
   ShowMessageFace("",0,0,2,18)
   ShowMessage("有益なアイテムは得られなかった……")
   JumpToLabel("メイン")
   0()
  EndIf()
  If(1,9,0,8,0)
   ShowMessageFace("bell_fc1",0,0,2,19)
   ShowMessage("【ベル】")
   ShowMessage("ミュゼット様が行かないなら、行かないわ。")
   ShowMessageFace("",0,0,2,20)
   ShowMessage("ベルはお茶会の誘いを断った……")
   JumpToLabel("メイン")
   0()
  EndIf()
  EndEventProcessing()
  0()
 PAGE   2
  // condition: variable 1099 >= 3
  0()



EVENT   31
 PAGE   1
  ShowMessageFace("rest_fc1",0,0,2,1)
  ShowMessage("【レスト】")
  ShowMessage("ミュゼット、見張っているぞ……")
  ShowMessageFace("rest_fc1",0,0,2,2)
  ShowMessage("【レスト】")
  ShowMessage("ルカか、絶対に油断しちゃいけない。")
  ShowMessage("あいつら、きっと何か企むはずだ。")
  DefineLabel("メイン")
  355("ex_choice_add(\"一緒に見張る（時間経過）\",1,")
  655("\"v[1098] >= 5\",0)")
  655("ex_choice_add(\"異変について相談する\",2,")
  655("\"s[2341]\",0)")
  655("ex_choice_add(\"後悔していることについて聞く\",3,")
  655("\"s[2342]\",0)")
  655("ex_choice_add(\"時を繰り返す道具について聞く\",4,")
  655("\"s[2343]\",0)")
  655("ex_choice_add(\"ピザを注文したか聞く\",5,")
  655("\"s[2345]\",0)")
  355("ex_choice_add(\"謎のマキナについて聞く\",6,")
  655("\"s[2365]\",0)")
  655("ex_choice_add(\"作戦に必要な品について聞く\",7,")
  655("\"s[2364]\",0)")
  655("ex_choice_add(\"お茶会に誘う\",8,")
  655("\"s[2378]\",0)")
  655("ex_choice_add(\"立ち去る\",10)")
  355("ex_choice_show(0,11,[0,0])")
  If(1,9,0,1,0)
   ShowMessageFace("rest_fc1",0,0,2,3)
   ShowMessage("【レスト】")
   ShowMessage("監視を手伝ってくれるのかい？")
   ShowMessage("それじゃあ、一緒に見張ろう。")
   221()
   205(0,bytes(0x04,0x08,0x6f,0x3a,0x13,0x52,0x50,0x47,0x3a,0x3a,0x4d,0x6f,0x76,0x65,0x52,0x6f,0x75,0x74,0x65,0x09,0x3a,0x0c,0x40,0x72,0x65,0x70,0x65,0x61,0x74,0x46,0x3a,0x0f,0x40,0x73,0x6b,0x69,0x70,0x70,0x61,0x62,0x6c,0x65,0x46,0x3a,0x0a,0x40,0x77,0x61,0x69,0x74,0x54,0x3a,0x0a,0x40,0x6c,0x69,0x73,0x74,0x5b,0x07,0x6f,0x3a,0x15,0x52,0x50,0x47,0x3a,0x3a,0x4d,0x6f,0x76,0x65,0x43,0x6f,0x6d,0x6d,0x61,0x6e,0x64,0x07,0x3a,0x0a,0x40,0x63,0x6f,0x64,0x65,0x69,0x16,0x3a,0x10,0x40,0x70,0x61,0x72,0x61,0x6d,0x65,0x74,0x65,0x72,0x73,0x5b,0x00,0x6f,0x3b,0x0a,0x07,0x3b,0x0b,0x69,0x00,0x3b,0x0c,0x5b,0x00))
   TeleportPlayer(0,85,33,23,4,2)
   222()
   ShowMessageFace("ruka_fc1",0,0,2,4)
   ShowMessage("【ルカ】")
   ShowMessage("絶対に目を離さないぞ。")
   ShowMessage("ああ、あんなにおっぱいを揺らして……")
   ShowMessageFace("rest_fc1",0,0,2,5)
   ShowMessage("【レスト】")
   ShowMessage("見張っているのを知ってて、わざとやってるんだ。")
   ShowMessage("うぅっ、お尻を……あんな……")
   ShowMessageFace("ruka_fc1",0,0,2,6)
   ShowMessage("【ルカ】")
   ShowMessage("なんていやらしい……")
   ShowMessage("監視の目が離せない……")
   ShowMessageFace("",0,0,2,7)
   ShowMessage("ミュゼットを監視して時間を過ごした……")
   RunCommonEvent(540)
   EndEventProcessing()
   0()
  EndIf()
  If(1,9,0,2,0)
   ShowMessageFace("",0,0,2,8)
   ShowMessage("ルカは、異変について相談した……")
   ShowMessageFace("rest_fc1",0,0,2,9)
   ShowMessage("【レスト】")
   ShowMessage("全く思い当たらないよ……")
   ShowMessage("何なんだろうね、これは。")
   ShowMessageFace("rest_fc1",0,0,2,10)
   ShowMessage("【レスト】")
   ShowMessage("またミュゼット達の仕業かと思って見張ってるけど、")
   ShowMessage("あいつらも知らぬふりなんだ。")
   ShowMessageFace("",0,0,2,11)
   ShowMessage("レストは頼れそうにない……")
   JumpToLabel("メイン")
   0()
  EndIf()
  If(1,9,0,3,0)
   ShowMessageFace("rest_fc1",0,0,2,12)
   ShowMessage("【レスト】")
   ShowMessage("剣の師匠がいるんだけどね。")
   ShowMessage("あの人から色香に対する技も学べば良かったかな……")
   ShowMessageFace("ruka_fc1",0,0,2,13)
   ShowMessage("【ルカ】")
   ShowMessage("それは……僕も学びたいなぁ。")
   ShowMessageFace("",0,0,2,14)
   ShowMessage("有益な情報は得られなかった……")
   JumpToLabel("メイン")
   0()
  EndIf()
  If(1,9,0,4,0)
   ShowMessageFace("rest_fc1",0,0,2,15)
   ShowMessage("【レスト】")
   ShowMessage("僕も冒険していていろんな道具を見つけてきたけど、")
   ShowMessage("心当たりがないなぁ……")
   ShowMessageFace("",0,0,2,16)
   ShowMessage("有益な情報は得られなかった……")
   JumpToLabel("メイン")
   0()
  EndIf()
  If(1,9,0,5,0)
   ShowMessageFace("rest_fc1",0,0,2,17)
   ShowMessage("【レスト】")
   ShowMessage("そんなことはしてないけど……")
   ShowMessageFace("rest_fc1",0,0,2,18)
   ShowMessage("【レスト】")
   ShowMessage("ところでピザを切るあの道具って、")
   ShowMessage("なんか武器みたいでかっこいいよね。")
   ShowMessageFace("ruka_fc1",0,0,2,19)
   ShowMessage("【ルカ】")
   ShowMessage("そ、そう……かな？")
   ShowMessageFace("",0,0,2,20)
   ShowMessage("ピザを頼んだのはレストではないようだ……")
   JumpToLabel("メイン")
   0()
  EndIf()
  If(1,9,0,6,0)
   ShowMessageFace("rest_fc1",0,0,2,21)
   ShowMessage("【レスト】")
   ShowMessage("僕の世界には存在しない技術だね……")
   ShowMessage("すまない、分からないよ。")
   ShowMessageFace("",0,0,2,22)
   ShowMessage("有益な情報は得られなかった……")
   JumpToLabel("メイン")
   0()
  EndIf()
  If(1,9,0,7,0)
   ShowMessageFace("rest_fc1",0,0,2,23)
   ShowMessage("【レスト】")
   ShowMessage("手持ちの装備もアイテムも、元の世界にあるんだ……")
   ShowMessage("力になれなくてすまない。")
   ShowMessageFace("",0,0,2,24)
   ShowMessage("有益なアイテムは得られなかった……")
   JumpToLabel("メイン")
   0()
  EndIf()
  If(1,9,0,8,0)
   ShowMessageFace("rest_fc1",0,0,2,25)
   ShowMessage("【レスト】")
   ShowMessage("魔王のお茶会……！？")
   ShowMessage("遠慮させてもらえないかな。")
   ShowMessageFace("",0,0,2,26)
   ShowMessage("レストはお茶会の誘いを断った……")
   JumpToLabel("メイン")
   0()
  EndIf()
  EndEventProcessing()
  0()
 PAGE   2
  // condition: variable 1099 >= 3
  0()



EVENT   32
 PAGE   1
  // condition: variable 1099 >= 2
  ShowMessageFace("kumonomiko_fc1",1,0,2,1)
  ShowMessage("【蜘蛛之皇女】")
  ShowMessage("おう、婿殿ではないか。")
  ShowMessage("ちょうど、そなたとの未来を夢想していたのだ。")
  ShowMessageFace("kumonomiko_fc1",1,0,2,2)
  ShowMessage("【蜘蛛之皇女】")
  ShowMessage("妾と一緒に、夢想しないか……？")
  DefineLabel("メイン")
  355("ex_choice_add(\"夢想する（時間経過）\",1,")
  655("\"v[1098] >= 5\",0)")
  655("ex_choice_add(\"異変について相談する\",2,")
  655("\"s[2341]\",0)")
  655("ex_choice_add(\"後悔していることについて聞く\",3,")
  655("\"s[2342]\",0)")
  655("ex_choice_add(\"時を繰り返す道具について聞く\",4,")
  655("\"s[2343]\",0)")
  655("ex_choice_add(\"ピザを注文したか聞く\",5,")
  655("\"s[2345]\",0)")
  355("ex_choice_add(\"謎のマキナについて聞く\",6,")
  655("\"s[2365]\",0)")
  655("ex_choice_add(\"作戦に必要な品について聞く\",7,")
  655("\"s[2364]\",0)")
  655("ex_choice_add(\"お茶会に誘う\",8,")
  655("\"s[2378]\",0)")
  655("ex_choice_add(\"立ち去る\",10)")
  355("ex_choice_show(0,11,[0,0])")
  If(1,9,0,1,0)
   ShowMessageFace("kumonomiko_fc1",0,0,2,3)
   ShowMessage("【蜘蛛之皇女】")
   ShowMessage("では……まず、新生活の居をどこに構えるかだが。")
   ShowMessage("婿殿は、どう思う？")
   ShowChoices(strings("イリアスヴィルの実家","忘れられし洞窟","グランゴルド城","魔王城"),0)
   IfPlayerPicksChoice(0,null)
    ShowMessageFace("kumonomiko_fc1",0,0,2,4)
    ShowMessage("【蜘蛛之皇女】")
    ShowMessage("ほう、婿殿の実家か。")
    ShowMessage("ならば妾も、宿業を手伝わねばならんな。")
    0()
   IfPlayerPicksChoice(1,null)
    ShowMessageFace("kumonomiko_fc1",0,0,2,5)
    ShowMessage("【蜘蛛之皇女】")
    ShowMessage("なんと、あそこで良いのか？")
    ShowMessage("暗く湿った地下空間、人間は好まぬと思ったが……")
    0()
   IfPlayerPicksChoice(2,null)
    ShowMessageFace("kumonomiko_fc1",0,0,2,6)
    ShowMessage("【蜘蛛之皇女】")
    ShowMessage("ほう、あの城を落として奪うか。")
    ShowMessage("妾と婿殿なら、それも適おう……")
    0()
   IfPlayerPicksChoice(3,null)
    ShowMessageFace("kumonomiko_fc1",2,0,2,7)
    ShowMessage("【蜘蛛之皇女】")
    ShowMessage("それは、妾に魔王となれということか……")
    ShowMessage("婿殿が望むなら、挑まん事もないが……")
    0()
   404()
   ShowMessageFace("kumonomiko_fc1",0,0,2,8)
   ShowMessage("【蜘蛛之皇女】")
   ShowMessage("して、子供の数や性別はどうする？")
   ShowChoices(strings("女の子一人","男女一人ずつ","女の子千人","なし"),0)
   IfPlayerPicksChoice(0,null)
    ShowMessageFace("kumonomiko_fc1",0,0,2,9)
    ShowMessage("【蜘蛛之皇女】")
    ShowMessage("ほう、一粒種を育て上げるか……")
    ShowMessage("次代の女王として輝かせようぞ。")
    0()
   IfPlayerPicksChoice(1,null)
    ShowMessageFace("kumonomiko_fc1",0,0,2,10)
    ShowMessage("【蜘蛛之皇女】")
    ShowMessage("人間の多くは、それを望むようだな。")
    ShowMessage("妾としても、異論はないぞ……")
    0()
   IfPlayerPicksChoice(2,null)
    ShowMessageFace("kumonomiko_fc1",0,0,2,11)
    ShowMessage("【蜘蛛之皇女】")
    ShowMessage("なんと、軍団を築くとな！？")
    ShowMessage("妾と婿殿の子達なら、世界をも下せよう……")
    ShowMessageFace("kumonomiko_fc1",1,0,2,12)
    ShowMessage("【蜘蛛之皇女】")
    ShowMessage("しかし、子作りは大変だぞ？")
    ShowMessage("妾はいくらでも産んでみせるが、婿殿はどうなるやら……")
    0()
   IfPlayerPicksChoice(3,null)
    ShowMessageFace("kumonomiko_fc1",1,0,2,13)
    ShowMessage("【蜘蛛之皇女】")
    ShowMessage("妾と婿殿の二人きり、生涯水入らず……")
    ShowMessage("それも悪くはなかろう。")
    0()
   404()
   ShowMessageFace("",0,0,2,14)
   ShowMessage("未来を夢想して、時間を過ごした……")
   RunCommonEvent(540)
   EndEventProcessing()
   0()
  EndIf()
  If(1,9,0,2,0)
   ShowMessageFace("",0,0,2,15)
   ShowMessage("ルカは、異変について相談した……")
   ShowMessageFace("kumonomiko_fc1",2,0,2,16)
   ShowMessage("【蜘蛛之皇女】")
   ShowMessage("ぬぅ、妾にも記憶があれば……")
   ShowMessage("永遠の時間を、婿殿と共に過ごせるのに……")
   ShowMessageFace("",0,0,2,17)
   ShowMessage("蜘蛛之皇女は頼れそうにない……")
   JumpToLabel("メイン")
   0()
  EndIf()
  If(1,9,0,3,0)
   ShowMessageFace("kumonomiko_fc1",0,0,2,18)
   ShowMessage("【蜘蛛之皇女】")
   ShowMessage("妾に後悔などない。")
   ShowMessage("欲の赴くままに、生きるのみよ……")
   ShowMessageFace("",0,0,2,19)
   ShowMessage("有益な情報は得られなかった……")
   JumpToLabel("メイン")
   0()
  EndIf()
  If(1,9,0,4,0)
   ShowMessageFace("kumonomiko_fc1",0,0,2,20)
   ShowMessage("【蜘蛛之皇女】")
   ShowMessage("妾は知らんが……")
   ShowMessage("実在するなら、つまらぬ道具よな。")
   ShowMessageFace("",0,0,2,21)
   ShowMessage("有益な情報は得られなかった……")
   JumpToLabel("メイン")
   0()
  EndIf()
  If(1,9,0,5,0)
   ShowMessageFace("kumonomiko_fc1",0,0,2,22)
   ShowMessage("【蜘蛛之皇女】")
   ShowMessage("何者かが女子会を目論んだのではないか？")
   ShowMessage("もしそうならば、妾も忘れず呼ぶが良い。")
   ShowMessageFace("",0,0,2,23)
   ShowMessage("ピザを頼んだのは蜘蛛之皇女ではないようだ……")
   JumpToLabel("メイン")
   0()
  EndIf()
  If(1,9,0,6,0)
   ShowMessageFace("kumonomiko_fc1",0,0,2,24)
   ShowMessage("【蜘蛛之皇女】")
   ShowMessage("機械のことは知らんな……")
   ShowMessageFace("",0,0,2,25)
   ShowMessage("有益な情報は得られなかった……")
   JumpToLabel("メイン")
   0()
  EndIf()
  If(1,9,0,7,0)
   ShowMessageFace("kumonomiko_fc1",0,0,2,26)
   ShowMessage("【蜘蛛之皇女】")
   ShowMessage("許せ、秘宝の類は持っておらん。")
   ShowMessage("高貴ながら、流浪の多い身だったのでな……")
   ShowMessageFace("",0,0,2,27)
   ShowMessage("有益なアイテムは得られなかった……")
   JumpToLabel("メイン")
   0()
  EndIf()
  If(1,9,0,8,0)
   ShowMessageFace("kumonomiko_fc1",0,0,2,28)
   ShowMessage("【蜘蛛之皇女】")
   ShowMessage("かの魔王と妾は、性質が似ておる。")
   ShowMessage("似た者同士、あまり睦まじくなれぬであろう……")
   ShowMessageFace("",0,0,2,29)
   ShowMessage("蜘蛛之皇女はお茶会の誘いを断った……")
   JumpToLabel("メイン")
   0()
  EndIf()
  EndEventProcessing()
  0()
 PAGE   2
  // condition: variable 1099 >= 3
  0()



EVENT   33
 PAGE   1
  // condition: variable 1099 >= 3
  ShowMessageFace("radio_fc1",0,0,2,1)
  ShowMessage("【ラディオ】")
  ShowMessage("現在、掃除中でス。")
  ShowMessage("掃除を手伝ってもらエマせんか……？")
  DefineLabel("メイン")
  355("ex_choice_add(\"掃除を手伝ウ（時間経過）\",1,")
  655("\"v[1098] >= 5\",0)")
  655("ex_choice_add(\"異変について相談する\",2,")
  655("\"s[2341]\",0)")
  655("ex_choice_add(\"後悔していることについて聞く\",3,")
  655("\"s[2342]\",0)")
  655("ex_choice_add(\"時を繰り返す道具について聞く\",4,")
  655("\"s[2343]\",0)")
  655("ex_choice_add(\"ピザを注文したか聞く\",5,")
  655("\"s[2345]\",0)")
  355("ex_choice_add(\"謎のマキナについて聞く\",6,")
  655("\"s[2365]\",0)")
  655("ex_choice_add(\"作戦に必要な品について聞く\",7,")
  655("\"s[2364]\",0)")
  655("ex_choice_add(\"お茶会に誘う\",8,")
  655("\"s[2378]\",0)")
  655("ex_choice_add(\"立ち去る\",10)")
  355("ex_choice_show(0,11,[0,0])")
  If(1,9,0,1,0)
   TeleportPlayer(0,85,11,15,6,0)
   ShowMessageFace("ruka_fc1",0,0,2,2)
   ShowMessage("【ルカ】")
   ShowMessage("……………………")
   TeleportPlayer(0,85,6,12,8,0)
   ShowMessageFace("ruka_fc1",0,0,2,3)
   ShowMessage("【ルカ】")
   ShowMessage("……………………")
   TeleportPlayer(0,85,8,13,8,0)
   205(-1,bytes(0x04,0x08,0x6f,0x3a,0x13,0x52,0x50,0x47,0x3a,0x3a,0x4d,0x6f,0x76,0x65,0x52,0x6f,0x75,0x74,0x65,0x09,0x3a,0x0c,0x40,0x72,0x65,0x70,0x65,0x61,0x74,0x46,0x3a,0x0f,0x40,0x73,0x6b,0x69,0x70,0x70,0x61,0x62,0x6c,0x65,0x46,0x3a,0x0a,0x40,0x77,0x61,0x69,0x74,0x54,0x3a,0x0a,0x40,0x6c,0x69,0x73,0x74,0x5b,0x07,0x6f,0x3a,0x15,0x52,0x50,0x47,0x3a,0x3a,0x4d,0x6f,0x76,0x65,0x43,0x6f,0x6d,0x6d,0x61,0x6e,0x64,0x07,0x3a,0x0a,0x40,0x63,0x6f,0x64,0x65,0x69,0x17,0x3a,0x10,0x40,0x70,0x61,0x72,0x61,0x6d,0x65,0x74,0x65,0x72,0x73,0x5b,0x00,0x6f,0x3b,0x0a,0x07,0x3b,0x0b,0x69,0x00,0x3b,0x0c,0x5b,0x00))
   ShowMessageFace("ruka_fc1",0,0,2,4)
   ShowMessage("【ルカ】")
   ShowMessage("あの……")
   ShowMessage("掃除をしているのは、僕だけのような気がするんだけど。")
   ShowMessageFace("radio_fc1",0,0,2,5)
   ShowMessage("【ラディオ】")
   ShowMessage("お気づきになられまシタか……")
   ShowMessageFace("ruka_fc1",0,0,2,6)
   ShowMessage("【ルカ】")
   ShowMessage("まあ……僕、掃除は好きだからいいんだけど。")
   ShowMessageFace("radio_fc1",0,0,2,7)
   ShowMessage("【ラディオ】")
   ShowMessage("掃除好き……！？")
   ShowMessage("あなたの脳はバグってイマす！")
   ShowMessageFace("ruka_fc1",0,0,2,8)
   ShowMessage("【ルカ】")
   ShowMessage("ひどい言われようだ……")
   ShowMessageFace("",0,0,2,9)
   ShowMessage("掃除をして時間を過ごした……")
   RunCommonEvent(540)
   EndEventProcessing()
   0()
  EndIf()
  If(1,9,0,2,0)
   ShowMessageFace("",0,0,2,10)
   ShowMessage("ルカは、異変について相談した……")
   ShowMessageFace("radio_fc1",0,0,2,11)
   ShowMessage("【ラディオ】")
   ShowMessage("リピートモードを切ればいいノデは……？")
   ShowMessage("安らかに眠レマすよ……")
   ShowMessageFace("",0,0,2,12)
   ShowMessage("ラディオは頼れそうにない……")
   JumpToLabel("メイン")
   0()
  EndIf()
  If(1,9,0,3,0)
   ShowMessageFace("radio_fc1",0,0,2,13)
   ShowMessage("【ラディオ】")
   ShowMessage("……機能が停止しマシた。")
   ShowMessage("対処方法を検索しテイます……")
   ShowMessageFace("radio_fc1",0,0,2,14)
   ShowMessage("【ラディオ】")
   ShowMessage("……………………")
   ShowMessageFace("radio_fc1",0,0,2,15)
   ShowMessage("【ラディオ】")
   ShowMessage("……………………")
   ShowMessageFace("radio_fc1",0,0,2,16)
   ShowMessage("【ラディオ】")
   ShowMessage("……………………")
   ShowMessageFace("ruka_fc1",0,0,2,17)
   ShowMessage("【ルカ】")
   ShowMessage("これで対処方法が出てきた試しがない……")
   ShowMessageFace("",0,0,2,18)
   ShowMessage("有益な情報は得られなかった……")
   JumpToLabel("メイン")
   0()
  EndIf()
  If(1,9,0,4,0)
   ShowMessageFace("radio_fc1",0,0,2,19)
   ShowMessage("【ラディオ】")
   ShowMessage("データが見つかリマせん。")
   ShowMessageFace("",0,0,2,20)
   ShowMessage("有益な情報は得られなかった……")
   JumpToLabel("メイン")
   0()
  EndIf()
  If(1,9,0,5,0)
   ShowMessageFace("radio_fc1",0,0,2,21)
   ShowMessage("【ラディオ】")
   ShowMessage("ピザは食べマセん……")
   ShowMessage("届くノデす……")
   ShowMessageFace("",0,0,2,22)
   ShowMessage("ピザを頼んだのはラディオではないようだ……")
   JumpToLabel("メイン")
   0()
  EndIf()
  If(1,9,0,6,0)
   ShowMessageFace("radio_fc1",0,0,2,23)
   ShowMessage("【ラディオ】")
   ShowMessage("メカは苦手でス……分かりマセん。")
   ShowMessageFace("ruka_fc1",0,0,2,24)
   ShowMessage("【ルカ】")
   ShowMessage("メカなのに、メカに詳しくないの……！？")
   ShowMessageFace("radio_fc1",0,0,2,25)
   ShowMessage("【ラディオ】")
   ShowMessage("ヒトは血と肉に詳しイデすか……？")
   ShowMessageFace("ruka_fc1",0,0,2,26)
   ShowMessage("【ルカ】")
   ShowMessage("……ごめん。")
   ShowMessageFace("",0,0,2,27)
   ShowMessage("有益な情報は得られなかった……")
   JumpToLabel("メイン")
   0()
  EndIf()
  If(1,9,0,7,0)
   ShowMessageFace("radio_fc1",0,0,2,28)
   ShowMessage("【ラディオ】")
   ShowMessage("私自身、備品のようなもノデす……")
   ShowMessageFace("ruka_fc1",0,0,2,29)
   ShowMessage("【ルカ】")
   ShowMessage("君と話していると悲しくなる。")
   ShowMessageFace("",0,0,2,30)
   ShowMessage("有益なアイテムは得られなかった……")
   JumpToLabel("メイン")
   0()
  EndIf()
  If(1,9,0,8,0)
   ShowMessageFace("radio_fc1",0,0,2,31)
   ShowMessage("【ラディオ】")
   ShowMessage("申し訳ありません、お断りさせて頂きます。")
   ShowMessageFace("ruka_fc1",0,0,2,32)
   ShowMessage("【ルカ】")
   ShowMessage("ちゃんと喋れるじゃないか……")
   ShowMessageFace("",0,0,2,33)
   ShowMessage("ラディオはお茶会の誘いを断った……")
   JumpToLabel("メイン")
   0()
  EndIf()
  EndEventProcessing()
  0()
 PAGE   2
  // condition: variable 1099 >= 4
  0()



EVENT   34
 PAGE   1
  // condition: variable 1099 >= 3
  ShowMessageFace("brunhild_fc1",0,0,2,1)
  ShowMessage("【ヒルデ】")
  ShowMessage("ヒルデ、ちょっとお悩み中……")
  ShowMessage("相談に乗ってくれると、嬉しい。")
  DefineLabel("メイン")
  355("ex_choice_add(\"相談に乗る（時間経過）\",1,")
  655("\"v[1098] >= 5\",0)")
  655("ex_choice_add(\"異変について相談する\",2,")
  655("\"s[2341]\",0)")
  655("ex_choice_add(\"後悔していることについて聞く\",3,")
  655("\"s[2342]\",0)")
  655("ex_choice_add(\"時を繰り返す道具について聞く\",4,")
  655("\"s[2343]\",0)")
  655("ex_choice_add(\"ピザを注文したか聞く\",5,")
  655("\"s[2345]\",0)")
  355("ex_choice_add(\"謎のマキナについて聞く\",6,")
  655("\"s[2365]\",0)")
  655("ex_choice_add(\"作戦に必要な品について聞く\",7,")
  655("\"s[2364]\",0)")
  655("ex_choice_add(\"お茶会に誘う\",8,")
  655("\"s[2378]\",0)")
  655("ex_choice_add(\"立ち去る\",10)")
  355("ex_choice_show(0,11,[0,0])")
  If(1,9,0,1,0)
   ShowMessageFace("brunhild_fc1",0,0,2,2)
   ShowMessage("【ヒルデ】")
   ShowMessage("ヒルデ、現在お悩み中。")
   ShowMessage("ヒルデが存在する意味は、何なのかな……？")
   ShowMessageFace("ruka_fc1",0,0,2,3)
   ShowMessage("【ルカ】")
   ShowMessage("ヒルデは、世界を守るために造られたんだよね……？")
   ShowMessageFace("brunhild_fc1",0,0,2,4)
   ShowMessage("【ヒルデ】")
   ShowMessage("でも、ヒルデは何を倒せばいいの？")
   ShowMessage("世界を破滅に導く混沌は、敵というより物理法則。")
   ShowMessageFace("brunhild_fc1",0,0,2,5)
   ShowMessage("【ヒルデ】")
   ShowMessage("ヒルデは、何のために作られたの？")
   ShowMessage("本当に世界を救えるの……？")
   ShowMessageFace("ruka_fc1",0,0,2,6)
   ShowMessage("【ルカ】")
   ShowMessage("……………………")
   ShowMessageFace("brunhild_fc1",0,0,2,7)
   ShowMessage("【ヒルデ】")
   ShowMessage("ヒルデは兵器、壊すことしか出来ない。")
   ShowMessage("ヒルデ、お悩み中……")
   ShowMessageFace("ruka_fc1",0,0,2,8)
   ShowMessage("【ルカ】")
   ShowMessage("自分が何を出来るか、悩んでるのは……")
   ShowMessage("僕だってそうだし、多かれ少なかれ皆そうだと思うよ。")
   ShowMessageFace("ruka_fc1",0,0,2,9)
   ShowMessage("【ルカ】")
   ShowMessage("でも結局、冒険の終わりに答えを見付けるしかないね。")
   ShowMessage("それまでは、やれる事を精一杯やるだけだよ。")
   ShowMessageFace("brunhild_fc1",0,0,2,10)
   ShowMessage("【ヒルデ】")
   ShowMessage("そうだね、悩んでいても答えは出ない……")
   ShowMessage("やるだけやって、やりきった後に考えようか。")
   ShowMessageFace("",0,0,2,11)
   ShowMessage("ヒルデの相談に乗って、時間を過ごした……")
   RunCommonEvent(540)
   EndEventProcessing()
   0()
  EndIf()
  If(1,9,0,2,0)
   ShowMessageFace("",0,0,2,12)
   ShowMessage("ルカは、異変について相談した……")
   ShowMessageFace("brunhild_fc1",0,0,2,13)
   ShowMessage("【ヒルデ】")
   ShowMessage("ヒルデ、力になれない……")
   ShowMessage("ごめんね……")
   ShowMessageFace("",0,0,2,14)
   ShowMessage("ヒルデは頼れそうにない……")
   JumpToLabel("メイン")
   0()
  EndIf()
  If(1,9,0,3,0)
   ShowMessageFace("brunhild_fc1",0,0,2,15)
   ShowMessage("【ヒルデ】")
   ShowMessage("ヒルデ、世界を救うために造られた……")
   ShowMessage("だから、戦うことしか……壊すことしかできない……")
   ShowMessageFace("brunhild_fc1",0,0,2,16)
   ShowMessage("【ヒルデ】")
   ShowMessage("それが、ヒルデの後悔……")
   ShowMessage("でも、時空異変には関係ないよ。")
   ShowMessageFace("",0,0,2,17)
   ShowMessage("有益な情報は得られなかった……")
   JumpToLabel("メイン")
   0()
  EndIf()
  If(1,9,0,4,0)
   ShowMessageFace("brunhild_fc1",0,0,2,18)
   ShowMessage("【ヒルデ】")
   ShowMessage("ヒルデのデータベースに情報無し……")
   ShowMessage("もともとスカスカのデータベースだけど。")
   ShowMessageFace("",0,0,2,19)
   ShowMessage("有益な情報は得られなかった……")
   JumpToLabel("メイン")
   0()
  EndIf()
  If(1,9,0,5,0)
   ShowMessageFace("brunhild_fc1",0,0,2,20)
   ShowMessage("【ヒルデ】")
   ShowMessage("ヒルデ、ピザは頼まないよ……")
   ShowMessageFace("",0,0,2,21)
   ShowMessage("ピザを頼んだのはヒルデではないようだ……")
   JumpToLabel("メイン")
   0()
  EndIf()
  If(1,9,0,6,0)
   ShowMessageFace("brunhild_fc1",0,0,2,22)
   ShowMessage("【ヒルデ】")
   ShowMessage("ヒルデ、知らない……")
   ShowMessage("異世界の技術だと思うけど……")
   ShowMessageFace("",0,0,2,23)
   ShowMessage("有益な情報は得られなかった……")
   JumpToLabel("メイン")
   0()
  EndIf()
  If(1,9,0,7,0)
   ShowMessageFace("brunhild_fc1",0,0,2,24)
   ShowMessage("【ヒルデ】")
   ShowMessage("ヒルデの武器は備え付けだから、貸し出せないの。")
   ShowMessage("ごめんね……")
   ShowMessageFace("",0,0,2,25)
   ShowMessage("有益なアイテムは得られなかった……")
   JumpToLabel("メイン")
   0()
  EndIf()
  If(1,9,0,8,0)
   ShowMessageFace("brunhild_fc1",0,0,2,26)
   ShowMessage("【ヒルデ】")
   ShowMessage("ヒルデ、お茶会は苦手……")
   ShowMessageFace("",0,0,2,27)
   ShowMessage("ヒルデはお茶会の誘いを断った……")
   JumpToLabel("メイン")
   0()
  EndIf()
  EndEventProcessing()
  0()
 PAGE   2
  // condition: variable 1099 >= 4
  0()



EVENT   35
 PAGE   1
  // condition: variable 1099 >= 3
  ShowMessageFace("gilgoon_fc1",0,0,2,1)
  ShowMessage("【ギルゴーン】")
  ShowMessage("……違う。これも駄目だ……")
  ShowMessage("こっちも使えそうに無い……")
  ShowMessageFace("gilgoon_fc1",0,0,2,2)
  ShowMessage("【ギルゴーン】")
  ShowMessage("……何をしているかだと？")
  ShowMessage("今は文献を集め、読み込んでいる最中だ。")
  ShowMessageFace("gilgoon_fc1",0,0,2,3)
  ShowMessage("【ギルゴーン】")
  ShowMessage("元の世界に戻る方法もまだ分かっていないのだ。")
  ShowMessage("そのためには少しでも手を動かさなければならん……")
  ShowMessageFace("gilgoon_fc1",0,0,2,4)
  ShowMessage("【ギルゴーン】")
  ShowMessage("……おい、貴様も見ているだけなら")
  ShowMessage("雑用ぐらい手伝え！")
  DefineLabel("メイン")
  355("ex_choice_add(\"調べ物を手伝う（時間経過）\",1,")
  655("\"v[1098] >= 5\",0)")
  655("ex_choice_add(\"異変について相談する\",2,")
  655("\"s[2341]\",0)")
  655("ex_choice_add(\"後悔していることについて聞く\",3,")
  655("\"s[2342]\",0)")
  655("ex_choice_add(\"時を繰り返す道具について聞く\",4,")
  655("\"s[2343]\",0)")
  655("ex_choice_add(\"ピザを注文したか聞く\",5,")
  655("\"s[2345]\",0)")
  355("ex_choice_add(\"謎のマキナについて聞く\",6,")
  655("\"s[2365]\",0)")
  655("ex_choice_add(\"作戦に必要な品について聞く\",7,")
  655("\"s[2364]\",0)")
  655("ex_choice_add(\"お茶会に誘う\",8,")
  655("\"s[2378]\",0)")
  655("ex_choice_add(\"立ち去る\",10)")
  355("ex_choice_show(0,11,[0,0])")
  If(1,9,0,1,0)
   ShowMessageFace("gilgoon_fc1",0,0,2,5)
   ShowMessage("【ギルゴーン】")
   ShowMessage("よし、話の分かる忠僕だ。")
   ShowMessageFace("gilgoon_fc1",0,0,2,6)
   ShowMessage("【ギルゴーン】")
   ShowMessage("ではこれらの書物からこの項目の部分を全て書き出せ。")
   ShowMessage("それから……")
   221()
   ShowMessageFace("",0,0,2,7)
   ShowMessage("ギルゴーンの調べ物を手伝い、時間を過ごした！")
   ShowMessage("細かな作業を行ったことで、器用さがアップした！")
   222()
   ShowMessageFace("gilgoon_fc1",0,0,2,8)
   ShowMessage("【ギルゴーン】")
   ShowMessage("……期待していなかったが、")
   ShowMessage("なかなか使えるではないか、貴様。")
   ShowMessageFace("gilgoon_fc1",0,0,2,9)
   ShowMessage("【ギルゴーン】")
   ShowMessage("思いの外助かったぞ。感謝する。")
   RunCommonEvent(540)
   EndEventProcessing()
   0()
  EndIf()
  If(1,9,0,2,0)
   ShowMessageFace("",0,0,2,10)
   ShowMessage("ルカは、異変について相談した……")
   ShowMessageFace("gilgoon_fc1",0,0,2,11)
   ShowMessage("【ギルゴーン】")
   ShowMessage("……分かるぞ、その苦しみ。")
   ShowMessageFace("gilgoon_fc1",0,0,2,12)
   ShowMessage("【ギルゴーン】")
   ShowMessage("我も夢世界に幽閉されていた時は、")
   ShowMessage("いつまでこれが続くのかと……。")
   ShowMessageFace("gilgoon_fc1",0,0,2,13)
   ShowMessage("【ギルゴーン】")
   ShowMessage("くそ、思い出すだけで体が疼く自分に嫌気がする……")
   ShowMessageFace("",0,0,2,14)
   ShowMessage("ギルゴーンは頼れそうにない……")
   JumpToLabel("メイン")
   0()
  EndIf()
  If(1,9,0,3,0)
   ShowMessageFace("gilgoon_fc1",0,0,2,15)
   ShowMessage("【ギルゴーン】")
   ShowMessage("この快感に弱すぎる身となっては後悔ばかりだ。")
   ShowMessageFace("gilgoon_fc1",0,0,2,16)
   ShowMessage("【ギルゴーン】")
   ShowMessage("貴様だってそうだろう？")
   ShowMessage("今まで悔しい思いをし続けてきたのではないか？")
   ShowMessageFace("ruka_fc1",0,0,2,17)
   ShowMessage("【ルカ】")
   ShowMessage("それは……確かにそうかな。")
   ShowMessage("でも今回の異変とは関係ない話だね。")
   ShowMessageFace("",0,0,2,18)
   ShowMessage("有益な情報は得られなかった……")
   JumpToLabel("メイン")
   0()
  EndIf()
  If(1,9,0,4,0)
   ShowMessageFace("gilgoon_fc1",0,0,2,19)
   ShowMessage("【ギルゴーン】")
   ShowMessage("聞いたこともない。")
   ShowMessageFace("gilgoon_fc1",0,0,2,20)
   ShowMessage("【ギルゴーン】")
   ShowMessage("この我でも時間を操る魔法というものは")
   ShowMessage("扱える代物ではないのだ。")
   ShowMessageFace("gilgoon_fc1",0,0,2,21)
   ShowMessage("【ギルゴーン】")
   ShowMessage("もしそんなものがあるのなら、我が手中に収め、")
   ShowMessage("利用させてもらいたいものだ。")
   ShowMessageFace("",0,0,2,22)
   ShowMessage("有益な情報は得られなかった……")
   JumpToLabel("メイン")
   0()
  EndIf()
  If(1,9,0,5,0)
   ShowMessageFace("gilgoon_fc1",0,0,2,23)
   ShowMessage("【ギルゴーン】")
   ShowMessage("いやしていないが……")
   ShowMessageFace("gilgoon_fc1",0,0,2,24)
   ShowMessage("【ギルゴーン】")
   ShowMessage("だが、あのピザという食事は実に我好みだな！")
   ShowMessageFace("gilgoon_fc1",0,0,2,25)
   ShowMessage("【ギルゴーン】")
   ShowMessage("味も濃くて食べごたえがある上、")
   ShowMessage("色んな種類もあって選ぶ時も楽しませる！")
   ShowMessageFace("gilgoon_fc1",0,0,2,26)
   ShowMessage("【ギルゴーン】")
   ShowMessage("しかもピザの半分を、")
   ShowMessage("別のピザに変えるなんてこともできるのだろう？")
   ShowMessageFace("gilgoon_fc1",0,0,2,27)
   ShowMessage("【ギルゴーン】")
   ShowMessage("あれならいくらでも食べられそうだ。")
   ShowMessage("次に注文する時は我に選ばせろ！")
   ShowMessageFace("",0,0,2,28)
   ShowMessage("ピザを頼んだのはギルゴーンではないようだ……")
   JumpToLabel("メイン")
   0()
  EndIf()
  If(1,9,0,6,0)
   ShowMessageFace("gilgoon_fc1",0,0,2,29)
   ShowMessage("【ギルゴーン】")
   ShowMessage("これは……")
   ShowMessage("力の放出のされ方を見るに通信具か？")
   ShowMessageFace("gilgoon_fc1",0,0,2,30)
   ShowMessage("【ギルゴーン】")
   ShowMessage("だがそれにしては力が複雑すぎる……")
   ShowMessage("もしかしたら、かなり多機能な道具かも知れんぞ。")
   ShowMessageFace("",0,0,2,31)
   ShowMessage("有益な情報は得られなかった……")
   JumpToLabel("メイン")
   0()
  EndIf()
  If(1,9,0,7,0)
   ShowMessageFace("gilgoon_fc1",0,0,2,32)
   ShowMessage("【ギルゴーン】")
   ShowMessage("「現の壁」は使えんぞ。")
   ShowMessage("あれはそれなりの設備が必要だからな。")
   ShowMessageFace("",0,0,2,33)
   ShowMessage("有益なアイテムは得られなかった……")
   JumpToLabel("メイン")
   0()
  EndIf()
  If(1,9,0,8,0)
   ShowMessageFace("gilgoon_fc1",0,0,2,34)
   ShowMessage("【ギルゴーン】")
   ShowMessage("断る。戯れなどしている暇はないのでな。")
   ShowMessageFace("",0,0,2,35)
   ShowMessage("ギルゴーンはお茶会の誘いを断った……")
   JumpToLabel("メイン")
   0()
  EndIf()
  EndEventProcessing()
  0()
 PAGE   2
  // condition: variable 1099 >= 4
  0()



EVENT   15
 PAGE   1
  281(0)
  250(bytes(0x04,0x08,0x6f,0x3a,0x0c,0x52,0x50,0x47,0x3a,0x3a,0x53,0x45,0x08,0x3a,0x0a,0x40,0x6e,0x61,0x6d,0x65,0x49,0x22,0x09,0x4d,0x6f,0x76,0x65,0x06,0x3a,0x06,0x45,0x54,0x3a,0x0b,0x40,0x70,0x69,0x74,0x63,0x68,0x69,0x69,0x3a,0x0c,0x40,0x76,0x6f,0x6c,0x75,0x6d,0x65,0x69,0x55))
  TeleportPlayer(0,84,26,8,0,0)
  0()



EVENT   19
 PAGE   1
  ShowMessageFace("ruka_fc1",0,0,2,1)
  ShowMessage("【ルカ】")
  ShowMessage("えっと、どちら様でしょう……？")
  ShowMessageFace("",0,0,2,2)
  ShowMessage("【利発そうな少年】")
  ShowMessage("商人見習いです。")
  ShowMessage("女王様のご依頼で、秘宝の見積もりをさせて頂いています。")
  ShowMessageFace("queenvampire_fc1",0,0,2,3)
  ShowMessage("【ファティマ】")
  ShowMessage("ヴァニラを通じて、我が頼んだのだ。")
  ShowMessage("我が城に伝わる秘宝を、少々処分しようと思ってな。")
  ShowMessageFace("",0,0,2,4)
  ShowMessage("【利発そうな少年】")
  ShowMessage("少々と言っても、ずいぶんな量ですよ。")
  ShowMessage("お見積もりには、今日いっぱい掛かりそうですね……")
  ShowMessageFace("queenvampire_fc1",0,0,2,5)
  ShowMessage("【ファティマ】")
  ShowMessage("構わん、任せる。")
  ShowMessage("ヴァニラによれば、将来有望な鑑定士という事だからな。")
  0()



EVENT   1
 PAGE   1
  ShowMessageFace("junkdoll_fc2",0,0,2,1)
  ShowMessage("【フランチェスカ】")
  ShowMessage("ねぇ、ちょっとしたパズルゲームで遊んでいかない？")
  ShowMessage("とっても楽しいわよ、あははっ！！")
  If(0,2338,0)
   ShowMessageFace("",0,0,2,2)
   ShowMessage("今は、荷物を運んでいる最中だ。")
   ShowMessage("大聖堂に向かうことを優先しよう。")
   EndEventProcessing()
   0()
  EndIf()
  DefineLabel("メイン")
  355("ex_choice_add(\"パズルで遊ぶ（時間経過）\",1,")
  655("\"v[1098] >= 5\",0)")
  655("ex_choice_add(\"異変について相談する\",2,")
  655("\"s[2341]\",0)")
  655("ex_choice_add(\"後悔していることについて聞く\",3,")
  655("\"s[2342]\",0)")
  655("ex_choice_add(\"時を繰り返す道具について聞く\",4,")
  655("\"s[2343]\",0)")
  655("ex_choice_add(\"ピザを注文したか聞く\",5,")
  655("\"s[2345]\",0)")
  355("ex_choice_add(\"謎のマキナについて聞く\",6,")
  655("\"s[2365]\",0)")
  655("ex_choice_add(\"作戦に必要な品について聞く\",7,")
  655("\"s[2364]\",0)")
  655("ex_choice_add(\"お茶会に誘う\",8,")
  655("\"s[2378]\",0)")
  655("ex_choice_add(\"立ち去る\",10)")
  355("ex_choice_show(0,11,[0,0])")
  If(1,9,0,1,0)
   ShowMessageFace("ruka_fc1",0,0,2,3)
   ShowMessage("【ルカ】")
   ShowMessage("ちょっとしたパズルって……どんなの？")
   ShowMessageFace("junkdoll_fc2",0,0,2,4)
   ShowMessage("【フランチェスカ】")
   ShowMessage("私の体をパズルにするのよ、あはははっ！！")
   ShowMessageFace("ruka_fc1",0,0,2,5)
   ShowMessage("【ルカ】")
   ShowMessage("ひぇーっ！！")
   ShowMessageFace("",0,0,2,6)
   ShowMessage("バラバラになったフランチェスカの体を恐る恐る組み立て……")
   ShowMessage("完成した頃には、一時間が経過していた。")
   If(1,1099,0,4,0)
    RunCommonEvent(5806)
    EndEventProcessing()
    0()
   EndIf()
   RunCommonEvent(540)
   EndEventProcessing()
   0()
  EndIf()
  If(1,9,0,2,0)
   ShowMessageFace("",0,0,2,7)
   ShowMessage("ルカは、異変について相談した……")
   ShowMessageFace("junkdoll_fc2",0,0,2,8)
   ShowMessage("【フランチェスカ】")
   ShowMessage("どうせ、あたし達はただのガラクタよ。")
   ShowMessage("そんな異変、どうにも出来はしないわ……")
   ShowMessageFace("",0,0,2,9)
   ShowMessage("フランチェスカは頼れそうにない……")
   JumpToLabel("メイン")
   0()
  EndIf()
  If(1,9,0,3,0)
   ShowMessageFace("junkdoll_fc2",0,0,2,10)
   ShowMessage("【フランチェスカ】")
   ShowMessage("こんな体だけど、別に後悔なんてないわ。")
   ShowMessage("ジャンクなのに、今も動けているだけマシよ……")
   ShowMessageFace("",0,0,2,11)
   ShowMessage("有益な情報は得られなかった……")
   JumpToLabel("メイン")
   0()
  EndIf()
  If(1,9,0,4,0)
   ShowMessageFace("junkdoll_fc2",0,0,2,12)
   ShowMessage("【フランチェスカ】")
   ShowMessage("迷惑なアイテムよねぇ……")
   ShowMessage("まあ、せいぜいがんばって探しなさい。")
   ShowMessageFace("",0,0,2,13)
   ShowMessage("有益な情報は得られなかった……")
   JumpToLabel("メイン")
   0()
  EndIf()
  If(1,9,0,5,0)
   ShowMessageFace("junkdoll_fc2",0,0,2,14)
   ShowMessage("【フランチェスカ】")
   ShowMessage("そんなもの、食べると思う……？")
   ShowMessageFace("",0,0,2,15)
   ShowMessage("ピザを頼んだのはフランチェスカではないようだ……")
   JumpToLabel("メイン")
   0()
  EndIf()
  If(1,9,0,6,0)
   ShowMessageFace("junkdoll_fc2",0,0,2,16)
   ShowMessage("【フランチェスカ】")
   ShowMessage("最先端の技術で作られた小型マキナね。")
   ShowMessage("こういうのは、学者にでも聞いたら……？")
   ShowMessageFace("",0,0,2,17)
   ShowMessage("有益な情報は得られなかった……")
   JumpToLabel("メイン")
   0()
  EndIf()
  If(1,9,0,7,0)
   ShowMessageFace("junkdoll_fc2",0,0,2,18)
   ShowMessage("【フランチェスカ】")
   ShowMessage("ジャンクの手持ちアイテムなんて、ジャンクばかりよ。")
   ShowMessage("悪いわねぇ、あははっ！！")
   ShowMessageFace("",0,0,2,19)
   ShowMessage("有益なアイテムは得られなかった……")
   JumpToLabel("メイン")
   0()
  EndIf()
  If(1,9,0,8,0)
   ShowMessageFace("junkdoll_fc2",1,0,2,20)
   ShowMessage("【フランチェスカ】")
   ShowMessage("魔王のお茶会？")
   ShowMessage("これ以上、ジャンクになるつもりはないわ……")
   ShowMessageFace("",0,0,2,21)
   ShowMessage("フランチェスカはお茶会の誘いを断った……")
   JumpToLabel("メイン")
   0()
  EndIf()
  EndEventProcessing()
  0()



EVENT   2
 PAGE   1
  ShowMessageFace("gaistvine_fc1",0,0,2,1)
  ShowMessage("【リザ】")
  ShowMessage("清掃中のため、城内の貴重な絵画はいったん取り外し……")
  ShowMessage("こうして私が、保護魔術をかけつつ管理しています。")
  ShowMessageFace("gaistvine_fc1",0,0,2,2)
  ShowMessage("【リザ】")
  ShowMessage("それにしても、流石に名画が多いですね……")
  ShowMessage("あなたも、少し鑑賞していきませんか？")
  If(0,2338,0)
   ShowMessageFace("",0,0,2,3)
   ShowMessage("今は、荷物を運んでいる最中だ。")
   ShowMessage("大聖堂に向かうことを優先しよう。")
   EndEventProcessing()
   0()
  EndIf()
  DefineLabel("メイン")
  355("ex_choice_add(\"絵画を鑑賞する（時間経過）\",1,")
  655("\"v[1098] >= 5\",0)")
  655("ex_choice_add(\"異変について相談する\",2,")
  655("\"s[2341]\",0)")
  655("ex_choice_add(\"後悔していることについて聞く\",3,")
  655("\"s[2342]\",0)")
  655("ex_choice_add(\"時を繰り返す道具について聞く\",4,")
  655("\"s[2343]\",0)")
  655("ex_choice_add(\"ピザを注文したか聞く\",5,")
  655("\"s[2345]\",0)")
  355("ex_choice_add(\"謎のマキナについて聞く\",6,")
  655("\"s[2365]\",0)")
  655("ex_choice_add(\"作戦に必要な品について聞く\",7,")
  655("\"s[2364]\",0)")
  655("ex_choice_add(\"お茶会に誘う\",8,")
  655("\"s[2378]\",0)")
  655("ex_choice_add(\"立ち去る\",10)")
  355("ex_choice_show(0,11,[0,0])")
  If(1,9,0,1,0)
   ShowMessageFace("gaistvine_fc1",0,0,2,4)
   ShowMessage("【リザ】")
   ShowMessage("それでは、一緒に観賞しましょう……")
   221()
   205(0,bytes(0x04,0x08,0x6f,0x3a,0x13,0x52,0x50,0x47,0x3a,0x3a,0x4d,0x6f,0x76,0x65,0x52,0x6f,0x75,0x74,0x65,0x09,0x3a,0x0c,0x40,0x72,0x65,0x70,0x65,0x61,0x74,0x46,0x3a,0x0f,0x40,0x73,0x6b,0x69,0x70,0x70,0x61,0x62,0x6c,0x65,0x46,0x3a,0x0a,0x40,0x77,0x61,0x69,0x74,0x54,0x3a,0x0a,0x40,0x6c,0x69,0x73,0x74,0x5b,0x07,0x6f,0x3a,0x15,0x52,0x50,0x47,0x3a,0x3a,0x4d,0x6f,0x76,0x65,0x43,0x6f,0x6d,0x6d,0x61,0x6e,0x64,0x07,0x3a,0x0a,0x40,0x63,0x6f,0x64,0x65,0x69,0x15,0x3a,0x10,0x40,0x70,0x61,0x72,0x61,0x6d,0x65,0x74,0x65,0x72,0x73,0x5b,0x00,0x6f,0x3b,0x0a,0x07,0x3b,0x0b,0x69,0x00,0x3b,0x0c,0x5b,0x00))
   TeleportPlayer(0,85,27,29,2,2)
   222()
   ShowMessageFace("ruka_fc1",0,0,2,5)
   ShowMessage("【ルカ】")
   ShowMessage("……やっぱり、芸術はよく分からないな。")
   ShowMessage("僕、感性がないのかもしれない。")
   ShowMessageFace("gaistvine_fc1",0,0,2,6)
   ShowMessage("【リザ】")
   ShowMessage("美術鑑賞に必要なのは、感性よりもまず知識です。")
   ShowMessage("正確な知識がなければ、観賞は難しいでしょう……")
   ShowMessageFace("ruka_fc1",0,0,2,7)
   ShowMessage("【ルカ】")
   ShowMessage("そうなのか……")
   ShowMessage("見てもよく分からないから、感性がないと諦めてたよ。")
   ShowMessageFace("gaistvine_fc1",0,0,2,8)
   ShowMessage("【リザ】")
   ShowMessage("そうやって、観賞の楽しみから遠ざかるのは勿体ない事です。")
   ShowMessage("よろしければ、私が講義しましょう……")
   ShowMessageFace("",0,0,2,9)
   ShowMessage("リザの芸術講義を受け、時間を過ごした……")
   If(1,1099,0,4,0)
    RunCommonEvent(5843)
    EndEventProcessing()
    0()
   EndIf()
   RunCommonEvent(540)
   EndEventProcessing()
   0()
  EndIf()
  If(1,9,0,2,0)
   ShowMessageFace("",0,0,2,10)
   ShowMessage("ルカは、異変について相談した……")
   ShowMessageFace("gaistvine_fc1",1,0,2,11)
   ShowMessage("【リザ】")
   ShowMessage("時空異変に対処する術は知りません……")
   ShowMessage("絵画の事なら、ご相談に乗れるのですが。")
   ShowMessageFace("",0,0,2,12)
   ShowMessage("リザは頼れそうにない……")
   JumpToLabel("メイン")
   0()
  EndIf()
  If(1,9,0,3,0)
   ShowMessageFace("gaistvine_fc1",0,0,2,13)
   ShowMessage("【リザ】")
   ShowMessage("絵の中にずっといれば、後悔などありません。")
   ShowMessage("あなたも、いかがですか……？")
   ShowMessageFace("",0,0,2,14)
   ShowMessage("有益な情報は得られなかった……")
   JumpToLabel("メイン")
   0()
  EndIf()
  If(1,9,0,4,0)
   ShowMessageFace("gaistvine_fc1",0,0,2,15)
   ShowMessage("【リザ】")
   ShowMessage("心当たりはありませんね。")
   ShowMessage("もっとも、絵の中でも同じようなものですが……")
   ShowMessageFace("",0,0,2,16)
   ShowMessage("有益な情報は得られなかった……")
   JumpToLabel("メイン")
   0()
  EndIf()
  If(1,9,0,5,0)
   ShowMessageFace("gaistvine_fc1",1,0,2,17)
   ShowMessage("【リザ】")
   ShowMessage("この私が、ピザなど食べるとでも……？")
   ShowMessage("大切な絵が汚れたらどうするのです。")
   ShowMessageFace("",0,0,2,18)
   ShowMessage("ピザを頼んだのはリザではないようだ……")
   JumpToLabel("メイン")
   0()
  EndIf()
  If(1,9,0,6,0)
   ShowMessageFace("gaistvine_fc1",0,0,2,19)
   ShowMessage("【リザ】")
   ShowMessage("マキナの知識はないですね……")
   ShowMessage("絵画の鑑定なら、お任せ下さい。")
   ShowMessageFace("",0,0,2,20)
   ShowMessage("有益な情報は得られなかった……")
   JumpToLabel("メイン")
   0()
  EndIf()
  If(1,9,0,7,0)
   ShowMessageFace("gaistvine_fc1",1,0,2,21)
   ShowMessage("【リザ】")
   ShowMessage("しょせん私は、絵画の魔物……")
   ShowMessage("浮き世で役立つアイテムは、持っておりません。")
   ShowMessageFace("",0,0,2,22)
   ShowMessage("有益なアイテムは得られなかった……")
   JumpToLabel("メイン")
   0()
  EndIf()
  If(1,9,0,8,0)
   ShowMessageFace("gaistvine_fc1",0,0,2,23)
   ShowMessage("【リザ】")
   ShowMessage("黒のアリスは、美術を解するお方という話ですが……")
   ShowMessage("少々、招かれるには勇気が足りませんね。")
   ShowMessageFace("",0,0,2,24)
   ShowMessage("リザはお茶会の誘いを断った……")
   JumpToLabel("メイン")
   0()
  EndIf()
  EndEventProcessing()
  0()
