﻿
DisplayName "プロメスティンの部屋"



EVENT   1
 PAGE   1
  250(bytes(0x04,0x08,0x6f,0x3a,0x0c,0x52,0x50,0x47,0x3a,0x3a,0x53,0x45,0x08,0x3a,0x0a,0x40,0x6e,0x61,0x6d,0x65,0x49,0x22,0x09,0x4d,0x6f,0x76,0x65,0x06,0x3a,0x06,0x45,0x54,0x3a,0x0b,0x40,0x70,0x69,0x74,0x63,0x68,0x69,0x69,0x3a,0x0c,0x40,0x76,0x6f,0x6c,0x75,0x6d,0x65,0x69,0x55))
  TeleportPlayer(0,77,3,18,6,0)
  0()



EVENT   2
 PAGE   1
  If(1,1121,0,1,1)
   If(1,1121,0,2,2)
    ShowMessageFace("stein_fc2",0,0,2,1)
    ShowMessage("【プロメスティン】")
    ShowMessage("なんでしょう？")
    ShowMessage("私の部屋に来るなんて、何かあったのですか？")
    ShowMessageFace("ruka_fc1",0,0,2,2)
    ShowMessage("【ルカ】")
    ShowMessage("それが、その……")
    ShowMessageFace("",0,0,2,3)
    ShowMessage("ルカは、プロメスティンに相談した……")
    ShowMessageFace("stein_fc2",1,0,2,4)
    ShowMessage("【プロメスティン】")
    ShowMessage("なんと、時間がループ！？")
    ShowMessage("それで同じ時間を繰り返しているというのですか！")
    ShowMessageFace("ruka_fc1",0,0,2,5)
    ShowMessage("【ルカ】")
    ShowMessage("それで、ヌルコから聞いたんだけど……")
    ShowMessageFace("stein_fc2",0,0,2,6)
    ShowMessage("【プロメスティン】")
    ShowMessage("なるほど……時戻りの魔術の無限発動ですか。")
    ShowMessage("それで時空変異が発生していると……")
    ShowMessageFace("stein_fc2",0,0,2,7)
    ShowMessage("【プロメスティン】")
    ShowMessage("了解しました、さっそくその見解に沿って追試を行います。")
    ShowMessage("必要となる測定には、数時間はかかりますね。")
    ShowMessageFace("ruka_fc1",0,0,2,8)
    ShowMessage("【ルカ】")
    ShowMessage("その間、僕は情報を集めておくよ。")
    ShowMessage("まだまだ何かあるかもしれないからね……")
    ShowMessageFace("stein_fc2",0,0,2,9)
    ShowMessage("【プロメスティン】")
    ShowMessage("それでは、四時になったらまた来て下さい。")
    ShowMessage("その時に、測定の結果を伝えますね。")
    ShowMessageFace("",0,0,2,10)
    ShowMessage("ヌルコ情報の確認は、プロメスティンに任せよう。")
    ShowMessage("僕は、少しでも情報を集めるのだ――")
    ChangeVariable(1121,1121,0,0,2)
    ChangeSwitch(2362,2362,0)
    TeleportPlayer(0,77,3,18,6,0)
    EndEventProcessing()
    0()
   EndIf()
   0()
  EndIf()
  If(1,1102,0,6,1)
   If(1,1102,0,7,2)
    ShowMessageFace("stein_fc2",0,0,2,11)
    ShowMessage("【プロメスティン】")
    ShowMessage("なんでしょう？")
    ShowMessage("私の部屋に来るなんて、何かあったのですか？")
    ShowMessageFace("ruka_fc1",0,0,2,12)
    ShowMessage("【ルカ】")
    ShowMessage("それが、その……")
    ShowMessageFace("",0,0,2,13)
    ShowMessage("ルカは、プロメスティンに相談した……")
    ShowMessageFace("stein_fc2",1,0,2,14)
    ShowMessage("【プロメスティン】")
    ShowMessage("なんと、時間がループ！？")
    ShowMessage("それで同じ時間を繰り返しているというのですか！")
    ShowMessageFace("ruka_fc1",0,0,2,15)
    ShowMessage("【ルカ】")
    ShowMessage("それで、時戻りの像を手に入れたんだ。")
    ShowMessage("この秘宝が作用して、時間がループしてるらしいんだけど……")
    ShowMessageFace("stein_fc2",0,0,2,16)
    ShowMessage("【プロメスティン】")
    ShowMessage("なるほど……")
    ShowMessage("では、さっそくこの像を調べてみます。")
    ShowMessageFace("stein_fc2",0,0,2,17)
    ShowMessage("【プロメスティン】")
    ShowMessage("詳細に解析を行うとなると、数時間はかかりますね。")
    ShowMessage("それまで、待ってもらうことになりますけど。")
    ShowMessageFace("ruka_fc1",0,0,2,18)
    ShowMessage("【ルカ】")
    ShowMessage("その間、僕は情報を集めておくよ。")
    ShowMessage("まだまだ何かあるかもしれないからね……")
    ShowMessageFace("stein_fc2",0,0,2,19)
    ShowMessage("【プロメスティン】")
    ShowMessage("それでは、四時になったらまた来て下さい。")
    ShowMessage("その時に、解析の結果を伝えますね。")
    ShowMessageFace("",0,0,2,20)
    ShowMessage("像の解析は、プロメスティンに任せよう。")
    ShowMessage("僕は、少しでも情報を集めるのだ――")
    ChangeVariable(1102,1102,0,0,7)
    ChangeSwitch(2362,2362,0)
    TeleportPlayer(0,77,3,18,6,0)
    EndEventProcessing()
    0()
   EndIf()
   0()
  EndIf()
  If(1,1103,0,3,1)
   If(1,1103,0,4,2)
    ShowMessageFace("stein_fc2",0,0,2,21)
    ShowMessage("【プロメスティン】")
    ShowMessage("なんでしょう？")
    ShowMessage("私の部屋に来るなんて、何かあったのですか？")
    ShowMessageFace("ruka_fc1",0,0,2,22)
    ShowMessage("【ルカ】")
    ShowMessage("それが、その……")
    ShowMessageFace("",0,0,2,23)
    ShowMessage("ルカは、プロメスティンに相談した……")
    ShowMessageFace("stein_fc2",1,0,2,24)
    ShowMessage("【プロメスティン】")
    ShowMessage("なんと、時間がループ！？")
    ShowMessage("それで同じ時間を繰り返しているというのですか！")
    ShowMessageFace("ruka_fc1",0,0,2,25)
    ShowMessage("【ルカ】")
    ShowMessage("今回も笑うんだな……")
    ShowMessageFace("stein_fc2",0,0,2,26)
    ShowMessage("【プロメスティン】")
    ShowMessage("それで、五時の鐘と共に近くの女性がおかしくなって……")
    ShowMessage("襲われた挙げ句に、時間が戻ってしまうと。ふむふむ……")
    ShowMessageFace("stein_fc2",0,0,2,27)
    ShowMessage("【プロメスティン】")
    ShowMessage("しかも、それを以前の私に相談したのですね。")
    ShowMessage("心身の検査をしたが、何の異常も見られなかったと……")
    ShowMessageFace("",0,0,2,28)
    ShowMessage("流石はプロメスティン、今回も理解が早い。")
    ShowMessageFace("stein_fc2",0,0,2,29)
    ShowMessage("【プロメスティン】")
    ShowMessage("なるほど……検査に異常がなかったのなら、")
    ShowMessage("175の可能性のうち、3つは完全に除外できます。")
    ShowMessageFace("ruka_fc1",0,0,2,30)
    ShowMessage("【ルカ】")
    ShowMessage("それでも、残りは172通りか……")
    ShowMessageFace("stein_fc2",0,0,2,31)
    ShowMessage("【プロメスティン】")
    ShowMessage("科学は時に消去法ですよ。")
    ShowMessage("少しでも可能性が狭まるのは、立派な成果です。")
    ShowMessageFace("stein_fc2",0,0,2,32)
    ShowMessage("【プロメスティン】")
    ShowMessage("では次は、夢の国が関係している可能性を検証しましょう。")
    ShowMessage("ルカさんは、自由に行動しても結構ですよ。")
    ShowMessageFace("ruka_fc1",0,0,2,33)
    ShowMessage("【ルカ】")
    ShowMessage("えっ……僕はいなくてもいいの？")
    ShowMessageFace("stein_fc2",0,0,2,34)
    ShowMessage("【プロメスティン】")
    ShowMessage("今回の検査は、周辺空間に対して行いますので。")
    ShowMessage("夢の国に関しては、以前の事件により観測データがあります。")
    ShowMessageFace("ruka_fc1",0,0,2,35)
    ShowMessage("【ルカ】")
    ShowMessage("それじゃあ……")
    ShowMessage("その間、僕も聞き込みで調査しようかな。")
    ShowMessageFace("",0,0,2,36)
    ShowMessage("他の誰かが、異変の手掛かりを持っているかもしれない。")
    ShowMessage("これまで通り、少しでも聞き込んで情報を集めよう――")
    ShowMessageFace("stein_fc2",0,0,2,37)
    ShowMessage("【プロメスティン】")
    ShowMessage("四時になったら、またここに来て下さい。")
    ShowMessage("その時に、分かったことを伝えますので。")
    ShowMessageFace("ruka_fc1",0,0,2,38)
    ShowMessage("【ルカ】")
    ShowMessage("うん、よろしく……")
    ShowMessage("それじゃあ、僕は行ってくるよ。")
    ChangeVariable(1103,1103,0,0,4)
    ChangeSwitch(2362,2362,0)
    TeleportPlayer(0,77,3,18,6,0)
    EndEventProcessing()
    0()
   EndIf()
   0()
  EndIf()
  If(1,1103,0,5,1)
   If(1,1103,0,6,2)
    ShowMessageFace("stein_fc2",0,0,2,39)
    ShowMessage("【プロメスティン】")
    ShowMessage("なんでしょう？")
    ShowMessage("私の部屋に来るなんて、何かあったのですか？")
    ShowMessageFace("ruka_fc1",0,0,2,40)
    ShowMessage("【ルカ】")
    ShowMessage("それが、その……")
    ShowMessageFace("",0,0,2,41)
    ShowMessage("ルカは、プロメスティンに相談した……")
    ShowMessageFace("stein_fc2",1,0,2,42)
    ShowMessage("【プロメスティン】")
    ShowMessage("なんと、時間がループ！？")
    ShowMessage("それで同じ時間を繰り返しているというのですか！")
    ShowMessageFace("ruka_fc1",0,0,2,43)
    ShowMessage("【ルカ】")
    ShowMessage("毎回毎回、何で笑ってる。")
    ShowMessage("何がそんなにおかしいんだ。")
    ShowMessageFace("stein_fc2",0,0,2,44)
    ShowMessage("【プロメスティン】")
    ShowMessage("それで、五時の鐘と共に近くの女性がおかしくなって……")
    ShowMessage("襲われた挙げ句に、時間が戻ってしまうと。ふむふむ……")
    ShowMessageFace("stein_fc2",0,0,2,45)
    ShowMessage("【プロメスティン】")
    ShowMessage("しかも、それを以前の私に相談したのですね。")
    ShowMessage("心身検査は異常なし、夢魔の介入も無し……と。")
    ShowMessageFace("stein_fc2",0,0,2,46)
    ShowMessage("【プロメスティン】")
    ShowMessage("では、残る可能性は171通り。")
    ShowMessage("次は、呪いの可能性について検討しましょうか。")
    ShowMessageFace("ruka_fc1",0,0,2,47)
    ShowMessage("【ルカ】")
    ShowMessage("呪い……か。")
    ShowMessageFace("stein_fc2",0,0,2,48)
    ShowMessage("【プロメスティン】")
    ShowMessage("時空全体に作用する呪いとなると、検出は容易。")
    ShowMessage("数時間あれば、結果は出るでしょう。")
    ShowMessageFace("ruka_fc1",0,0,2,49)
    ShowMessage("【ルカ】")
    ShowMessage("やっぱり、それでも数時間はかかるんだね……")
    ShowMessageFace("stein_fc2",0,0,2,50)
    ShowMessage("【プロメスティン】")
    ShowMessage("今回の検査は、周辺空間に対して行いますので――")
    ShowMessageFace("ruka_fc1",0,0,2,51)
    ShowMessage("【ルカ】")
    ShowMessage("分かった、僕がここにいる必要はないね。")
    ShowMessage("他の情報を調べてくるよ。")
    ShowMessageFace("stein_fc2",0,0,2,52)
    ShowMessage("【プロメスティン】")
    ShowMessage("さすが、慣れてますね……")
    ShowMessageFace("",0,0,2,53)
    ShowMessage("四時になったら、結果を聞きに戻ってこよう。")
    ShowMessage("それまでは、城内で自由行動だ。")
    ChangeVariable(1103,1103,0,0,6)
    ChangeSwitch(2362,2362,0)
    TeleportPlayer(0,77,3,18,6,0)
    EndEventProcessing()
    0()
   EndIf()
   0()
  EndIf()
  If(1,1103,0,7,1)
   If(1,1103,0,8,2)
    ShowMessageFace("stein_fc2",0,0,2,54)
    ShowMessage("【プロメスティン】")
    ShowMessage("なんでしょう？")
    ShowMessage("私の部屋に来るなんて、何かあったのですか？")
    ShowMessageFace("ruka_fc1",0,0,2,55)
    ShowMessage("【ルカ】")
    ShowMessage("それが、その……")
    ShowMessageFace("",0,0,2,56)
    ShowMessage("ルカは、プロメスティンに相談した……")
    ShowMessageFace("stein_fc2",1,0,2,57)
    ShowMessage("【プロメスティン】")
    ShowMessage("なんと、時間がループ！？")
    ShowMessage("それで同じ時間を繰り返しているというのですか！")
    ShowMessageFace("ruka_fc1",0,0,2,58)
    ShowMessage("【ルカ】")
    ShowMessage("面白いだろ？　僕は面白くない。")
    ShowMessageFace("stein_fc2",0,0,2,59)
    ShowMessage("【プロメスティン】")
    ShowMessage("それで、五時の鐘と共に近くの女性がおかしくなって……")
    ShowMessage("襲われた挙げ句に、時間が戻ってしまうと。ふむふむ……")
    ShowMessageFace("stein_fc2",0,0,2,60)
    ShowMessage("【プロメスティン】")
    ShowMessage("しかも、それを以前の私に相談したのですね。")
    ShowMessage("心身の検査は異常なし、夢魔と呪いは除外……と。")
    ShowMessageFace("stein_fc2",0,0,2,61)
    ShowMessage("【プロメスティン】")
    ShowMessage("では、残る可能性は170通り。")
    ShowMessage("次は、幻術の可能性について検討しましょうか。")
    ShowMessageFace("ruka_fc1",0,0,2,62)
    ShowMessage("【ルカ】")
    ShowMessage("幻術って……僕が幻を見てるってこと？")
    ShowMessageFace("stein_fc2",0,0,2,63)
    ShowMessage("【プロメスティン】")
    ShowMessage("このポケット魔王城全体に幻術効果が及んでいる場合ですね。")
    ShowMessage("可能性は低いですが、これも確認しておきたいです。")
    ShowMessageFace("stein_fc2",0,0,2,64)
    ShowMessage("【プロメスティン】")
    ShowMessage("検査には、少し時間が掛かるでしょう。")
    ShowMessage("その間、ルカさんは――")
    ShowMessageFace("ruka_fc1",0,0,2,65)
    ShowMessage("【ルカ】")
    ShowMessage("了解、他を当たってくるよ。")
    ShowMessageFace("stein_fc2",0,0,2,66)
    ShowMessage("【プロメスティン】")
    ShowMessage("もう、毎回の事なんですね。")
    ShowMessageFace("",0,0,2,67)
    ShowMessage("四時になったら、結果を聞きに戻ってこよう。")
    ShowMessage("それまでは、城内で自由行動だ。")
    ChangeVariable(1103,1103,0,0,8)
    ChangeSwitch(2362,2362,0)
    TeleportPlayer(0,77,3,18,6,0)
    EndEventProcessing()
    0()
   EndIf()
   0()
  EndIf()
  If(1,1103,0,9,1)
   If(1,1103,0,10,2)
    ShowMessageFace("stein_fc2",0,0,2,68)
    ShowMessage("【プロメスティン】")
    ShowMessage("なんでしょう？")
    ShowMessage("私の部屋に来るなんて、何かあったのですか？")
    ShowMessageFace("ruka_fc1",0,0,2,69)
    ShowMessage("【ルカ】")
    ShowMessage("それが、その……")
    ShowMessageFace("",0,0,2,70)
    ShowMessage("ルカは、プロメスティンに相談した……")
    ShowMessageFace("stein_fc2",1,0,2,71)
    ShowMessage("【プロメスティン】")
    ShowMessage("なんと、時間がループ！？")
    ShowMessage("それで同じ時間を繰り返しているというのですか！")
    ShowMessageFace("ruka_fc1",0,0,2,72)
    ShowMessage("【ルカ】")
    ShowMessage("笑えよ、好きなだけ。")
    ShowMessageFace("stein_fc2",0,0,2,73)
    ShowMessage("【プロメスティン】")
    ShowMessage("それで、五時の鐘と共に近くの女性がおかしくなって……")
    ShowMessage("襲われた挙げ句に、時間が戻ってしまうと。ふむふむ……")
    ShowMessageFace("stein_fc2",0,0,2,74)
    ShowMessage("【プロメスティン】")
    ShowMessage("しかも、それを以前の私に相談したのですね。")
    ShowMessage("心身の検査は異常なし、夢魔と呪い、幻術は除外……と。")
    ShowMessageFace("stein_fc2",0,0,2,75)
    ShowMessage("【プロメスティン】")
    ShowMessage("では、残る可能性は169通り。")
    ShowMessage("次は――")
    ShowMessageFace("ruka_fc1",0,0,2,76)
    ShowMessage("【ルカ】")
    ShowMessage("ちょっと待って……")
    ShowMessage("この感じだと、あと169回も巡回するの？")
    ShowMessageFace("stein_fc2",0,0,2,77)
    ShowMessage("【プロメスティン】")
    ShowMessage("いえ、言いにくいですが……")
    ShowMessage("検証が簡単な可能性から、順に除外しています。")
    ShowMessageFace("stein_fc2",0,0,2,78)
    ShowMessage("【プロメスティン】")
    ShowMessage("だから後に残った可能性ほど、確認に時間がかかるので……")
    ShowMessage("たぶん、今のやり方だと残り169回では済まないでしょう。")
    ShowMessageFace("ruka_fc1",0,0,2,79)
    ShowMessage("【ルカ】")
    ShowMessage("何か、他の情報で絞り込まないと……")
    ShowMessage("膨大な時間が掛かるってことか。")
    ShowMessageFace("stein_fc2",0,0,2,80)
    ShowMessage("【プロメスティン】")
    ShowMessage("はい、その通りです。")
    ShowMessage("だから私が検証している間、情報集めはお願いします。")
    ShowMessageFace("ruka_fc1",0,0,2,81)
    ShowMessage("【ルカ】")
    ShowMessage("うん、分かった……")
    ShowMessage("で、今回は何の可能性を検証するの？")
    ShowMessageFace("stein_fc2",0,0,2,82)
    ShowMessage("【プロメスティン】")
    ShowMessage("今回は実は、けっこう可能性が高いと考えています。")
    ShowMessage("イリアス様の、魂の環網が誤作動している可能性ですよ。")
    ShowMessageFace("ruka_fc1",0,0,2,83)
    ShowMessage("【ルカ】")
    ShowMessage("魂の環網って……")
    ShowMessage("僕が冒険で倒れるたび、時間が巻き戻って復活するってやつか。")
    ShowMessageFace("stein_fc2",0,0,2,84)
    ShowMessage("【プロメスティン】")
    ShowMessage("ええ、その通りです。")
    ShowMessage("今回の異変と魂の環網、共通点が多いですよね。")
    ShowMessageFace("ruka_fc1",0,0,2,85)
    ShowMessage("【ルカ】")
    ShowMessage("確かに……")
    ShowMessageFace("",0,0,2,86)
    ShowMessage("倒れる僕、戻る時間。")
    ShowMessage("効果だけを見れば、魂の環網そのものだ。")
    ShowMessageFace("stein_fc2",0,0,2,87)
    ShowMessage("【プロメスティン】")
    ShowMessage("この術式が誤動作し、異変の原因になっている……")
    ShowMessage("そう考えると、すっきりします。")
    ShowMessageFace("stein_fc2",0,0,2,88)
    ShowMessage("【プロメスティン】")
    ShowMessage("そういうわけで、聖素の動きを測定しましょう。")
    ShowMessage("時間が掛かりますので、ルカさんは――")
    ShowMessageFace("ruka_fc1",0,0,2,89)
    ShowMessage("【ルカ】")
    ShowMessage("了解、他を当たってくるよ。")
    ShowMessageFace("stein_fc2",0,0,2,90)
    ShowMessage("【プロメスティン】")
    ShowMessage("すっかり慣れたものですね……")
    ShowMessageFace("",0,0,2,91)
    ShowMessage("四時になったら、結果を聞きに戻ってこよう。")
    ShowMessage("それまでは、城内で自由行動だ。")
    ChangeVariable(1103,1103,0,0,10)
    ChangeSwitch(2362,2362,0)
    TeleportPlayer(0,77,3,18,6,0)
    EndEventProcessing()
    0()
   EndIf()
   0()
  EndIf()
  If(1,1103,0,11,1)
   If(1,1103,0,12,2)
    ShowMessageFace("stein_fc2",0,0,2,92)
    ShowMessage("【プロメスティン】")
    ShowMessage("なんでしょう？")
    ShowMessage("私の部屋に来るなんて、何かあったのですか？")
    ShowMessageFace("ruka_fc1",0,0,2,93)
    ShowMessage("【ルカ】")
    ShowMessage("それがさあ、面白いんだよ……")
    ShowMessageFace("",0,0,2,94)
    ShowMessage("ルカは、プロメスティンに相談した……")
    ShowMessageFace("stein_fc2",1,0,2,95)
    ShowMessage("【プロメスティン】")
    ShowMessage("なんと、時間がループ！？")
    ShowMessage("それで同じ時間を繰り返しているというのですか！")
    ShowMessageFace("ruka_fc1",0,0,2,96)
    ShowMessage("【ルカ】")
    ShowMessage("面白いだろ、ハハハ。")
    ShowMessageFace("stein_fc2",0,0,2,97)
    ShowMessage("【プロメスティン】")
    ShowMessage("それで、五時の鐘と共に近くの女性がおかしくなって……")
    ShowMessage("襲われた挙げ句に、時間が戻ってしまうと。ふむふむ……")
    ShowMessageFace("ruka_fc1",0,0,2,98)
    ShowMessage("【ルカ】")
    ShowMessage("心身検査×、夢魔×、呪い×、幻術×、環網×……")
    ShowMessage("……これで分かる？")
    ShowMessageFace("stein_fc2",0,0,2,99)
    ShowMessage("【プロメスティン】")
    ShowMessage("ああ……はいはい、分かります。")
    ShowMessage("検証が容易な可能性から順に潰しているのですね。")
    ShowMessageFace("stein_fc2",0,0,2,100)
    ShowMessage("【プロメスティン】")
    ShowMessage("それでは、残る可能性は168通り。")
    ShowMessage("次は、邪神による攻撃の可能性です。")
    ShowMessageFace("ruka_fc1",0,0,2,101)
    ShowMessage("【ルカ】")
    ShowMessage("邪神って……")
    ShowMessage("並行世界の邪神アリスフィーズのこと？")
    ShowMessageFace("stein_fc2",0,0,2,102)
    ShowMessage("【プロメスティン】")
    ShowMessage("ええ……邪神が新たな時空術を編み出し、")
    ShowMessage("ルカさんに対して仕掛けてきた可能性です。")
    ShowMessageFace("stein_fc2",0,0,2,103)
    ShowMessage("【プロメスティン】")
    ShowMessage("邪神の術だと仮定した場合、魔素が媒介になっています。")
    ShowMessage("この動きを測定すれば、実際にそうなのか分かるはず。")
    ShowMessageFace("stein_fc2",0,0,2,104)
    ShowMessage("【プロメスティン】")
    ShowMessage("正直、可能性は低いと思いますが……")
    ShowMessage("本格的に時空異変を測定する前に、確かめておきたいんですよ。")
    ShowMessageFace("ruka_fc1",0,0,2,105)
    ShowMessage("【ルカ】")
    ShowMessage("なるほど、分かった。")
    ShowMessage("その間、僕は情報を集めてくるよ。")
    ShowMessageFace("stein_fc2",0,0,2,106)
    ShowMessage("【プロメスティン】")
    ShowMessage("流石、手慣れたものですね。")
    ShowMessage("それでは、こちらは任せておいて下さい。")
    ShowMessageFace("",0,0,2,107)
    ShowMessage("四時になったら、結果を聞きに戻ってこよう。")
    ShowMessage("それまでは、城内で自由行動だ。")
    ChangeVariable(1103,1103,0,0,12)
    ChangeSwitch(2362,2362,0)
    TeleportPlayer(0,77,3,18,6,0)
    EndEventProcessing()
    0()
   EndIf()
   0()
  EndIf()
  If(1,1103,0,13,1)
   If(1,1103,0,14,2)
    ShowMessageFace("stein_fc2",0,0,2,108)
    ShowMessage("【プロメスティン】")
    ShowMessage("なんでしょう？")
    ShowMessage("私の部屋に来るなんて、何かあったのですか？")
    ShowMessageFace("ruka_fc1",0,0,2,109)
    ShowMessage("【ルカ】")
    ShowMessage("それが、その……")
    ShowMessageFace("",0,0,2,110)
    ShowMessage("ルカは、プロメスティンに相談した……")
    ShowMessageFace("stein_fc2",1,0,2,111)
    ShowMessage("【プロメスティン】")
    ShowMessage("なんと、時間がループ！？")
    ShowMessage("それで同じ時間を繰り返しているというのですか！")
    ShowMessageFace("ruka_fc1",0,0,2,112)
    ShowMessage("【ルカ】")
    ShowMessage("ST-DF-CF-MF-SF-AF……これで分かる？")
    ShowMessageFace("stein_fc2",0,0,2,113)
    ShowMessage("【プロメスティン】")
    ShowMessage("暗号……？　あっ、検証の過程ですか。")
    ShowMessage("なるほどなるほど。")
    ShowMessageFace("",0,0,2,114)
    ShowMessage("これで分かるとは、やっぱりすごいな。")
    ShowMessageFace("stein_fc2",0,0,2,115)
    ShowMessage("【プロメスティン】")
    ShowMessage("つまり、原因は時空異変に特定されたということですね。")
    ShowMessage("ここからは、検証が大変ですよ……")
    ShowMessageFace("ruka_fc1",0,0,2,116)
    ShowMessage("【ルカ】")
    ShowMessage("それ、前のプロメスティンも言ってたね。")
    ShowMessage("いったい、どういう事なんだ？")
    ShowMessageFace("stein_fc2",0,0,2,117)
    ShowMessage("【プロメスティン】")
    ShowMessage("時空異変は、もちろん世界全体に効果を及ぼしますが――")
    ShowMessage("その起点となるポイントは、必ずルカさんの側にあるはずです。")
    ShowMessageFace("stein_fc2",0,0,2,118)
    ShowMessage("【プロメスティン】")
    ShowMessage("残る可能性は、167通りあるんですが……")
    ShowMessage("どれにしろ、その起点を探さなければならないんですよ。")
    ShowMessageFace("stein_fc2",0,0,2,119)
    ShowMessage("【プロメスティン】")
    ShowMessage("それには、かなり詳細な時空精査が必要になります。")
    ShowMessage("膨大な時間が掛かることを、覚悟して下さい。")
    ShowMessageFace("ruka_fc1",0,0,2,120)
    ShowMessage("【ルカ】")
    ShowMessage("膨大な時間って、だいたいどのくらい……？")
    ShowMessageFace("stein_fc2",0,0,2,121)
    ShowMessage("【プロメスティン】")
    ShowMessage("ポケット魔王城内全域を測定しますと……")
    ShowMessage("全て終わるには……約48万時間ですね。")
    ShowMessageFace("ruka_fc1",0,0,2,122)
    ShowMessage("【ルカ】")
    ShowMessage("50年以上かかるじゃないか！")
    ShowMessage("そんなに繰り返してたら、精神が持たないよ！")
    ShowMessageFace("stein_fc2",0,0,2,123)
    ShowMessage("【プロメスティン】")
    ShowMessage("あてもなく、総当たりで測定した場合ですよ。")
    ShowMessage("異変箇所を絞り込みできれば、もっと短く済みます。")
    ShowMessageFace("stein_fc2",0,0,2,124)
    ShowMessage("【プロメスティン】")
    ShowMessage("結局、ルカさんの聞き込み調査に頼るしかないですね。")
    ShowMessage("気になる情報があれば、測定箇所をそこに絞りましょう。")
    ShowMessageFace("stein_fc2",0,0,2,125)
    ShowMessage("【プロメスティン】")
    ShowMessage("それまで、私は総当たりで測定作業を進めます。")
    ShowMessage("例によって、四時になったらまた来て下さいね。")
    ShowMessageFace("",0,0,2,126)
    ShowMessage("四時になったら、結果を聞きに戻ってこよう。")
    ShowMessage("それまでは、城内で自由行動だ――")
    If(1,1105,0,1,1)
     ChangeSwitch(2432,2432,0)
     ShowMessageFace("ruka_fc1",0,0,2,127)
     ShowMessage("【ルカ】")
     ShowMessage("そう言えば、クロムが自室で検視をしてるって言ってたな。")
     ShowMessage("ちょっと、様子を見に行ってもいいかも……")
     ShowMessageFace("",0,0,2,128)
     ShowMessage("これは直感に過ぎないが、クロムの動向が気にかかる。")
     ShowMessage("もしかしたら、この時間ループに関わっているかもしれない――")
     0()
    EndIf()
    ChangeVariable(1103,1103,0,0,14)
    ChangeSwitch(2362,2362,0)
    TeleportPlayer(0,77,3,18,6,0)
    EndEventProcessing()
    0()
   EndIf()
   0()
  EndIf()
  If(1,1103,0,15,1)
   If(1,1105,0,4,0)
    ShowMessageFace("stein_fc2",0,0,2,129)
    ShowMessage("【プロメスティン】")
    ShowMessage("なんでしょう？")
    ShowMessage("私の部屋に来るなんて、何かあったのですか？")
    ShowMessageFace("ruka_fc1",0,0,2,130)
    ShowMessage("【ルカ】")
    ShowMessage("それが、その……")
    ShowMessageFace("",0,0,2,131)
    ShowMessage("ルカは、プロメスティンに相談した……")
    ShowMessageFace("stein_fc2",1,0,2,132)
    ShowMessage("【プロメスティン】")
    ShowMessage("なんと、時間がループ！？")
    ShowMessage("それで同じ時間を繰り返しているというのですか！")
    ShowMessageFace("ruka_fc1",0,0,2,133)
    ShowMessage("【ルカ】")
    ShowMessage("それで、少し気になることがあるんだ。")
    ShowMessage("クロムの部屋に、奇妙な死体があったんだけど……")
    ShowMessageFace("",0,0,2,134)
    ShowMessage("ルカは、死体やスマホの事を説明した……")
    ShowMessageFace("stein_fc2",0,0,2,135)
    ShowMessage("【プロメスティン】")
    ShowMessage("ミュスカの世界から来た死体ですか。")
    ShowMessage("なるほど、確かに気になりますね……")
    If(1,1102,0,7,2)
     ShowMessageFace("stein_fc2",0,0,2,136)
     ShowMessage("【プロメスティン】")
     ShowMessage("それよりも、情報に根本的な抜けがある気がします。")
     ShowMessage("いったい何の力が、時間をループさせているのか……")
     ShowMessageFace("stein_fc2",0,0,2,137)
     ShowMessage("【プロメスティン】")
     ShowMessage("主体が欠けている現在、この異変を正しく認識出来ません。")
     ShowMessage("ループ現象を起こしている主体を探せませんか？")
     ShowMessageFace("ruka_fc1",0,0,2,138)
     ShowMessage("【ルカ】")
     ShowMessage("主体って言われても……")
     ShowMessageFace("stein_fc2",0,0,2,139)
     ShowMessage("【プロメスティン】")
     ShowMessage("そういう力を持った人物か、もしくはアイテムです。")
     ShowMessage("後者の可能性が高いと考えているのですが――")
     ShowMessageFace("ruka_fc1",0,0,2,140)
     ShowMessage("【ルカ】")
     ShowMessage("時間を戻す効果のあるアイテムか……")
     ShowMessage("分かった、探してみるよ。")
     ShowMessageFace("",0,0,2,141)
     ShowMessage("とにかく早急に、そのアイテムを手に入れよう。")
     ShowMessage("そうすれば、調査は一気に進むはずだ――")
     TeleportPlayer(0,77,3,18,6,0)
     EndEventProcessing()
     0()
    EndIf()
    If(1,1121,0,2,2)
     ShowMessageFace("stein_fc2",0,0,2,142)
     ShowMessage("【プロメスティン】")
     ShowMessage("ただ、まだ必要な情報が欠けている感じがします……")
     ShowMessage("混沌事象的な観点から、この異変を俯瞰したいんですよね。")
     ShowMessageFace("ruka_fc1",0,0,2,143)
     ShowMessage("【ルカ】")
     ShowMessage("混沌事象的な観点って……つまり、どういうこと？")
     ShowMessageFace("stein_fc2",0,0,2,144)
     ShowMessage("【プロメスティン】")
     ShowMessage("混沌事象に詳しい方から、意見を聞きたいんです。")
     ShowMessage("そういう人はいませんかね……？")
     ShowMessageFace("ruka_fc1",0,0,2,145)
     ShowMessage("【ルカ】")
     ShowMessage("混沌事象に詳しい人物か……")
     ShowMessage("なかなか思い当たらないなぁ。")
     ShowMessageFace("",0,0,2,146)
     ShowMessage("そう言えば――ヌルコはどうだろうか。")
     ShowMessage("何を言っているのか、さっぱり分からなかったが。")
     ShowMessageFace("ruka_fc1",0,0,2,147)
     ShowMessage("【ルカ】")
     ShowMessage("ヌルコの言葉が分かればいいんだけど……")
     ShowMessage("誰か、通訳が出来そうな人は……")
     ShowMessageFace("",0,0,2,148)
     ShowMessage("なんとかして、ヌルコに話を聞かなければならない。")
     ShowMessage("そうしなければ、調査はこれ以上先に進まないだろう――")
     TeleportPlayer(0,77,3,18,6,0)
     EndEventProcessing()
     0()
    EndIf()
    205(0,bytes(0x04,0x08,0x6f,0x3a,0x13,0x52,0x50,0x47,0x3a,0x3a,0x4d,0x6f,0x76,0x65,0x52,0x6f,0x75,0x74,0x65,0x09,0x3a,0x0c,0x40,0x72,0x65,0x70,0x65,0x61,0x74,0x46,0x3a,0x0f,0x40,0x73,0x6b,0x69,0x70,0x70,0x61,0x62,0x6c,0x65,0x46,0x3a,0x0a,0x40,0x77,0x61,0x69,0x74,0x54,0x3a,0x0a,0x40,0x6c,0x69,0x73,0x74,0x5b,0x07,0x6f,0x3a,0x15,0x52,0x50,0x47,0x3a,0x3a,0x4d,0x6f,0x76,0x65,0x43,0x6f,0x6d,0x6d,0x61,0x6e,0x64,0x07,0x3a,0x0a,0x40,0x63,0x6f,0x64,0x65,0x69,0x18,0x3a,0x10,0x40,0x70,0x61,0x72,0x61,0x6d,0x65,0x74,0x65,0x72,0x73,0x5b,0x00,0x6f,0x3b,0x0a,0x07,0x3b,0x0b,0x69,0x00,0x3b,0x0c,0x5b,0x00))
    ShowMessageFace("stein_fc2",0,0,2,149)
    ShowMessage("【プロメスティン】")
    ShowMessage("それでは今回は、クロム周辺の空間異常を測定しましょう。")
    ShowMessage("ちょっと順番が狂いますが、優先した方が良いでしょうから。")
    ShowMessageFace("ruka_fc1",0,0,2,150)
    ShowMessage("【ルカ】")
    ShowMessage("うん、任せたよ。")
    ShowMessage("それじゃあ僕は、情報集めに――")
    ShowMessageFace("stein_fc2",2,0,2,151)
    ShowMessage("【プロメスティン】")
    ShowMessage("ちょ、ちょっと待って下さい！")
    ShowMessage("いきなり大ヒットです、大きな反応がありました！")
    ShowMessageFace("ruka_fc1",0,0,2,152)
    ShowMessage("【ルカ】")
    ShowMessage("えっ……！？")
    ShowMessage("やっぱり、クロムの部屋だったの？")
    ShowMessageFace("stein_fc2",0,0,2,153)
    ShowMessage("【プロメスティン】")
    ShowMessage("はい、間違いありません。")
    ShowMessage("おそらく、その死体が時空異変の震源地です。")
    ShowMessageFace("stein_fc2",0,0,2,154)
    ShowMessage("【プロメスティン】")
    ShowMessage("なんです、これ……空間が多重ループ構造になってますよ。")
    ShowMessage("いったい、何があったらこんなことに……")
    ShowMessageFace("ruka_fc1",0,0,2,155)
    ShowMessage("【ルカ】")
    ShowMessage("それじゃあ、さっそく行ってくる。")
    ShowMessage("あらためて、例の死体を調べてくるよ……！")
    ShowMessageFace("",0,0,2,156)
    ShowMessage("ついに掴んだ、異変の核心。")
    ShowMessage("僕は、クロムの部屋に急ぐのだった――")
    ChangeVariable(1105,1105,0,0,5)
    ChangeVariable(1103,1103,0,0,99)
    TeleportPlayer(0,77,3,18,6,0)
    EndEventProcessing()
    0()
   EndIf()
   0()
  EndIf()
  If(1,1103,0,15,1)
   If(1,1103,0,16,2)
    ShowMessageFace("stein_fc2",0,0,2,157)
    ShowMessage("【プロメスティン】")
    ShowMessage("なんでしょう？")
    ShowMessage("私の部屋に来るなんて、何かあったのですか？")
    ShowMessageFace("ruka_fc1",0,0,2,158)
    ShowMessage("【ルカ】")
    ShowMessage("時空ループ事例発生、時刻は1～5時、現在\\V[1100]巡目。")
    ShowMessage("原因は時空異変に特定、G00000～G0146までクリア。")
    ShowMessageFace("stein_fc2",2,0,2,159)
    ShowMessage("【プロメスティン】")
    ShowMessage("えっ、えっ……？")
    ShowMessageFace("stein_fc2",0,0,2,160)
    ShowMessage("【プロメスティン】")
    ShowMessage("……………………")
    ShowMessageFace("stein_fc2",1,0,2,161)
    ShowMessage("【プロメスティン】")
    ShowMessage("……なるほど、状況は分かりました。")
    ShowMessageFace("ruka_fc1",0,0,2,162)
    ShowMessage("【ルカ】")
    ShowMessage("これで分かるのか、流石にすごいな……")
    ShowMessage("やっぱり笑ってるし。")
    ShowMessageFace("stein_fc2",2,0,2,163)
    ShowMessage("【プロメスティン】")
    ShowMessage("でもこれ、ずいぶん時間掛かりますね……")
    ShowMessage("まあ、説明は不要と思いますが。")
    ShowMessageFace("ruka_fc1",0,0,2,164)
    ShowMessage("【ルカ】")
    ShowMessage("うん、状況は分かってる。")
    ShowMessage("それじゃあ、僕は行くよ。")
    ShowMessageFace("stein_fc2",0,0,2,165)
    ShowMessage("【プロメスティン】")
    ShowMessage("お互い、話が早くて良いですね。")
    ShowMessage("良い情報を期待しています。")
    ChangeVariable(1103,1103,0,0,16)
    ChangeSwitch(2362,2362,0)
    TeleportPlayer(0,77,3,18,6,0)
    EndEventProcessing()
    0()
   EndIf()
   0()
  EndIf()
  If(1,1103,0,17,1)
   If(1,1103,0,18,2)
    ShowMessageFace("stein_fc2",0,0,2,166)
    ShowMessage("【プロメスティン】")
    ShowMessage("なんでしょう？")
    ShowMessage("私の部屋に来るなんて、何かあったのですか？")
    ShowMessageFace("ruka_fc1",0,0,2,167)
    ShowMessage("【ルカ】")
    ShowMessage("時空ループ事例発生、時刻は1～5時、現在\\V[1100]巡目。")
    ShowMessage("原因は時空異変に特定、G00000～G0255までクリア。")
    ShowMessageFace("stein_fc2",2,0,2,168)
    ShowMessage("【プロメスティン】")
    ShowMessage("えっ、えっ……？")
    ShowMessageFace("stein_fc2",0,0,2,169)
    ShowMessage("【プロメスティン】")
    ShowMessage("……………………")
    ShowMessageFace("stein_fc2",1,0,2,170)
    ShowMessage("【プロメスティン】")
    ShowMessage("……なるほど、状況は分かりました。")
    ShowMessageFace("ruka_fc1",0,0,2,171)
    ShowMessage("【ルカ】")
    ShowMessage("じゃあ、続きは頼むよ。")
    ShowMessageFace("stein_fc2",0,0,2,172)
    ShowMessage("【プロメスティン】")
    ShowMessage("もう、完全に流れがルーチンワークですね。")
    ShowMessage("とにかく、測定を進めておきます。")
    ChangeVariable(1103,1103,0,0,18)
    ChangeSwitch(2362,2362,0)
    TeleportPlayer(0,77,3,18,6,0)
    EndEventProcessing()
    0()
   EndIf()
   0()
  EndIf()
  If(1,1103,0,19,1)
   If(1,1103,0,20,2)
    ShowMessageFace("stein_fc2",0,0,2,173)
    ShowMessage("【プロメスティン】")
    ShowMessage("なんでしょう？")
    ShowMessage("私の部屋に来るなんて、何かあったのですか？")
    ShowMessageFace("ruka_fc1",0,0,2,174)
    ShowMessage("【ルカ】")
    ShowMessage("時空ループ事例発生、時刻は1～5時、現在\\V[1100]巡目。")
    ShowMessage("原因は時空異変に特定、G00000～G0421までクリア。")
    ShowMessageFace("stein_fc2",2,0,2,175)
    ShowMessage("【プロメスティン】")
    ShowMessage("えっ、えっ……？")
    ShowMessageFace("stein_fc2",0,0,2,176)
    ShowMessage("【プロメスティン】")
    ShowMessage("……………………")
    ShowMessageFace("stein_fc2",1,0,2,177)
    ShowMessage("【プロメスティン】")
    ShowMessage("……なるほど、状況は分かりました。")
    ShowMessageFace("ruka_fc1",0,0,2,178)
    ShowMessage("【ルカ】")
    ShowMessage("じゃあね。")
    ShowMessageFace("stein_fc2",0,0,2,179)
    ShowMessage("【プロメスティン】")
    ShowMessage("いってらっしゃい。")
    ChangeVariable(1103,1103,0,0,20)
    ChangeSwitch(2362,2362,0)
    TeleportPlayer(0,77,3,18,6,0)
    EndEventProcessing()
    0()
   EndIf()
   0()
  EndIf()
  If(1,1103,0,21,1)
   If(1,1103,0,22,2)
    ShowMessageFace("stein_fc2",0,0,2,180)
    ShowMessage("【プロメスティン】")
    ShowMessage("なんでしょう？")
    ShowMessage("私の部屋に来るなんて、何かあったのですか？")
    ShowMessageFace("ruka_fc1",0,0,2,181)
    ShowMessage("【ルカ】")
    ShowMessage("時空ループ事例発生、時刻は1～5時、現在\\V[1100]巡目。")
    ShowMessage("原因は時空異変に特定、G00000～G0601までクリア。")
    ShowMessageFace("stein_fc2",2,0,2,182)
    ShowMessage("【プロメスティン】")
    ShowMessage("えっ、えっ……？")
    ShowMessageFace("stein_fc2",0,0,2,183)
    ShowMessage("【プロメスティン】")
    ShowMessage("……………………")
    ShowMessageFace("stein_fc2",1,0,2,184)
    ShowMessage("【プロメスティン】")
    ShowMessage("……なるほど、状況は分かりました。")
    ShowMessageFace("ruka_fc1",0,0,2,185)
    ShowMessage("【ルカ】")
    ShowMessage("OK。")
    ShowMessageFace("stein_fc2",0,0,2,186)
    ShowMessage("【プロメスティン】")
    ShowMessage("OK。")
    ChangeVariable(1103,1103,0,0,22)
    ChangeSwitch(2362,2362,0)
    TeleportPlayer(0,77,3,18,6,0)
    EndEventProcessing()
    0()
   EndIf()
   0()
  EndIf()
  If(1,1103,0,23,1)
   If(1,1103,0,24,2)
    ShowMessageFace("stein_fc2",0,0,2,187)
    ShowMessage("【プロメスティン】")
    ShowMessage("なんでしょう？")
    ShowMessage("私の部屋に来るなんて、何かあったのですか？")
    ShowMessageFace("ruka_fc1",0,0,2,188)
    ShowMessage("【ルカ】")
    ShowMessage("時空ループ事例発生、時刻は1～5時、現在\\V[1100]巡目。")
    ShowMessage("原因は時空異変に特定、G00000～G\\V[1118]までクリア。")
    ShowMessageFace("stein_fc2",2,0,2,189)
    ShowMessage("【プロメスティン】")
    ShowMessage("えっ、えっ……？")
    ShowMessageFace("stein_fc2",0,0,2,190)
    ShowMessage("【プロメスティン】")
    ShowMessage("……………………")
    ShowMessageFace("stein_fc2",1,0,2,191)
    ShowMessage("【プロメスティン】")
    ShowMessage("……なるほど、状況は分かりました。")
    ShowMessageFace("ruka_fc1",0,0,2,192)
    ShowMessage("【ルカ】")
    ShowMessage("OK。")
    ShowMessageFace("stein_fc2",0,0,2,193)
    ShowMessage("【プロメスティン】")
    ShowMessage("OK。")
    ChangeSwitch(2362,2362,0)
    TeleportPlayer(0,77,3,18,6,0)
    EndEventProcessing()
    0()
   EndIf()
   0()
  EndIf()
  If(1,1103,0,100,0)
   ShowMessageFace("stein_fc2",0,0,2,194)
   ShowMessage("【プロメスティン】")
   ShowMessage("なんでしょう？")
   ShowMessage("私の部屋に来るなんて、何かあったのですか？")
   ShowMessageFace("ruka_fc1",0,0,2,195)
   ShowMessage("【ルカ】")
   ShowMessage("それが、その……")
   ShowMessageFace("",0,0,2,196)
   ShowMessage("ルカは、プロメスティンに相談した……")
   ShowMessageFace("stein_fc2",1,0,2,197)
   ShowMessage("【プロメスティン】")
   ShowMessage("なんと、時間がループ！？")
   ShowMessage("それで同じ時間を繰り返しているというのですか！")
   ShowMessageFace("ruka_fc1",0,0,2,198)
   ShowMessage("【ルカ】")
   ShowMessage("それで何巡もした結果、例の死体に辿り着いたんだ。")
   ShowMessage("ここまで来るまで、本当大変だったんだからね……")
   ShowMessageFace("",0,0,2,199)
   ShowMessage("ルカは、透の亡霊から聞いたことを説明した……")
   ShowMessageFace("stein_fc2",0,0,2,200)
   ShowMessage("【プロメスティン】")
   ShowMessage("……なるほど。")
   ShowMessage("これで、だいたいの謎が解けましたね。")
   ShowMessageFace("stein_fc2",0,0,2,201)
   ShowMessage("【プロメスティン】")
   ShowMessage("ちょっと待っていて下さい。")
   ShowMessage("確認のため、色々と調べたいことがあります。")
   ShowMessageFace("ruka_fc1",0,0,2,202)
   ShowMessage("【ルカ】")
   ShowMessage("それじゃあ、僕は――")
   ShowMessageFace("stein_fc2",0,0,2,203)
   ShowMessage("【プロメスティン】")
   ShowMessage("今回は、何時間もかかりませんよ。")
   ShowMessage("あと、クロムにも手伝ってもらわないと――")
   221()
   ShowMessageFace("",0,0,2,204)
   ShowMessage("こうして、部屋にクロムが呼び出された。")
   ShowMessage("二人は、何やら難しいことを協議し――")
   Wait(60)
   ChangeSwitch(2367,2367,0)
   281(1)
   TeleportPlayer(0,155,7,5,8,0)
   241(bytes(0x04,0x08,0x6f,0x3a,0x0d,0x52,0x50,0x47,0x3a,0x3a,0x42,0x47,0x4d,0x08,0x3a,0x0a,0x40,0x6e,0x61,0x6d,0x65,0x49,0x22,0x16,0x64,0x75,0x6e,0x67,0x65,0x6f,0x6e,0x5f,0x63,0x6f,0x6c,0x6f,0x73,0x73,0x65,0x75,0x6d,0x06,0x3a,0x06,0x45,0x54,0x3a,0x0c,0x40,0x76,0x6f,0x6c,0x75,0x6d,0x65,0x69,0x69,0x3a,0x0b,0x40,0x70,0x69,0x74,0x63,0x68,0x69,0x69))
   222()
   ShowMessageFace("stein_fc2",1,0,2,205)
   ShowMessage("【プロメスティン】")
   ShowMessage("……お待たせしましたね。")
   ShowMessage("ようやく、話がまとまりました。")
   ShowMessageFace("chrom_fc2",0,0,2,206)
   ShowMessage("【クロム】")
   ShowMessage("このループを解消する手筈がまとまったのじゃ！")
   ShowMessageFace("stein_fc2",1,0,2,207)
   ShowMessage("【プロメスティン】")
   ShowMessage("名付けて……プロメスティンズ・ゲート作戦！")
   ShowMessage("これより、その概要を説明します！")
   ShowMessageFace("chrom_fc2",5,0,2,208)
   ShowMessage("【クロム】")
   ShowMessage("作戦概要の前に、現在の状況を説明した方がいいのでは？")
   ShowMessageFace("stein_fc2",0,0,2,209)
   ShowMessage("【プロメスティン】")
   ShowMessage("おっと、そうでしたね……")
   ShowMessage("現在の状況を図にすると、このようになります。")
   PictureDisplay(5,"iv_timeloop",0,0,0,0,100,100,0,0)
   PictureMove(5,null,0,0,0,0,100,100,255,0,30,true)
   ShowMessageFace("ruka_fc1",0,0,2,210)
   ShowMessage("【ルカ】")
   ShowMessage("……なにこれ？")
   ShowMessageFace("stein_fc2",0,0,2,211)
   ShowMessage("【プロメスティン】")
   ShowMessage("私もクロムも、絵心はないので……")
   ShowMessage("ともかく、これを見れば一目瞭然だと思います。")
   ShowMessageFace("ruka_fc1",0,0,2,212)
   ShowMessage("【ルカ】")
   ShowMessage("いや、さっぱり分からないよ……")
   ShowMessage("説明をお願い。")
   ShowMessageFace("stein_fc2",0,0,2,213)
   ShowMessage("【プロメスティン】")
   ShowMessage("仕方ないですね……")
   ShowMessage("これまでの調査で、以下のことが分かりました。")
   ShowMessageFace("stein_fc2",0,0,2,214)
   ShowMessage("【プロメスティン】")
   ShowMessage("ミュスカ、ネメア、ヴィヌムがこの世界に来る前――")
   ShowMessage("彼女達は、一人の青年を家に監禁したんです。")
   ShowMessageFace("stein_fc2",0,0,2,215)
   ShowMessage("【プロメスティン】")
   ShowMessage("その青年こそが、透……")
   ShowMessage("七人の勇者の一人として、この世界に呼ばれた人物でした。")
   ShowMessageFace("ruka_fc1",0,0,2,216)
   ShowMessage("【ルカ】")
   ShowMessage("そうか、彼が……七人の勇者の一人だったんだな。")
   ShowMessageFace("",0,0,2,217)
   ShowMessage("この世界に転移した際、ミュスカに吸い殺されてしまった――")
   ShowMessage("それゆえ、僕達は彼と顔を合わせる機会さえなかったのだ。")
   ShowMessageFace("stein_fc2",0,0,2,218)
   ShowMessage("【プロメスティン】")
   ShowMessage("透はミュスカ達に監禁されていた際……")
   ShowMessage("いきさつは分かりませんが、ある秘宝を入手しました。")
   ShowMessageFace("stein_fc2",0,0,2,219)
   ShowMessage("【プロメスティン】")
   ShowMessage("それは、持ち主が死亡すれば時間が巻き戻る像。")
   ShowMessage("この世界にある時戻りの像と、ほぼ同じ効果の秘宝です。")
   ShowMessageFace("stein_fc2",0,0,2,220)
   ShowMessage("【プロメスティン】")
   ShowMessage("透さんは、その像の力で時間を何度も戻りながら……")
   ShowMessage("繰り返し、ミュスカ達の家から脱出を試みました。")
   ShowMessageFace("stein_fc2",0,0,2,221)
   ShowMessage("【プロメスティン】")
   ShowMessage("その過程で、透さんはその家にピザの配達を頼みます。")
   ShowMessage("自分の代わりとなる犠牲者を呼び込むために……ね。")
   ShowMessageFace("chrom_fc2",5,0,2,222)
   ShowMessage("【クロム】")
   ShowMessage("その試みは上手く行き、脱出計画は大いに前進した。")
   ShowMessage("しかし透の良心は大きく傷付き、深い悔恨の念が残った……")
   ShowMessageFace("stein_fc2",0,0,2,223)
   ShowMessage("【プロメスティン】")
   ShowMessage("実際、透はピザ屋が助かる道を模索したようです。")
   ShowMessage("時間を戻して、何度も繰り返すことでね。")
   ShowMessageFace("stein_fc2",0,0,2,224)
   ShowMessage("【プロメスティン】")
   ShowMessage("しかし結局、ピザ屋が助かる道は見つかりませんでした。")
   ShowMessage("そんな折、夢の国事件が発生します。")
   ShowMessageFace("ruka_fc1",0,0,2,225)
   ShowMessage("【ルカ】")
   ShowMessage("ミュスカ達も透も、僕達の世界に呼び込まれたってわけか……")
   ShowMessageFace("",0,0,2,226)
   ShowMessage("そして透は、ミュスカに吸い殺されてしまった。")
   ShowMessageFace("",0,0,2,227)
   ShowMessage("世界が異なるからか、像を失ったのか――")
   ShowMessage("その際は、時間が戻ることはなかったのだ。")
   ShowMessageFace("chrom_fc2",5,0,2,228)
   ShowMessage("【クロム】")
   ShowMessage("そうして命を落とした透じゃが、その念は残った。")
   ShowMessage("ピザ屋を殺したも同然という、深い後悔を抱えてな……")
   ShowMessageFace("stein_fc2",0,0,2,229)
   ShowMessage("【プロメスティン】")
   ShowMessage("その妄念が、この世界にも存在した時戻りの像に作用します。")
   ShowMessage("こうして、無限の時間ループが発生したんですが――")
   ShowMessageFace("stein_fc2",0,0,2,230)
   ShowMessage("【プロメスティン】")
   ShowMessage("その影響をもろに受けたのが、特異点であるルカさんでした。")
   ShowMessage("あなただけが、繰り返す時間を認識できたんです。")
   ShowMessageFace("stein_fc2",0,0,2,231)
   ShowMessage("【プロメスティン】")
   ShowMessage("時間ループの起点は、透の死体が運び込まれた午後一時。")
   ShowMessage("時戻りの像の近くに来たことで、妄念が感応したんでしょう。")
   ShowMessageFace("stein_fc2",0,0,2,232)
   ShowMessage("【プロメスティン】")
   ShowMessage("時間が戻る午後五時というのは……")
   ShowMessage("元の世界でピザ屋が力尽きた時刻ではないでしょうか。")
   ShowMessageFace("ruka_fc1",0,0,2,233)
   ShowMessage("【ルカ】")
   ShowMessage("それじゃあ、この世界でピザを頼んだのは……")
   ShowMessageFace("stein_fc2",0,0,2,234)
   ShowMessage("【プロメスティン】")
   ShowMessage("確認しましたが、ピザの予約はあのスマホからでした。")
   ShowMessage("もちろん、この世界でスマホは使えませんが――")
   ShowMessageFace("stein_fc2",0,0,2,235)
   ShowMessage("【プロメスティン】")
   ShowMessage("透の思念が作用し、ある種の念波を発信していたのでしょう。")
   ShowMessage("それでピザの予約を入れるなんて、まさに妄念ですね。")
   ShowMessageFace("chrom_fc2",5,0,2,236)
   ShowMessage("【クロム】")
   ShowMessage("この世界にいる儂等への……")
   ShowMessage("いや、ルカへのメッセージだったのかもしれんのう。")
   ShowMessageFace("ruka_fc1",0,0,2,237)
   ShowMessage("【ルカ】")
   ShowMessage("ところで、この「孤独の観測者」っていうのは？")
   ShowMessageFace("stein_fc2",0,0,2,238)
   ShowMessage("【プロメスティン】")
   ShowMessage("あなたの事です。この世界がループしていることを、")
   ShowMessage("あなただけが観測しているのです。")
   ShowMessageFace("ruka_fc1",0,0,2,239)
   ShowMessage("【ルカ】")
   ShowMessage("ピザ屋が三つ、空中に消えていくのは？")
   ShowMessageFace("stein_fc2",0,0,2,240)
   ShowMessage("【プロメスティン】")
   ShowMessage("失われていくピザ屋の命を模式的に示しました。")
   ShowMessage("三つしか書かれていませんが、実際は無数です。")
   ShowMessageFace("ruka_fc1",0,0,2,241)
   ShowMessage("【ルカ】")
   ShowMessage("時戻りの像から出てる矢印の説明、省略されてるけど……")
   ShowMessageFace("stein_fc2",0,0,2,242)
   ShowMessage("【プロメスティン】")
   ShowMessage("具体的な作用やそのメカニズムは、いまだ不明。")
   ShowMessage("そのために明言は避け、あえて省略しています。")
   ShowMessageFace("ruka_fc1",0,0,2,243)
   ShowMessage("【ルカ】")
   ShowMessage("……………………")
   ShowMessageFace("",0,0,2,244)
   ShowMessage("コメントは避けたい絵だが――")
   ShowMessage("それでも、時空異変の概要にかんしてはだいたい理解できた。")
   PictureClear(5)
   ShowMessageFace("ruka_fc1",0,0,2,245)
   ShowMessage("【ルカ】")
   ShowMessage("……それで、異変を解決するにはどうしたらいいんだ？")
   ShowMessageFace("stein_fc2",0,0,2,246)
   ShowMessage("【プロメスティン】")
   ShowMessage("はい、ここからが作戦の概要ですね。")
   ShowMessage("時戻りの像が作用しているせいで、事態解決は非常に困難。")
   ShowMessageFace("stein_fc2",0,0,2,247)
   ShowMessage("【プロメスティン】")
   ShowMessage("時戻りの像を、破壊してしまったとしても……")
   ShowMessage("すぐに時間が戻り、像の破壊もなかった事になるでしょう。")
   ShowMessageFace("chrom_fc2",6,0,2,248)
   ShowMessage("【クロム】")
   ShowMessage("同様に、透の妄念も消すことはできん。")
   ShowMessage("強制的に成仏させても、時間が戻ってしまうのじゃ。")
   ShowMessageFace("ruka_fc1",0,0,2,249)
   ShowMessage("【ルカ】")
   ShowMessage("それじゃあ、打つ手無しなんじゃ……")
   ShowMessageFace("stein_fc2",1,0,2,250)
   ShowMessage("【プロメスティン】")
   ShowMessage("しかし我々は、プチ「智の同盟」。")
   ShowMessage("科学の力で、不可能を可能にします！")
   ShowMessageFace("chrom_fc2",1,0,2,251)
   ShowMessage("【クロム】")
   ShowMessage("なのじゃ！")
   ShowMessageFace("stein_fc2",1,0,2,252)
   ShowMessage("【プロメスティン】")
   ShowMessage("時戻りの像も、透の妄念も消せないならば……")
   ShowMessage("透の妄念が発生したという事象自体を消せばいいんですよ。")
   ShowMessageFace("ruka_fc1",0,0,2,253)
   ShowMessage("【ルカ】")
   ShowMessage("事象自体を消すって……どうやって？")
   ShowMessageFace("stein_fc2",1,0,2,254)
   ShowMessage("【プロメスティン】")
   ShowMessage("私達で、問題のピザ屋を救出するんです。")
   ShowMessage("そうすれば、透の妄念は発生しません。")
   ShowMessageFace("ruka_fc1",0,0,2,255)
   ShowMessage("【ルカ】")
   ShowMessage("ピザ屋を救出だって……！？")
   ShowMessage("でも、それは異世界の過去の話じゃ――")
   241(bytes(0x04,0x08,0x6f,0x3a,0x0d,0x52,0x50,0x47,0x3a,0x3a,0x42,0x47,0x4d,0x08,0x3a,0x0a,0x40,0x6e,0x61,0x6d,0x65,0x49,0x22,0x0a,0x74,0x69,0x74,0x6c,0x65,0x06,0x3a,0x06,0x45,0x54,0x3a,0x0c,0x40,0x76,0x6f,0x6c,0x75,0x6d,0x65,0x69,0x69,0x3a,0x0b,0x40,0x70,0x69,0x74,0x63,0x68,0x69,0x69))
   PictureDisplay(5,"iv_steinsgate1",0,0,0,0,100,100,0,0)
   PictureMove(5,null,0,0,0,0,100,100,255,0,30,true)
   ShowMessageFace("stein_fc2",1,0,2,256)
   ShowMessage("【プロメスティン】")
   ShowMessage("不可能を可能にする作戦……")
   ShowMessage("それこそが、このプロメスティンズ・ゲート作戦なんですよ！")
   ShowMessageFace("chrom_fc2",1,0,2,257)
   ShowMessage("【クロム】")
   ShowMessage("……なのじゃ！")
   ShowMessageFace("stein_fc2",1,0,2,258)
   ShowMessage("【プロメスティン】")
   ShowMessage("あなたを過去に戻し、ミュスカ達の家に送り込みます。")
   ShowMessage("そして、透とピザ屋を救出する――")
   ShowMessageFace("chrom_fc2",1,0,2,259)
   ShowMessage("【クロム】")
   ShowMessage("そうすれば、透の妄念が発生したという歴史自体が消える！")
   ShowMessage("ひいては、時空ループ現象も消失するのじゃ！")
   PictureClear(5)
   ShowMessageFace("ruka_fc1",0,0,2,260)
   ShowMessage("【ルカ】")
   ShowMessage("でも……本当に、そんな事が出来るの？")
   ShowMessageFace("stein_fc2",0,0,2,261)
   ShowMessage("【プロメスティン】")
   ShowMessage("あなたは次元の壁を越える能力を持っているじゃないですか。")
   ShowMessage("もちろん、時空転送のサポートは私達が行います。")
   ShowMessageFace("stein_fc2",0,0,2,262)
   ShowMessage("【プロメスティン】")
   ShowMessage("知っての通り、異世界への転移は極めて困難。")
   ShowMessage("今も、夢の国事件でこちらに来た者達は帰れずにいます。")
   ShowMessageFace("stein_fc2",0,0,2,263)
   ShowMessage("【プロメスティン】")
   ShowMessage("ですが今回のプロメスティンズ・ゲート作戦にあたっては、")
   ShowMessage("非常に運の良いファクターがありました。")
   ShowMessageFace("stein_fc2",0,0,2,264)
   ShowMessage("【プロメスティン】")
   ShowMessage("私達の世界と向こうの世界の両方に、")
   ShowMessage("時戻りの像が存在するんです。")
   ShowMessageFace("stein_fc2",0,0,2,265)
   ShowMessage("【プロメスティン】")
   ShowMessage("しかも、これは時空そのものに効果を及ぼす秘宝――")
   ShowMessage("二つの像が起こす共振を利用し、向こうの座標を特定します。")
   ShowMessageFace("ruka_fc1",0,0,2,266)
   ShowMessage("【ルカ】")
   ShowMessage("えっ？　えっ？")
   ShowMessageFace("chrom_fc2",0,0,2,267)
   ShowMessage("【クロム】")
   ShowMessage("……難しい理屈は、分からんでいい。")
   ShowMessage("そこら辺の作業は、ぜんぶ儂等に任せておけ。")
   ShowMessageFace("chrom_fc2",6,0,2,268)
   ShowMessage("【クロム】")
   ShowMessage("……かく言う儂も、物理畑は専門ではない。")
   ShowMessage("プロメスティンのサポートに徹するわけじゃが。")
   ShowMessageFace("stein_fc2",1,0,2,269)
   ShowMessage("【プロメスティン】")
   ShowMessage("そういうわけで……理論上は、うまく行くはず。")
   ShowMessage("ルカさんを、ミュスカの世界に送り込むことは可能です！")
   ShowMessageFace("ruka_fc1",0,0,2,270)
   ShowMessage("【ルカ】")
   ShowMessage("分かった……二人を信じるよ。")
   ShowMessage("でも、僕一人でミュスカの家に行くことになるんだよね？")
   ShowMessageFace("stein_fc2",0,0,2,271)
   ShowMessage("【プロメスティン】")
   ShowMessage("……はい、そうなりますね。")
   ShowMessage("今の我々の技術では、あなた一人の転送で精一杯です。")
   ShowMessageFace("ruka_fc1",0,0,2,272)
   ShowMessage("【ルカ】")
   ShowMessage("僕一人で、透とピザ屋を助けるのか……")
   ShowMessage("大変な仕事になりそうだな。")
   ShowMessageFace("",0,0,2,273)
   ShowMessage("ミュスカ達と対峙する可能性も大きい以上――")
   ShowMessage("僕一人では、大いに不安を感じてしまう。")
   ShowMessageFace("ruka_fc1",0,0,2,274)
   ShowMessage("【ルカ】")
   ShowMessage("……あと、帰りはどうするの？")
   ShowMessage("ミュスカ達の世界に置き去りって事はないよね。")
   ShowMessageFace("stein_fc2",0,0,2,275)
   ShowMessage("【プロメスティン】")
   ShowMessage("ミッションが成功次第、こちらに引き戻します。")
   ShowMessage("失敗したら……どうせ死ぬので、時間が戻るでしょう。")
   ShowMessageFace("ruka_fc1",0,0,2,276)
   ShowMessage("【ルカ】")
   ShowMessage("どうせ死ぬって……")
   ShowMessage("まあ、実際そうなんだろうけど……")
   ShowMessageFace("",0,0,2,277)
   ShowMessage("実に大雑把な作戦だが、やるしかない。")
   ShowMessage("この異変を終わらせ、時間ループに幕を引くために――")
   ShowMessageFace("stein_fc2",1,0,2,278)
   ShowMessage("【プロメスティン】")
   ShowMessage("作戦を理解してもらったところで、さっそく始めましょう。")
   ShowMessage("実は立案段階で、並行して準備を進めていたのです。")
   ShowMessageFace("chrom_fc2",1,0,2,279)
   ShowMessage("【クロム】")
   ShowMessage("座標の特定も、すでに済んでいるぞ。")
   ShowMessage("長い説明の片手間に、終わらせてしまったわ。")
   ShowMessageFace("stein_fc2",0,0,2,280)
   ShowMessage("【プロメスティン】")
   ShowMessage("そういうわけで、今すぐにでも行けます。")
   ShowMessage("ルカさん、準備は良いですか？")
   ShowChoices(strings("今すぐ行ける","まだ行けない"),2)
   IfPlayerPicksChoice(0,null)
    ShowMessageFace("ruka_fc1",0,0,2,281)
    ShowMessage("【ルカ】")
    ShowMessage("大丈夫……行こう！")
    0()
   IfPlayerPicksChoice(1,null)
    ShowMessageFace("stein_fc2",0,0,2,282)
    ShowMessage("【プロメスティン】")
    ShowMessage("いいえ、時間の余裕はありません。")
    ShowMessage("ルカさんの意志は無視し、強引に作戦を開始します。")
    ShowMessageFace("ruka_fc1",0,0,2,283)
    ShowMessage("【ルカ】")
    ShowMessage("そ、そんな……")
    0()
   404()
   RunCommonEvent(572)
   EndEventProcessing()
   0()
  EndIf()
  If(1,1103,0,101,0)
   ShowMessageFace("ruka_fc1",0,0,2,284)
   ShowMessage("【ルカ】")
   ShowMessage("さあ、プロメスティンズ・ゲート計画を始めよう！")
   ShowMessageFace("stein_fc2",2,0,2,285)
   ShowMessage("【プロメスティン】")
   ShowMessage("なんです、藪から棒に……")
   ShowMessageFace("",0,0,2,286)
   ShowMessage("ルカは、状況を説明した……")
   ShowMessageFace("stein_fc2",1,0,2,287)
   ShowMessage("【プロメスティン】")
   ShowMessage("なんと、あなたの身に時間ループが！？")
   ShowMessage("それで、世界線を超える救出作戦を……")
   ShowMessageFace("stein_fc2",1,0,2,288)
   ShowMessage("【プロメスティン】")
   ShowMessage("了解しました、面白くなってきましたね！")
   ShowMessage("さっそくクロムを呼んできます！")
   221()
   ChangeSwitch(2367,2367,0)
   281(1)
   TeleportPlayer(0,155,7,5,8,2)
   222()
   EndEventProcessing()
   0()
  EndIf()
  0()
 PAGE   2
  // condition: variable 1099 >= 4
  0()
 PAGE   3
  // condition: switch 2367 is ON
  0()
 PAGE   4
  // condition: switch 2424 is ON
  0()
 PAGE   5
  // condition: variable 1098 >= 14
  0()



EVENT   3
 PAGE   1
  // condition: variable 1103 >= 1
  205(2,bytes(0x04,0x08,0x6f,0x3a,0x13,0x52,0x50,0x47,0x3a,0x3a,0x4d,0x6f,0x76,0x65,0x52,0x6f,0x75,0x74,0x65,0x09,0x3a,0x0c,0x40,0x72,0x65,0x70,0x65,0x61,0x74,0x46,0x3a,0x0f,0x40,0x73,0x6b,0x69,0x70,0x70,0x61,0x62,0x6c,0x65,0x46,0x3a,0x0a,0x40,0x77,0x61,0x69,0x74,0x54,0x3a,0x0a,0x40,0x6c,0x69,0x73,0x74,0x5b,0x07,0x6f,0x3a,0x15,0x52,0x50,0x47,0x3a,0x3a,0x4d,0x6f,0x76,0x65,0x43,0x6f,0x6d,0x6d,0x61,0x6e,0x64,0x07,0x3a,0x0a,0x40,0x63,0x6f,0x64,0x65,0x69,0x16,0x3a,0x10,0x40,0x70,0x61,0x72,0x61,0x6d,0x65,0x74,0x65,0x72,0x73,0x5b,0x00,0x6f,0x3b,0x0a,0x07,0x3b,0x0b,0x69,0x00,0x3b,0x0c,0x5b,0x00))
  ChangeVariable(1099,1099,0,0,3)
  222()
  ShowMessageFace("ruka_fc1",0,0,2,1)
  ShowMessage("【ルカ】")
  ShowMessage("プロメスティンの部屋に、初めて来たよ。")
  ShowMessage("ここまで改装したなんて……")
  ShowMessageFace("stein_fc2",0,0,2,2)
  ShowMessage("【プロメスティン】")
  ShowMessage("ポケット魔王城の自室は、模様替えも自由という事ですので。")
  ShowMessageFace("ruka_fc1",0,0,2,3)
  ShowMessage("【ルカ】")
  ShowMessage("これは模様替えの域を超えてると思うけど……")
  ShowMessage("この機器とか、どこで調達してきたの？")
  ShowMessageFace("stein_fc2",0,0,2,4)
  ShowMessage("【プロメスティン】")
  ShowMessage("私、サン・イリアで客員教授として招かれているんですよ。")
  ShowMessage("その伝手で、色々と……")
  ShowMessageFace("stein_fc2",0,0,2,5)
  ShowMessage("【プロメスティン】")
  ShowMessage("ともかく、異変の解決に取り組みましょう。")
  ShowMessage("まずは各種検証の前に、ルカさんの体と精神を検査します。")
  ShowMessageFace("ruka_fc1",0,0,2,6)
  ShowMessage("【ルカ】")
  ShowMessage("えっ？　僕の……？")
  ShowMessageFace("stein_fc2",0,0,2,7)
  ShowMessage("【プロメスティン】")
  ShowMessage("この異変が、ルカさんの能力によるものならば……")
  ShowMessage("脳波やその他計測値に、異常が出ている可能性があります。")
  ShowMessageFace("stein_fc2",1,0,2,8)
  ShowMessage("【プロメスティン】")
  ShowMessage("今の時間だと……検査が終わるのは、五時手前ですね。")
  ShowMessage("さっそく始めますよ！")
  221()
  ShowMessageFace("",0,0,2,9)
  ShowMessage("有無を言わさず、僕は寝台に寝かされた。")
  ShowMessage("そして様々な機械を繋がれ、入念な検査を受けたのである――")
  222()
  ShowMessageFace("stein_fc2",0,0,2,10)
  ShowMessage("【プロメスティン】")
  ShowMessage("……結論を言いましょう。")
  ShowMessage("ルカさんの計測値に、いっさいの異常は見られませんでした。")
  ShowMessageFace("ruka_fc1",0,0,2,11)
  ShowMessage("【ルカ】")
  ShowMessage("つまり……検査は無駄だったっていうこと？")
  ShowMessageFace("stein_fc2",0,0,2,12)
  ShowMessage("【プロメスティン】")
  ShowMessage("心身に異常がないということが判明した――")
  ShowMessage("これは、立派な成果です。")
  ShowMessageFace("stein_fc2",0,0,2,13)
  ShowMessage("【プロメスティン】")
  ShowMessage("以上の内容を、次の周回の私に伝えて下さい。")
  ShowMessage("後は次の私が引き継ぐでしょう。")
  ShowMessageFace("ruka_fc1",0,0,2,14)
  ShowMessage("【ルカ】")
  ShowMessage("次の周回って……ああ、もうすぐ五時なのか。")
  ShowMessageFace("",0,0,2,15)
  ShowMessage("時計を見れば、五時の少し手前。")
  ShowMessage("間もなく、いつも通り時間がリセットされる――")
  ShowMessageFace("stein_fc2",0,0,2,16)
  ShowMessage("【プロメスティン】")
  ShowMessage("次からは、午後一時の段階で私のこの部屋を訪れて下さい。")
  ShowMessage("検査や検証に割ける時間は、長いほど良いので。")
  ShowMessageFace("ruka_fc1",0,0,2,17)
  ShowMessage("【ルカ】")
  ShowMessage("うん、分かった……次からはそうするよ。")
  ShowMessageFace(binary"",0,0,2,18)
  ShowMessage("プロメスティンがいる三階ではなく、この部屋に来ること。")
  ShowMessage("ループ開始時点の左から、居住区に入れるはずだ。")
  ShowMessageFace("",0,0,2,19)
  ShowMessage("今回の収穫は少なかったが――")
  ShowMessage("次のプロメスティンに期待、ということか。")
  ShowMessageFace("stein_fc2",0,0,2,20)
  ShowMessage("【プロメスティン】")
  ShowMessage("それにしても、奇妙な感覚ですね。")
  ShowMessage("間もなく、五時の鐘が鳴るのですが……")
  ShowMessageFace("stein_fc2",1,0,2,21)
  ShowMessage("【プロメスティン】")
  ShowMessage("その鐘と共におかしくなるのは、私であるはず。")
  ShowMessage("いったいどんな感じなのか、実体験できて嬉しいです。")
  ShowMessageFace("ruka_fc1",0,0,2,22)
  ShowMessage("【ルカ】")
  ShowMessage("僕は、嬉しくないけど――")
  ChangeVariable(1103,1103,0,0,2)
  RunCommonEvent(5791)
  EndEventProcessing()
  0()
 PAGE   2
  // condition: variable 1103 >= 2
  0()



EVENT   4
 PAGE   1
  // condition: variable 1099 >= 4
  If(0,2363,0)
   RunCommonEvent(577)
   EndEventProcessing()
   0()
  EndIf()
  If(1,1121,0,1,0)
   ShowMessageFace("",0,0,2,1)
   ShowMessage("ヌルコから得た情報に関しては、次のプロメスティンに伝えよう。")
   ShowMessage("もう、残り時間は一時間もないのだから――")
   0()
  EndIf()
  If(1,1102,0,6,0)
   ShowMessageFace("",0,0,2,2)
   ShowMessage("手に入れた時戻りの像は、次のプロメスティンに見せよう。")
   ShowMessage("解析しようにも、この巡回はあと一時間もないのだ――")
   0()
  EndIf()
  If(1,1105,0,4,0)
   ShowMessageFace("",0,0,2,3)
   ShowMessage("あの死体の身元については、次のプロメスティンに話そう。")
   ShowMessage("五時まで一時間もない、今回の時間切れは間近なのだ。")
   0()
  EndIf()
  If(1,1121,0,2,0)
   ShowMessageFace("stein_fc2",0,0,2,4)
   ShowMessage("【プロメスティン】")
   ShowMessage("ああ、来ましたね。")
   ShowMessage("ちょうどヌルコ情報の追試も終了しましたよ。")
   ShowMessageFace("stein_fc2",0,0,2,5)
   ShowMessage("【プロメスティン】")
   ShowMessage("確かに、時戻りの魔術が作用している事が確認されました。")
   ShowMessage("この時間ループの原因は、間違いなくそれでしょう。")
   ShowMessageFace("stein_fc2",0,0,2,6)
   ShowMessage("【プロメスティン】")
   ShowMessage("ただ、その魔術の起点が分からないんですよね……")
   ShowMessage("それを引き起こしている人物の念というのも不明です。")
   ShowMessageFace("ruka_fc1",0,0,2,7)
   ShowMessage("【ルカ】")
   ShowMessage("調査は進んだけど……")
   ShowMessage("まだまだ、分からない事は多いってわけか。")
   ShowMessageFace("stein_fc2",0,0,2,8)
   ShowMessage("【プロメスティン】")
   ShowMessage("結局、まだまだ検証を続けていくしかないようですね……")
   ShowMessage("もっとも、それは次の私の仕事でしょうけど。")
   ShowMessageFace("ruka_fc1",0,0,2,9)
   ShowMessage("【ルカ】")
   ShowMessage("そうなるね……いつもありがとう。")
   ShowMessage("次もよろしく。")
   ShowMessageFace("stein_fc2",1,0,2,10)
   ShowMessage("【プロメスティン】")
   ShowMessage("科学とは、細かな検証の積み重ねですよ。")
   ShowMessage("このまま歩みを続ければ、必ず答えに辿り着きます。")
   ChangeVariable(1121,1121,0,0,3)
   ChangeSwitch(2362,2362,1)
   ChangeSwitch(2363,2363,0)
   TeleportPlayer(0,77,3,18,6,0)
   EndEventProcessing()
   0()
  EndIf()
  If(1,1102,0,7,0)
   ShowMessageFace("stein_fc2",0,0,2,11)
   ShowMessage("【プロメスティン】")
   ShowMessage("ああ、来ましたね。")
   ShowMessage("ちょうど像の解析も終了しましたよ。")
   ShowMessageFace("stein_fc2",0,0,2,12)
   ShowMessage("【プロメスティン】")
   ShowMessage("その結果ですが……")
   ShowMessage("確かにこの像には、時間を戻す力があります。")
   ShowMessageFace("stein_fc2",0,0,2,13)
   ShowMessage("【プロメスティン】")
   ShowMessage("この異変を引き起こしているアイテムとして、")
   ShowMessage("間違いないようですね。")
   ShowMessageFace("stein_fc2",0,0,2,14)
   ShowMessage("【プロメスティン】")
   ShowMessage("問題は、なぜこのアイテムが誤動作しているのかということ。")
   ShowMessage("五時の時点で発動する理由も、まだ不明です。")
   ShowMessageFace("stein_fc2",0,0,2,15)
   ShowMessage("【プロメスティン】")
   ShowMessage("何かのエネルギーが、この像に干渉しているのでしょう。")
   ShowMessage("それにより誤作動が引き起こされていると考えられます。")
   ShowMessageFace("stein_fc2",0,0,2,16)
   ShowMessage("【プロメスティン】")
   ShowMessage("モノがモノだけに、この像を破壊しても解決になりません。")
   ShowMessage("単に、破壊前に時間が戻るだけです。")
   ShowMessageFace("stein_fc2",0,0,2,17)
   ShowMessage("【プロメスティン】")
   ShowMessage("この像の解析では、これ以上何も分からないでしょう。")
   ShowMessage("異変を解決するキーですので、大切に持っていて下さい。")
   250(bytes(0x04,0x08,0x6f,0x3a,0x0c,0x52,0x50,0x47,0x3a,0x3a,0x53,0x45,0x08,0x3a,0x0a,0x40,0x6e,0x61,0x6d,0x65,0x49,0x22,0x0a,0x49,0x74,0x65,0x6d,0x31,0x06,0x3a,0x06,0x45,0x54,0x3a,0x0b,0x40,0x70,0x69,0x74,0x63,0x68,0x69,0x69,0x3a,0x0c,0x40,0x76,0x6f,0x6c,0x75,0x6d,0x65,0x69,0x55))
   ShowMessageFace("",0,0,2,18)
   ShowMessage("ルカは、時戻りの像を受け取った！")
   ShowMessageFace("ruka_fc1",0,0,2,19)
   ShowMessage("【ルカ】")
   ShowMessage("さて、そうなると……")
   ShowMessage("誤作動を引き起こしている原因を見付けないといけないね。")
   ShowMessageFace("stein_fc2",0,0,2,20)
   ShowMessage("【プロメスティン】")
   ShowMessage("それと並行し、私は各種検証を続けることになります。")
   ShowMessage("もっとも、それは次の私の仕事になるでしょうが。")
   ShowMessageFace("ruka_fc1",0,0,2,21)
   ShowMessage("【ルカ】")
   ShowMessage("そうなるね……")
   ShowMessage("それじゃ、また次も世話になるよ。")
   ShowMessageFace("stein_fc2",1,0,2,22)
   ShowMessage("【プロメスティン】")
   ShowMessage("大丈夫、いつかは答えに辿り着きます。")
   ShowMessage("一歩一歩、着実に進んでいきましょう。")
   ChangeVariable(1102,1102,0,0,8)
   ChangeSwitch(2362,2362,1)
   ChangeSwitch(2363,2363,0)
   TeleportPlayer(0,77,3,18,6,0)
   EndEventProcessing()
   0()
  EndIf()
  If(1,1103,0,4,0)
   ShowMessageFace("stein_fc2",0,0,2,23)
   ShowMessage("【プロメスティン】")
   ShowMessage("あっ、ルカさんですか。")
   ShowMessage("ちょうど検査が終わったところですよ。")
   ShowMessageFace("stein_fc2",0,0,2,24)
   ShowMessage("【プロメスティン】")
   ShowMessage("結論を言えば……夢魔が介入した形跡は見られませんでした。")
   ShowMessage("今回の異変は、夢の国絡みではありません。")
   ShowMessageFace("ruka_fc1",0,0,2,25)
   ShowMessage("【ルカ】")
   ShowMessage("そうか、今回も外れか……")
   ShowMessageFace("stein_fc2",0,0,2,26)
   ShowMessage("【プロメスティン】")
   ShowMessage("枝道が消え、正解への道が近付いたと思って下さい。")
   ShowMessage("この結果も、次の私に伝えて下さいね。")
   ShowMessageFace("ruka_fc1",0,0,2,27)
   ShowMessage("【ルカ】")
   ShowMessage("僕の検査は異常なし、夢魔の介入もなし……だね。")
   ShowMessage("分かった、伝えておくよ。")
   ShowMessageFace("stein_fc2",0,0,2,28)
   ShowMessage("【プロメスティン】")
   ShowMessage("これ以上は、今の私にできることはありません。")
   ShowMessage("すみやかに、ここから離れた方が良いですね。")
   ShowMessageFace("",0,0,2,29)
   ShowMessage("五時になれば、このプロメスティンもおかしくなる。")
   ShowMessage("例の鏡を持ち出される前に、離れた方がいいだろう――")
   ShowMessageFace("ruka_fc1",0,0,2,30)
   ShowMessage("【ルカ】")
   ShowMessage("まあ……どこにいても、結果は同じなんだけど。")
   ShowMessageFace("stein_fc2",1,0,2,31)
   ShowMessage("【プロメスティン】")
   ShowMessage("それでは、次の私によろしく。")
   ShowMessageFace("ruka_fc1",0,0,2,32)
   ShowMessage("【ルカ】")
   ShowMessage("うん、また世話になるよ。")
   ShowMessageFace("",0,0,2,33)
   ShowMessage("こうして、僕はプロメスティンの部屋を後にした。")
   ShowMessage("残る時間で、調査をするか息抜きをするか――")
   ChangeVariable(1103,1103,0,0,5)
   ChangeSwitch(2362,2362,1)
   ChangeSwitch(2363,2363,0)
   TeleportPlayer(0,77,3,18,6,0)
   EndEventProcessing()
   0()
  EndIf()
  If(1,1103,0,6,0)
   ShowMessageFace("stein_fc2",0,0,2,34)
   ShowMessage("【プロメスティン】")
   ShowMessage("あっ、ルカさんですか。")
   ShowMessage("ちょうど空間解析が終わったところですよ。")
   ShowMessageFace("stein_fc2",0,0,2,35)
   ShowMessage("【プロメスティン】")
   ShowMessage("結論を言えば……呪いの影響は見られませんでした。")
   ShowMessage("今回の異変は、何らかの呪いの効果ではありません。")
   ShowMessageFace("ruka_fc1",0,0,2,36)
   ShowMessage("【ルカ】")
   ShowMessage("今回も外れとはいえ……")
   ShowMessage("ひとつひとつ、潰していくことに意味があるんだったね。")
   ShowMessageFace("stein_fc2",0,0,2,37)
   ShowMessage("【プロメスティン】")
   ShowMessage("はい、前の私がそう言ったんですか？")
   ShowMessage("科学というものは、時に消去法なんですよ。")
   ShowMessageFace("ruka_fc1",0,0,2,38)
   ShowMessage("【ルカ】")
   ShowMessage("じゃあ、次のプロメスティンに伝えるね。")
   ShowMessage("僕の検査は異常なし、夢魔と呪いは除外……か。")
   ShowMessageFace("",0,0,2,39)
   ShowMessage("五時になれば、このプロメスティンもおかしくなる。")
   ShowMessage("例の鏡を持ち出される前に、離れた方がいいだろう――")
   ShowMessageFace("stein_fc2",1,0,2,40)
   ShowMessage("【プロメスティン】")
   ShowMessage("それでは、次の私によろしく。")
   ShowMessageFace("ruka_fc1",0,0,2,41)
   ShowMessage("【ルカ】")
   ShowMessage("ああ、次も世話になるよ。")
   ShowMessageFace("",0,0,2,42)
   ShowMessage("こうして、僕はプロメスティンの部屋を後にした。")
   ShowMessage("残る時間で、調査をするか息抜きをするか――")
   ChangeVariable(1103,1103,0,0,7)
   ChangeSwitch(2362,2362,1)
   ChangeSwitch(2363,2363,0)
   TeleportPlayer(0,77,3,18,6,0)
   EndEventProcessing()
   0()
  EndIf()
  If(1,1103,0,8,0)
   ShowMessageFace("stein_fc2",0,0,2,43)
   ShowMessage("【プロメスティン】")
   ShowMessage("あっ、ルカさんですか。")
   ShowMessage("ちょうど幻術の検知が終わったところですよ。")
   ShowMessageFace("stein_fc2",0,0,2,44)
   ShowMessage("【プロメスティン】")
   ShowMessage("結論を言えば……幻術が用いられた形跡はありません。")
   ShowMessage("この可能性も、今後は除外ですね。")
   ShowMessageFace("ruka_fc1",0,0,2,45)
   ShowMessage("【ルカ】")
   ShowMessage("なかなか進まないなぁ。")
   ShowMessage("一歩一歩、対象が狭まっているって分かってはいるけど。")
   ShowMessageFace("stein_fc2",0,0,2,46)
   ShowMessage("【プロメスティン】")
   ShowMessage("科学というのは、時として消去法……")
   ShowMessage("その顔、もう何度も聞いた感じですね。")
   ShowMessageFace("ruka_fc1",0,0,2,47)
   ShowMessage("【ルカ】")
   ShowMessage("じゃあ、次のプロメスティンに伝えるよ。")
   ShowMessage("心身の検査は異常なし、夢魔と呪いと幻術は除外……と。")
   ShowMessageFace("stein_fc2",1,0,2,48)
   ShowMessage("【プロメスティン】")
   ShowMessage("それでは、次の私によろしく。")
   ShowMessageFace("ruka_fc1",0,0,2,49)
   ShowMessage("【ルカ】")
   ShowMessage("ああ、毎回ありがとう。")
   ShowMessageFace("",0,0,2,50)
   ShowMessage("ともかく、僕はプロメスティンの部屋を後にした。")
   ShowMessage("残る時間で、調査をするか息抜きをするか――")
   ChangeVariable(1103,1103,0,0,9)
   ChangeSwitch(2362,2362,1)
   ChangeSwitch(2363,2363,0)
   TeleportPlayer(0,77,3,18,6,0)
   EndEventProcessing()
   0()
  EndIf()
  If(1,1103,0,10,0)
   ShowMessageFace("stein_fc2",0,0,2,51)
   ShowMessage("【プロメスティン】")
   ShowMessage("あっ、ルカさんですか。")
   ShowMessage("ちょうど聖素の測定が終わったところですよ。")
   ShowMessageFace("stein_fc2",0,0,2,52)
   ShowMessage("【プロメスティン】")
   ShowMessage("残念ながら……異常な動きは見られませんでした。")
   ShowMessage("魂の環網も、誤動作はしていません。")
   ShowMessageFace("ruka_fc1",0,0,2,53)
   ShowMessage("【ルカ】")
   ShowMessage("すると、魂の環網は関係なかったわけか。")
   ShowMessage("怪しいと思ったけど、あてが外れたなぁ……")
   ShowMessageFace("stein_fc2",0,0,2,54)
   ShowMessage("【プロメスティン】")
   ShowMessage("でも、何か関連があるような気はするんですけどね……")
   ShowMessage("検証できない以上、当座は保留するしかないでしょう。")
   ShowMessageFace("ruka_fc1",0,0,2,55)
   ShowMessage("【ルカ】")
   ShowMessage("じゃあ、次のプロメスティンに伝えるよ。")
   ShowMessage("えっと……")
   ShowMessageFace("ruka_fc1",0,0,2,56)
   ShowMessage("【ルカ】")
   ShowMessage("心身検査×、夢魔×、呪い×、幻術×、環網×……")
   ShowMessage("……長くなってきたな。")
   ShowMessageFace("stein_fc2",1,0,2,57)
   ShowMessage("【プロメスティン】")
   ShowMessage("それでは、次の私によろしく。")
   ShowMessageFace("ruka_fc1",0,0,2,58)
   ShowMessage("【ルカ】")
   ShowMessage("その挨拶も、あと何度聞くことになるのか……")
   ShowMessageFace("",0,0,2,59)
   ShowMessage("ともかく、僕はプロメスティンの部屋を後にした。")
   ShowMessage("残る時間で、調査をするか息抜きをするか――")
   ChangeVariable(1103,1103,0,0,11)
   ChangeSwitch(2362,2362,1)
   ChangeSwitch(2363,2363,0)
   TeleportPlayer(0,77,3,18,6,0)
   EndEventProcessing()
   0()
  EndIf()
  If(1,1103,0,12,0)
   ShowMessageFace("stein_fc2",0,0,2,60)
   ShowMessage("【プロメスティン】")
   ShowMessage("あっ、ルカさんですか。")
   ShowMessage("ちょうど魔素の測定が終わったところですよ。")
   ShowMessageFace("stein_fc2",0,0,2,61)
   ShowMessage("【プロメスティン】")
   ShowMessage("残念ながら……異常な動きは見られませんでした。")
   ShowMessage("これで、邪神の仕業という線は消えましたね。")
   ShowMessageFace("ruka_fc1",0,0,2,62)
   ShowMessage("【ルカ】")
   ShowMessage("まあ、最初から可能性は薄かったからね。")
   ShowMessage("でも完全にその線を消した分、原因特定は一歩進んだはず。")
   ShowMessageFace("ruka_fc1",0,0,2,63)
   ShowMessage("【ルカ】")
   ShowMessage("科学は時に消去法……")
   ShowMessage("これ、もうすっかり覚えたよ。")
   ShowMessageFace("stein_fc2",1,0,2,64)
   ShowMessage("【プロメスティン】")
   ShowMessage("ウフフフフ……")
   ShowMessage("分かってくれましたね、ウフフフフ……")
   ShowMessageFace("stein_fc2",0,0,2,65)
   ShowMessage("【プロメスティン】")
   ShowMessage("……って、笑ってる場合ではないです。")
   ShowMessage("ここから、検証が一気に大変になるんですよ。")
   ShowMessageFace("stein_fc2",0,0,2,66)
   ShowMessage("【プロメスティン】")
   ShowMessage("まあ、詳しくは次の私が説明するでしょう。")
   ShowMessage("ルカさんは、今回の結果を次巡に持ち越して下さい。")
   ShowMessageFace("ruka_fc1",0,0,2,67)
   ShowMessage("【ルカ】")
   ShowMessage("心身検査×、夢魔×、呪い×、幻術×、環網×、邪神×……")
   ShowMessage("これ、このままどんどん長くなるの？")
   ShowMessageFace("stein_fc2",0,0,2,68)
   ShowMessage("【プロメスティン】")
   ShowMessage("ちょっと省略しましょう。")
   ShowMessage("ST-DF-CF-MF-SF-AF、これでどうでしょうか？")
   ShowMessageFace("ruka_fc1",0,0,2,69)
   ShowMessage("【ルカ】")
   ShowMessage("本当に、それで分かるの……？")
   ShowMessageFace("stein_fc2",0,0,2,70)
   ShowMessage("【プロメスティン】")
   ShowMessage("私は割と賢いので……")
   ShowMessage("まあ、きっと分かるでしょう。")
   ShowMessageFace("ruka_fc1",0,0,2,71)
   ShowMessage("【ルカ】")
   ShowMessage("分かった、次のプロメスティンによろしく言っておくよ。")
   ShowMessageFace("stein_fc2",2,0,2,72)
   ShowMessage("【プロメスティン】")
   ShowMessage("それでは、次の私に……ああ、先に言われちゃった。")
   ShowMessageFace("",0,0,2,73)
   ShowMessage("こうして、僕はプロメスティンの部屋を後にした。")
   ShowMessage("残る時間で、調査をするか息抜きをするか――")
   ChangeVariable(1103,1103,0,0,13)
   ChangeSwitch(2362,2362,1)
   ChangeSwitch(2363,2363,0)
   TeleportPlayer(0,77,3,18,6,0)
   EndEventProcessing()
   0()
  EndIf()
  If(1,1103,0,14,0)
   ShowMessageFace("stein_fc2",0,0,2,74)
   ShowMessage("【プロメスティン】")
   ShowMessage("ああ、来ましたね。")
   ShowMessage("今回の調査ですが、G00000からG0146まで異常なし。")
   ShowMessageFace("stein_fc2",0,0,2,75)
   ShowMessage("【プロメスティン】")
   ShowMessage("原因は時空異変に特定、G00000～G0146までクリア。")
   ShowMessage("これを、次の私に伝えて下さい。")
   ShowMessageFace("ruka_fc1",0,0,2,76)
   ShowMessage("【ルカ】")
   ShowMessage("分かった……長い道のりだね。")
   ShowMessageFace("stein_fc2",0,0,2,77)
   ShowMessage("【プロメスティン】")
   ShowMessage("繰り返しますが、総当たりでは膨大な時間が掛かります。")
   ShowMessage("何か情報があれば、測定箇所を絞れるのですが……")
   ShowMessageFace("ruka_fc1",0,0,2,78)
   ShowMessage("【ルカ】")
   ShowMessage("調査を短縮するのは、僕の働き次第ってことか。")
   ShowMessage("足と耳を使って、がんばらないと……")
   ChangeVariable(1103,1103,0,0,15)
   ChangeSwitch(2363,2363,0)
   ChangeSwitch(2362,2362,1)
   TeleportPlayer(0,77,3,18,6,0)
   EndEventProcessing()
   0()
  EndIf()
  If(1,1103,0,16,0)
   ShowMessageFace("stein_fc2",0,0,2,79)
   ShowMessage("【プロメスティン】")
   ShowMessage("ああ、来ましたね。")
   ShowMessage("今回の調査ですが、G00147からG0255まで異常なし。")
   ShowMessageFace("stein_fc2",0,0,2,80)
   ShowMessage("【プロメスティン】")
   ShowMessage("原因は時空異変に特定、G00000～G0255までクリア。")
   ShowMessage("これを、次の私に伝えて下さい。")
   ShowMessageFace("ruka_fc1",0,0,2,81)
   ShowMessage("【ルカ】")
   ShowMessage("うん、分かった。")
   ShowMessageFace("stein_fc2",0,0,2,82)
   ShowMessage("【プロメスティン】")
   ShowMessage("もう、他に何も言う必要はなさそうですね。")
   ShowMessage("次の私によろしく。")
   ShowMessageFace("ruka_fc1",0,0,2,83)
   ShowMessage("【ルカ】")
   ShowMessage("うん、ありがとう。")
   ChangeVariable(1103,1103,0,0,17)
   ChangeSwitch(2363,2363,0)
   ChangeSwitch(2362,2362,1)
   TeleportPlayer(0,77,3,18,6,0)
   EndEventProcessing()
   0()
  EndIf()
  If(1,1103,0,18,0)
   ShowMessageFace("stein_fc2",0,0,2,84)
   ShowMessage("【プロメスティン】")
   ShowMessage("ああ、来ましたね。")
   ShowMessage("今回の調査ですが、G00256からG0421まで異常なし。")
   ShowMessageFace("ruka_fc1",0,0,2,85)
   ShowMessage("【ルカ】")
   ShowMessage("G00000～G0421までクリアだね。")
   ShowMessage("次のプロメスティンに伝えるよ。")
   ShowMessageFace("stein_fc2",0,0,2,86)
   ShowMessage("【プロメスティン】")
   ShowMessage("本当、ルーチンワークと化してますね……")
   ShowMessage("では、次の私によろしく。")
   ShowMessageFace("ruka_fc1",0,0,2,87)
   ShowMessage("【ルカ】")
   ShowMessage("ありがとう。")
   ChangeVariable(1103,1103,0,0,19)
   ChangeSwitch(2362,2362,1)
   ChangeSwitch(2363,2363,0)
   TeleportPlayer(0,77,3,18,6,0)
   EndEventProcessing()
   0()
  EndIf()
  If(1,1103,0,20,0)
   ShowMessageFace("stein_fc2",0,0,2,88)
   ShowMessage("【プロメスティン】")
   ShowMessage("ああ、来ましたね。")
   ShowMessage("今回の調査ですが、G00422からG0601まで異常なし。")
   ShowMessageFace("ruka_fc1",0,0,2,89)
   ShowMessage("【ルカ】")
   ShowMessage("G00000～G0601までクリア、了解。")
   ShowMessageFace("stein_fc2",0,0,2,90)
   ShowMessage("【プロメスティン】")
   ShowMessage("じゃあ、次へどうぞ。")
   ShowMessageFace("ruka_fc1",0,0,2,91)
   ShowMessage("【ルカ】")
   ShowMessage("うん。")
   ChangeVariable(1103,1103,0,0,21)
   ChangeSwitch(2362,2362,1)
   ChangeSwitch(2363,2363,0)
   TeleportPlayer(0,77,3,18,6,0)
   EndEventProcessing()
   0()
  EndIf()
  If(1,1103,0,22,0)
   ShowMessageFace("stein_fc2",0,0,2,92)
   ShowMessage("【プロメスティン】")
   ShowMessage("ああ、来ましたね。")
   ShowMessage("今回の調査ですが、G00602からG0755まで異常なし。")
   ShowMessageFace("ruka_fc1",0,0,2,93)
   ShowMessage("【ルカ】")
   ShowMessage("G00000～G0755までクリア、了解。")
   ShowMessageFace("ruka_fc1",0,0,2,94)
   ShowMessage("【ルカ】")
   ShowMessage("OK。")
   ShowMessageFace("stein_fc2",0,0,2,95)
   ShowMessage("【プロメスティン】")
   ShowMessage("OK。")
   ChangeVariable(1103,1103,0,0,23)
   ChangeSwitch(2362,2362,1)
   ChangeSwitch(2363,2363,0)
   ChangeVariable(1118,1118,0,0,755)
   TeleportPlayer(0,77,3,18,6,0)
   EndEventProcessing()
   0()
  EndIf()
  If(1,1103,0,23,0)
   ChangeVariable(1118,1118,1,0,1)
   ChangeVariable(11,11,0,2,140,160)
   ChangeVariable(1119,1119,0,1,1118)
   ChangeVariable(1119,1119,1,1,11)
   ShowMessageFace("stein_fc2",0,0,2,96)
   ShowMessage("【プロメスティン】")
   ShowMessage("ああ、来ましたね。")
   ShowMessage("今回の調査ですが、G\\V[1118]からG\\V[1119]まで異常なし。")
   ShowMessageFace("ruka_fc1",0,0,2,97)
   ShowMessage("【ルカ】")
   ShowMessage("G00000～G\\V[1119]までクリア、了解。")
   ChangeVariable(1118,1118,0,1,1119)
   ShowMessageFace("ruka_fc1",0,0,2,98)
   ShowMessage("【ルカ】")
   ShowMessage("OK。")
   ShowMessageFace("stein_fc2",0,0,2,99)
   ShowMessage("【プロメスティン】")
   ShowMessage("OK。")
   ChangeVariable(1103,1103,0,0,23)
   ChangeSwitch(2362,2362,1)
   ChangeSwitch(2363,2363,0)
   TeleportPlayer(0,77,3,18,6,0)
   EndEventProcessing()
   0()
  EndIf()
  If(1,1103,0,101,0)
   ShowMessageFace("ruka_fc1",0,0,2,100)
   ShowMessage("【ルカ】")
   ShowMessage("さあ、プロメスティンズ・ゲート計画を始めよう！")
   ShowMessageFace("stein_fc2",2,0,2,101)
   ShowMessage("【プロメスティン】")
   ShowMessage("なんです、藪から棒に……")
   ShowMessageFace("",0,0,2,102)
   ShowMessage("ルカは、状況を説明した……")
   ShowMessageFace("stein_fc2",1,0,2,103)
   ShowMessage("【プロメスティン】")
   ShowMessage("なんと、あなたの身に時間ループが！？")
   ShowMessage("それで、世界線を超える救出作戦を……")
   ShowMessageFace("stein_fc2",1,0,2,104)
   ShowMessage("【プロメスティン】")
   ShowMessage("了解しました、面白くなってきましたね！")
   ShowMessage("さっそくクロムを呼んできます！")
   221()
   281(1)
   ChangeSwitch(2367,2367,0)
   TeleportPlayer(0,155,7,5,8,2)
   222()
   EndEventProcessing()
   0()
  EndIf()
  0()
 PAGE   2
  // condition: switch 2367 is ON
  0()
 PAGE   3
  // condition: switch 2425 is ON
  0()
 PAGE   4
  // condition: variable 1098 >= 14
  0()
 PAGE   5
  // condition: switch 2424 is ON
  0()



EVENT   5
 PAGE   1
  // condition: switch 2367 is ON
  // condition: variable 1098 >= 11
  If(0,2400,1)
   ChangeSwitch(2400,2400,0)
   ShowMessageFace("amira_fc1",0,0,2,1)
   ShowMessage("【アミラ】")
   ShowMessage("必要な情報をまとめるため、私が呼ばれたわ。")
   ShowMessage("相変わらず、大変な事に巻き込まれてるみたいね。")
   If(1,1098,0,11,2)
    ShowMessageFace("amira_fc1",0,0,2,2)
    ShowMessage("【アミラ】")
    ShowMessage("とはいえ、ミュスカ達の家の情報が足りなすぎるわ……")
    ShowMessage("誰か詳しい人に、話を聞くのが何より先決ね。")
    EndEventProcessing()
    0()
   EndIf()
   ShowMessageFace("",0,0,2,3)
   ShowMessage("ルカは、ミュスカの家での出来事を説明した……")
   If(0,2398,1)
    ShowMessageFace("amira_fc1",0,0,2,4)
    ShowMessage("【アミラ】")
    ShowMessage("まず必要なのは、ドアノブの魔術対策ね。")
    ShowMessage("対策もなくドアノブに手をかければ、それだけでアウトよ。")
    ShowMessageFace("ruka_fc1",0,0,2,5)
    ShowMessage("【ルカ】")
    ShowMessage("ああ、その通り。")
    ShowMessage("だからゴム手袋と蜂蜜、悪魔の灰を用意しないと――")
    ShowMessageFace("amira_fc1",0,0,2,6)
    ShowMessage("【アミラ】")
    ShowMessage("いえ、その必要はないわ。")
    ShowMessage("あくまでそれは、あの家にあるモノで工夫した対策よ。")
    ShowMessageFace("amira_fc1",0,0,2,7)
    ShowMessage("【アミラ】")
    ShowMessage("私達の世界には、魔術を遮断できる秘宝もあるわ。")
    ShowMessage("魔道具に詳しい誰かにあたってみてはどうかしら？")
    0()
   Else()
    ShowMessageFace("amira_fc1",0,0,2,8)
    ShowMessage("【アミラ】")
    ShowMessage("まず必要なのは、ドアノブの魔術対策だけど……")
    ShowMessage("ちょっと待って、ゲットしてくるわ。")
    221()
    ChangeSwitch(2368,2368,0)
    250(bytes(0x04,0x08,0x6f,0x3a,0x0c,0x52,0x50,0x47,0x3a,0x3a,0x53,0x45,0x08,0x3a,0x0a,0x40,0x6e,0x61,0x6d,0x65,0x49,0x22,0x0a,0x49,0x74,0x65,0x6d,0x31,0x06,0x3a,0x06,0x45,0x54,0x3a,0x0b,0x40,0x70,0x69,0x74,0x63,0x68,0x69,0x69,0x3a,0x0c,0x40,0x76,0x6f,0x6c,0x75,0x6d,0x65,0x69,0x55))
    ShowMessageFace("",0,0,2,9)
    ShowMessage("魔断の手袋を手に入れた！")
    222()
    0()
   EndIf()
   ShowMessageFace("amira_fc1",0,0,2,10)
   ShowMessage("【アミラ】")
   ShowMessage("次に、家から出ると発動する魔術への対策。")
   ShowMessage("これには、黒い宝石に三人のサキュバスの毛髪だったわね。")
   If(1,1120,0,0,0)
    ShowMessageFace("amira_fc1",0,0,2,11)
    ShowMessage("【アミラ】")
    ShowMessage("三人分の毛髪は、ここで事前準備した方が良いわ。")
    ShowMessage("現地調達している余裕はないでしょう。")
    ShowMessageFace("amira_fc1",0,0,2,12)
    ShowMessage("【アミラ】")
    ShowMessage("魔術トラップからの防護というのを考えると……")
    ShowMessage("格の高い上級サキュバスの毛髪の方が良いわね。")
    ShowMessageFace("ruka_fc1",0,0,2,13)
    ShowMessage("【ルカ】")
    ShowMessage("そうだね……言い方は悪いけど、")
    ShowMessage("下級サキュバスの毛髪じゃ魔力不足かもしれない。")
    0()
   EndIf()
   If(1,1120,0,1,1)
    ShowMessageFace("amira_fc1",0,0,2,14)
    ShowMessage("【アミラ】")
    ShowMessage("話によると、前の周回でいくつかゲットしたようね。")
    ShowMessage("待ってて、私がその分を取ってくるわ……")
    221()
    250(bytes(0x04,0x08,0x6f,0x3a,0x0c,0x52,0x50,0x47,0x3a,0x3a,0x53,0x45,0x08,0x3a,0x0a,0x40,0x6e,0x61,0x6d,0x65,0x49,0x22,0x0a,0x49,0x74,0x65,0x6d,0x31,0x06,0x3a,0x06,0x45,0x54,0x3a,0x0b,0x40,0x70,0x69,0x74,0x63,0x68,0x69,0x69,0x3a,0x0c,0x40,0x76,0x6f,0x6c,0x75,0x6d,0x65,0x69,0x55))
    ChangeVariable(1112,1112,0,1,1120)
    ShowMessageFace("",0,0,2,15)
    ShowMessage("サキュバスの毛髪\\V[1120]本を手に入れた！")
    222()
    0()
   EndIf()
   ShowMessageFace("amira_fc1",0,0,2,16)
   ShowMessage("【アミラ】")
   ShowMessage("黒い宝石の方は、現地調達するしかないわね。")
   ShowMessage("ヴィヌムの部屋にあるという話だから、相当に危険よ。")
   ShowMessageFace("amira_fc1",0,0,2,17)
   ShowMessage("【アミラ】")
   ShowMessage("最も重要なのは、ミュスカ達への対策。")
   ShowMessage("短時間でも、足止めできる手段は絶対に必要よ。")
   If(0,2399,0)
    ShowMessageFace("amira_fc1",0,0,2,18)
    ShowMessage("【アミラ】")
    ShowMessage("あなたが前の周回でゲットしたアイテム……")
    ShowMessage("ちょっと、私がゲットしてくるわ。")
    221()
    If(0,2374,0)
     250(bytes(0x04,0x08,0x6f,0x3a,0x0c,0x52,0x50,0x47,0x3a,0x3a,0x53,0x45,0x08,0x3a,0x0a,0x40,0x6e,0x61,0x6d,0x65,0x49,0x22,0x0a,0x49,0x74,0x65,0x6d,0x31,0x06,0x3a,0x06,0x45,0x54,0x3a,0x0b,0x40,0x70,0x69,0x74,0x63,0x68,0x69,0x69,0x3a,0x0c,0x40,0x76,0x6f,0x6c,0x75,0x6d,0x65,0x69,0x55))
     ChangeSwitch(2373,2373,0)
     ShowMessageFace("",0,0,2,19)
     ShowMessage("女王の眠り薬を手に入れた！")
     0()
    EndIf()
    If(0,2370,0)
     ChangeSwitch(2369,2369,0)
     250(bytes(0x04,0x08,0x6f,0x3a,0x0c,0x52,0x50,0x47,0x3a,0x3a,0x53,0x45,0x08,0x3a,0x0a,0x40,0x6e,0x61,0x6d,0x65,0x49,0x22,0x0a,0x49,0x74,0x65,0x6d,0x31,0x06,0x3a,0x06,0x45,0x54,0x3a,0x0b,0x40,0x70,0x69,0x74,0x63,0x68,0x69,0x69,0x3a,0x0c,0x40,0x76,0x6f,0x6c,0x75,0x6d,0x65,0x69,0x55))
     ShowMessageFace("",0,0,2,20)
     ShowMessage("コンピューターウィルスを手に入れた！")
     0()
    EndIf()
    If(0,2372,0)
     250(bytes(0x04,0x08,0x6f,0x3a,0x0c,0x52,0x50,0x47,0x3a,0x3a,0x53,0x45,0x08,0x3a,0x0a,0x40,0x6e,0x61,0x6d,0x65,0x49,0x22,0x0a,0x49,0x74,0x65,0x6d,0x31,0x06,0x3a,0x06,0x45,0x54,0x3a,0x0b,0x40,0x70,0x69,0x74,0x63,0x68,0x69,0x69,0x3a,0x0c,0x40,0x76,0x6f,0x6c,0x75,0x6d,0x65,0x69,0x55))
     ChangeSwitch(2371,2371,0)
     ShowMessageFace("",0,0,2,21)
     ShowMessage("迷宮の書物・超級を手に入れた！")
     0()
    EndIf()
    222()
    0()
   Else()
    ShowMessageFace("amira_fc1",0,0,2,22)
    ShowMessage("【アミラ】")
    ShowMessage("とりあえず、城内のみんなに聞き回ってはどうかしら。")
    ShowMessage("有効策を出してくれる人がいるかもしれないわ。")
    0()
   EndIf()
   If(0,2373,1)
    If(0,2406,0)
     ShowMessageFace("amira_fc1",0,0,2,23)
     ShowMessage("【アミラ】")
     ShowMessage("台所にミュスカがいた？")
     ShowMessage("台所にいたということは、何か飲食していたのよね。")
     ShowMessageFace("amira_fc1",0,0,2,24)
     ShowMessage("【アミラ】")
     ShowMessage("なら、その飲食物に薬を混入するとか……")
     ShowMessage("薬に詳しいのは科学者か医者、または植物系の魔物ね。")
     0()
    EndIf()
    0()
   EndIf()
   If(0,2369,1)
    If(0,2410,0)
     ShowMessageFace("amira_fc1",0,0,2,25)
     ShowMessage("【アミラ】")
     ShowMessage("出会い頭にネメアに遭遇した？")
     ShowMessage("そもそも、出会わないように足止めしておくべきよ。")
     ShowMessageFace("amira_fc1",0,0,2,26)
     ShowMessage("【アミラ】")
     ShowMessage("どうやって足止めするか……")
     ShowMessage("魔術的手段がダメなら、いっそ科学の力を頼らない？")
     0()
    EndIf()
    0()
   EndIf()
   If(0,2371,1)
    If(0,2414,0)
     ShowMessageFace("amira_fc1",0,0,2,27)
     ShowMessage("【アミラ】")
     ShowMessage("ヴィヌムの対策は、絶対に必要ね。")
     ShowMessage("でも、あの強者にいったい何が通じるのかしら……")
     ShowMessageFace("amira_fc1",0,0,2,28)
     ShowMessage("【アミラ】")
     ShowMessage("ヴィヌムの性格的なものを調べてみてはどうかしら。")
     ShowMessage("この魔王城で、ヴィヌムがよく足を運ぶ場所はないの？")
     0()
    EndIf()
    0()
   EndIf()
   ShowMessageFace("amira_fc1",0,0,2,29)
   ShowMessage("【アミラ】")
   ShowMessage("準備に行き詰まったら、私を頼って。")
   ShowMessage("なんとか案をひねり出してみるわ。")
   EndEventProcessing()
   0()
  Else()
   ShowMessageFace("amira_fc1",0,0,2,30)
   ShowMessage("【アミラ】")
   ShowMessage("あら……まだ他に、何か用があるのかしら？")
   RunCommonEvent(563)
   0()
  EndIf()
  0()



EVENT   6
 PAGE   1
  // condition: switch 2367 is ON
  RunCommonEvent(577)
  0()



EVENT   7
 PAGE   1
  // condition: variable 1098 >= 14
  0()



EVENT   8
 PAGE   1
  // condition: variable 1098 >= 14
  0()



EVENT   9
 PAGE   1
  // condition: variable 1098 >= 14
  0()



EVENT   10
 PAGE   1
  // condition: variable 1098 >= 14
  0()



EVENT   11
 PAGE   1
  // condition: switch 4 is ON
  // condition: switch 31 is ON
  0()
 PAGE   2
  // condition: switch 5 is ON
  // condition: switch 31 is ON
  0()



EVENT   12
 PAGE   1
  // condition: switch 2367 is ON
  ShowMessageFace("chrom_fc2",1,0,2,1)
  ShowMessage("【クロム】")
  ShowMessage("作戦の手伝いに呼ばれたのじゃ。")
  ShowMessage("プチ智の同盟、はじめての大作戦じゃな！")
  RunCommonEvent(551)
  0()



EVENT   13
 PAGE   1
  // condition: switch 2367 is ON
  ShowMessageFace("frederika_fc1",0,0,2,1)
  ShowMessage("【フレデリカ】")
  ShowMessage("こんなに使用済みの衣服を詰んで……")
  ShowMessage("研究者の類は、みんなこうなのか……？")
  ShowMessageFace("",0,0,2,2)
  ShowMessage("フレデリカは、プロメスティンの衣服を洗濯している……")
  ShowMessageFace("stein_fc2",2,0,2,3)
  ShowMessage("【プロメスティン】")
  ShowMessage("あの方は、なぜ私の衣服を洗っているのでしょう……")
  ShowMessage("いえ、助かるのですが。")
  ShowMessageFace("chrom_fc2",0,0,2,4)
  ShowMessage("【クロム】")
  ShowMessage("性分ではないかのう……")
  ShowMessage("相変わらず、いらぬ節介焼きじゃ。")
  RunCommonEvent(552)
  0()



EVENT   14
 PAGE   1
  // condition: switch 2424 is ON
  0()



EVENT   15
 PAGE   1
  // condition: variable 1098 >= 14
  205(7,bytes(0x04,0x08,0x6f,0x3a,0x13,0x52,0x50,0x47,0x3a,0x3a,0x4d,0x6f,0x76,0x65,0x52,0x6f,0x75,0x74,0x65,0x09,0x3a,0x0c,0x40,0x72,0x65,0x70,0x65,0x61,0x74,0x46,0x3a,0x0f,0x40,0x73,0x6b,0x69,0x70,0x70,0x61,0x62,0x6c,0x65,0x46,0x3a,0x0a,0x40,0x77,0x61,0x69,0x74,0x54,0x3a,0x0a,0x40,0x6c,0x69,0x73,0x74,0x5b,0x07,0x6f,0x3a,0x15,0x52,0x50,0x47,0x3a,0x3a,0x4d,0x6f,0x76,0x65,0x43,0x6f,0x6d,0x6d,0x61,0x6e,0x64,0x07,0x3a,0x0a,0x40,0x63,0x6f,0x64,0x65,0x69,0x2c,0x3a,0x10,0x40,0x70,0x61,0x72,0x61,0x6d,0x65,0x74,0x65,0x72,0x73,0x5b,0x00,0x6f,0x3b,0x0a,0x07,0x3b,0x0b,0x69,0x00,0x3b,0x0c,0x5b,0x00))
  222()
  Wait(60)
  212(7,542,false)
  Wait(60)
  205(7,bytes(0x04,0x08,0x6f,0x3a,0x13,0x52,0x50,0x47,0x3a,0x3a,0x4d,0x6f,0x76,0x65,0x52,0x6f,0x75,0x74,0x65,0x09,0x3a,0x0c,0x40,0x72,0x65,0x70,0x65,0x61,0x74,0x46,0x3a,0x0f,0x40,0x73,0x6b,0x69,0x70,0x70,0x61,0x62,0x6c,0x65,0x46,0x3a,0x0a,0x40,0x77,0x61,0x69,0x74,0x54,0x3a,0x0a,0x40,0x6c,0x69,0x73,0x74,0x5b,0x07,0x6f,0x3a,0x15,0x52,0x50,0x47,0x3a,0x3a,0x4d,0x6f,0x76,0x65,0x43,0x6f,0x6d,0x6d,0x61,0x6e,0x64,0x07,0x3a,0x0a,0x40,0x63,0x6f,0x64,0x65,0x69,0x2d,0x3a,0x10,0x40,0x70,0x61,0x72,0x61,0x6d,0x65,0x74,0x65,0x72,0x73,0x5b,0x00,0x6f,0x3b,0x0a,0x07,0x3b,0x0b,0x69,0x00,0x3b,0x0c,0x5b,0x00))
  Wait(60)
  355("gain_medal(2124)")
  241(bytes(0x04,0x08,0x6f,0x3a,0x0d,0x52,0x50,0x47,0x3a,0x3a,0x42,0x47,0x4d,0x08,0x3a,0x0a,0x40,0x6e,0x61,0x6d,0x65,0x49,0x22,0x14,0x73,0x63,0x65,0x6e,0x65,0x5f,0x65,0x70,0x69,0x6c,0x6f,0x67,0x75,0x65,0x31,0x06,0x3a,0x06,0x45,0x54,0x3a,0x0c,0x40,0x76,0x6f,0x6c,0x75,0x6d,0x65,0x69,0x69,0x3a,0x0b,0x40,0x70,0x69,0x74,0x63,0x68,0x69,0x69))
  ShowMessageFace("ruka_fc1",0,0,2,1)
  ShowMessage("【ルカ】")
  ShowMessage("も、戻った……")
  ShowMessageFace("stein_fc2",1,0,2,2)
  ShowMessage("【プロメスティン】")
  ShowMessage("お帰りなさい、ルカさん。")
  ShowMessage("ほら、時計を見て下さい！")
  ShowMessageFace("ruka_fc1",0,0,2,3)
  ShowMessage("【ルカ】")
  ShowMessage("現在時刻は……五時十分だ！！")
  ShowMessageFace("",0,0,2,4)
  ShowMessage("五時になると、時間がループする――")
  ShowMessage("今まで散々に体験してきた、呪いのような事象。")
  ShowMessageFace("",0,0,2,5)
  ShowMessage("それが、ついに破られたのだ。")
  ShowMessage("当たり前のように、五時以降も時間が流れている――")
  ShowMessageFace("ruka_fc1",0,0,2,6)
  ShowMessage("【ルカ】")
  ShowMessage("や、やったぁ！")
  ShowMessageFace("chrom_fc2",1,0,2,7)
  ShowMessage("【クロム】")
  ShowMessage("やったのじゃ♪")
  ShowMessageFace("stein_fc2",1,0,2,8)
  ShowMessage("【プロメスティン】")
  ShowMessage("やった♪　やった♪")
  205(9,bytes(0x04,0x08,0x6f,0x3a,0x13,0x52,0x50,0x47,0x3a,0x3a,0x4d,0x6f,0x76,0x65,0x52,0x6f,0x75,0x74,0x65,0x09,0x3a,0x0c,0x40,0x72,0x65,0x70,0x65,0x61,0x74,0x46,0x3a,0x0f,0x40,0x73,0x6b,0x69,0x70,0x70,0x61,0x62,0x6c,0x65,0x46,0x3a,0x0a,0x40,0x77,0x61,0x69,0x74,0x46,0x3a,0x0a,0x40,0x6c,0x69,0x73,0x74,0x5b,0x09,0x6f,0x3a,0x15,0x52,0x50,0x47,0x3a,0x3a,0x4d,0x6f,0x76,0x65,0x43,0x6f,0x6d,0x6d,0x61,0x6e,0x64,0x07,0x3a,0x0a,0x40,0x63,0x6f,0x64,0x65,0x69,0x22,0x3a,0x10,0x40,0x70,0x61,0x72,0x61,0x6d,0x65,0x74,0x65,0x72,0x73,0x5b,0x06,0x69,0x0a,0x6f,0x3b,0x0a,0x07,0x3b,0x0b,0x69,0x23,0x3b,0x0c,0x5b,0x06,0x69,0x09,0x6f,0x3b,0x0a,0x07,0x3b,0x0b,0x69,0x09,0x3b,0x0c,0x5b,0x00,0x6f,0x3b,0x0a,0x07,0x3b,0x0b,0x69,0x00,0x3b,0x0c,0x5b,0x00))
  205(10,bytes(0x04,0x08,0x6f,0x3a,0x13,0x52,0x50,0x47,0x3a,0x3a,0x4d,0x6f,0x76,0x65,0x52,0x6f,0x75,0x74,0x65,0x09,0x3a,0x0c,0x40,0x72,0x65,0x70,0x65,0x61,0x74,0x46,0x3a,0x0f,0x40,0x73,0x6b,0x69,0x70,0x70,0x61,0x62,0x6c,0x65,0x46,0x3a,0x0a,0x40,0x77,0x61,0x69,0x74,0x54,0x3a,0x0a,0x40,0x6c,0x69,0x73,0x74,0x5b,0x09,0x6f,0x3a,0x15,0x52,0x50,0x47,0x3a,0x3a,0x4d,0x6f,0x76,0x65,0x43,0x6f,0x6d,0x6d,0x61,0x6e,0x64,0x07,0x3a,0x0a,0x40,0x63,0x6f,0x64,0x65,0x69,0x22,0x3a,0x10,0x40,0x70,0x61,0x72,0x61,0x6d,0x65,0x74,0x65,0x72,0x73,0x5b,0x06,0x69,0x0a,0x6f,0x3b,0x0a,0x07,0x3b,0x0b,0x69,0x23,0x3b,0x0c,0x5b,0x06,0x69,0x09,0x6f,0x3b,0x0a,0x07,0x3b,0x0b,0x69,0x09,0x3b,0x0c,0x5b,0x00,0x6f,0x3b,0x0a,0x07,0x3b,0x0b,0x69,0x00,0x3b,0x0c,0x5b,0x00))
  205(7,bytes(0x04,0x08,0x6f,0x3a,0x13,0x52,0x50,0x47,0x3a,0x3a,0x4d,0x6f,0x76,0x65,0x52,0x6f,0x75,0x74,0x65,0x09,0x3a,0x0c,0x40,0x72,0x65,0x70,0x65,0x61,0x74,0x54,0x3a,0x0f,0x40,0x73,0x6b,0x69,0x70,0x70,0x61,0x62,0x6c,0x65,0x46,0x3a,0x0a,0x40,0x77,0x61,0x69,0x74,0x46,0x3a,0x0a,0x40,0x6c,0x69,0x73,0x74,0x5b,0x0c,0x6f,0x3a,0x15,0x52,0x50,0x47,0x3a,0x3a,0x4d,0x6f,0x76,0x65,0x43,0x6f,0x6d,0x6d,0x61,0x6e,0x64,0x07,0x3a,0x0a,0x40,0x63,0x6f,0x64,0x65,0x69,0x22,0x3a,0x10,0x40,0x70,0x61,0x72,0x61,0x6d,0x65,0x74,0x65,0x72,0x73,0x5b,0x06,0x69,0x0a,0x6f,0x3b,0x0a,0x07,0x3b,0x0b,0x69,0x23,0x3b,0x0c,0x5b,0x06,0x69,0x09,0x6f,0x3b,0x0a,0x07,0x3b,0x0b,0x69,0x06,0x3b,0x0c,0x5b,0x00,0x6f,0x3b,0x0a,0x07,0x3b,0x0b,0x69,0x08,0x3b,0x0c,0x5b,0x00,0x6f,0x3b,0x0a,0x07,0x3b,0x0b,0x69,0x09,0x3b,0x0c,0x5b,0x00,0x6f,0x3b,0x0a,0x07,0x3b,0x0b,0x69,0x07,0x3b,0x0c,0x5b,0x00,0x6f,0x3b,0x0a,0x07,0x3b,0x0b,0x69,0x00,0x3b,0x0c,0x5b,0x00))
  205(8,bytes(0x04,0x08,0x6f,0x3a,0x13,0x52,0x50,0x47,0x3a,0x3a,0x4d,0x6f,0x76,0x65,0x52,0x6f,0x75,0x74,0x65,0x09,0x3a,0x0c,0x40,0x72,0x65,0x70,0x65,0x61,0x74,0x54,0x3a,0x0f,0x40,0x73,0x6b,0x69,0x70,0x70,0x61,0x62,0x6c,0x65,0x46,0x3a,0x0a,0x40,0x77,0x61,0x69,0x74,0x46,0x3a,0x0a,0x40,0x6c,0x69,0x73,0x74,0x5b,0x0c,0x6f,0x3a,0x15,0x52,0x50,0x47,0x3a,0x3a,0x4d,0x6f,0x76,0x65,0x43,0x6f,0x6d,0x6d,0x61,0x6e,0x64,0x07,0x3a,0x0a,0x40,0x63,0x6f,0x64,0x65,0x69,0x22,0x3a,0x10,0x40,0x70,0x61,0x72,0x61,0x6d,0x65,0x74,0x65,0x72,0x73,0x5b,0x06,0x69,0x0a,0x6f,0x3b,0x0a,0x07,0x3b,0x0b,0x69,0x23,0x3b,0x0c,0x5b,0x06,0x69,0x09,0x6f,0x3b,0x0a,0x07,0x3b,0x0b,0x69,0x08,0x3b,0x0c,0x5b,0x00,0x6f,0x3b,0x0a,0x07,0x3b,0x0b,0x69,0x09,0x3b,0x0c,0x5b,0x00,0x6f,0x3b,0x0a,0x07,0x3b,0x0b,0x69,0x07,0x3b,0x0c,0x5b,0x00,0x6f,0x3b,0x0a,0x07,0x3b,0x0b,0x69,0x06,0x3b,0x0c,0x5b,0x00,0x6f,0x3b,0x0a,0x07,0x3b,0x0b,0x69,0x00,0x3b,0x0c,0x5b,0x00))
  205(9,bytes(0x04,0x08,0x6f,0x3a,0x13,0x52,0x50,0x47,0x3a,0x3a,0x4d,0x6f,0x76,0x65,0x52,0x6f,0x75,0x74,0x65,0x09,0x3a,0x0c,0x40,0x72,0x65,0x70,0x65,0x61,0x74,0x54,0x3a,0x0f,0x40,0x73,0x6b,0x69,0x70,0x70,0x61,0x62,0x6c,0x65,0x46,0x3a,0x0a,0x40,0x77,0x61,0x69,0x74,0x46,0x3a,0x0a,0x40,0x6c,0x69,0x73,0x74,0x5b,0x0a,0x6f,0x3a,0x15,0x52,0x50,0x47,0x3a,0x3a,0x4d,0x6f,0x76,0x65,0x43,0x6f,0x6d,0x6d,0x61,0x6e,0x64,0x07,0x3a,0x0a,0x40,0x63,0x6f,0x64,0x65,0x69,0x07,0x3a,0x10,0x40,0x70,0x61,0x72,0x61,0x6d,0x65,0x74,0x65,0x72,0x73,0x5b,0x00,0x6f,0x3b,0x0a,0x07,0x3b,0x0b,0x69,0x06,0x3b,0x0c,0x5b,0x00,0x6f,0x3b,0x0a,0x07,0x3b,0x0b,0x69,0x08,0x3b,0x0c,0x5b,0x00,0x6f,0x3b,0x0a,0x07,0x3b,0x0b,0x69,0x09,0x3b,0x0c,0x5b,0x00,0x6f,0x3b,0x0a,0x07,0x3b,0x0b,0x69,0x00,0x3b,0x0c,0x5b,0x00))
  205(10,bytes(0x04,0x08,0x6f,0x3a,0x13,0x52,0x50,0x47,0x3a,0x3a,0x4d,0x6f,0x76,0x65,0x52,0x6f,0x75,0x74,0x65,0x09,0x3a,0x0c,0x40,0x72,0x65,0x70,0x65,0x61,0x74,0x54,0x3a,0x0f,0x40,0x73,0x6b,0x69,0x70,0x70,0x61,0x62,0x6c,0x65,0x46,0x3a,0x0a,0x40,0x77,0x61,0x69,0x74,0x46,0x3a,0x0a,0x40,0x6c,0x69,0x73,0x74,0x5b,0x0a,0x6f,0x3a,0x15,0x52,0x50,0x47,0x3a,0x3a,0x4d,0x6f,0x76,0x65,0x43,0x6f,0x6d,0x6d,0x61,0x6e,0x64,0x07,0x3a,0x0a,0x40,0x63,0x6f,0x64,0x65,0x69,0x09,0x3a,0x10,0x40,0x70,0x61,0x72,0x61,0x6d,0x65,0x74,0x65,0x72,0x73,0x5b,0x00,0x6f,0x3b,0x0a,0x07,0x3b,0x0b,0x69,0x07,0x3b,0x0c,0x5b,0x00,0x6f,0x3b,0x0a,0x07,0x3b,0x0b,0x69,0x06,0x3b,0x0c,0x5b,0x00,0x6f,0x3b,0x0a,0x07,0x3b,0x0b,0x69,0x08,0x3b,0x0c,0x5b,0x00,0x6f,0x3b,0x0a,0x07,0x3b,0x0b,0x69,0x00,0x3b,0x0c,0x5b,0x00))
  Wait(120)
  TeleportEvent(11,0,10,3,0)
  250(bytes(0x04,0x08,0x6f,0x3a,0x0c,0x52,0x50,0x47,0x3a,0x3a,0x53,0x45,0x08,0x3a,0x0a,0x40,0x6e,0x61,0x6d,0x65,0x49,0x22,0x0e,0x6d,0x6f,0x6e,0x5f,0x64,0x6f,0x6f,0x72,0x32,0x06,0x3a,0x06,0x45,0x54,0x3a,0x0b,0x40,0x70,0x69,0x74,0x63,0x68,0x69,0x69,0x3a,0x0c,0x40,0x76,0x6f,0x6c,0x75,0x6d,0x65,0x69,0x69))
  ChangeSwitch(31,31,0)
  205(11,bytes(0x04,0x08,0x6f,0x3a,0x13,0x52,0x50,0x47,0x3a,0x3a,0x4d,0x6f,0x76,0x65,0x52,0x6f,0x75,0x74,0x65,0x09,0x3a,0x0c,0x40,0x72,0x65,0x70,0x65,0x61,0x74,0x46,0x3a,0x0f,0x40,0x73,0x6b,0x69,0x70,0x70,0x61,0x62,0x6c,0x65,0x46,0x3a,0x0a,0x40,0x77,0x61,0x69,0x74,0x54,0x3a,0x0a,0x40,0x6c,0x69,0x73,0x74,0x5b,0x07,0x6f,0x3a,0x15,0x52,0x50,0x47,0x3a,0x3a,0x4d,0x6f,0x76,0x65,0x43,0x6f,0x6d,0x6d,0x61,0x6e,0x64,0x07,0x3a,0x0a,0x40,0x63,0x6f,0x64,0x65,0x69,0x06,0x3a,0x10,0x40,0x70,0x61,0x72,0x61,0x6d,0x65,0x74,0x65,0x72,0x73,0x5b,0x00,0x6f,0x3b,0x0a,0x07,0x3b,0x0b,0x69,0x00,0x3b,0x0c,0x5b,0x00))
  If(0,4,0)
   ShowMessageFace("alice_fc5",6,0,2,9)
   ShowMessage("【アリス】")
   ShowMessage("な、何のお祭り騒ぎだ！？")
   ShowMessage("祭りはこれから始まるのだぞ……！？")
   0()
  EndIf()
  If(0,5,0)
   ShowMessageFace("iriasu_fc4",5,0,2,10)
   ShowMessage("【イリアス】")
   ShowMessage("わぁっ、何事です！？")
   ShowMessage("お祭り騒ぎは、まだ早いですよ！？")
   0()
  EndIf()
  Wait(60)
  242(1)
  221()
  ShowMessageFace("",0,0,2,11)
  ShowMessage("こうして、時間ループは完全に解消された。")
  ShowMessage("同じ時間を何度も何度も駆け抜け、ついに事件を解決したのだ。")
  ShowMessageFace("",0,0,2,12)
  ShowMessage("午後五時は、ヤマタイ村に出発する時刻。")
  ShowMessage("夜祭に参加するため、僕達は村へと向かったのである。")
  ShowMessageFace("",0,0,2,13)
  ShowMessage("祭りのメインイベントとなるのは、ガールズバンド大会――")
  ShowMessage("果たして、優勝することは出来るだろうか？")
  Wait(120)
  355("on_ssw(:roopend)")
  ChangeVariable(1122,1122,0,0,1)
  ChangeSwitch(31,31,1)
  211(0)
  TeleportPlayer(0,97,14,9,0,2)
  EndEventProcessing()
  0()
