﻿


EVENT   1
 PAGE   1
  0()



EVENT   2
 PAGE   1
  0()



EVENT   3
 PAGE   1
  0()



EVENT   4
 PAGE   1
  0()



EVENT   5
 PAGE   1
  0()



EVENT   6
 PAGE   1
  0()



EVENT   7
 PAGE   1
  0()



EVENT   8
 PAGE   1
  0()



EVENT   9
 PAGE   1
  281(1)
  250(bytes(0x04,0x08,0x6f,0x3a,0x0c,0x52,0x50,0x47,0x3a,0x3a,0x53,0x45,0x08,0x3a,0x0a,0x40,0x6e,0x61,0x6d,0x65,0x49,0x22,0x09,0x4d,0x6f,0x76,0x65,0x06,0x3a,0x06,0x45,0x54,0x3a,0x0b,0x40,0x70,0x69,0x74,0x63,0x68,0x69,0x69,0x3a,0x0c,0x40,0x76,0x6f,0x6c,0x75,0x6d,0x65,0x69,0x55))
  TeleportPlayer(0,186,8,47,0,0)
  0()



EVENT   10
 PAGE   1
  281(1)
  250(bytes(0x04,0x08,0x6f,0x3a,0x0c,0x52,0x50,0x47,0x3a,0x3a,0x53,0x45,0x08,0x3a,0x0a,0x40,0x6e,0x61,0x6d,0x65,0x49,0x22,0x09,0x4d,0x6f,0x76,0x65,0x06,0x3a,0x06,0x45,0x54,0x3a,0x0b,0x40,0x70,0x69,0x74,0x63,0x68,0x69,0x69,0x3a,0x0c,0x40,0x76,0x6f,0x6c,0x75,0x6d,0x65,0x69,0x55))
  TeleportPlayer(0,186,9,47,0,0)
  0()



EVENT   11
 PAGE   1
  281(1)
  250(bytes(0x04,0x08,0x6f,0x3a,0x0c,0x52,0x50,0x47,0x3a,0x3a,0x53,0x45,0x08,0x3a,0x0a,0x40,0x6e,0x61,0x6d,0x65,0x49,0x22,0x09,0x4d,0x6f,0x76,0x65,0x06,0x3a,0x06,0x45,0x54,0x3a,0x0b,0x40,0x70,0x69,0x74,0x63,0x68,0x69,0x69,0x3a,0x0c,0x40,0x76,0x6f,0x6c,0x75,0x6d,0x65,0x69,0x55))
  TeleportPlayer(0,186,17,34,0,0)
  0()



EVENT   12
 PAGE   1
  281(1)
  250(bytes(0x04,0x08,0x6f,0x3a,0x0c,0x52,0x50,0x47,0x3a,0x3a,0x53,0x45,0x08,0x3a,0x0a,0x40,0x6e,0x61,0x6d,0x65,0x49,0x22,0x09,0x4d,0x6f,0x76,0x65,0x06,0x3a,0x06,0x45,0x54,0x3a,0x0b,0x40,0x70,0x69,0x74,0x63,0x68,0x69,0x69,0x3a,0x0c,0x40,0x76,0x6f,0x6c,0x75,0x6d,0x65,0x69,0x55))
  TeleportPlayer(0,186,18,34,0,0)
  0()



EVENT   13
 PAGE   1
  250(bytes(0x04,0x08,0x6f,0x3a,0x0c,0x52,0x50,0x47,0x3a,0x3a,0x53,0x45,0x08,0x3a,0x0a,0x40,0x6e,0x61,0x6d,0x65,0x49,0x22,0x09,0x4d,0x6f,0x76,0x65,0x06,0x3a,0x06,0x45,0x54,0x3a,0x0b,0x40,0x70,0x69,0x74,0x63,0x68,0x69,0x69,0x3a,0x0c,0x40,0x76,0x6f,0x6c,0x75,0x6d,0x65,0x69,0x55))
  TeleportPlayer(0,222,28,35,2,0)
  0()



EVENT   14
 PAGE   1
  250(bytes(0x04,0x08,0x6f,0x3a,0x0c,0x52,0x50,0x47,0x3a,0x3a,0x53,0x45,0x08,0x3a,0x0a,0x40,0x6e,0x61,0x6d,0x65,0x49,0x22,0x09,0x4d,0x6f,0x76,0x65,0x06,0x3a,0x06,0x45,0x54,0x3a,0x0b,0x40,0x70,0x69,0x74,0x63,0x68,0x69,0x69,0x3a,0x0c,0x40,0x76,0x6f,0x6c,0x75,0x6d,0x65,0x69,0x55))
  TeleportPlayer(0,222,3,29,2,0)
  0()



EVENT   15
 PAGE   1
  281(1)
  250(bytes(0x04,0x08,0x6f,0x3a,0x0c,0x52,0x50,0x47,0x3a,0x3a,0x53,0x45,0x08,0x3a,0x0a,0x40,0x6e,0x61,0x6d,0x65,0x49,0x22,0x09,0x4d,0x6f,0x76,0x65,0x06,0x3a,0x06,0x45,0x54,0x3a,0x0b,0x40,0x70,0x69,0x74,0x63,0x68,0x69,0x69,0x3a,0x0c,0x40,0x76,0x6f,0x6c,0x75,0x6d,0x65,0x69,0x55))
  TeleportPlayer(0,186,19,48,0,0)
  0()



EVENT   16
 PAGE   1
  281(1)
  250(bytes(0x04,0x08,0x6f,0x3a,0x0c,0x52,0x50,0x47,0x3a,0x3a,0x53,0x45,0x08,0x3a,0x0a,0x40,0x6e,0x61,0x6d,0x65,0x49,0x22,0x09,0x4d,0x6f,0x76,0x65,0x06,0x3a,0x06,0x45,0x54,0x3a,0x0b,0x40,0x70,0x69,0x74,0x63,0x68,0x69,0x69,0x3a,0x0c,0x40,0x76,0x6f,0x6c,0x75,0x6d,0x65,0x69,0x55))
  TeleportPlayer(0,186,20,48,0,0)
  0()



EVENT   17
 PAGE   1
  281(1)
  250(bytes(0x04,0x08,0x6f,0x3a,0x0c,0x52,0x50,0x47,0x3a,0x3a,0x53,0x45,0x08,0x3a,0x0a,0x40,0x6e,0x61,0x6d,0x65,0x49,0x22,0x09,0x4d,0x6f,0x76,0x65,0x06,0x3a,0x06,0x45,0x54,0x3a,0x0b,0x40,0x70,0x69,0x74,0x63,0x68,0x69,0x69,0x3a,0x0c,0x40,0x76,0x6f,0x6c,0x75,0x6d,0x65,0x69,0x55))
  TeleportPlayer(0,183,6,29,0,0)
  0()



EVENT   18
 PAGE   1
  281(1)
  250(bytes(0x04,0x08,0x6f,0x3a,0x0c,0x52,0x50,0x47,0x3a,0x3a,0x53,0x45,0x08,0x3a,0x0a,0x40,0x6e,0x61,0x6d,0x65,0x49,0x22,0x09,0x4d,0x6f,0x76,0x65,0x06,0x3a,0x06,0x45,0x54,0x3a,0x0b,0x40,0x70,0x69,0x74,0x63,0x68,0x69,0x69,0x3a,0x0c,0x40,0x76,0x6f,0x6c,0x75,0x6d,0x65,0x69,0x55))
  TeleportPlayer(0,183,12,29,0,0)
  0()



EVENT   19
 PAGE   1
  281(1)
  250(bytes(0x04,0x08,0x6f,0x3a,0x0c,0x52,0x50,0x47,0x3a,0x3a,0x53,0x45,0x08,0x3a,0x0a,0x40,0x6e,0x61,0x6d,0x65,0x49,0x22,0x09,0x4d,0x6f,0x76,0x65,0x06,0x3a,0x06,0x45,0x54,0x3a,0x0b,0x40,0x70,0x69,0x74,0x63,0x68,0x69,0x69,0x3a,0x0c,0x40,0x76,0x6f,0x6c,0x75,0x6d,0x65,0x69,0x55))
  TeleportPlayer(0,183,7,13,0,0)
  0()



EVENT   20
 PAGE   1
  281(1)
  250(bytes(0x04,0x08,0x6f,0x3a,0x0c,0x52,0x50,0x47,0x3a,0x3a,0x53,0x45,0x08,0x3a,0x0a,0x40,0x6e,0x61,0x6d,0x65,0x49,0x22,0x09,0x4d,0x6f,0x76,0x65,0x06,0x3a,0x06,0x45,0x54,0x3a,0x0b,0x40,0x70,0x69,0x74,0x63,0x68,0x69,0x69,0x3a,0x0c,0x40,0x76,0x6f,0x6c,0x75,0x6d,0x65,0x69,0x55))
  TeleportPlayer(0,183,8,13,0,0)
  0()



EVENT   21
 PAGE   1
  250(bytes(0x04,0x08,0x6f,0x3a,0x0c,0x52,0x50,0x47,0x3a,0x3a,0x53,0x45,0x08,0x3a,0x0a,0x40,0x6e,0x61,0x6d,0x65,0x49,0x22,0x09,0x4d,0x6f,0x76,0x65,0x06,0x3a,0x06,0x45,0x54,0x3a,0x0b,0x40,0x70,0x69,0x74,0x63,0x68,0x69,0x69,0x3a,0x0c,0x40,0x76,0x6f,0x6c,0x75,0x6d,0x65,0x69,0x55))
  TeleportPlayer(0,222,84,6,2,0)
  0()



EVENT   22
 PAGE   1
  250(bytes(0x04,0x08,0x6f,0x3a,0x0c,0x52,0x50,0x47,0x3a,0x3a,0x53,0x45,0x08,0x3a,0x0a,0x40,0x6e,0x61,0x6d,0x65,0x49,0x22,0x09,0x4d,0x6f,0x76,0x65,0x06,0x3a,0x06,0x45,0x54,0x3a,0x0b,0x40,0x70,0x69,0x74,0x63,0x68,0x69,0x69,0x3a,0x0c,0x40,0x76,0x6f,0x6c,0x75,0x6d,0x65,0x69,0x55))
  TeleportPlayer(0,222,59,6,2,0)
  0()



EVENT   23
 PAGE   1
  281(1)
  250(bytes(0x04,0x08,0x6f,0x3a,0x0c,0x52,0x50,0x47,0x3a,0x3a,0x53,0x45,0x08,0x3a,0x0a,0x40,0x6e,0x61,0x6d,0x65,0x49,0x22,0x09,0x4d,0x6f,0x76,0x65,0x06,0x3a,0x06,0x45,0x54,0x3a,0x0b,0x40,0x70,0x69,0x74,0x63,0x68,0x69,0x69,0x3a,0x0c,0x40,0x76,0x6f,0x6c,0x75,0x6d,0x65,0x69,0x55))
  TeleportPlayer(0,187,10,13,0,0)
  0()



EVENT   24
 PAGE   1
  281(1)
  250(bytes(0x04,0x08,0x6f,0x3a,0x0c,0x52,0x50,0x47,0x3a,0x3a,0x53,0x45,0x08,0x3a,0x0a,0x40,0x6e,0x61,0x6d,0x65,0x49,0x22,0x09,0x4d,0x6f,0x76,0x65,0x06,0x3a,0x06,0x45,0x54,0x3a,0x0b,0x40,0x70,0x69,0x74,0x63,0x68,0x69,0x69,0x3a,0x0c,0x40,0x76,0x6f,0x6c,0x75,0x6d,0x65,0x69,0x55))
  TeleportPlayer(0,187,20,14,0,0)
  0()



EVENT   25
 PAGE   1
  281(1)
  250(bytes(0x04,0x08,0x6f,0x3a,0x0c,0x52,0x50,0x47,0x3a,0x3a,0x53,0x45,0x08,0x3a,0x0a,0x40,0x6e,0x61,0x6d,0x65,0x49,0x22,0x09,0x4d,0x6f,0x76,0x65,0x06,0x3a,0x06,0x45,0x54,0x3a,0x0b,0x40,0x70,0x69,0x74,0x63,0x68,0x69,0x69,0x3a,0x0c,0x40,0x76,0x6f,0x6c,0x75,0x6d,0x65,0x69,0x55))
  TeleportPlayer(0,187,16,49,0,0)
  0()



EVENT   26
 PAGE   1
  281(1)
  250(bytes(0x04,0x08,0x6f,0x3a,0x0c,0x52,0x50,0x47,0x3a,0x3a,0x53,0x45,0x08,0x3a,0x0a,0x40,0x6e,0x61,0x6d,0x65,0x49,0x22,0x09,0x4d,0x6f,0x76,0x65,0x06,0x3a,0x06,0x45,0x54,0x3a,0x0b,0x40,0x70,0x69,0x74,0x63,0x68,0x69,0x69,0x3a,0x0c,0x40,0x76,0x6f,0x6c,0x75,0x6d,0x65,0x69,0x55))
  TeleportPlayer(0,183,31,13,0,0)
  0()



EVENT   27
 PAGE   1
  281(1)
  250(bytes(0x04,0x08,0x6f,0x3a,0x0c,0x52,0x50,0x47,0x3a,0x3a,0x53,0x45,0x08,0x3a,0x0a,0x40,0x6e,0x61,0x6d,0x65,0x49,0x22,0x09,0x4d,0x6f,0x76,0x65,0x06,0x3a,0x06,0x45,0x54,0x3a,0x0b,0x40,0x70,0x69,0x74,0x63,0x68,0x69,0x69,0x3a,0x0c,0x40,0x76,0x6f,0x6c,0x75,0x6d,0x65,0x69,0x55))
  TeleportPlayer(0,183,31,13,0,0)
  0()



EVENT   28
 PAGE   1
  281(1)
  250(bytes(0x04,0x08,0x6f,0x3a,0x0c,0x52,0x50,0x47,0x3a,0x3a,0x53,0x45,0x08,0x3a,0x0a,0x40,0x6e,0x61,0x6d,0x65,0x49,0x22,0x09,0x4d,0x6f,0x76,0x65,0x06,0x3a,0x06,0x45,0x54,0x3a,0x0b,0x40,0x70,0x69,0x74,0x63,0x68,0x69,0x69,0x3a,0x0c,0x40,0x76,0x6f,0x6c,0x75,0x6d,0x65,0x69,0x55))
  TeleportPlayer(0,183,31,13,0,0)
  0()



EVENT   29
 PAGE   1
  250(bytes(0x04,0x08,0x6f,0x3a,0x0c,0x52,0x50,0x47,0x3a,0x3a,0x53,0x45,0x08,0x3a,0x0a,0x40,0x6e,0x61,0x6d,0x65,0x49,0x22,0x09,0x4d,0x6f,0x76,0x65,0x06,0x3a,0x06,0x45,0x54,0x3a,0x0b,0x40,0x70,0x69,0x74,0x63,0x68,0x69,0x69,0x3a,0x0c,0x40,0x76,0x6f,0x6c,0x75,0x6d,0x65,0x69,0x55))
  TeleportPlayer(0,222,97,58,2,0)
  0()



EVENT   30
 PAGE   1
  250(bytes(0x04,0x08,0x6f,0x3a,0x0c,0x52,0x50,0x47,0x3a,0x3a,0x53,0x45,0x08,0x3a,0x0a,0x40,0x6e,0x61,0x6d,0x65,0x49,0x22,0x09,0x4d,0x6f,0x76,0x65,0x06,0x3a,0x06,0x45,0x54,0x3a,0x0b,0x40,0x70,0x69,0x74,0x63,0x68,0x69,0x69,0x3a,0x0c,0x40,0x76,0x6f,0x6c,0x75,0x6d,0x65,0x69,0x55))
  TeleportPlayer(0,222,61,57,2,0)
  0()



EVENT   31
 PAGE   1
  281(1)
  250(bytes(0x04,0x08,0x6f,0x3a,0x0c,0x52,0x50,0x47,0x3a,0x3a,0x53,0x45,0x08,0x3a,0x0a,0x40,0x6e,0x61,0x6d,0x65,0x49,0x22,0x09,0x4d,0x6f,0x76,0x65,0x06,0x3a,0x06,0x45,0x54,0x3a,0x0b,0x40,0x70,0x69,0x74,0x63,0x68,0x69,0x69,0x3a,0x0c,0x40,0x76,0x6f,0x6c,0x75,0x6d,0x65,0x69,0x55))
  TeleportPlayer(0,183,30,31,0,0)
  0()



EVENT   32
 PAGE   1
  281(1)
  250(bytes(0x04,0x08,0x6f,0x3a,0x0c,0x52,0x50,0x47,0x3a,0x3a,0x53,0x45,0x08,0x3a,0x0a,0x40,0x6e,0x61,0x6d,0x65,0x49,0x22,0x09,0x4d,0x6f,0x76,0x65,0x06,0x3a,0x06,0x45,0x54,0x3a,0x0b,0x40,0x70,0x69,0x74,0x63,0x68,0x69,0x69,0x3a,0x0c,0x40,0x76,0x6f,0x6c,0x75,0x6d,0x65,0x69,0x55))
  TeleportPlayer(0,183,30,31,0,0)
  0()



EVENT   33
 PAGE   1
  281(1)
  250(bytes(0x04,0x08,0x6f,0x3a,0x0c,0x52,0x50,0x47,0x3a,0x3a,0x53,0x45,0x08,0x3a,0x0a,0x40,0x6e,0x61,0x6d,0x65,0x49,0x22,0x09,0x4d,0x6f,0x76,0x65,0x06,0x3a,0x06,0x45,0x54,0x3a,0x0b,0x40,0x70,0x69,0x74,0x63,0x68,0x69,0x69,0x3a,0x0c,0x40,0x76,0x6f,0x6c,0x75,0x6d,0x65,0x69,0x55))
  TeleportPlayer(0,183,30,31,0,0)
  0()



EVENT   34
 PAGE   1
  281(1)
  250(bytes(0x04,0x08,0x6f,0x3a,0x0c,0x52,0x50,0x47,0x3a,0x3a,0x53,0x45,0x08,0x3a,0x0a,0x40,0x6e,0x61,0x6d,0x65,0x49,0x22,0x09,0x4d,0x6f,0x76,0x65,0x06,0x3a,0x06,0x45,0x54,0x3a,0x0b,0x40,0x70,0x69,0x74,0x63,0x68,0x69,0x69,0x3a,0x0c,0x40,0x76,0x6f,0x6c,0x75,0x6d,0x65,0x69,0x55))
  TeleportPlayer(0,187,7,38,0,0)
  0()



EVENT   35
 PAGE   1
  281(1)
  250(bytes(0x04,0x08,0x6f,0x3a,0x0c,0x52,0x50,0x47,0x3a,0x3a,0x53,0x45,0x08,0x3a,0x0a,0x40,0x6e,0x61,0x6d,0x65,0x49,0x22,0x09,0x4d,0x6f,0x76,0x65,0x06,0x3a,0x06,0x45,0x54,0x3a,0x0b,0x40,0x70,0x69,0x74,0x63,0x68,0x69,0x69,0x3a,0x0c,0x40,0x76,0x6f,0x6c,0x75,0x6d,0x65,0x69,0x55))
  TeleportPlayer(0,187,7,38,0,0)
  0()



EVENT   36
 PAGE   1
  281(1)
  250(bytes(0x04,0x08,0x6f,0x3a,0x0c,0x52,0x50,0x47,0x3a,0x3a,0x53,0x45,0x08,0x3a,0x0a,0x40,0x6e,0x61,0x6d,0x65,0x49,0x22,0x09,0x4d,0x6f,0x76,0x65,0x06,0x3a,0x06,0x45,0x54,0x3a,0x0b,0x40,0x70,0x69,0x74,0x63,0x68,0x69,0x69,0x3a,0x0c,0x40,0x76,0x6f,0x6c,0x75,0x6d,0x65,0x69,0x55))
  TeleportPlayer(0,187,7,38,0,0)
  0()



EVENT   37
 PAGE   1
  ShowMessageFace("",0,0,2,1)
  ShowMessage("\\n<Merchant>Going out into the Monster Continent without good weapons is out of the question. Consider protecting your life with money, and buy my wares now.")
  Shop(1,29,0,0,false)
  605(1,230,0,0)
  605(1,813,0,0)
  605(1,908,0,0)
  605(2,92,0,0)
  605(2,221,0,0)
  605(2,316,0,0)
  0()



EVENT   38
 PAGE   1
  ShowMessageFace("",0,0,2,1)
  ShowMessage("\\n<Wyvern Blacksmith>Dragon blacksmiths are the best in the world!\nNow, what do you need..?")
  355("call_synthesize(21)")
  0()



EVENT   39
 PAGE   1
  ShowMessageFace("",0,0,2,1)
  ShowMessage("\\n<Old Man Barkeeper>Welcome, what would you like?")
  Shop(0,428,0,0,false)
  605(0,431,0,0)
  0()



EVENT   40
 PAGE   1
  ShowMessageFace("",0,0,2,1)
  ShowMessage("\\n<Accessory Vendor>Please take a look at our accessories.\nAll of these items are handy for protecting yourself.")
  Shop(2,1091,0,0,false)
  605(2,1104,0,0)
  605(2,1105,0,0)
  605(2,1106,0,0)
  605(2,1127,0,0)
  0()



EVENT   41
 PAGE   1
  ShowMessageFace("",0,0,2,1)
  ShowMessage("\\n<Priest>Welcome to the sacred Remina Church.\nHow can I help you?")
  ShowChoices(strings("Pray","Change party/jobs","Do nothing"),3)
  IfPlayerPicksChoice(0,null)
   ChangeVariable(1002,1002,0,0,39)
   ShowMessageFace("",0,0,2,2)
   ShowMessage("\\n<Priest>Well then, let us pray to Ilias.\n...there, you should feel a bond drawing you to this place.")
   ShowMessageFace("",0,0,2,3)
   ShowMessage("\\n<Priest>If something were to happen to you on your journey, the bond should lead you back here. May Ilias watch over you...")
   0()
  IfPlayerPicksChoice(1,null)
   RunCommonEvent(113)
   EndEventProcessing()
   0()
  IfPlayerPicksChoice(2,null)
   ShowMessageFace("",0,0,2,4)
   ShowMessage("\\n<Priest>May Ilias watch over you...")
   0()
  404()
  0()



EVENT   42
 PAGE   1
  If(1,833,0,2,1)
   If(0,1582,1)
    ShowMessageFace("mob_douguya_fc1",0,0,2,1)
    ShowMessage("\\n<Aurora>May I join you in your journey?\nMy knowledge of medicine should be quite helpful.")
    ShowChoices(strings("Let her join","Decline for now"),0)
    IfPlayerPicksChoice(0,null)
     ShowMessageFace("mob_douguya_fc1",0,0,2,2)
     ShowMessage("\\n<Aurora>In that case, let me finish my preparations...\nOkay, let's go.")
     PictureClear(5)
     205(0,bytes(0x04,0x08,0x6f,0x3a,0x13,0x52,0x50,0x47,0x3a,0x3a,0x4d,0x6f,0x76,0x65,0x52,0x6f,0x75,0x74,0x65,0x09,0x3a,0x0c,0x40,0x72,0x65,0x70,0x65,0x61,0x74,0x46,0x3a,0x0f,0x40,0x73,0x6b,0x69,0x70,0x70,0x61,0x62,0x6c,0x65,0x46,0x3a,0x0a,0x40,0x77,0x61,0x69,0x74,0x54,0x3a,0x0a,0x40,0x6c,0x69,0x73,0x74,0x5b,0x09,0x6f,0x3a,0x15,0x52,0x50,0x47,0x3a,0x3a,0x4d,0x6f,0x76,0x65,0x43,0x6f,0x6d,0x6d,0x61,0x6e,0x64,0x07,0x3a,0x0a,0x40,0x63,0x6f,0x64,0x65,0x69,0x2a,0x3a,0x10,0x40,0x70,0x61,0x72,0x61,0x6d,0x65,0x74,0x65,0x72,0x73,0x5b,0x00,0x6f,0x3b,0x0a,0x07,0x3b,0x0b,0x69,0x0f,0x3b,0x0c,0x5b,0x00,0x6f,0x3b,0x0a,0x07,0x3b,0x0b,0x69,0x2c,0x3b,0x0c,0x5b,0x00,0x6f,0x3b,0x0a,0x07,0x3b,0x0b,0x69,0x00,0x3b,0x0c,0x5b,0x00))
     355("add_actor_ex(582)")
     249(bytes(0x04,0x08,0x6f,0x3a,0x0c,0x52,0x50,0x47,0x3a,0x3a,0x4d,0x45,0x08,0x3a,0x0a,0x40,0x6e,0x61,0x6d,0x65,0x49,0x22,0x0c,0x66,0x61,0x6e,0x66,0x61,0x6c,0x65,0x06,0x3a,0x06,0x45,0x54,0x3a,0x0b,0x40,0x70,0x69,0x74,0x63,0x68,0x69,0x69,0x3a,0x0c,0x40,0x76,0x6f,0x6c,0x75,0x6d,0x65,0x69,0x69))
     ShowMessageFace("",0,0,2,3)
     ShowMessage("Aurora joined the party!")
     Wait(60)
     EndEventProcessing()
     0()
    IfPlayerPicksChoice(1,null)
     ShowMessageFace("mob_douguya_fc1",0,0,2,4)
     ShowMessage("\\n<Aurora>Is that so... I apologize.")
     0()
    404()
    0()
   EndIf()
   0()
  EndIf()
  ShowMessageFace("mob_douguya_fc1",0,0,2,5)
  ShowMessage("\\n<Aurora>Are you looking for an item?\nOr...do you want to have a battle fuck with me?")
  ShowChoices(strings("Shopping","Battle fuck"),2)
  IfPlayerPicksChoice(0,null)
   Shop(0,2,0,0,false)
   605(0,7,0,0)
   605(0,11,0,0)
   605(0,13,0,0)
   605(0,14,0,0)
   605(0,15,0,0)
   605(0,16,0,0)
   605(0,17,0,0)
   605(0,18,0,0)
   605(0,19,0,0)
   605(0,20,0,0)
   605(0,21,0,0)
   605(0,23,0,0)
   605(0,35,0,0)
   0()
  IfPlayerPicksChoice(1,null)
   RunCommonEvent(7321)
   0()
  404()
  0()
 PAGE   2
  // condition: party contains actor #582
  0()



EVENT   43
 PAGE   1
  ShowMessageFace("",0,0,2,1)
  ShowMessage("\\n<Inn Girl>It's 20G for a night, will you stay at our inn?\\$")
  ShowChoices(strings("Yes","No"),2)
  IfPlayerPicksChoice(0,null)
   If(7,20,0)
    125(1,0,20)
    221()
    249(bytes(0x04,0x08,0x6f,0x3a,0x0c,0x52,0x50,0x47,0x3a,0x3a,0x4d,0x45,0x08,0x3a,0x0a,0x40,0x6e,0x61,0x6d,0x65,0x49,0x22,0x08,0x49,0x6e,0x6e,0x06,0x3a,0x06,0x45,0x54,0x3a,0x0b,0x40,0x70,0x69,0x74,0x63,0x68,0x69,0x69,0x3a,0x0c,0x40,0x76,0x6f,0x6c,0x75,0x6d,0x65,0x69,0x69))
    Wait(150)
    314(0,0)
    222()
    0()
   Else()
    ShowMessageFace("",0,0,2,2)
    ShowMessage("\\n<Inn Girl>It seems you don't have enough money...")
    0()
   EndIf()
   0()
  IfPlayerPicksChoice(1,null)
   0()
  404()
  EndEventProcessing()
  0()



EVENT   44
 PAGE   1
  ShowMessageFace("",0,0,2,1)
  ShowMessage("\\n<Restaurant Mother>Now, what would you like to order?")
  Shop(0,361,0,0,true)
  605(0,363,0,0)
  605(0,364,0,0)
  605(0,365,0,0)
  605(0,380,0,0)
  605(0,388,0,0)
  605(0,389,0,0)
  0()



EVENT   45
 PAGE   1
  ShowMessageFace("usagi_fc1",0,0,2,1)
  ShowMessage("\\n<Rabbit Barkeeper>Ara, welcome.\nWe also have alcohol that's safe for humans to drink...")
  Shop(0,429,0,0,false)
  605(0,430,0,0)
  605(0,431,0,0)
  0()



EVENT   46
 PAGE   1
  ShowMessageFace("",0,0,2,1)
  ShowMessage("\\n<Kunoichi>The advanced ninja job, \"Erotic Kunoichi\" is an expert in the sexual arts. You'll be able to assault your enemies with an abundance of pleasure attacks.")
  ShowMessageFace(binary"",0,0,2,2)
  ShowMessage("\\n<Kunoichi>They're completely different from the power-focused ninjas of the \"Master Shinobi\" job. I myself am also training to become an \"Erotic Kunoichi\".")
  0()



EVENT   47
 PAGE   1
  ShowMessageFace("",0,0,2,1)
  ShowMessage("\\n<Kunoichi>There are two types of advanced ninja jobs.\nThe \"Master Shinobi\" is an expert of secret combat techniques, while the \"Erotic Kunoichi\" is a master of sexual arts.")
  ShowMessageFace("",0,0,2,2)
  ShowMessage("\\n<Kunoichi>Both of them require a different job-change item.\nBe careful not to confuse them.")
  0()



EVENT   48
 PAGE   1
  ShowMessageFace("",0,0,2,1)
  ShowMessage("\\n<Ninja>The advanced ninja job \"Master Shinobi\" is truly the ultimate ninja. They bury their enemies using unparalleled ninjutsu skills.")
  ShowMessageFace("",0,0,2,2)
  ShowMessage("\\n<Ninja>They are very different from the \"Erotic Kunoichi\" who only focus on the sexual arts... I want to acquire the power of a true ninja by any means.")
  0()



EVENT   49
 PAGE   1
  ShowMessageFace("youki_fc1",0,0,2,1)
  ShowMessage("\\n<Youki>I wonder what kind of guy that Heinrich is...?\nI bet he's super buff.")
  ShowMessageFace("youki_fc1",0,0,2,2)
  ShowMessage("\\n<Youki>Oh yeah, I heard about another hero called Luka that won against the Queen Succubi. He's probably got big muscles too.")
  355("actor_label_jump")
  EndEventProcessing()
  DefineLabel("538")
  ShowMessageFace("heinrich_fc1",7,0,2,3)
  ShowMessage("\\n<Heinrich>I'm not sure I can live up to such expectations...")
  EndEventProcessing()
  0()



EVENT   50
 PAGE   1
  ShowMessageFace("hituzi_fc1",3,0,2,1)
  ShowMessage("\\n<Sheep Girl>Ueee! You moron!")
  ShowMessageFace("",0,0,2,2)
  ShowMessage("This isn't our sheep...")
  ShowMessageFace("hituzi_fc1",3,0,2,3)
  ShowMessage("\\n<Sheep Girl>If a weak monster like me stepped outside of town... I'd get eaten by a Behemoth in an instant...")
  ShowMessageFace("behemoth_fc1",2,0,2,4)
  ShowMessage("\\n<Behemoth>Who would eat you? You'd probably taste horrible...")
  ShowMessageFace("usagi_fc1",3,0,2,5)
  ShowMessage("\\n<Rabbit Barkeeper>Ara? Mutton's pretty tasty, you know?")
  ShowMessageFace("hituzi_fc1",2,0,2,6)
  ShowMessage("\\n<Sheep Girl>What are you saying, rabbit?!")
  0()



EVENT   51
 PAGE   1
  ShowMessageFace("behemoth_fc1",0,0,2,1)
  ShowMessage("\\n<Behemoth>It's not often that humans come to this pub!\nWould you like me to treat you to some exploding lava liquor?")
  ShowMessageFace("ruka_fc1",0,0,2,2)
  ShowMessage("\\n<Luka>I-I'll pass...")
  355("actor_label_jump")
  EndEventProcessing()
  DefineLabel("15")
  ShowMessageFace("salamander_fc1",0,0,2,3)
  ShowMessage("\\n<Salamander>Exploding lava liquor...\nI used to drink that with Granberia all the time.")
  EndEventProcessing()
  0()



EVENT   52
 PAGE   1
  ShowMessageFace("hutakuti_fc1",3,0,2,1)
  ShowMessage("\\n<Futakuchi Girl>It's sad that monsters and humans continue to cause trouble for each other... Why must the Monster Lord tear apart relations between the races...?")
  355("actor_label_jump")
  EndEventProcessing()
  DefineLabel("45")
  ShowMessageFace("alicetromeria_fc1",4,0,2,2)
  ShowMessage("\\n<Alicetroemeria>Now, I wonder why...?")
  EndEventProcessing()
  0()



EVENT   53
 PAGE   1
  ShowMessageFace("kezyorou_fc1",0,0,2,1)
  ShowMessage("\\n<Kejourou>Our family has quite the gluttonous child.\nI can't keep covering these food expenses...")
  ShowMessageFace("hutakuti_fc1",6,0,2,2)
  ShowMessage("\\n<Futakuchi Girl>I-I'm sooorrry!")
  ShowMessageFace("kezyorou_fc1",2,0,2,3)
  ShowMessage("\\n<Kejourou>Didn't you give the same reply with your front mouth last time? Or was it your back mouth...?")
  355("actor_label_jump")
  EndEventProcessing()
  DefineLabel("143")
  ShowMessageFace("eva_fc1",0,0,2,4)
  ShowMessage("\\n<Eva>Ahaha, what a moocher!")
  EndEventProcessing()
  0()



EVENT   54
 PAGE   1
  ShowMessageFace("",0,0,2,1)
  ShowMessage("\\n<Young Man>I was born in Remina, so I've never felt uncomfortable around the local monsters.")
  ShowMessageFace("",0,0,2,2)
  ShowMessage("\\n<Young Man>You seem pretty used to being around monsters, too.\nI haven't heard of anywhere other than Remina where we can coexist with monsters, though...")
  0()



EVENT   55
 PAGE   1
  ShowMessageFace("",0,0,2,1)
  ShowMessage("\\n<Young Woman>I'm originally from Grangold, but I moved here when I married my husband... The first time I saw monsters roaming the streets, I was terrified.")
  ShowMessageFace("",0,0,2,2)
  ShowMessage("\\n<Young Woman>Nowadays, I'm not afraid at all.\nEveryone is quite gentle, and I've completely gotten used to them.")
  355("actor_label_jump")
  EndEventProcessing()
  DefineLabel("569")
  ShowMessageFace("kakyouin_fc1",0,0,2,3)
  ShowMessage("\\n<Kockyoin>You've overcome your fear... So have I.")
  ShowMessageFace("",0,0,2,4)
  ShowMessage("\\n<Young Woman>Ha-haa...")
  EndEventProcessing()
  0()



EVENT   56
 PAGE   1
  ShowMessageFace("",0,0,2,1)
  ShowMessage("\\n<Young Girl>Mama! Can I go play with the Futakuchi Girl?")
  ShowMessageFace("",0,0,2,2)
  ShowMessage("\\n<Young Woman>Just don't get lured into eating like she does.")
  0()



EVENT   57
 PAGE   1
  ShowMessageFace("",0,0,2,1)
  ShowMessage("\\n<Researcher>This place is brimming with free spirit, it's so wonderful. The only downside is that it's missing a female presence...")
  355("actor_label_jump")
  EndEventProcessing()
  DefineLabel("41")
  ShowMessageFace("stein_fc2",0,0,2,2)
  ShowMessage("\\n<Promestein>That's a downside...?")
  EndEventProcessing()
  0()



EVENT   58
 PAGE   1
  ShowMessageFace("",0,0,2,1)
  ShowMessage("\\n<Researcher>Sorry, but could you not bother me?\nHmmm... No reaction.")
  0()



EVENT   59
 PAGE   1
  ShowMessageFace("",0,0,2,1)
  ShowMessage("\\n<Scholar>This compound must be handled with the utmost care...")
  355("actor_label_jump")
  EndEventProcessing()
  DefineLabel("41")
  ShowMessageFace("stein_fc2",1,0,2,2)
  ShowMessage("\\n<Promestein>It's magic phosphorous.\nWhat a nostalgic scent...")
  EndEventProcessing()
  DefineLabel("72")
  ShowMessageFace("phoenix_fc1",4,0,2,3)
  ShowMessage("\\n<Mini>What are you doing...?\nIt's so shiny, let me see! Let me see!")
  ShowMessageFace("",0,0,2,4)
  ShowMessage("\\n<Scholar>Ah, fire...fire! Don't get too close!")
  EndEventProcessing()
  DefineLabel("134")
  ShowMessageFace("chrom_fc2",5,0,2,5)
  ShowMessage("\\n<Chrome>I've screwed up with far more dangerous chemicals than that stuff...")
  EndEventProcessing()
  0()



EVENT   60
 PAGE   1
  ShowMessageFace("",0,0,2,1)
  ShowMessage("\\n<Researcher>I'm pretty weak, so carrying luggage like this is tough.")
  0()



EVENT   61
 PAGE   1
  ShowMessageFace("",0,0,2,1)
  ShowMessage("\\n<Scholar>Don't lump us in with the alchemists, we're true scientists. Well, it's not like you would know the difference...")
  355("actor_label_jump")
  EndEventProcessing()
  DefineLabel("41")
  ShowMessageFace("stein_fc2",1,0,2,2)
  ShowMessage("\\n<Promestein>When I think that these types of people exist regardless of the era we're in...it's kind of cute.")
  ShowMessageFace("",0,0,2,3)
  ShowMessage("\\n<Scholar>Wh-What do you mean...?")
  ShowMessageFace("stein_fc2",1,0,2,4)
  ShowMessage("\\n<Promestein>Your existence is ubiquitous.")
  EndEventProcessing()
  0()



EVENT   62
 PAGE   1
  ShowMessageFace("",0,0,2,1)
  ShowMessage("\\n<Researcher>This requires a lot of concentration...")
  0()



EVENT   63
 PAGE   1
  ShowMessageFace("",0,0,2,1)
  ShowMessage("\\n<Scholar>Look! I've never seen such high-purity spirit water!\nHooray! I've done it!")
  0()



EVENT   64
 PAGE   1
  ShowMessageFace("mino_fc1",0,0,2,1)
  ShowMessage("\\n<Minotauros>Muscle up with some accessories!\nI'm at the age where I want to be stylish!")
  355("actor_label_jump")
  EndEventProcessing()
  DefineLabel("216")
  ShowMessageFace("m_mino_fc1",0,0,2,2)
  ShowMessage("\\n<Odette>Ara ara, ufufu...")
  EndEventProcessing()
  0()



EVENT   65
 PAGE   1
  ShowMessageFace("mino_fc1",0,0,2,1)
  ShowMessage("\\n<Minotauros>Muscle moonshine is the best!\n...Humans shouldn't drink it though, it'll make you bleed out of your nose.")
  0()



EVENT   66
 PAGE   1
  ShowMessageFace("namazu_fc1",0,0,2,1)
  ShowMessage("\\n<Catfish Girl>Human alcohol isn't strong enough to get me drunk, but... This is still a good place to seduce youngsters.")
  0()



EVENT   67
 PAGE   1
  ShowMessageFace("",0,0,2,1)
  ShowMessage("\\n<Gruff Man>One time, I got drunk enough that I ended up wandering into the monster pub. I drank some weird booze, and then flames were coming out of my mouth.")
  0()



EVENT   68
 PAGE   1
  ShowMessageFace("",0,0,2,1)
  ShowMessage("\\n<Youth>I wanted to buy this as a present for my fiancé, but it's so expensive... I'd also probably be in for a lot of trouble if her critical rate were boosted.")
  0()



EVENT   69
 PAGE   1
  ShowMessageFace("kappa_fc1",0,0,2,1)
  ShowMessage("\\n<Kappa Girl>I like cucumbers more than beautiful accessories♪\nDoes that make me a cheap woman...?")
  355("actor_label_jump")
  EndEventProcessing()
  DefineLabel("520")
  ShowMessageFace("lazarus3_fc1",0,0,2,2)
  ShowMessage("\\n<Lazarus>Cheap women are the most terrifying...")
  EndEventProcessing()
  0()



EVENT   70
 PAGE   1
  ShowMessageFace("kappa_fc1",1,0,2,1)
  ShowMessage("\\n<Kappa Girl>Kappappaa♪ Runnappa♪")
  0()



EVENT   71
 PAGE   1
  ShowMessageFace("basilisk_fc1",0,0,2,1)
  ShowMessage("\\n<Basilisk Girl>Frankly, the Monster Lord has been quite a nuisance. She wages war against humans for her own ambitions.")
  ShowMessageFace("basilisk_fc1",0,0,2,2)
  ShowMessage("\\n<Basilisk Girl>Even on the monsters' side, there are many who are displeased with her. Especially those like us who just want to coexist with humans!")
  355("actor_label_jump")
  EndEventProcessing()
  DefineLabel("45")
  ShowMessageFace("alicetromeria_fc1",4,0,2,3)
  ShowMessage("\\n<Alicetroemeria>Excuse me...")
  EndEventProcessing()
  0()



EVENT   72
 PAGE   1
  ShowMessageFace("kirin_fc1",1,0,2,1)
  ShowMessage("\\n<Kirin>Minors shouldn't be drinking alcohol...?\nYou fool! I'm over two-hundred years old!")
  0()



EVENT   73
 PAGE   1
  ShowMessageFace("elf_fc1",2,0,2,1)
  ShowMessage("\\n<Elf>Who's spreading the rumor that elves are lewd...?\nI need a drink!")
  ShowMessageFace("elf_fc1",1,0,2,2)
  ShowMessage("\\n<Elf>This is a magical beverage, \"Fairy's Breeze\"!\nBe careful drinking it if you're a human, the kamaitachi will shred your throat to pieces.")
  If(4,12,0)
   ShowMessageFace("sylph_fc1",2,0,2,3)
   ShowMessage("\\n<Sylph>Whoosh!")
   0()
  EndIf()
  0()



EVENT   74
 PAGE   1
  ShowMessageFace("zyakotuonna_fc1",0,0,2,1)
  ShowMessage("\\n<Jakotu-Onna>My snakes have gone completely limp...\nThey can hardly handle any alcohol... *glug-glug*")
  0()



EVENT   75
 PAGE   1
  ShowMessageFace("scylla_fc1",0,0,2,1)
  ShowMessage("\\n<Scylla>What is it?\nIs it weird for a scylla to be married to a human...?")
  355("actor_label_jump")
  EndEventProcessing()
  DefineLabel("289")
  ShowMessageFace("maidscyulla_fc1",1,0,2,2)
  ShowMessage("\\n<Ran>No... I'm quite envious.")
  EndEventProcessing()
  0()



EVENT   76
 PAGE   1
  ShowMessageFace("",0,0,2,1)
  ShowMessage("\\n<Husband>My wife is a former maid, so she's very good at housework.\nI'm not worthy of such a wonderful bride.")
  ShowMessageFace("",0,0,2,2)
  ShowMessage("\\n<Husband>The nights are great too...fufufufu.")
  355("actor_label_jump")
  EndEventProcessing()
  DefineLabel("5")
  ShowMessageFace("alice_fc5",0,0,2,3)
  ShowMessage("\\n<Alice>Damn pervert...")
  EndEventProcessing()
  0()



EVENT   77
 PAGE   1
  ShowMessageFace("",0,0,2,1)
  ShowMessage("\\n<Young Lady>My human disguise is good, isn't it?\nI make sure to keep my tentacles inside my skirt.")
  355("actor_label_jump")
  EndEventProcessing()
  DefineLabel("294")
  ShowMessageFace("emily_fc1",1,0,2,2)
  ShowMessage("\\n<Emily>Disguises are my specialty♪")
  EndEventProcessing()
  0()



EVENT   78
 PAGE   1
  ShowMessageFace("",0,0,2,1)
  ShowMessage("\\n<Young Girl>Wrigglewrigglewriggle♪")
  0()



EVENT   79
 PAGE   1
  ShowMessageFace("",0,0,2,1)
  ShowMessage("\\n<Middle-aged Man>I-it's a ninja...\nShould he really be standing out like this, though?")
  0()



EVENT   80
 PAGE   1
  ShowMessageFace("",0,0,2,1)
  ShowMessage("\\n<Thug>Remina seems to be known as the \"Town of Immorality\" to outsiders. Just living alongside monsters is something those narrow-minded people denounce as immoral.")
  0()



EVENT   81
 PAGE   1
  ShowMessageFace("",0,0,2,1)
  ShowMessage("\\n<Lonely Middle-aged Man>Looks like I'm eating alone again...")
  355("actor_label_jump")
  EndEventProcessing()
  DefineLabel("88")
  ShowMessageFace("jack_fc1",1,0,2,2)
  ShowMessage("\\n<Pumpkin>Want to eat together...?")
  EndEventProcessing()
  0()



EVENT   82
 PAGE   1
  ShowMessageFace("",0,0,2,1)
  ShowMessage("\\n<Researcher>After a day of research, I take a short break in this restaurant. The clatter stimulates my worn-out brain.")
  0()



EVENT   83
 PAGE   1
  ShowMessageFace("",0,0,2,1)
  ShowMessage("\\n<Researcher>I've finally worn off my fingerprints....\nI feel like I've become a full-fledged scientist.")
  0()



EVENT   84
 PAGE   1
  ShowMessageFace("",0,0,2,1)
  ShowMessage("\\n<Researcher>I'm not particularly fond of this restaurant.\nIt being combined with the pub means it attracts a lot of uncivilized characters...")
  0()



EVENT   85
 PAGE   1
  ShowMessageFace("",0,0,2,1)
  ShowMessage("\\n<Researcher>My homebrewed alcohol is far better than this stuff. No, of course it's illegal! Please keep it down!")
  0()



EVENT   86
 PAGE   1
  ShowMessageFace("",0,0,2,1)
  ShowMessage("\\n<Scholar>We've achieved a lot today.\nI'm going to splurge and order some miso soup!")
  355("actor_label_jump")
  EndEventProcessing()
  DefineLabel("143")
  ShowMessageFace("eva_fc1",2,0,2,2)
  ShowMessage("\\n<Eva>What a cheapskate...")
  EndEventProcessing()
  0()



EVENT   87
 PAGE   1
  ShowMessageFace("",0,0,2,1)
  ShowMessage("\\n<Researcher>People from all over the world have come to work in this laboratory. There are surprisingly few people here who were actually born in Remina.")
  ShowMessageFace("",0,0,2,2)
  ShowMessage("\\n<Researcher>I started my research purely out of a desire to learn...\nMany people treated me as a heretical sorcerer and chased me away from my hometown.")
  ShowMessageFace("",0,0,2,3)
  ShowMessage("\\n<Researcher>I wandered around the world, until I finally found a place where I belonged... Do you understand the joy of being among kindred spirits?")
  355("actor_label_jump")
  EndEventProcessing()
  DefineLabel("41")
  ShowMessageFace("stein_fc2",1,0,2,4)
  ShowMessage("\\n<Promestein>Yes, I know it well.")
  EndEventProcessing()
  DefineLabel("167")
  ShowMessageFace("lusia_fc1",0,0,2,5)
  ShowMessage("\\n<Lucia>I too would like to meet kindred spirits...")
  EndEventProcessing()
  0()



EVENT   88
 PAGE   1
  ShowMessageFace("",0,0,2,1)
  ShowMessage("\\n<Traveling Hero>I finally made it to this town, but...\nI've started to realize my own limits.")
  ShowMessageFace("",0,0,2,2)
  ShowMessage("\\n<Traveling Hero>I've heard rumors about an amazing hero named Heinrich. I'm sure his pedigree and talent are different from someone like me, a hero from the countryside.")
  ShowMessageFace("",0,0,2,3)
  ShowMessage("\\n<Traveling Hero>...Is that a slug girl?")
  0()



EVENT   89
 PAGE   1
  ShowMessageFace("",0,0,2,1)
  ShowMessage("\\n<Traveling Warrior>I see many people give up on their adventures in this town. Even so, it's better to retire and live the rest of your life as much as you can.")
  ShowMessageFace("",0,0,2,2)
  ShowMessage("\\n<Traveling Warrior>Most of them were unable to leave a scratch upon the opposing monsters in the Hellgondo Continent, including myself. Running away was all I could do to escape death.")
  ShowMessageFace("",0,0,2,3)
  ShowMessage("\\n<Traveling Warrior>...By the way, what's with that slug girl?")
  0()



EVENT   90
 PAGE   1
  ShowMessageFace("name_fc1",0,0,2,1)
  ShowMessage("\\n<Slug Girl>The air was damp, so we came inside...")
  355("actor_label_jump")
  EndEventProcessing()
  DefineLabel("55")
  ShowMessageFace("name_fc1",0,0,2,2)
  ShowMessage("\\n<Melk>Damp...")
  EndEventProcessing()
  DefineLabel("85")
  ShowMessageFace("highslag_fc1",0,0,2,3)
  ShowMessage("\\n<Elisabeth>Ufufu, this is fine air...")
  EndEventProcessing()
  0()



EVENT   91
 PAGE   1
  ShowMessageFace("",0,0,2,1)
  ShowMessage("\\n<Old Woman>Worshippers of the Goddess Ilias are looked upon with disdain in this town... The winds weren't blowing this badly back in the olden days.")
  0()



EVENT   92
 PAGE   1
  ShowMessageFace("",0,0,2,1)
  ShowMessage("\\n<Old Man>The Goddess's judgment will someday descend upon this town!\nWe must chase away the fools who have been misled by science!")
  0()



EVENT   93
 PAGE   1
  ShowMessageFace("",0,0,2,1)
  ShowMessage("\\n<Nun>Goddess, may you judge those who have been blinded by science.\nIt is not science that will save mankind, but the word of our Goddess.")
  355("actor_label_jump")
  EndEventProcessing()
  DefineLabel("41")
  ShowMessageFace("stein_fc2",0,0,2,2)
  ShowMessage("\\n<Promestein>Neither the Goddess nor science will save mankind...")
  EndEventProcessing()
  0()



EVENT   94
 PAGE   1
  ShowMessageFace("",0,0,2,1)
  ShowMessage("\\n<Priest>First and foremost, we must drive the monsters from our town!	We should request that San Ilia dispatch an army of holy crusaders!")
  355("actor_label_jump")
  EndEventProcessing()
  DefineLabel("531")
  ShowMessageFace("saniria_fc2",0,0,2,2)
  ShowMessage("\\n<King of San Ilia>The King of San Ilia in this era would be... Philipe the Seventh? He was a wise man, he would never respond to such an appeal.")
  EndEventProcessing()
  0()



EVENT   95
 PAGE   1
  ShowMessageFace("",0,0,2,1)
  ShowMessage("\\n<Priest>Perhaps it was not corruption that has led people to lose their faith, but the arrogance of the priesthood. If that is the case, perhaps we should be the ones to change our ways first...")
  0()



EVENT   96
 PAGE   1
  ShowMessageFace("",0,0,2,1)
  ShowMessage("\\n<Priest>Burn away all the writings of science...\nAfter that, abolish the worthless books that the masses read for amusement.")
  ShowMessageFace("",0,0,2,2)
  ShowMessage("\\n<Priest>Once that happens, only books with the words of our Goddess written unto them will remain. Faith will return to this town, and we will walk the path of righteousness.")
  355("actor_label_jump")
  EndEventProcessing()
  DefineLabel("531")
  ShowMessageFace("saniria_fc2",0,0,2,3)
  ShowMessage("\\n<King of San Ilia>What foolishness...")
  EndEventProcessing()
  0()



EVENT   97
 PAGE   1
  ShowMessageFace("",0,0,2,1)
  ShowMessage("\\n<Priest>In the old days, everyone was pure and filled with reverence for the Goddess. Nowadays however, people's hearts have become corrupted and ruled by their materialistic desires.")
  0()



EVENT   98
 PAGE   1
  ShowMessageFace("",0,0,2,1)
  ShowMessage("\\n<Inn Girl>Ah, busy...busy...")
  0()



EVENT   99
 PAGE   1
  ShowMessageFace("hutakuti_fc1",1,0,2,1)
  ShowMessage("\\n<Futakuchi Girl>This is my part-time job.\nI also sneak bites when nobody's looking♪")
  ShowMessageFace("hutakuti_fc1",2,0,2,2)
  ShowMessage("\\n<Futakuchi Girl>...That was my back mouth talking just now.")
  0()



EVENT   100
 PAGE   1
  ShowMessageFace("",0,0,2,1)
  ShowMessage("\\n<Innkeeper>Ah, welcome to our inn.\nHospitality without discriminating between humans and monsters is the motto of this inn.")
  0()



EVENT   101
 PAGE   1
  ShowMessageFace("scylla_s_fc1",0,0,2,1)
  ShowMessage("\\n<Scylla Servant>Cleaning♪ Cleaning♪")
  0()



EVENT   102
 PAGE   1
  ShowMessageFace("",0,0,2,1)
  ShowMessage("\\n<Registry Girl>When the world is in turmoil, the number of travelers we receive increases. It sounds ironic, yet our inn is thriving...")
  0()



EVENT   103
 PAGE   1
  ShowMessageFace("",0,0,2,1)
  ShowMessage("\\n<Inn Girl>Everybody that stays here looks exhausted.\nMany retire from being a hero shortly after arriving in this town...")
  355("actor_label_jump")
  EndEventProcessing()
  DefineLabel("538")
  ShowMessageFace("heinrich_fc1",7,0,2,2)
  ShowMessage("\\n<Heinrich>Indeed, this continent is the greatest obstacle of all...")
  EndEventProcessing()
  0()



EVENT   104
 PAGE   1
  ShowMessageFace("ustrel_fc1",0,0,2,1)
  ShowMessage("\\n<Ustrel>This is such a pleasant town...\nThere aren't any shops for monsters in my hometown of Grand Noah.")
  0()



EVENT   105
 PAGE   1
  ShowMessageFace("",0,0,2,1)
  ShowMessage("\\n<Traveling Hero>After ten years of hardship, I've finally reached Remina... But I feel like I've reached my limit, so I'm considering laying down my sword here.")
  ShowMessageFace("",0,0,2,2)
  ShowMessage("\\n<Traveling Hero>That's why I've decided to go wild and ride the temptation of women! My long journeys kept me away from this kind of fun!")
  0()



EVENT   106
 PAGE   1
  ShowMessageFace("succubuses_fc3",0,0,2,1)
  ShowMessage("\\n<Succubus>This town is full of easy men like him...♪")
  0()



EVENT   107
 PAGE   1
  ShowMessageFace("",0,0,2,1)
  ShowMessage("\\n<Inn Girl>For some reason the retired heroes all leave their armor behind here. I suppose it's a commemoration of sorts...?")
  0()



EVENT   108
 PAGE   1
  ShowMessageFace("",0,0,2,1)
  ShowMessage("\\n<Traveling Hero>As one would expect from a place right before the Monster Lord's Castle, they deal in good equipment.")
  0()



EVENT   109
 PAGE   1
  ShowMessageFace("vampire_fc1",0,0,2,1)
  ShowMessage("\\n<Vampire>So this is a gun...\nI hear these strange weapons are excavated from the Tartarus Rift in western Gold.")
  0()



EVENT   110
 PAGE   1
  ShowMessageFace("elf_fc1",0,0,2,1)
  ShowMessage("\\n<Elf>I've heard many monsters have begun to oppose coexistence lately, too. The rise of Black Alice is disturbing not just the hearts of you humans, but ours as well.")
  355("actor_label_jump")
  EndEventProcessing()
  DefineLabel("45")
  ShowMessageFace("alicetromeria_fc1",4,0,2,2)
  ShowMessage("\\n<Alicetroemeria>Everybody is revealing their true nature...\nIt's quite exciting.")
  EndEventProcessing()
  0()



EVENT   111
 PAGE   1
  ShowMessageFace("",0,0,2,1)
  ShowMessage("\\n<Man>According to rumors, Princess Edina has feelings for a certain man. It couldn't possibly be me...")
  0()



EVENT   112
 PAGE   1
  ShowMessageFace("",0,0,2,1)
  ShowMessage("\\n<Woman>I wish I was a beautiful woman like Princess Edina...")
  0()



EVENT   113
 PAGE   1
  250(bytes(0x04,0x08,0x6f,0x3a,0x0c,0x52,0x50,0x47,0x3a,0x3a,0x53,0x45,0x08,0x3a,0x0a,0x40,0x6e,0x61,0x6d,0x65,0x49,0x22,0x0a,0x49,0x74,0x65,0x6d,0x31,0x06,0x3a,0x06,0x45,0x54,0x3a,0x0b,0x40,0x70,0x69,0x74,0x63,0x68,0x69,0x69,0x3a,0x0c,0x40,0x76,0x6f,0x6c,0x75,0x6d,0x65,0x69,0x55))
  ChangeSelfSwitch("A",0)
  ChangeInventory_Item(210,0,0,1)
  0()
 PAGE   2
  // condition: self-switch A is ON
  0()



EVENT   114
 PAGE   1
  250(bytes(0x04,0x08,0x6f,0x3a,0x0c,0x52,0x50,0x47,0x3a,0x3a,0x53,0x45,0x08,0x3a,0x0a,0x40,0x6e,0x61,0x6d,0x65,0x49,0x22,0x0a,0x49,0x74,0x65,0x6d,0x31,0x06,0x3a,0x06,0x45,0x54,0x3a,0x0b,0x40,0x70,0x69,0x74,0x63,0x68,0x69,0x69,0x3a,0x0c,0x40,0x76,0x6f,0x6c,0x75,0x6d,0x65,0x69,0x55))
  ChangeSelfSwitch("A",0)
  ChangeInventory_Item(414,0,0,1)
  0()
 PAGE   2
  // condition: self-switch A is ON
  0()



EVENT   115
 PAGE   1
  250(bytes(0x04,0x08,0x6f,0x3a,0x0c,0x52,0x50,0x47,0x3a,0x3a,0x53,0x45,0x08,0x3a,0x0a,0x40,0x6e,0x61,0x6d,0x65,0x49,0x22,0x0a,0x49,0x74,0x65,0x6d,0x31,0x06,0x3a,0x06,0x45,0x54,0x3a,0x0b,0x40,0x70,0x69,0x74,0x63,0x68,0x69,0x69,0x3a,0x0c,0x40,0x76,0x6f,0x6c,0x75,0x6d,0x65,0x69,0x55))
  ChangeSelfSwitch("A",0)
  ChangeInventory_Item(225,0,0,1)
  0()
 PAGE   2
  // condition: self-switch A is ON
  0()



EVENT   116
 PAGE   1
  250(bytes(0x04,0x08,0x6f,0x3a,0x0c,0x52,0x50,0x47,0x3a,0x3a,0x53,0x45,0x08,0x3a,0x0a,0x40,0x6e,0x61,0x6d,0x65,0x49,0x22,0x0a,0x49,0x74,0x65,0x6d,0x31,0x06,0x3a,0x06,0x45,0x54,0x3a,0x0b,0x40,0x70,0x69,0x74,0x63,0x68,0x69,0x69,0x3a,0x0c,0x40,0x76,0x6f,0x6c,0x75,0x6d,0x65,0x69,0x55))
  ChangeSelfSwitch("A",0)
  ChangeInventory_Item(208,0,0,1)
  0()
 PAGE   2
  // condition: self-switch A is ON
  0()



EVENT   117
 PAGE   1
  250(bytes(0x04,0x08,0x6f,0x3a,0x0c,0x52,0x50,0x47,0x3a,0x3a,0x53,0x45,0x08,0x3a,0x0a,0x40,0x6e,0x61,0x6d,0x65,0x49,0x22,0x0a,0x49,0x74,0x65,0x6d,0x31,0x06,0x3a,0x06,0x45,0x54,0x3a,0x0b,0x40,0x70,0x69,0x74,0x63,0x68,0x69,0x69,0x3a,0x0c,0x40,0x76,0x6f,0x6c,0x75,0x6d,0x65,0x69,0x55))
  ChangeSelfSwitch("A",0)
  ChangeInventory_Item(7,0,0,1)
  0()
 PAGE   2
  // condition: self-switch A is ON
  0()



EVENT   118
 PAGE   1
  250(bytes(0x04,0x08,0x6f,0x3a,0x0c,0x52,0x50,0x47,0x3a,0x3a,0x53,0x45,0x08,0x3a,0x0a,0x40,0x6e,0x61,0x6d,0x65,0x49,0x22,0x0a,0x49,0x74,0x65,0x6d,0x31,0x06,0x3a,0x06,0x45,0x54,0x3a,0x0b,0x40,0x70,0x69,0x74,0x63,0x68,0x69,0x69,0x3a,0x0c,0x40,0x76,0x6f,0x6c,0x75,0x6d,0x65,0x69,0x55))
  ChangeSelfSwitch("A",0)
  ChangeInventory_Item(202,0,0,1)
  0()
 PAGE   2
  // condition: self-switch A is ON
  0()



EVENT   119
 PAGE   1
  250(bytes(0x04,0x08,0x6f,0x3a,0x0c,0x52,0x50,0x47,0x3a,0x3a,0x53,0x45,0x08,0x3a,0x0a,0x40,0x6e,0x61,0x6d,0x65,0x49,0x22,0x0a,0x49,0x74,0x65,0x6d,0x31,0x06,0x3a,0x06,0x45,0x54,0x3a,0x0b,0x40,0x70,0x69,0x74,0x63,0x68,0x69,0x69,0x3a,0x0c,0x40,0x76,0x6f,0x6c,0x75,0x6d,0x65,0x69,0x55))
  ChangeSelfSwitch("A",0)
  ChangeInventory_Item(376,0,0,1)
  0()
 PAGE   2
  // condition: self-switch A is ON
  0()



EVENT   120
 PAGE   1
  If(2,"A",1)
   ShowMessageFace("",0,0,2,1)
   ShowMessage("\\n<Chief>This is primarily a research institute, but it's also an educational institution. Those who graduate from our school are granted the \"Scientific Extremes\".")
   If(0,4,0)
    ShowMessageFace("alice_fc5",0,0,2,2)
    ShowMessage("\\n<Alice>The \"Scientific Extremes\", if I'm not mistaken...is a job change item that will allow us to take up advanced jobs related to the sciences.")
    0()
   EndIf()
   If(0,5,0)
    ShowMessageFace("iriasu_fc4",0,0,2,3)
    ShowMessage("\\n<Ilias>The \"Scientific Extremes\", if I'm not mistaken...is a job change item which will allow us to take up advanced jobs related to the sciences.")
    0()
   EndIf()
   If(0,1041,0)
    ShowMessageFace("stein_fc2",0,0,2,4)
    ShowMessage("\\n<Promestein>I would love to have such an item...\nUnderstood, let me enroll.")
    ShowMessageFace("",0,0,2,5)
    ShowMessage("\\n<Chief>You're going to enroll...?\nBut our entrance exam is the most difficult in the--")
    ShowMessageFace("stein_fc2",0,0,2,6)
    ShowMessage("\\n<Promestein>...And done.\nIt's just the basics of chemistry.")
    ShowMessageFace("",0,0,2,7)
    ShowMessage("\\n<Chief>H-how!\nAlthough we do have a grade skipping-system, our school curriculum is--")
    221()
    ShowMessageFace("",0,0,2,8)
    ShowMessage("Seventeen minutes later--")
    Wait(60)
    222()
    ShowMessageFace("stein_fc2",0,0,2,9)
    ShowMessage("\\n<Promestein>...Finished.\nWith this, I have graduated. Thank you very much.")
    250(bytes(0x04,0x08,0x6f,0x3a,0x0c,0x52,0x50,0x47,0x3a,0x3a,0x53,0x45,0x08,0x3a,0x0a,0x40,0x6e,0x61,0x6d,0x65,0x49,0x22,0x0a,0x49,0x74,0x65,0x6d,0x31,0x06,0x3a,0x06,0x45,0x54,0x3a,0x0b,0x40,0x70,0x69,0x74,0x63,0x68,0x69,0x69,0x3a,0x0c,0x40,0x76,0x6f,0x6c,0x75,0x6d,0x65,0x69,0x55))
    ChangeSelfSwitch("A",0)
    ChangeInventory_Item(631,0,0,1)
    If(0,4,0)
     ShowMessageFace("alice_fc5",1,0,2,10)
     ShowMessage("\\n<Alice>If we have this, we should be able to take up advanced science jobs!")
     0()
    EndIf()
    If(0,5,0)
     ShowMessageFace("iriasu_fc4",0,0,2,11)
     ShowMessage("\\n<Ilias>If we have this, we should be able to take up advanced science jobs!")
     0()
    EndIf()
    ShowMessageFace("",0,0,2,12)
    ShowMessage("\\n<Chief>Wh-what a talented person...\nYou should be an honorary professor at our school! If that's unreasonable, be my wife!")
    ShowMessageFace("stein_fc2",0,0,2,13)
    ShowMessage("\\n<Promestein>Declined.")
    EndEventProcessing()
    0()
   Else()
    ShowMessageFace("ruka_fc1",0,0,2,14)
    ShowMessage("\\n<Luka>I really want that item...\nBut it would be unrealistic for me to enroll.")
    EndEventProcessing()
    0()
   EndIf()
   0()
  Else()
   ShowMessageFace("",0,0,2,15)
   ShowMessage("\\n<Chief>S-such talent...!\nYou should become an honorary professor at our university! If that won't do, please marry me!")
   ShowMessageFace("stein_fc2",0,0,2,16)
   ShowMessage("\\n<Promestein>Declined.")
   EndEventProcessing()
   0()
  EndIf()
  0()
