﻿
DisplayName "Pocket Castle Snow Room"



EVENT   1
 PAGE   1
  281(0)
  250(bytes(0x04,0x08,0x6f,0x3a,0x0c,0x52,0x50,0x47,0x3a,0x3a,0x53,0x45,0x08,0x3a,0x0a,0x40,0x6e,0x61,0x6d,0x65,0x49,0x22,0x09,0x4d,0x6f,0x76,0x65,0x06,0x3a,0x06,0x45,0x54,0x3a,0x0b,0x40,0x70,0x69,0x74,0x63,0x68,0x69,0x69,0x3a,0x0c,0x40,0x76,0x6f,0x6c,0x75,0x6d,0x65,0x69,0x55))
  TeleportPlayer(0,229,23,11,0,0)
  0()



EVENT   2
 PAGE   1
  0()



EVENT   3
 PAGE   1
  0()



EVENT   8
 PAGE   1
  0()



EVENT   9
 PAGE   1
  0()



EVENT   10
 PAGE   1
  0()



EVENT   11
 PAGE   1
  0()



EVENT   12
 PAGE   1
  0()



EVENT   13
 PAGE   1
  281(0)
  250(bytes(0x04,0x08,0x6f,0x3a,0x0c,0x52,0x50,0x47,0x3a,0x3a,0x53,0x45,0x08,0x3a,0x0a,0x40,0x6e,0x61,0x6d,0x65,0x49,0x22,0x09,0x4d,0x6f,0x76,0x65,0x06,0x3a,0x06,0x45,0x54,0x3a,0x0b,0x40,0x70,0x69,0x74,0x63,0x68,0x69,0x69,0x3a,0x0c,0x40,0x76,0x6f,0x6c,0x75,0x6d,0x65,0x69,0x55))
  TeleportPlayer(0,229,23,11,0,0)
  0()



EVENT   14
 PAGE   1
  RunCommonEvent(111)
  0()



EVENT   15
 PAGE   1
  // condition: switch 1543 is ON
  PictureDisplay(5,"80_santos_st01",0,0,0,0,100,100,0,0)
  PictureMove(5,null,0,0,0,0,100,100,255,0,30,true)
  If(1,3543,0,100,1)
   If(1,4543,0,0,0)
    ChangeVariable(4543,4543,0,0,1)
    ShowMessageFace("santos_fc1",0,0,2,1)
    ShowMessage("\\n<Santos (Affection:\\V[3543])>............")
    250(bytes(0x04,0x08,0x6f,0x3a,0x0c,0x52,0x50,0x47,0x3a,0x3a,0x53,0x45,0x08,0x3a,0x0a,0x40,0x6e,0x61,0x6d,0x65,0x49,0x22,0x0a,0x49,0x74,0x65,0x6d,0x31,0x06,0x3a,0x06,0x45,0x54,0x3a,0x0b,0x40,0x70,0x69,0x74,0x63,0x68,0x69,0x69,0x3a,0x0c,0x40,0x76,0x6f,0x6c,0x75,0x6d,0x65,0x69,0x55))
    ChangeInventory_Item(334,0,0,1)
    0()
   EndIf()
   0()
  EndIf()
  If(1,3543,0,500,1)
   If(1,4543,0,1,0)
    ChangeVariable(4543,4543,0,0,2)
    ShowMessageFace("santos_fc1",0,0,2,2)
    ShowMessage("\\n<Santos (Affection:\\V[3543])>............")
    250(bytes(0x04,0x08,0x6f,0x3a,0x0c,0x52,0x50,0x47,0x3a,0x3a,0x53,0x45,0x08,0x3a,0x0a,0x40,0x6e,0x61,0x6d,0x65,0x49,0x22,0x0a,0x49,0x74,0x65,0x6d,0x31,0x06,0x3a,0x06,0x45,0x54,0x3a,0x0b,0x40,0x70,0x69,0x74,0x63,0x68,0x69,0x69,0x3a,0x0c,0x40,0x76,0x6f,0x6c,0x75,0x6d,0x65,0x69,0x55))
    ChangeInventoryArmor(1050,0,0,1,false)
    0()
   EndIf()
   0()
  EndIf()
  If(1,3543,0,2000,1)
   If(1,4543,0,2,0)
    ChangeVariable(4543,4543,0,0,3)
    ShowMessageFace("santos_fc1",0,0,2,3)
    ShowMessage("\\n<Santos (Affection:\\V[3543])>............")
    250(bytes(0x04,0x08,0x6f,0x3a,0x0c,0x52,0x50,0x47,0x3a,0x3a,0x53,0x45,0x08,0x3a,0x0a,0x40,0x6e,0x61,0x6d,0x65,0x49,0x22,0x0a,0x49,0x74,0x65,0x6d,0x31,0x06,0x3a,0x06,0x45,0x54,0x3a,0x0b,0x40,0x70,0x69,0x74,0x63,0x68,0x69,0x69,0x3a,0x0c,0x40,0x76,0x6f,0x6c,0x75,0x6d,0x65,0x69,0x55))
    ChangeInventoryArmor(1109,0,0,1,false)
    0()
   EndIf()
   0()
  EndIf()
  If(1,3543,0,4000,1)
   If(1,4543,0,3,0)
    ChangeVariable(4543,4543,0,0,4)
    ShowMessageFace("santos_fc1",0,0,2,4)
    ShowMessage("\\n<Santos (Affection:\\V[3543])>............")
    250(bytes(0x04,0x08,0x6f,0x3a,0x0c,0x52,0x50,0x47,0x3a,0x3a,0x53,0x45,0x08,0x3a,0x0a,0x40,0x6e,0x61,0x6d,0x65,0x49,0x22,0x0a,0x49,0x74,0x65,0x6d,0x31,0x06,0x3a,0x06,0x45,0x54,0x3a,0x0b,0x40,0x70,0x69,0x74,0x63,0x68,0x69,0x69,0x3a,0x0c,0x40,0x76,0x6f,0x6c,0x75,0x6d,0x65,0x69,0x55))
    ChangeInventoryArmor(1181,0,0,1,false)
    0()
   EndIf()
   0()
  EndIf()
  355("actor_label_jump")
  ShowMessageFace("santos_fc1",0,0,2,5)
  ShowMessage("\\n<Santos (Affection:\\V[3543])>............")
  JumpToLabel("メニュー")
  DefineLabel("222")
  ShowMessageFace("nekomata_fc1",4,0,2,6)
  ShowMessage("\\n<Tama (Affection:\\V[3222])>...Funyaa?!")
  ShowMessageFace("santos_fc1",0,0,2,7)
  ShowMessage("\\n<Santos (Affection:\\V[3543])>............")
  ShowMessageFace("nekomata_fc1",1,0,2,8)
  ShowMessage("\\n<Tama (Affection:\\V[3222])>Fsss!")
  ShowMessageFace("santos_fc1",0,0,2,9)
  ShowMessage("\\n<Santos (Affection:\\V[3543])>......Nya.")
  ShowMessageFace("nekomata_fc1",4,0,2,10)
  ShowMessage("\\n<Tama (Affection:\\V[3222])>Nya...nyanya, nyaa?")
  ShowMessageFace("santos_fc1",0,0,2,11)
  ShowMessage("\\n<Santos (Affection:\\V[3543])>...Nyanya, nya...")
  ShowMessageFace("nekomata_fc1",2,0,2,12)
  ShowMessage("\\n<Tama (Affection:\\V[3222])>Unyaaa♪")
  ShowMessageFace("santos_fc1",0,0,2,13)
  ShowMessage("\\n<Santos (Affection:\\V[3543])>Nya...")
  JumpToLabel("メニュー")
  DefineLabel("346")
  ShowMessageFace("santos_fc1",0,0,2,14)
  ShowMessage("\\n<Santos (Affection:\\V[3543])>............")
  ShowMessageFace("behemoth_fc1",2,0,2,15)
  ShowMessage("\\n<Beheena (Affection:\\V[3346])>What are you...?!")
  ShowMessageFace("santos_fc1",0,0,2,16)
  ShowMessage("\\n<Santos (Affection:\\V[3543])>............")
  ShowMessageFace("behemoth_fc1",2,0,2,17)
  ShowMessage("\\n<Beheena (Affection:\\V[3346])>What a thirst for blood...\nYou're certainly different from the famous nekomata.")
  JumpToLabel("メニュー")
  DefineLabel("540")
  ShowMessageFace("santos_fc1",0,0,2,18)
  ShowMessage("\\n<Santos (Affection:\\V[3543])>............")
  ShowMessageFace("amira_fc1",0,0,2,19)
  ShowMessage("\\n<Amira (Affection:\\V[3540])>Santos... As usual, you're sharp as a knife.\nAnyone who touches you will get hurt...")
  ShowMessageFace("santos_fc1",0,0,2,20)
  ShowMessage("\\n<Santos (Affection:\\V[3543])>......!")
  ShowMessageFace("amira_fc1",1,0,2,21)
  ShowMessage("\\n<Amira (Affection:\\V[3540])>I-I'm sorry...are you angry?!\nI thought it was impossible for you to talk at all, so I was merely saying something appropriate!")
  ShowMessageFace("santos_fc1",0,0,2,22)
  ShowMessage("\\n<Santos (Affection:\\V[3543])>............")
  ShowMessageFace("amira_fc1",1,0,2,23)
  ShowMessage("\\n<Amira (Affection:\\V[3540])>*thump-thump*...")
  JumpToLabel("メニュー")
  DefineLabel("メニュー")
  StartLoop()
   355("unlimited_choices(11, [\"Give presents\",")
   655("\"Add to party\",")
   655("\"View present list\",\"Never mind\"])")
   If(1,11,0,0,0)
    355("present_start(543)")
    0()
   EndIf()
   If(1,11,0,1,0)
    PictureClear(5)
    355("move_actor_ex(543)")
    EndEventProcessing()
    0()
   EndIf()
   If(1,11,0,2,0)
    ShowMessageFace("",0,0,2,24)
    ShowMessage("Affection     100:\\ii[334]")
    ShowMessage("Affection     500:\\ia[1050]")
    ShowMessage("Affection   2000:\\ia[1109]")
    ShowMessage("Affection   4000:\\ia[1181]")
    0()
   EndIf()
   If(1,11,0,3,1)
    PictureClear(5)
    EndEventProcessing()
    0()
   EndIf()
   0()
  EndLoop()
  0()
 PAGE   2
  // condition: party contains actor #543
  0()



EVENT   16
 PAGE   1
  // condition: switch 1194 is ON
  PictureDisplay(5,"80_husuma_st01",0,0,0,0,100,100,0,0)
  PictureMove(5,null,0,0,0,0,100,100,255,0,30,true)
  If(1,3194,0,100,1)
   If(1,4194,0,0,0)
    ChangeVariable(4194,4194,0,0,1)
    ShowMessageFace("husuma_fc1",0,0,2,1)
    ShowMessage("\\n<Urara (Affection:\\V[3194])>I'll give you this!")
    250(bytes(0x04,0x08,0x6f,0x3a,0x0c,0x52,0x50,0x47,0x3a,0x3a,0x53,0x45,0x08,0x3a,0x0a,0x40,0x6e,0x61,0x6d,0x65,0x49,0x22,0x0a,0x49,0x74,0x65,0x6d,0x31,0x06,0x3a,0x06,0x45,0x54,0x3a,0x0b,0x40,0x70,0x69,0x74,0x63,0x68,0x69,0x69,0x3a,0x0c,0x40,0x76,0x6f,0x6c,0x75,0x6d,0x65,0x69,0x55))
    ChangeInventoryArmor(1056,0,0,1,false)
    0()
   EndIf()
   0()
  EndIf()
  If(1,3194,0,500,1)
   If(1,4194,0,1,0)
    ChangeVariable(4194,4194,0,0,2)
    ShowMessageFace("husuma_fc1",0,0,2,2)
    ShowMessage("\\n<Urara (Affection:\\V[3194])>I'll give you this!")
    250(bytes(0x04,0x08,0x6f,0x3a,0x0c,0x52,0x50,0x47,0x3a,0x3a,0x53,0x45,0x08,0x3a,0x0a,0x40,0x6e,0x61,0x6d,0x65,0x49,0x22,0x0a,0x49,0x74,0x65,0x6d,0x31,0x06,0x3a,0x06,0x45,0x54,0x3a,0x0b,0x40,0x70,0x69,0x74,0x63,0x68,0x69,0x69,0x3a,0x0c,0x40,0x76,0x6f,0x6c,0x75,0x6d,0x65,0x69,0x55))
    ChangeInventoryArmor(1142,0,0,1,false)
    0()
   EndIf()
   0()
  EndIf()
  If(1,3194,0,2000,1)
   If(1,4194,0,2,0)
    ChangeVariable(4194,4194,0,0,3)
    ShowMessageFace("husuma_fc1",0,0,2,3)
    ShowMessage("\\n<Urara (Affection:\\V[3194])>I'll give you this!")
    250(bytes(0x04,0x08,0x6f,0x3a,0x0c,0x52,0x50,0x47,0x3a,0x3a,0x53,0x45,0x08,0x3a,0x0a,0x40,0x6e,0x61,0x6d,0x65,0x49,0x22,0x0a,0x49,0x74,0x65,0x6d,0x31,0x06,0x3a,0x06,0x45,0x54,0x3a,0x0b,0x40,0x70,0x69,0x74,0x63,0x68,0x69,0x69,0x3a,0x0c,0x40,0x76,0x6f,0x6c,0x75,0x6d,0x65,0x69,0x55))
    ChangeInventoryArmor(1060,0,0,1,false)
    0()
   EndIf()
   0()
  EndIf()
  If(1,3194,0,4000,1)
   If(1,4194,0,3,0)
    ChangeVariable(4194,4194,0,0,4)
    ShowMessageFace("husuma_fc1",0,0,2,4)
    ShowMessage("\\n<Urara (Affection:\\V[3194])>I'll give you this!")
    250(bytes(0x04,0x08,0x6f,0x3a,0x0c,0x52,0x50,0x47,0x3a,0x3a,0x53,0x45,0x08,0x3a,0x0a,0x40,0x6e,0x61,0x6d,0x65,0x49,0x22,0x0a,0x49,0x74,0x65,0x6d,0x31,0x06,0x3a,0x06,0x45,0x54,0x3a,0x0b,0x40,0x70,0x69,0x74,0x63,0x68,0x69,0x69,0x3a,0x0c,0x40,0x76,0x6f,0x6c,0x75,0x6d,0x65,0x69,0x55))
    ChangeInventoryArmor(1577,0,0,1,false)
    0()
   EndIf()
   0()
  EndIf()
  355("actor_label_jump")
  ShowMessageFace("husuma_fc1",0,0,2,5)
  ShowMessage("\\n<Urara (Affection:\\V[3194])>I want to melt someone♪\nIf they're bad guys, I can melt them, right?")
  JumpToLabel("メニュー")
  DefineLabel("198")
  ShowMessageFace("husuma_fc1",0,0,2,6)
  ShowMessage("\\n<Urara (Affection:\\V[3194])>Ah, Ittan-Momen-chan!\nWe look a lot similar, I wonder if we're relatives...?")
  ShowMessageFace("ittanmomen_fc4",0,0,2,7)
  ShowMessage("\\n<Momen (Affection:\\V[3198])>But we don't melt men.\nWe wrap around them to suck up their semen.")
  ShowMessageFace("husuma_fc1",1,0,2,8)
  ShowMessage("\\n<Urara (Affection:\\V[3194])>(These girls look delicious...)")
  ShowMessageFace("ittanmomen_fc4",2,0,2,9)
  ShowMessage("\\n<Momen (Affection:\\V[3198])>You're thinking of something bad with that face!")
  JumpToLabel("メニュー")
  DefineLabel("238")
  ShowMessageFace("husuma_fc1",0,0,2,10)
  ShowMessage("\\n<Urara (Affection:\\V[3194])>You, you're a plant, yet you melt your prey right?")
  ShowMessageFace("dorothy_fc1",0,0,2,11)
  ShowMessage("\\n<Dorothy (Affection:\\V[3238])>You are also a youkai that melts people, aren't you? Don't you find yourself alienated from your brethren?")
  ShowMessageFace("husuma_fc1",0,0,2,12)
  ShowMessage("\\n<Urara (Affection:\\V[3194])>Yeah, I've been avoided somewhat.")
  ShowMessageFace("dorothy_fc1",0,0,2,13)
  ShowMessage("\\n<Dorothy (Affection:\\V[3238])>Doesn't it seem we get along well? I suppose we can be friends...")
  JumpToLabel("メニュー")
  DefineLabel("343")
  ShowMessageFace("enenra_fc1",0,0,2,14)
  ShowMessage("\\n<Yugiri (Affection:\\V[3343])>This is unusual, aren't you a fusuma?\nYou drift in the sky aimlessly, you don't really intend to settle down here.")
  ShowMessageFace("husuma_fc1",0,0,2,15)
  ShowMessage("\\n<Urara (Affection:\\V[3194])>But it looks fun!")
  ShowMessageFace("enenra_fc1",1,0,2,16)
  ShowMessage("\\n<Yugiri (Affection:\\V[3343])>In any case, will you stop being an enemy to these people? When it comes to you, don't you eat people one after another...?")
  ShowMessageFace("husuma_fc1",0,0,2,17)
  ShowMessage("\\n<Urara (Affection:\\V[3194])>If you give me cooked rice, I won't eat people♪")
  JumpToLabel("メニュー")
  DefineLabel("メニュー")
  StartLoop()
   355("unlimited_choices(11, [\"Give presents\",")
   655("\"Add to party\",")
   655("\"View present list\",\"Make a request\",")
   655("\"Never mind\"])")
   If(1,11,0,0,0)
    355("present_start(194)")
    0()
   EndIf()
   If(1,11,0,1,0)
    PictureClear(5)
    355("move_actor_ex(194)")
    EndEventProcessing()
    0()
   EndIf()
   If(1,11,0,2,0)
    ShowMessageFace("",0,0,2,18)
    ShowMessage("Affection     100:\\ia[1056]")
    ShowMessage("Affection     500:\\ia[1142]")
    ShowMessage("Affection   2000:\\ia[1060]")
    ShowMessage("Affection   4000:\\ia[1577]")
    0()
   EndIf()
   If(1,11,0,3,0)
    PictureClear(5)
    ShowMessageFace("",0,0,2,19)
    ShowMessage("Ask her for what? (Affection:\\V[3194])")
    ShowChoices(strings("Melty Wrap(Affection:10)","Melty Wrap...?(Affection:100)","Never mind"),3)
    IfPlayerPicksChoice(0,null)
     If(1,3194,0,10,1)
      355("call_novel_scene(4781)")
      EndEventProcessing()
      0()
     Else()
      ShowMessageFace("husuma_fc1",0,0,2,20)
      ShowMessage("\\n<Urara (Affection:\\V[3194])>I'll do that another time...")
      0()
     EndIf()
     0()
    IfPlayerPicksChoice(1,null)
     If(1,3194,0,100,1)
      355("call_novel_scene(4782)")
      EndEventProcessing()
      0()
     Else()
      ShowMessageFace("husuma_fc1",0,0,2,21)
      ShowMessage("\\n<Urara (Affection:\\V[3194])>I'll do that another time...")
      0()
     EndIf()
     0()
    IfPlayerPicksChoice(2,null)
     0()
    404()
    0()
   EndIf()
   If(1,11,0,4,1)
    PictureClear(5)
    EndEventProcessing()
    0()
   EndIf()
   0()
  EndLoop()
  0()
 PAGE   2
  // condition: party contains actor #194
  0()



EVENT   17
 PAGE   1
  // condition: switch 1198 is ON
  PictureDisplay(5,"80_ittanmomen_st01",0,0,0,0,100,100,0,0)
  PictureDisplay(6,"80_ittanmomen_st11",0,0,0,0,100,100,0,0)
  PictureDisplay(7,"80_ittanmomen_st21",0,0,0,0,100,100,0,0)
  PictureMove(5,null,0,0,0,0,100,100,255,0,30,false)
  PictureMove(6,null,0,0,0,0,100,100,255,0,30,false)
  PictureMove(7,null,0,0,0,0,100,100,255,0,30,true)
  If(1,3198,0,100,1)
   If(1,4198,0,0,0)
    ChangeVariable(4198,4198,0,0,1)
    ShowMessageFace("ittanmomen_fc4",0,0,2,1)
    ShowMessage("\\n<Momen (Affection:\\V[3198])>We'll give you this! ♪")
    250(bytes(0x04,0x08,0x6f,0x3a,0x0c,0x52,0x50,0x47,0x3a,0x3a,0x53,0x45,0x08,0x3a,0x0a,0x40,0x6e,0x61,0x6d,0x65,0x49,0x22,0x0a,0x49,0x74,0x65,0x6d,0x31,0x06,0x3a,0x06,0x45,0x54,0x3a,0x0b,0x40,0x70,0x69,0x74,0x63,0x68,0x69,0x69,0x3a,0x0c,0x40,0x76,0x6f,0x6c,0x75,0x6d,0x65,0x69,0x55))
    ChangeInventoryArmor(1056,0,0,1,false)
    0()
   EndIf()
   0()
  EndIf()
  If(1,3198,0,500,1)
   If(1,4198,0,1,0)
    ChangeVariable(4198,4198,0,0,2)
    ShowMessageFace("ittanmomen_fc4",0,0,2,2)
    ShowMessage("\\n<Momen (Affection:\\V[3198])>We'll give you this! ♪")
    250(bytes(0x04,0x08,0x6f,0x3a,0x0c,0x52,0x50,0x47,0x3a,0x3a,0x53,0x45,0x08,0x3a,0x0a,0x40,0x6e,0x61,0x6d,0x65,0x49,0x22,0x0a,0x49,0x74,0x65,0x6d,0x31,0x06,0x3a,0x06,0x45,0x54,0x3a,0x0b,0x40,0x70,0x69,0x74,0x63,0x68,0x69,0x69,0x3a,0x0c,0x40,0x76,0x6f,0x6c,0x75,0x6d,0x65,0x69,0x55))
    ChangeInventoryArmor(1537,0,0,1,false)
    0()
   EndIf()
   0()
  EndIf()
  If(1,3198,0,2000,1)
   If(1,4198,0,2,0)
    ChangeVariable(4198,4198,0,0,3)
    ShowMessageFace("ittanmomen_fc4",0,0,2,3)
    ShowMessage("\\n<Momen (Affection:\\V[3198])>We'll give you this! ♪")
    250(bytes(0x04,0x08,0x6f,0x3a,0x0c,0x52,0x50,0x47,0x3a,0x3a,0x53,0x45,0x08,0x3a,0x0a,0x40,0x6e,0x61,0x6d,0x65,0x49,0x22,0x0a,0x49,0x74,0x65,0x6d,0x31,0x06,0x3a,0x06,0x45,0x54,0x3a,0x0b,0x40,0x70,0x69,0x74,0x63,0x68,0x69,0x69,0x3a,0x0c,0x40,0x76,0x6f,0x6c,0x75,0x6d,0x65,0x69,0x55))
    ChangeInventoryArmor(1191,0,0,1,false)
    0()
   EndIf()
   0()
  EndIf()
  If(1,3198,0,4000,1)
   If(1,4198,0,3,0)
    ChangeVariable(4198,4198,0,0,4)
    ShowMessageFace("ittanmomen_fc4",0,0,2,4)
    ShowMessage("\\n<Momen (Affection:\\V[3198])>We'll give you this! ♪")
    250(bytes(0x04,0x08,0x6f,0x3a,0x0c,0x52,0x50,0x47,0x3a,0x3a,0x53,0x45,0x08,0x3a,0x0a,0x40,0x6e,0x61,0x6d,0x65,0x49,0x22,0x0a,0x49,0x74,0x65,0x6d,0x31,0x06,0x3a,0x06,0x45,0x54,0x3a,0x0b,0x40,0x70,0x69,0x74,0x63,0x68,0x69,0x69,0x3a,0x0c,0x40,0x76,0x6f,0x6c,0x75,0x6d,0x65,0x69,0x55))
    ChangeInventoryArmor(1624,0,0,1,false)
    0()
   EndIf()
   0()
  EndIf()
  355("actor_label_jump")
  ShowMessageFace("ittanmomen_fc4",0,0,2,5)
  ShowMessage("\\n<Momen (Affection:\\V[3198])>I hope the weather is nice.\nWe're happy when a breeze is blowing♪")
  JumpToLabel("メニュー")
  DefineLabel("194")
  ShowMessageFace("husuma_fc1",0,0,2,6)
  ShowMessage("\\n<Urara (Affection:\\V[3194])>Ah, Ittan-Momen-chan!\nWe look a lot similar, I wonder if we're relatives...?")
  ShowMessageFace("ittanmomen_fc4",0,0,2,7)
  ShowMessage("\\n<Momen (Affection:\\V[3198])>But we don't melt men.\nWe wrap around them to suck up their semen.")
  ShowMessageFace("husuma_fc1",1,0,2,8)
  ShowMessage("\\n<Urara (Affection:\\V[3194])>(These girls look delicious...)")
  ShowMessageFace("ittanmomen_fc4",2,0,2,9)
  ShowMessage("\\n<Momen (Affection:\\V[3198])>You're thinking of something bad with that face!")
  JumpToLabel("メニュー")
  DefineLabel("200")
  ShowMessageFace("hitodama_fc1",0,0,2,10)
  ShowMessage("\\n<Fear (Affection:\\V[3200])>Ah, Ittan-Momen-chan!\nHey hey, let's play!")
  ShowMessageFace("ittanmomen_fc4",2,0,2,11)
  ShowMessage("\\n<Momen (Affection:\\V[3198])>Kyaah, don't come near me!\nOur bodies will catch on fire and burn!")
  ShowMessageFace("hitodama_fc1",2,0,2,12)
  ShowMessage("\\n<Fear (Affection:\\V[3200])>Uh, what? I can't hear you...")
  ShowMessageFace("ittanmomen_fc4",2,0,2,13)
  ShowMessage("\\n<Momen (Affection:\\V[3198])>S-stay awaaay!!")
  JumpToLabel("メニュー")
  DefineLabel("222")
  ShowMessageFace("ittanmomen_fc4",2,0,2,14)
  ShowMessage("\\n<Momen (Affection:\\V[3198])>Hyah, it's our natural enemy...the cat!")
  ShowMessageFace("nekomata_fc1",2,0,2,15)
  ShowMessage("\\n<Tama (Affection:\\V[3222])>Unyaa!!")
  ShowMessageFace("",0,0,2,16)
  ShowMessage("Tama leaps at the Ittan-Momen's flickering cloth, playing with it!")
  ShowMessageFace("ittanmomen_fc4",2,0,2,17)
  ShowMessage("\\n<Momen (Affection:\\V[3198])>Nooo! Stooop!")
  ShowMessageFace("nekomata_fc1",2,0,2,18)
  ShowMessage("\\n<Tama (Affection:\\V[3222])>Nyaa! Nyaaaaa!!")
  JumpToLabel("メニュー")
  DefineLabel("メニュー")
  StartLoop()
   355("unlimited_choices(11, [\"Give presents\",")
   655("\"Add to party\",")
   655("\"View present list\",\"Make a request\",")
   655("\"Never mind\"])")
   If(1,11,0,0,0)
    355("present_start(198)")
    0()
   EndIf()
   If(1,11,0,1,0)
    PictureClear(5)
    PictureClear(6)
    PictureClear(7)
    355("move_actor_ex(198)")
    EndEventProcessing()
    0()
   EndIf()
   If(1,11,0,2,0)
    ShowMessageFace("",0,0,2,19)
    ShowMessage("Affection     100:\\ia[1056]")
    ShowMessage("Affection     500:\\ia[1537]")
    ShowMessage("Affection   2000:\\ia[1191]")
    ShowMessage("Affection   4000:\\ia[1624]")
    0()
   EndIf()
   If(1,11,0,3,0)
    PictureClear(5)
    PictureClear(6)
    PictureClear(7)
    ShowMessageFace("",0,0,2,20)
    ShowMessage("Ask them for what? (Affection:\\V[3198])")
    ShowChoices(strings("Body Wrap(Affection:10)","Never mind"),2)
    IfPlayerPicksChoice(0,null)
     If(1,3198,0,10,1)
      355("call_novel_scene(4801)")
      EndEventProcessing()
      0()
     Else()
      ShowMessageFace("ittanmomen_fc4",2,0,2,21)
      ShowMessage("\\n<Momen (Affection:\\V[3198])>I don't want to do that...")
      0()
     EndIf()
     0()
    IfPlayerPicksChoice(1,null)
     0()
    404()
    0()
   EndIf()
   If(1,11,0,4,1)
    PictureClear(5)
    PictureClear(6)
    PictureClear(7)
    EndEventProcessing()
    0()
   EndIf()
   0()
  EndLoop()
  0()
 PAGE   2
  // condition: party contains actor #198
  0()



EVENT   18
 PAGE   1
  // condition: switch 1200 is ON
  PictureDisplay(5,"80_hitodama_st01",0,0,0,0,100,100,0,0)
  PictureMove(5,null,0,0,0,0,100,100,255,0,30,true)
  If(1,3200,0,100,1)
   If(1,4200,0,0,0)
    ChangeVariable(4200,4200,0,0,1)
    ShowMessageFace("hitodama_fc1",0,0,2,1)
    ShowMessage("\\n<Fear (Affection:\\V[3200])>Here, have this.")
    250(bytes(0x04,0x08,0x6f,0x3a,0x0c,0x52,0x50,0x47,0x3a,0x3a,0x53,0x45,0x08,0x3a,0x0a,0x40,0x6e,0x61,0x6d,0x65,0x49,0x22,0x0a,0x49,0x74,0x65,0x6d,0x31,0x06,0x3a,0x06,0x45,0x54,0x3a,0x0b,0x40,0x70,0x69,0x74,0x63,0x68,0x69,0x69,0x3a,0x0c,0x40,0x76,0x6f,0x6c,0x75,0x6d,0x65,0x69,0x55))
    ChangeInventoryArmor(1085,0,0,1,false)
    0()
   EndIf()
   0()
  EndIf()
  If(1,3200,0,500,1)
   If(1,4200,0,1,0)
    ChangeVariable(4200,4200,0,0,2)
    ShowMessageFace("hitodama_fc1",0,0,2,2)
    ShowMessage("\\n<Fear (Affection:\\V[3200])>Here, have this.")
    250(bytes(0x04,0x08,0x6f,0x3a,0x0c,0x52,0x50,0x47,0x3a,0x3a,0x53,0x45,0x08,0x3a,0x0a,0x40,0x6e,0x61,0x6d,0x65,0x49,0x22,0x0a,0x49,0x74,0x65,0x6d,0x31,0x06,0x3a,0x06,0x45,0x54,0x3a,0x0b,0x40,0x70,0x69,0x74,0x63,0x68,0x69,0x69,0x3a,0x0c,0x40,0x76,0x6f,0x6c,0x75,0x6d,0x65,0x69,0x55))
    ChangeInventoryArmor(1032,0,0,1,false)
    0()
   EndIf()
   0()
  EndIf()
  If(1,3200,0,2000,1)
   If(1,4200,0,2,0)
    ChangeVariable(4200,4200,0,0,3)
    ShowMessageFace("hitodama_fc1",0,0,2,3)
    ShowMessage("\\n<Fear (Affection:\\V[3200])>Here, have this.")
    250(bytes(0x04,0x08,0x6f,0x3a,0x0c,0x52,0x50,0x47,0x3a,0x3a,0x53,0x45,0x08,0x3a,0x0a,0x40,0x6e,0x61,0x6d,0x65,0x49,0x22,0x0a,0x49,0x74,0x65,0x6d,0x31,0x06,0x3a,0x06,0x45,0x54,0x3a,0x0b,0x40,0x70,0x69,0x74,0x63,0x68,0x69,0x69,0x3a,0x0c,0x40,0x76,0x6f,0x6c,0x75,0x6d,0x65,0x69,0x55))
    ChangeInventoryArmor(1434,0,0,1,false)
    0()
   EndIf()
   0()
  EndIf()
  If(1,3200,0,4000,1)
   If(1,4200,0,3,0)
    ChangeVariable(4200,4200,0,0,4)
    ShowMessageFace("hitodama_fc1",0,0,2,4)
    ShowMessage("\\n<Fear (Affection:\\V[3200])>Here, have this.")
    250(bytes(0x04,0x08,0x6f,0x3a,0x0c,0x52,0x50,0x47,0x3a,0x3a,0x53,0x45,0x08,0x3a,0x0a,0x40,0x6e,0x61,0x6d,0x65,0x49,0x22,0x0a,0x49,0x74,0x65,0x6d,0x31,0x06,0x3a,0x06,0x45,0x54,0x3a,0x0b,0x40,0x70,0x69,0x74,0x63,0x68,0x69,0x69,0x3a,0x0c,0x40,0x76,0x6f,0x6c,0x75,0x6d,0x65,0x69,0x55))
    ChangeInventoryArmor(1571,0,0,1,false)
    0()
   EndIf()
   0()
  EndIf()
  355("actor_label_jump")
  ShowMessageFace("hitodama_fc1",0,0,2,5)
  ShowMessage("\\n<Fear (Affection:\\V[3200])>Burning soul! Fire!\n...Do you need anything from me?")
  JumpToLabel("メニュー")
  DefineLabel("134")
  ShowMessageFace("hitodama_fc1",1,0,2,6)
  ShowMessage("\\n<Fear (Affection:\\V[3200])>Fire!")
  ShowMessageFace("chrom_fc2",1,0,2,7)
  ShowMessage("\\n<Chrome (Affection:\\V[3134])>Ohh? You're a hitodama...\nI've created them at my laboratory now and then.")
  ShowMessageFace("hitodama_fc1",2,0,2,8)
  ShowMessage("\\n<Fear (Affection:\\V[3200])>Isn't that because you're handling the corpses carelessly? Won't you get cursed?")
  ShowMessageFace("chrom_fc2",1,0,2,9)
  ShowMessage("\\n<Chrome (Affection:\\V[3134])>A necromancer can't be afraid of a ghost's curse. Even delusions can be mastered!")
  JumpToLabel("メニュー")
  DefineLabel("198")
  ShowMessageFace("hitodama_fc1",0,0,2,10)
  ShowMessage("\\n<Fear (Affection:\\V[3200])>Ah, Ittan-Momen-chan!\nHey hey, let's play!")
  ShowMessageFace("ittanmomen_fc4",2,0,2,11)
  ShowMessage("\\n<Momen (Affection:\\V[3198])>Kyaah, don't come near me!\nOur bodies will catch on fire and burn!")
  ShowMessageFace("hitodama_fc1",2,0,2,12)
  ShowMessage("\\n<Fear (Affection:\\V[3200])>Uh, what? I can't hear you...")
  ShowMessageFace("ittanmomen_fc4",2,0,2,13)
  ShowMessage("\\n<Momen (Affection:\\V[3198])>S-stay awaaay!!")
  JumpToLabel("メニュー")
  DefineLabel("210")
  ShowMessageFace("hitodama_fc1",0,0,2,14)
  ShowMessage("\\n<Fear (Affection:\\V[3200])>I'm a hitodama!")
  ShowMessageFace("ghost2_fc1",2,0,2,15)
  ShowMessage("\\n<Botan (Affection:\\V[3210])>What's the matter? Your soul is naked...")
  ShowMessageFace("hitodama_fc1",2,0,2,16)
  ShowMessage("\\n<Fear (Affection:\\V[3200])>Well, I'm a hitodama, so...")
  ShowMessageFace("ghost2_fc1",2,0,2,17)
  ShowMessage("\\n<Botan (Affection:\\V[3210])>What a strange ghost...")
  JumpToLabel("メニュー")
  DefineLabel("メニュー")
  StartLoop()
   355("unlimited_choices(11, [\"Give presents\",")
   655("\"Add to party\",")
   655("\"View present list\",\"Make a request\",")
   655("\"Never mind\"])")
   If(1,11,0,0,0)
    355("present_start(200)")
    0()
   EndIf()
   If(1,11,0,1,0)
    PictureClear(5)
    355("move_actor_ex(200)")
    EndEventProcessing()
    0()
   EndIf()
   If(1,11,0,2,0)
    ShowMessageFace("",0,0,2,18)
    ShowMessage("Affection     100:\\ia[1085]")
    ShowMessage("Affection     500:\\ia[1032]")
    ShowMessage("Affection   2000:\\ia[1434]")
    ShowMessage("Affection   4000:\\ia[1571]")
    0()
   EndIf()
   If(1,11,0,3,0)
    PictureClear(5)
    ShowMessageFace("",0,0,2,19)
    ShowMessage("Ask her for what? (Affection:\\V[3200])")
    ShowChoices(strings("Lightning(Affection:10)","Soul Wrapping(Affection:50)","Reverse Rape(Affection:100)","Never mind"),4)
    IfPlayerPicksChoice(0,null)
     If(1,3200,0,10,1)
      355("call_novel_scene(4811)")
      EndEventProcessing()
      0()
     Else()
      ShowMessageFace("hitodama_fc1",2,0,2,20)
      ShowMessage("\\n<Fear (Affection:\\V[3200])>Let's do that another time...")
      0()
     EndIf()
     0()
    IfPlayerPicksChoice(1,null)
     If(1,3200,0,50,1)
      355("call_novel_scene(4812)")
      EndEventProcessing()
      0()
     Else()
      ShowMessageFace("hitodama_fc1",2,0,2,21)
      ShowMessage("\\n<Fear (Affection:\\V[3200])>Let's do that another time...")
      0()
     EndIf()
     0()
    IfPlayerPicksChoice(2,null)
     If(1,3200,0,100,1)
      355("call_novel_scene(4813)")
      EndEventProcessing()
      0()
     Else()
      ShowMessageFace("hitodama_fc1",2,0,2,22)
      ShowMessage("\\n<Fear (Affection:\\V[3200])>Let's do that another time...")
      0()
     EndIf()
     0()
    IfPlayerPicksChoice(3,null)
     0()
    404()
    0()
   EndIf()
   If(1,11,0,4,1)
    PictureClear(5)
    EndEventProcessing()
    0()
   EndIf()
   0()
  EndLoop()
  0()
 PAGE   2
  // condition: party contains actor #200
  0()



EVENT   19
 PAGE   1
  // condition: switch 1210 is ON
  PictureDisplay(5,"80_ghost2_st01",0,0,0,0,100,100,0,0)
  PictureMove(5,null,0,0,0,0,100,100,255,0,30,true)
  If(1,3210,0,100,1)
   If(1,4210,0,0,0)
    ChangeVariable(4210,4210,0,0,1)
    ShowMessageFace("ghost2_fc1",1,0,2,1)
    ShowMessage("\\n<Botan (Affection:\\V[3210])>This was offered at my grave.")
    250(bytes(0x04,0x08,0x6f,0x3a,0x0c,0x52,0x50,0x47,0x3a,0x3a,0x53,0x45,0x08,0x3a,0x0a,0x40,0x6e,0x61,0x6d,0x65,0x49,0x22,0x0a,0x49,0x74,0x65,0x6d,0x31,0x06,0x3a,0x06,0x45,0x54,0x3a,0x0b,0x40,0x70,0x69,0x74,0x63,0x68,0x69,0x69,0x3a,0x0c,0x40,0x76,0x6f,0x6c,0x75,0x6d,0x65,0x69,0x55))
    ChangeInventoryArmor(1100,0,0,1,false)
    0()
   EndIf()
   0()
  EndIf()
  If(1,3210,0,500,1)
   If(1,4210,0,1,0)
    ChangeVariable(4210,4210,0,0,2)
    ShowMessageFace("ghost2_fc1",1,0,2,2)
    ShowMessage("\\n<Botan (Affection:\\V[3210])>This was offered at my grave.")
    250(bytes(0x04,0x08,0x6f,0x3a,0x0c,0x52,0x50,0x47,0x3a,0x3a,0x53,0x45,0x08,0x3a,0x0a,0x40,0x6e,0x61,0x6d,0x65,0x49,0x22,0x0a,0x49,0x74,0x65,0x6d,0x31,0x06,0x3a,0x06,0x45,0x54,0x3a,0x0b,0x40,0x70,0x69,0x74,0x63,0x68,0x69,0x69,0x3a,0x0c,0x40,0x76,0x6f,0x6c,0x75,0x6d,0x65,0x69,0x55))
    ChangeInventoryArmor(1142,0,0,1,false)
    0()
   EndIf()
   0()
  EndIf()
  If(1,3210,0,2000,1)
   If(1,4210,0,2,0)
    ChangeVariable(4210,4210,0,0,3)
    ShowMessageFace("ghost2_fc1",1,0,2,3)
    ShowMessage("\\n<Botan (Affection:\\V[3210])>This was offered at my grave.")
    250(bytes(0x04,0x08,0x6f,0x3a,0x0c,0x52,0x50,0x47,0x3a,0x3a,0x53,0x45,0x08,0x3a,0x0a,0x40,0x6e,0x61,0x6d,0x65,0x49,0x22,0x0a,0x49,0x74,0x65,0x6d,0x31,0x06,0x3a,0x06,0x45,0x54,0x3a,0x0b,0x40,0x70,0x69,0x74,0x63,0x68,0x69,0x69,0x3a,0x0c,0x40,0x76,0x6f,0x6c,0x75,0x6d,0x65,0x69,0x55))
    ChangeInventoryArmor(1062,0,0,1,false)
    0()
   EndIf()
   0()
  EndIf()
  If(1,3210,0,4000,1)
   If(1,4210,0,3,0)
    ChangeVariable(4210,4210,0,0,4)
    ShowMessageFace("ghost2_fc1",1,0,2,4)
    ShowMessage("\\n<Botan (Affection:\\V[3210])>This was offered at my grave.")
    250(bytes(0x04,0x08,0x6f,0x3a,0x0c,0x52,0x50,0x47,0x3a,0x3a,0x53,0x45,0x08,0x3a,0x0a,0x40,0x6e,0x61,0x6d,0x65,0x49,0x22,0x0a,0x49,0x74,0x65,0x6d,0x31,0x06,0x3a,0x06,0x45,0x54,0x3a,0x0b,0x40,0x70,0x69,0x74,0x63,0x68,0x69,0x69,0x3a,0x0c,0x40,0x76,0x6f,0x6c,0x75,0x6d,0x65,0x69,0x55))
    ChangeInventoryArmor(1605,0,0,1,false)
    0()
   EndIf()
   0()
  EndIf()
  355("actor_label_jump")
  ShowMessageFace("ghost2_fc1",0,0,2,5)
  ShowMessage("\\n<Botan (Affection:\\V[3210])>I wonder who I will be possessing next...\nThere's no opponent in particular I hold a grudge against.")
  JumpToLabel("メニュー")
  DefineLabel("130")
  ShowMessageFace("ghost_fc1",0,0,2,6)
  ShowMessage("\\n<Carrie (Affection:\\V[3130])>You're a ghost from Yamatai...")
  ShowMessageFace("ghost2_fc1",0,0,2,7)
  ShowMessage("\\n<Botan (Affection:\\V[3210])>I wonder if the next ghost will turn out to be a youkai...?")
  ShowMessageFace("ghost_fc1",0,0,2,8)
  ShowMessage("\\n<Carrie (Affection:\\V[3130])>Somehow, Yamatai ghosts seem like they're having fun...")
  ShowMessageFace("ghost2_fc1",1,0,2,9)
  ShowMessage("\\n<Botan (Affection:\\V[3210])>I don't have to worry about disease or examinations at all...♪")
  JumpToLabel("メニュー")
  DefineLabel("200")
  ShowMessageFace("hitodama_fc1",0,0,2,10)
  ShowMessage("\\n<Fear (Affection:\\V[3200])>I'm a hitodama!")
  ShowMessageFace("ghost2_fc1",2,0,2,11)
  ShowMessage("\\n<Botan (Affection:\\V[3210])>What's the matter? Your soul is naked...")
  ShowMessageFace("hitodama_fc1",2,0,2,12)
  ShowMessage("\\n<Fear (Affection:\\V[3200])>Well, I'm a hitodama, so...")
  ShowMessageFace("ghost2_fc1",2,0,2,13)
  ShowMessage("\\n<Botan (Affection:\\V[3210])>What a strange ghost...")
  JumpToLabel("メニュー")
  DefineLabel("301")
  ShowMessageFace("ghost2_fc1",2,0,2,14)
  ShowMessage("\\n<Botan (Affection:\\V[3210])>No way, that figure...\nRichiyo, you've become a tiger?!")
  ShowMessageFace("tora_fc1",0,0,2,15)
  ShowMessage("\\n<Konan (Affection:\\V[3301])>No, you're mistaken...")
  ShowMessageFace("ghost2_fc1",0,0,2,16)
  ShowMessage("\\n<Botan (Affection:\\V[3210])>You're right, there's no way my friend could become a tiger...")
  ShowMessageFace("tora_fc1",1,0,2,17)
  ShowMessage("\\n<Konan (Affection:\\V[3301])>People can sometimes become a different kind of tiger from madness.")
  ShowMessageFace("ghost2_fc1",2,0,2,18)
  ShowMessage("\\n<Botan (Affection:\\V[3210])>That's not like Richiyo at all!")
  ShowMessageFace("tora_fc1",0,0,2,19)
  ShowMessage("\\n<Konan (Affection:\\V[3301])>No, you're mistaken...")
  JumpToLabel("メニュー")
  DefineLabel("メニュー")
  StartLoop()
   355("unlimited_choices(11, [\"Give presents\",")
   655("\"Add to party\",")
   655("\"View present list\",\"Make a request\",")
   655("\"Never mind\"])")
   If(1,11,0,0,0)
    355("present_start(210)")
    0()
   EndIf()
   If(1,11,0,1,0)
    PictureClear(5)
    355("move_actor_ex(210)")
    EndEventProcessing()
    0()
   EndIf()
   If(1,11,0,2,0)
    ShowMessageFace("",0,0,2,20)
    ShowMessage("Affection     100:\\ia[1100]")
    ShowMessage("Affection     500:\\ia[1142]")
    ShowMessage("Affection   2000:\\ia[1062]")
    ShowMessage("Affection   4000:\\ia[1605]")
    0()
   EndIf()
   If(1,11,0,3,0)
    PictureClear(5)
    ShowMessageFace("",0,0,2,21)
    ShowMessage("Ask her for what? (Affection:\\V[3210])")
    ShowChoices(strings("Blowjob(Affection:10)","Paizuri Blowjob(Affection:100)","Never mind"),3)
    IfPlayerPicksChoice(0,null)
     If(1,3210,0,10,1)
      355("call_novel_scene(4861)")
      EndEventProcessing()
      0()
     Else()
      ShowMessageFace("ghost2_fc1",0,0,2,22)
      ShowMessage("\\n<Botan (Affection:\\V[3210])>Won't you die if you have sex with a ghost...?")
      0()
     EndIf()
     0()
    IfPlayerPicksChoice(1,null)
     If(1,3210,0,100,1)
      355("call_novel_scene(4862)")
      EndEventProcessing()
      0()
     Else()
      ShowMessageFace("ghost2_fc1",0,0,2,23)
      ShowMessage("\\n<Botan (Affection:\\V[3210])>Won't you die if you have sex with a ghost...?")
      0()
     EndIf()
     0()
    IfPlayerPicksChoice(2,null)
     0()
    404()
    0()
   EndIf()
   If(1,11,0,4,1)
    PictureClear(5)
    EndEventProcessing()
    0()
   EndIf()
   0()
  EndLoop()
  0()
 PAGE   2
  // condition: party contains actor #210
  0()



EVENT   20
 PAGE   1
  // condition: switch 1230 is ON
  PictureDisplay(5,"80_yamatanooroti_st01",0,0,0,0,100,100,0,0)
  PictureMove(5,null,0,0,0,0,100,100,255,0,30,true)
  If(1,3230,0,500,1)
   If(1,4230,0,0,0)
    ChangeVariable(4230,4230,0,0,1)
    ShowMessageFace("yamatanooroti_fc1",3,0,2,1)
    ShowMessage("\\n<Yamata no Orochi (Affection:\\V[3230])>You should make good use of this...")
    250(bytes(0x04,0x08,0x6f,0x3a,0x0c,0x52,0x50,0x47,0x3a,0x3a,0x53,0x45,0x08,0x3a,0x0a,0x40,0x6e,0x61,0x6d,0x65,0x49,0x22,0x0a,0x49,0x74,0x65,0x6d,0x31,0x06,0x3a,0x06,0x45,0x54,0x3a,0x0b,0x40,0x70,0x69,0x74,0x63,0x68,0x69,0x69,0x3a,0x0c,0x40,0x76,0x6f,0x6c,0x75,0x6d,0x65,0x69,0x55))
    ChangeInventoryArmor(1333,0,0,1,false)
    0()
   EndIf()
   0()
  EndIf()
  If(1,3230,0,2000,1)
   If(1,4230,0,1,0)
    ChangeVariable(4230,4230,0,0,2)
    ShowMessageFace("yamatanooroti_fc1",3,0,2,2)
    ShowMessage("\\n<Yamata no Orochi (Affection:\\V[3230])>You should make good use of this...")
    250(bytes(0x04,0x08,0x6f,0x3a,0x0c,0x52,0x50,0x47,0x3a,0x3a,0x53,0x45,0x08,0x3a,0x0a,0x40,0x6e,0x61,0x6d,0x65,0x49,0x22,0x0a,0x49,0x74,0x65,0x6d,0x31,0x06,0x3a,0x06,0x45,0x54,0x3a,0x0b,0x40,0x70,0x69,0x74,0x63,0x68,0x69,0x69,0x3a,0x0c,0x40,0x76,0x6f,0x6c,0x75,0x6d,0x65,0x69,0x55))
    ChangeInventoryArmor(1003,0,0,1,false)
    0()
   EndIf()
   0()
  EndIf()
  If(1,3230,0,4000,1)
   If(1,4230,0,2,0)
    ChangeVariable(4230,4230,0,0,3)
    ShowMessageFace("yamatanooroti_fc1",3,0,2,3)
    ShowMessage("\\n<Yamata no Orochi (Affection:\\V[3230])>You should make good use of this...")
    250(bytes(0x04,0x08,0x6f,0x3a,0x0c,0x52,0x50,0x47,0x3a,0x3a,0x53,0x45,0x08,0x3a,0x0a,0x40,0x6e,0x61,0x6d,0x65,0x49,0x22,0x0a,0x49,0x74,0x65,0x6d,0x31,0x06,0x3a,0x06,0x45,0x54,0x3a,0x0b,0x40,0x70,0x69,0x74,0x63,0x68,0x69,0x69,0x3a,0x0c,0x40,0x76,0x6f,0x6c,0x75,0x6d,0x65,0x69,0x55))
    ChangeInventoryArmor(1014,0,0,1,false)
    0()
   EndIf()
   0()
  EndIf()
  If(1,3230,0,6000,1)
   If(1,4230,0,3,0)
    ChangeVariable(4230,4230,0,0,4)
    ShowMessageFace("yamatanooroti_fc1",3,0,2,4)
    ShowMessage("\\n<Yamata no Orochi (Affection:\\V[3230])>You should make good use of this...")
    250(bytes(0x04,0x08,0x6f,0x3a,0x0c,0x52,0x50,0x47,0x3a,0x3a,0x53,0x45,0x08,0x3a,0x0a,0x40,0x6e,0x61,0x6d,0x65,0x49,0x22,0x0a,0x49,0x74,0x65,0x6d,0x31,0x06,0x3a,0x06,0x45,0x54,0x3a,0x0b,0x40,0x70,0x69,0x74,0x63,0x68,0x69,0x69,0x3a,0x0c,0x40,0x76,0x6f,0x6c,0x75,0x6d,0x65,0x69,0x55))
    ChangeInventoryArmor(1281,0,0,1,false)
    0()
   EndIf()
   0()
  EndIf()
  355("actor_label_jump")
  ShowMessageFace("yamatanooroti_fc1",3,0,2,5)
  ShowMessage("\\n<Yamata no Orochi (Affection:\\V[3230])>This is a better home than my cavern...\nDo your comrades over there want to be my sacrifices?")
  JumpToLabel("メニュー")
  DefineLabel("153")
  ShowMessageFace("sphinx_fc1",0,0,2,6)
  ShowMessage("\\n<Sphinx (Affection:\\V[3153])>Oho, Yamata no Orochi...\nFor us to be traveling together is an unusual coincidence.")
  ShowMessageFace("yamatanooroti_fc1",3,0,2,7)
  ShowMessage("\\n<Yamata no Orochi (Affection:\\V[3230])>You're going whichever way the wind blows?\nI never expected you to leave the Pyramid...")
  ShowMessageFace("sphinx_fc1",0,0,2,8)
  ShowMessage("\\n<Sphinx (Affection:\\V[3153])>We have both secluded ourselves...\nIt will be interesting to fight together against the crisis facing this world.")
  ShowMessageFace("yamatanooroti_fc1",3,0,2,9)
  ShowMessage("\\n<Yamata no Orochi (Affection:\\V[3230])>Kuku, I've certainly grown tired of boredom.\nThis sort of plan is something I will enjoy...")
  JumpToLabel("メニュー")
  DefineLabel("226")
  ShowMessageFace("sirohebisama_fc1",0,0,2,10)
  ShowMessage("\\n<Shirohebi (Affection:\\V[3226])>I say, Yamata no Orochi...\nWe're both completely used to each other nowadays.")
  ShowMessageFace("yamatanooroti_fc1",3,0,2,11)
  ShowMessage("\\n<Yamata no Orochi (Affection:\\V[3230])>Hmm, this is quite a fresh thing.\nI'm enjoying myself as it is.")
  ShowMessageFace("sirohebisama_fc1",0,0,2,12)
  ShowMessage("\\n<Shirohebi (Affection:\\V[3226])>Well, traveling around the world isn't so bad,\nif only to look forward to the sightseeing...")
  ShowMessageFace("yamatanooroti_fc1",3,0,2,13)
  ShowMessage("\\n<Yamata no Orochi (Affection:\\V[3230])>It is my principle to enjoy anything.\nIf you can enjoy it, I'm satisfied...")
  JumpToLabel("メニュー")
  DefineLabel("374")
  ShowMessageFace("cirqueb_fc4",0,0,2,14)
  ShowMessage("\\n<Aria Lamia (Affection:\\V[3374])>Yamata no Orochi...\nThese must be dreadful times if you are needed in the outside world.")
  ShowMessageFace("yamatanooroti_fc1",3,0,2,15)
  ShowMessage("\\n<Yamata no Orochi (Affection:\\V[3230])>Before I knew it, you were dead...\nTo have been poisoned at a banquet, you are beyond careless.")
  ShowMessageFace("cirqueb_fc4",0,0,2,16)
  ShowMessage("\\n<Aria Lamia (Affection:\\V[3374])>Who was it that became intoxicated and almost got exterminated...?")
  ShowMessageFace("yamatanooroti_fc3",3,0,2,17)
  ShowMessage("\\n<Yamata no Orochi (Affection:\\V[3230])>That happened a long time ago, forget it!")
  JumpToLabel("メニュー")
  DefineLabel("メニュー")
  StartLoop()
   355("unlimited_choices(11, [\"Give presents\",")
   655("\"Add to party\",")
   655("\"View present list\",\"Make a request\",")
   655("\"Never mind\"])")
   If(1,11,0,0,0)
    355("present_start(230)")
    0()
   EndIf()
   If(1,11,0,1,0)
    PictureClear(5)
    355("move_actor_ex(230)")
    EndEventProcessing()
    0()
   EndIf()
   If(1,11,0,2,0)
    ShowMessageFace("",0,0,2,18)
    ShowMessage("Affection     500:\\ia[1333]")
    ShowMessage("Affection   2000:\\ia[1003]")
    ShowMessage("Affection   4000:\\ia[1014]")
    ShowMessage("Affection   6000:\\ia[1281]")
    0()
   EndIf()
   If(1,11,0,3,0)
    PictureClear(5)
    ShowMessageFace("",0,0,2,19)
    ShowMessage("Ask her for what? (Affection:\\V[3230])")
    ShowChoices(strings("Whole Body Licking(Affection:10)","Never mind"),2)
    IfPlayerPicksChoice(0,null)
     If(1,3230,0,10,1)
      355("call_novel_scene(4966)")
      EndEventProcessing()
      0()
     Else()
      ShowMessageFace("yamatanooroti_fc1",3,0,2,20)
      ShowMessage("\\n<Yamata no Orochi (Affection:\\V[3230])>I'm not in the mood right now.")
      0()
     EndIf()
     0()
    IfPlayerPicksChoice(1,null)
     0()
    404()
    0()
   EndIf()
   If(1,11,0,4,1)
    PictureClear(5)
    EndEventProcessing()
    0()
   EndIf()
   0()
  EndLoop()
  0()
 PAGE   2
  // condition: party contains actor #230
  0()



EVENT   21
 PAGE   1
  // condition: switch 1221 is ON
  PictureDisplay(5,"80_yukionna_st01",0,0,0,0,100,100,0,0)
  PictureMove(5,null,0,0,0,0,100,100,255,0,30,true)
  If(1,3221,0,100,1)
   If(1,4221,0,0,0)
    ChangeVariable(4221,4221,0,0,1)
    ShowMessageFace("yukionna_fc1",0,0,2,1)
    ShowMessage("\\n<Oyuki (Affection:\\V[3221])>Receive this...")
    250(bytes(0x04,0x08,0x6f,0x3a,0x0c,0x52,0x50,0x47,0x3a,0x3a,0x53,0x45,0x08,0x3a,0x0a,0x40,0x6e,0x61,0x6d,0x65,0x49,0x22,0x0a,0x49,0x74,0x65,0x6d,0x31,0x06,0x3a,0x06,0x45,0x54,0x3a,0x0b,0x40,0x70,0x69,0x74,0x63,0x68,0x69,0x69,0x3a,0x0c,0x40,0x76,0x6f,0x6c,0x75,0x6d,0x65,0x69,0x55))
    ChangeInventoryArmor(1085,0,0,1,false)
    0()
   EndIf()
   0()
  EndIf()
  If(1,3221,0,500,1)
   If(1,4221,0,1,0)
    ChangeVariable(4221,4221,0,0,2)
    ShowMessageFace("yukionna_fc1",0,0,2,2)
    ShowMessage("\\n<Oyuki (Affection:\\V[3221])>Receive this...")
    250(bytes(0x04,0x08,0x6f,0x3a,0x0c,0x52,0x50,0x47,0x3a,0x3a,0x53,0x45,0x08,0x3a,0x0a,0x40,0x6e,0x61,0x6d,0x65,0x49,0x22,0x0a,0x49,0x74,0x65,0x6d,0x31,0x06,0x3a,0x06,0x45,0x54,0x3a,0x0b,0x40,0x70,0x69,0x74,0x63,0x68,0x69,0x69,0x3a,0x0c,0x40,0x76,0x6f,0x6c,0x75,0x6d,0x65,0x69,0x55))
    ChangeInventoryArmor(1246,0,0,1,false)
    0()
   EndIf()
   0()
  EndIf()
  If(1,3221,0,2000,1)
   If(1,4221,0,2,0)
    ChangeVariable(4221,4221,0,0,3)
    ShowMessageFace("yukionna_fc1",0,0,2,3)
    ShowMessage("\\n<Oyuki (Affection:\\V[3221])>Receive this...")
    250(bytes(0x04,0x08,0x6f,0x3a,0x0c,0x52,0x50,0x47,0x3a,0x3a,0x53,0x45,0x08,0x3a,0x0a,0x40,0x6e,0x61,0x6d,0x65,0x49,0x22,0x0a,0x49,0x74,0x65,0x6d,0x31,0x06,0x3a,0x06,0x45,0x54,0x3a,0x0b,0x40,0x70,0x69,0x74,0x63,0x68,0x69,0x69,0x3a,0x0c,0x40,0x76,0x6f,0x6c,0x75,0x6d,0x65,0x69,0x55))
    ChangeInventoryArmor(1203,0,0,1,false)
    0()
   EndIf()
   0()
  EndIf()
  If(1,3221,0,4000,1)
   If(1,4221,0,3,0)
    ChangeVariable(4221,4221,0,0,4)
    ShowMessageFace("yukionna_fc1",0,0,2,4)
    ShowMessage("\\n<Oyuki (Affection:\\V[3221])>Receive this...")
    250(bytes(0x04,0x08,0x6f,0x3a,0x0c,0x52,0x50,0x47,0x3a,0x3a,0x53,0x45,0x08,0x3a,0x0a,0x40,0x6e,0x61,0x6d,0x65,0x49,0x22,0x0a,0x49,0x74,0x65,0x6d,0x31,0x06,0x3a,0x06,0x45,0x54,0x3a,0x0b,0x40,0x70,0x69,0x74,0x63,0x68,0x69,0x69,0x3a,0x0c,0x40,0x76,0x6f,0x6c,0x75,0x6d,0x65,0x69,0x55))
    ChangeInventoryArmor(1563,0,0,1,false)
    0()
   EndIf()
   0()
  EndIf()
  355("actor_label_jump")
  ShowMessageFace("yukionna_fc1",0,0,2,5)
  ShowMessage("\\n<Oyuki (Affection:\\V[3221])>I'm searching for a human to be my husband.\nI wonder if there are any men who do not mind yuki-onna...")
  JumpToLabel("メニュー")
  DefineLabel("272")
  ShowMessageFace("seiren_fc1",0,0,2,6)
  ShowMessage("\\n<Leene (Affection:\\V[3272])>Yuki-onna and sirens...\nIt's like we're both hated species.")
  ShowMessageFace("yukionna_fc1",0,0,2,7)
  ShowMessage("\\n<Oyuki (Affection:\\V[3221])>You sing a captivating song...\nEverything around me becomes frozen...")
  ShowMessageFace("seiren_fc1",0,0,2,8)
  ShowMessage("\\n<Leene (Affection:\\V[3272])>Well, let's try doing our best together.\nIf I charm all of the humans in the world, I will stop being hated.")
  ShowMessageFace("yukionna_fc1",1,0,2,9)
  ShowMessage("\\n<Oyuki (Affection:\\V[3221])>Yeah, if I freeze all of the humans...\nI expect I will stop being loathed.")
  JumpToLabel("メニュー")
  DefineLabel("353")
  ShowMessageFace("icemaze_fc1",0,0,2,10)
  ShowMessage("\\n<Irma (Affection:\\V[3353])>Snow youkai...\nI envy that you've possessed the power of ice since birth.")
  ShowMessageFace("yukionna_fc1",0,0,2,11)
  ShowMessage("\\n<Oyuki (Affection:\\V[3221])>You are a witch...\nIt's strange that someone would wish to obtain the loathed power of ice.")
  ShowMessageFace("icemaze_fc1",0,0,2,12)
  ShowMessage("\\n<Irma (Affection:\\V[3353])>It is a magnificent power for me.\nDo you not like the power of ice...?")
  ShowMessageFace("yukionna_fc1",0,0,2,13)
  ShowMessage("\\n<Oyuki (Affection:\\V[3221])>This power keeps humans and monsters away...\nEveryone dislikes the cold...")
  JumpToLabel("メニュー")
  DefineLabel("354")
  ShowMessageFace("yukionna_fc1",1,0,2,14)
  ShowMessage("\\n<Oyuki (Affection:\\V[3221])>Ara, polar bear...\nWelcome, let's be good friends.")
  ShowMessageFace("shirokuma_fc1",0,0,2,15)
  ShowMessage("\\n<Knoot (Affection:\\V[3354])>Cold...don't like...")
  ShowMessageFace("yukionna_fc1",0,0,2,16)
  ShowMessage("\\n<Oyuki (Affection:\\V[3221])>You're a polar bear, yet you dislike the cold?\nYou're a strange girl...")
  ShowMessageFace("shirokuma_fc1",0,0,2,17)
  ShowMessage("\\n<Knoot (Affection:\\V[3354])>Cold...")
  JumpToLabel("メニュー")
  DefineLabel("メニュー")
  StartLoop()
   355("unlimited_choices(11, [\"Give presents\",")
   655("\"Add to party\",")
   655("\"View present list\",\"Make a request\",")
   655("\"Never mind\"])")
   If(1,11,0,0,0)
    355("present_start(221)")
    0()
   EndIf()
   If(1,11,0,1,0)
    PictureClear(5)
    355("move_actor_ex(221)")
    EndEventProcessing()
    0()
   EndIf()
   If(1,11,0,2,0)
    ShowMessageFace("",0,0,2,18)
    ShowMessage("Affection     100:\\ia[1085]")
    ShowMessage("Affection     500:\\ia[1246]")
    ShowMessage("Affection   2000:\\ia[1203]")
    ShowMessage("Affection   4000:\\ia[1563]")
    0()
   EndIf()
   If(1,11,0,3,0)
    PictureClear(5)
    ShowMessageFace("",0,0,2,19)
    ShowMessage("Ask her for what? (Affection:\\V[3221])")
    ShowChoices(strings("Semen Sucking Embrace(Affection:10)","Chilling Embrace(Affection:100)","Never mind"),3)
    IfPlayerPicksChoice(0,null)
     If(1,3221,0,10,1)
      355("call_novel_scene(4916)")
      EndEventProcessing()
      0()
     Else()
      ShowMessageFace("yukionna_fc1",0,0,2,20)
      ShowMessage("\\n<Oyuki (Affection:\\V[3221])>Now is not the time yet...")
      0()
     EndIf()
     0()
    IfPlayerPicksChoice(1,null)
     If(1,3221,0,100,1)
      355("call_novel_scene(4917)")
      EndEventProcessing()
      0()
     Else()
      ShowMessageFace("yukionna_fc1",0,0,2,21)
      ShowMessage("\\n<Oyuki (Affection:\\V[3221])>Now is not the time yet...")
      0()
     EndIf()
     0()
    IfPlayerPicksChoice(2,null)
     0()
    404()
    0()
   EndIf()
   If(1,11,0,4,1)
    PictureClear(5)
    EndEventProcessing()
    0()
   EndIf()
   0()
  EndLoop()
  0()
 PAGE   2
  // condition: party contains actor #221
  0()



EVENT   22
 PAGE   1
  // condition: switch 1224 is ON
  PictureDisplay(5,"80_kappa_st01",0,0,0,0,100,100,0,0)
  PictureMove(5,null,0,0,0,0,100,100,255,0,30,true)
  If(1,3224,0,100,1)
   If(1,4224,0,0,0)
    ChangeVariable(4224,4224,0,0,1)
    ShowMessageFace("kappa_fc1",0,0,2,1)
    ShowMessage("\\n<Kawako (Affection:\\V[3224])>I picked this up!")
    250(bytes(0x04,0x08,0x6f,0x3a,0x0c,0x52,0x50,0x47,0x3a,0x3a,0x53,0x45,0x08,0x3a,0x0a,0x40,0x6e,0x61,0x6d,0x65,0x49,0x22,0x0a,0x49,0x74,0x65,0x6d,0x31,0x06,0x3a,0x06,0x45,0x54,0x3a,0x0b,0x40,0x70,0x69,0x74,0x63,0x68,0x69,0x69,0x3a,0x0c,0x40,0x76,0x6f,0x6c,0x75,0x6d,0x65,0x69,0x55))
    ChangeInventoryArmor(1081,0,0,1,false)
    0()
   EndIf()
   0()
  EndIf()
  If(1,3224,0,500,1)
   If(1,4224,0,1,0)
    ChangeVariable(4224,4224,0,0,2)
    ShowMessageFace("kappa_fc1",0,0,2,2)
    ShowMessage("\\n<Kawako (Affection:\\V[3224])>I picked this up!")
    250(bytes(0x04,0x08,0x6f,0x3a,0x0c,0x52,0x50,0x47,0x3a,0x3a,0x53,0x45,0x08,0x3a,0x0a,0x40,0x6e,0x61,0x6d,0x65,0x49,0x22,0x0a,0x49,0x74,0x65,0x6d,0x31,0x06,0x3a,0x06,0x45,0x54,0x3a,0x0b,0x40,0x70,0x69,0x74,0x63,0x68,0x69,0x69,0x3a,0x0c,0x40,0x76,0x6f,0x6c,0x75,0x6d,0x65,0x69,0x55))
    ChangeInventoryArmor(1082,0,0,1,false)
    0()
   EndIf()
   0()
  EndIf()
  If(1,3224,0,2000,1)
   If(1,4224,0,2,0)
    ChangeVariable(4224,4224,0,0,3)
    ShowMessageFace("kappa_fc1",0,0,2,3)
    ShowMessage("\\n<Kawako (Affection:\\V[3224])>I picked this up!")
    250(bytes(0x04,0x08,0x6f,0x3a,0x0c,0x52,0x50,0x47,0x3a,0x3a,0x53,0x45,0x08,0x3a,0x0a,0x40,0x6e,0x61,0x6d,0x65,0x49,0x22,0x0a,0x49,0x74,0x65,0x6d,0x31,0x06,0x3a,0x06,0x45,0x54,0x3a,0x0b,0x40,0x70,0x69,0x74,0x63,0x68,0x69,0x69,0x3a,0x0c,0x40,0x76,0x6f,0x6c,0x75,0x6d,0x65,0x69,0x55))
    ChangeInventoryArmor(1003,0,0,1,false)
    0()
   EndIf()
   0()
  EndIf()
  If(1,3224,0,4000,1)
   If(1,4224,0,3,0)
    ChangeVariable(4224,4224,0,0,4)
    ShowMessageFace("kappa_fc1",0,0,2,4)
    ShowMessage("\\n<Kawako (Affection:\\V[3224])>I picked this up!")
    250(bytes(0x04,0x08,0x6f,0x3a,0x0c,0x52,0x50,0x47,0x3a,0x3a,0x53,0x45,0x08,0x3a,0x0a,0x40,0x6e,0x61,0x6d,0x65,0x49,0x22,0x0a,0x49,0x74,0x65,0x6d,0x31,0x06,0x3a,0x06,0x45,0x54,0x3a,0x0b,0x40,0x70,0x69,0x74,0x63,0x68,0x69,0x69,0x3a,0x0c,0x40,0x76,0x6f,0x6c,0x75,0x6d,0x65,0x69,0x55))
    ChangeInventoryArmor(1601,0,0,1,false)
    0()
   EndIf()
   0()
  EndIf()
  355("actor_label_jump")
  ShowMessageFace("kappa_fc1",0,0,2,5)
  ShowMessage("\\n<Kawako (Affection:\\V[3224])>Kappapa! ♪\nHey, you want to sumo wrestle?")
  JumpToLabel("メニュー")
  DefineLabel("223")
  ShowMessageFace("kappa_fc1",0,0,2,6)
  ShowMessage("\\n<Kawako (Affection:\\V[3224])>Kappapa! ♪\nAkaname-chan, let's sumo wrestle!")
  ShowMessageFace("akaname_fc2",2,0,2,7)
  ShowMessage("\\n<Kaname (Affection:\\V[3223])>Okay! ♪\n*lick* *lick* *lick*♪")
  ShowMessageFace("kappa_fc1",2,0,2,8)
  ShowMessage("\\n<Kawako (Affection:\\V[3224])>Hyaaaa...!\nWhy am I getting licked by three people, that's no fair!")
  ShowMessageFace("akaname_fc2",1,0,2,9)
  ShowMessage("\\n<Kaname (Affection:\\V[3223])>*lick* *lick*\nKawako-chan's body tastes like cucumbers...♪")
  JumpToLabel("メニュー")
  DefineLabel("226")
  ShowMessageFace("kappa_fc1",0,0,2,10)
  ShowMessage("\\n<Kawako (Affection:\\V[3224])>Lady Shirohebi! Hey, don't you want to sumo wrestle?")
  ShowMessageFace("sirohebisama_fc1",0,0,2,11)
  ShowMessage("\\n<Shirohebi (Affection:\\V[3226])>There's no reason for me to play with you...")
  ShowMessageFace("kappa_fc1",2,0,2,12)
  ShowMessage("\\n<Kawako (Affection:\\V[3224])>Aww...")
  ShowMessageFace("sirohebisama_fc1",0,0,2,13)
  ShowMessage("\\n<Shirohebi (Affection:\\V[3226])>Hmm...but sometimes during the village festival...")
  JumpToLabel("メニュー")
  DefineLabel("269")
  ShowMessageFace("kappa_fc1",0,0,2,14)
  ShowMessage("\\n<Kawako (Affection:\\V[3224])>Hey, do you want to sumo wrestle?")
  ShowMessageFace("yougan_fc1",0,0,2,15)
  ShowMessage("\\n<Romi (Affection:\\V[3269])>You'd better stop that...")
  ShowMessageFace("kappa_fc1",2,0,2,16)
  ShowMessage("\\n<Kawako (Affection:\\V[3224])>Hakkeyoi...AYIEEE!!")
  ShowMessageFace("yougan_fc1",0,0,2,17)
  ShowMessage("\\n<Romi (Affection:\\V[3269])>I told you so...")
  JumpToLabel("メニュー")
  DefineLabel("メニュー")
  StartLoop()
   355("unlimited_choices(11, [\"Give presents\",")
   655("\"Add to party\",")
   655("\"View present list\",\"Make a request\",")
   655("\"Never mind\"])")
   If(1,11,0,0,0)
    355("present_start(224)")
    0()
   EndIf()
   If(1,11,0,1,0)
    PictureClear(5)
    355("move_actor_ex(224)")
    EndEventProcessing()
    0()
   EndIf()
   If(1,11,0,2,0)
    ShowMessageFace("",0,0,2,18)
    ShowMessage("Affection     100:\\ia[1081]")
    ShowMessage("Affection     500:\\ia[1082]")
    ShowMessage("Affection   2000:\\ia[1003]")
    ShowMessage("Affection   4000:\\ia[1601]")
    0()
   EndIf()
   If(1,11,0,3,0)
    PictureClear(5)
    ShowMessageFace("",0,0,2,19)
    ShowMessage("Ask her for what? (Affection:\\V[3224])")
    ShowChoices(strings("Anal Torture(Affection:10)","Reverse Rape(Affection:100)","Never mind"),3)
    IfPlayerPicksChoice(0,null)
     If(1,3224,0,10,1)
      355("call_novel_scene(4936)")
      EndEventProcessing()
      0()
     Else()
      ShowMessageFace("kappa_fc1",0,0,2,20)
      ShowMessage("\\n<Kawako (Affection:\\V[3224])>Sumo wrestling is more fun♪")
      0()
     EndIf()
     0()
    IfPlayerPicksChoice(1,null)
     If(1,3224,0,100,1)
      355("call_novel_scene(4937)")
      EndEventProcessing()
      0()
     Else()
      ShowMessageFace("kappa_fc1",0,0,2,21)
      ShowMessage("\\n<Kawako (Affection:\\V[3224])>Sumo wrestling is more fun♪")
      0()
     EndIf()
     0()
    IfPlayerPicksChoice(2,null)
     0()
    404()
    0()
   EndIf()
   If(1,11,0,4,1)
    PictureClear(5)
    EndEventProcessing()
    0()
   EndIf()
   0()
  EndLoop()
  0()
 PAGE   2
  // condition: party contains actor #224
  0()



EVENT   23
 PAGE   1
  // condition: switch 1353 is ON
  PictureDisplay(5,"80_icemaze_st01",0,0,0,0,100,100,0,0)
  PictureMove(5,null,0,0,0,0,100,100,255,0,30,true)
  If(1,3353,0,500,1)
   If(1,4353,0,0,0)
    ChangeVariable(4353,4353,0,0,1)
    ShowMessageFace("icemaze_fc1",0,0,2,1)
    ShowMessage("\\n<Irma (Affection:\\V[3353])>This should be useful...")
    250(bytes(0x04,0x08,0x6f,0x3a,0x0c,0x52,0x50,0x47,0x3a,0x3a,0x53,0x45,0x08,0x3a,0x0a,0x40,0x6e,0x61,0x6d,0x65,0x49,0x22,0x0a,0x49,0x74,0x65,0x6d,0x31,0x06,0x3a,0x06,0x45,0x54,0x3a,0x0b,0x40,0x70,0x69,0x74,0x63,0x68,0x69,0x69,0x3a,0x0c,0x40,0x76,0x6f,0x6c,0x75,0x6d,0x65,0x69,0x55))
    ChangeInventoryArmor(1246,0,0,1,false)
    0()
   EndIf()
   0()
  EndIf()
  If(1,3353,0,2000,1)
   If(1,4353,0,1,0)
    ChangeVariable(4353,4353,0,0,2)
    ShowMessageFace("icemaze_fc1",0,0,2,2)
    ShowMessage("\\n<Irma (Affection:\\V[3353])>This should be useful...")
    250(bytes(0x04,0x08,0x6f,0x3a,0x0c,0x52,0x50,0x47,0x3a,0x3a,0x53,0x45,0x08,0x3a,0x0a,0x40,0x6e,0x61,0x6d,0x65,0x49,0x22,0x0a,0x49,0x74,0x65,0x6d,0x31,0x06,0x3a,0x06,0x45,0x54,0x3a,0x0b,0x40,0x70,0x69,0x74,0x63,0x68,0x69,0x69,0x3a,0x0c,0x40,0x76,0x6f,0x6c,0x75,0x6d,0x65,0x69,0x55))
    ChangeInventoryArmor(1101,0,0,1,false)
    0()
   EndIf()
   0()
  EndIf()
  If(1,3353,0,4000,1)
   If(1,4353,0,2,0)
    ChangeVariable(4353,4353,0,0,3)
    ShowMessageFace("icemaze_fc1",0,0,2,3)
    ShowMessage("\\n<Irma (Affection:\\V[3353])>This should be useful...")
    250(bytes(0x04,0x08,0x6f,0x3a,0x0c,0x52,0x50,0x47,0x3a,0x3a,0x53,0x45,0x08,0x3a,0x0a,0x40,0x6e,0x61,0x6d,0x65,0x49,0x22,0x0a,0x49,0x74,0x65,0x6d,0x31,0x06,0x3a,0x06,0x45,0x54,0x3a,0x0b,0x40,0x70,0x69,0x74,0x63,0x68,0x69,0x69,0x3a,0x0c,0x40,0x76,0x6f,0x6c,0x75,0x6d,0x65,0x69,0x55))
    ChangeInventoryArmor(1247,0,0,1,false)
    0()
   EndIf()
   0()
  EndIf()
  If(1,3353,0,6000,1)
   If(1,4353,0,3,0)
    ChangeVariable(4353,4353,0,0,4)
    ShowMessageFace("icemaze_fc1",0,0,2,4)
    ShowMessage("\\n<Irma (Affection:\\V[3353])>This should be useful...")
    250(bytes(0x04,0x08,0x6f,0x3a,0x0c,0x52,0x50,0x47,0x3a,0x3a,0x53,0x45,0x08,0x3a,0x0a,0x40,0x6e,0x61,0x6d,0x65,0x49,0x22,0x0a,0x49,0x74,0x65,0x6d,0x31,0x06,0x3a,0x06,0x45,0x54,0x3a,0x0b,0x40,0x70,0x69,0x74,0x63,0x68,0x69,0x69,0x3a,0x0c,0x40,0x76,0x6f,0x6c,0x75,0x6d,0x65,0x69,0x55))
    ChangeInventoryArmor(1444,0,0,1,false)
    0()
   EndIf()
   0()
  EndIf()
  355("actor_label_jump")
  ShowMessageFace("icemaze_fc1",0,0,2,5)
  ShowMessage("\\n<Irma (Affection:\\V[3353])>Don't take me to any warm places...\nI'm just fine with freezing.")
  JumpToLabel("メニュー")
  DefineLabel("221")
  ShowMessageFace("icemaze_fc1",0,0,2,6)
  ShowMessage("\\n<Irma (Affection:\\V[3353])>Snow youkai...\nI envy that you've possessed the power of ice since birth.")
  ShowMessageFace("yukionna_fc1",0,0,2,7)
  ShowMessage("\\n<Oyuki (Affection:\\V[3221])>You are a witch...\nIt's strange that someone would wish to obtain the loathed power of ice.")
  ShowMessageFace("icemaze_fc1",0,0,2,8)
  ShowMessage("\\n<Irma (Affection:\\V[3353])>It is a magnificent power for me.\nDo you not like the power of ice...?")
  ShowMessageFace("yukionna_fc1",0,0,2,9)
  ShowMessage("\\n<Oyuki (Affection:\\V[3221])>This power keeps humans and monsters away...\nEveryone dislikes the cold...")
  JumpToLabel("メニュー")
  DefineLabel("342")
  ShowMessageFace("icemaze_fc1",0,0,2,10)
  ShowMessage("\\n<Irma (Affection:\\V[3353])>The highest rank of ghost...\nI'm a little envious of that power.")
  ShowMessageFace("m_shadow_fc1",0,0,2,11)
  ShowMessage("\\n<Esmeralda (Affection:\\V[3342])>To envy my grudge...\nYou must be a witch.")
  ShowMessageFace("icemaze_fc1",1,0,2,12)
  ShowMessage("\\n<Irma (Affection:\\V[3353])>Can you share a bit of your grudge with me?\nI want to take it in and make that power into my own...")
  ShowMessageFace("m_shadow_fc1",0,0,2,13)
  ShowMessage("\\n<Esmeralda (Affection:\\V[3342])>With your living body, it would be best if you gave that up...")
  JumpToLabel("メニュー")
  DefineLabel("354")
  ShowMessageFace("shirokuma_fc1",0,0,2,14)
  ShowMessage("\\n<Knoot (Affection:\\V[3354])>Cold...")
  ShowMessageFace("icemaze_fc1",0,0,2,15)
  ShowMessage("\\n<Irma (Affection:\\V[3353])>Why do you feel cold, girl?\nEven though you live in a cold region...")
  ShowMessageFace("shirokuma_fc1",0,0,2,16)
  ShowMessage("\\n<Knoot (Affection:\\V[3354])>No no, stay away...")
  ShowMessageFace("icemaze_fc1",0,0,2,17)
  ShowMessage("\\n<Irma (Affection:\\V[3353])>Does it get cold when I approach you?\nI've done a bad thing...")
  JumpToLabel("メニュー")
  DefineLabel("メニュー")
  StartLoop()
   355("unlimited_choices(11, [\"Give presents\",")
   655("\"Add to party\",")
   655("\"View present list\",\"Make a request\",")
   655("\"Never mind\"])")
   If(1,11,0,0,0)
    355("present_start(353)")
    0()
   EndIf()
   If(1,11,0,1,0)
    PictureClear(5)
    355("move_actor_ex(353)")
    EndEventProcessing()
    0()
   EndIf()
   If(1,11,0,2,0)
    ShowMessageFace("",0,0,2,18)
    ShowMessage("Affection     500:\\ia[1246]")
    ShowMessage("Affection   2000:\\ia[1101]")
    ShowMessage("Affection   4000:\\ia[1247]")
    ShowMessage("Affection   6000:\\ia[1444]")
    0()
   EndIf()
   If(1,11,0,3,0)
    PictureClear(5)
    ShowMessageFace("",0,0,2,19)
    ShowMessage("Ask her for what? (Affection:\\V[3353])")
    ShowChoices(strings("Reverse Rape(Affection:10)","Reverse Rape...?(Affection:100)","Never mind"),3)
    IfPlayerPicksChoice(0,null)
     If(1,3353,0,10,1)
      355("call_novel_scene(5581)")
      EndEventProcessing()
      0()
     Else()
      ShowMessageFace("icemaze_fc1",0,0,2,20)
      ShowMessage("\\n<Irma (Affection:\\V[3353])>I'm busy right now...")
      0()
     EndIf()
     0()
    IfPlayerPicksChoice(1,null)
     If(1,3353,0,100,1)
      355("call_novel_scene(5582)")
      EndEventProcessing()
      0()
     Else()
      ShowMessageFace("icemaze_fc1",0,0,2,21)
      ShowMessage("\\n<Irma (Affection:\\V[3353])>I'm busy right now...")
      0()
     EndIf()
     0()
    IfPlayerPicksChoice(2,null)
     0()
    404()
    0()
   EndIf()
   If(1,11,0,4,1)
    PictureClear(5)
    EndEventProcessing()
    0()
   EndIf()
   0()
  EndLoop()
  0()
 PAGE   2
  // condition: party contains actor #353
  0()



EVENT   24
 PAGE   1
  // condition: switch 1354 is ON
  PictureDisplay(5,"80_shirokuma_st01",0,0,0,0,100,100,0,0)
  PictureMove(5,null,0,0,0,0,100,100,255,0,30,true)
  If(1,3354,0,500,1)
   If(1,4354,0,0,0)
    ChangeVariable(4354,4354,0,0,1)
    ShowMessageFace("shirokuma_fc1",0,0,2,1)
    ShowMessage("\\n<Knoot (Affection:\\V[3354])>This is warm...")
    250(bytes(0x04,0x08,0x6f,0x3a,0x0c,0x52,0x50,0x47,0x3a,0x3a,0x53,0x45,0x08,0x3a,0x0a,0x40,0x6e,0x61,0x6d,0x65,0x49,0x22,0x0a,0x49,0x74,0x65,0x6d,0x31,0x06,0x3a,0x06,0x45,0x54,0x3a,0x0b,0x40,0x70,0x69,0x74,0x63,0x68,0x69,0x69,0x3a,0x0c,0x40,0x76,0x6f,0x6c,0x75,0x6d,0x65,0x69,0x55))
    ChangeInventoryArmor(1562,0,0,1,false)
    0()
   EndIf()
   0()
  EndIf()
  If(1,3354,0,2000,1)
   If(1,4354,0,1,0)
    ChangeVariable(4354,4354,0,0,2)
    ShowMessageFace("shirokuma_fc1",0,0,2,2)
    ShowMessage("\\n<Knoot (Affection:\\V[3354])>This is warm...")
    250(bytes(0x04,0x08,0x6f,0x3a,0x0c,0x52,0x50,0x47,0x3a,0x3a,0x53,0x45,0x08,0x3a,0x0a,0x40,0x6e,0x61,0x6d,0x65,0x49,0x22,0x0a,0x49,0x74,0x65,0x6d,0x31,0x06,0x3a,0x06,0x45,0x54,0x3a,0x0b,0x40,0x70,0x69,0x74,0x63,0x68,0x69,0x69,0x3a,0x0c,0x40,0x76,0x6f,0x6c,0x75,0x6d,0x65,0x69,0x55))
    ChangeInventoryArmor(1203,0,0,1,false)
    0()
   EndIf()
   0()
  EndIf()
  If(1,3354,0,4000,1)
   If(1,4354,0,2,0)
    ChangeVariable(4354,4354,0,0,3)
    ShowMessageFace("shirokuma_fc1",0,0,2,3)
    ShowMessage("\\n<Knoot (Affection:\\V[3354])>This is warm...")
    250(bytes(0x04,0x08,0x6f,0x3a,0x0c,0x52,0x50,0x47,0x3a,0x3a,0x53,0x45,0x08,0x3a,0x0a,0x40,0x6e,0x61,0x6d,0x65,0x49,0x22,0x0a,0x49,0x74,0x65,0x6d,0x31,0x06,0x3a,0x06,0x45,0x54,0x3a,0x0b,0x40,0x70,0x69,0x74,0x63,0x68,0x69,0x69,0x3a,0x0c,0x40,0x76,0x6f,0x6c,0x75,0x6d,0x65,0x69,0x55))
    ChangeInventoryArmor(1563,0,0,1,false)
    0()
   EndIf()
   0()
  EndIf()
  If(1,3354,0,6000,1)
   If(1,4354,0,3,0)
    ChangeVariable(4354,4354,0,0,4)
    ShowMessageFace("shirokuma_fc1",0,0,2,4)
    ShowMessage("\\n<Knoot (Affection:\\V[3354])>This is warm...")
    250(bytes(0x04,0x08,0x6f,0x3a,0x0c,0x52,0x50,0x47,0x3a,0x3a,0x53,0x45,0x08,0x3a,0x0a,0x40,0x6e,0x61,0x6d,0x65,0x49,0x22,0x0a,0x49,0x74,0x65,0x6d,0x31,0x06,0x3a,0x06,0x45,0x54,0x3a,0x0b,0x40,0x70,0x69,0x74,0x63,0x68,0x69,0x69,0x3a,0x0c,0x40,0x76,0x6f,0x6c,0x75,0x6d,0x65,0x69,0x55))
    ChangeInventoryArmor(1499,0,0,1,false)
    0()
   EndIf()
   0()
  EndIf()
  355("actor_label_jump")
  ShowMessageFace("shirokuma_fc1",0,0,2,5)
  ShowMessage("\\n<Knoot (Affection:\\V[3354])>Cold...\nSnuggle with me?")
  JumpToLabel("メニュー")
  DefineLabel("60")
  ShowMessageFace("dog_fc1",0,0,2,6)
  ShowMessage("\\n<Pochi (Affection:\\V[3060])>Polar bear!")
  ShowMessageFace("shirokuma_fc1",0,0,2,7)
  ShowMessage("\\n<Knoot (Affection:\\V[3354])>Doggie...\nSnuggle with me?")
  ShowMessageFace("dog_fc1",4,0,2,8)
  ShowMessage("\\n<Pochi (Affection:\\V[3060])>Wow! So warm! ♪")
  ShowMessageFace("shirokuma_fc1",1,0,2,9)
  ShowMessage("\\n<Knoot (Affection:\\V[3354])>Snuggly...♪")
  JumpToLabel("メニュー")
  DefineLabel("221")
  ShowMessageFace("yukionna_fc1",1,0,2,10)
  ShowMessage("\\n<Oyuki (Affection:\\V[3221])>Ara, polar bear...\nWelcome, let's be good friends.")
  ShowMessageFace("shirokuma_fc1",0,0,2,11)
  ShowMessage("\\n<Knoot (Affection:\\V[3354])>Cold...don't like...")
  ShowMessageFace("yukionna_fc1",0,0,2,12)
  ShowMessage("\\n<Oyuki (Affection:\\V[3221])>You're a polar bear, yet you dislike the cold?\nYou're a strange girl...")
  ShowMessageFace("shirokuma_fc1",0,0,2,13)
  ShowMessage("\\n<Knoot (Affection:\\V[3354])>Cold...")
  JumpToLabel("メニュー")
  DefineLabel("222")
  ShowMessageFace("nekomata_fc1",0,0,2,14)
  ShowMessage("\\n<Tama (Affection:\\V[3222])>...Nya!")
  ShowMessageFace("shirokuma_fc1",0,0,2,15)
  ShowMessage("\\n<Knoot (Affection:\\V[3354])>Cat, warm...")
  ShowMessageFace("nekomata_fc1",2,0,2,16)
  ShowMessage("\\n<Tama (Affection:\\V[3222])>Nyaaa♪")
  ShowMessageFace("shirokuma_fc1",0,0,2,17)
  ShowMessage("\\n<Knoot (Affection:\\V[3354])>Snuggly...")
  JumpToLabel("メニュー")
  DefineLabel("353")
  ShowMessageFace("shirokuma_fc1",0,0,2,18)
  ShowMessage("\\n<Knoot (Affection:\\V[3354])>Cold...")
  ShowMessageFace("icemaze_fc1",0,0,2,19)
  ShowMessage("\\n<Irma (Affection:\\V[3353])>Why do you feel cold, girl?\nEven though you live in a cold region...")
  ShowMessageFace("shirokuma_fc1",0,0,2,20)
  ShowMessage("\\n<Knoot (Affection:\\V[3354])>No no, stay away...")
  ShowMessageFace("icemaze_fc1",0,0,2,21)
  ShowMessage("\\n<Irma (Affection:\\V[3353])>Does it get cold when I approach you?\nI've done a bad thing...")
  JumpToLabel("メニュー")
  DefineLabel("359")
  ShowMessageFace("cupid_fc1",4,0,2,22)
  ShowMessage("\\n<Cupi (Affection:\\V[3359])>Yaaay! ♪ Polar bear! ♪")
  ShowMessageFace("shirokuma_fc1",0,0,2,23)
  ShowMessage("\\n<Knoot (Affection:\\V[3354])>Cupi, snuggle...")
  ShowMessageFace("cupid_fc1",4,0,2,24)
  ShowMessage("\\n<Cupi (Affection:\\V[3359])>Mmmnh! ♪ So waaaarm! ♪")
  ShowMessageFace("shirokuma_fc1",1,0,2,25)
  ShowMessage("\\n<Knoot (Affection:\\V[3354])>Snuggly...♪")
  JumpToLabel("メニュー")
  DefineLabel("360")
  ShowMessageFace("valkyrie_fc1",0,0,2,26)
  ShowMessage("\\n<Victoria (Affection:\\V[3360])>............")
  ShowMessageFace("shirokuma_fc1",0,0,2,27)
  ShowMessage("\\n<Knoot (Affection:\\V[3354])>What's wrong...?")
  ShowMessageFace("valkyrie_fc1",0,0,2,28)
  ShowMessage("\\n<Victoria (Affection:\\V[3360])>...Can I hug you for just a moment?")
  ShowMessageFace("shirokuma_fc1",0,0,2,29)
  ShowMessage("\\n<Knoot (Affection:\\V[3354])>Okay...")
  ShowMessageFace("valkyrie_fc1",1,0,2,30)
  ShowMessage("\\n<Victoria (Affection:\\V[3360])>So warm...")
  ShowMessageFace("shirokuma_fc1",1,0,2,31)
  ShowMessage("\\n<Knoot (Affection:\\V[3354])>Snuggly...♪")
  JumpToLabel("メニュー")
  DefineLabel("メニュー")
  StartLoop()
   355("unlimited_choices(11, [\"Give presents\",")
   655("\"Add to party\",")
   655("\"View present list\",\"Make a request\",")
   655("\"Never mind\"])")
   If(1,11,0,0,0)
    355("present_start(354)")
    0()
   EndIf()
   If(1,11,0,1,0)
    PictureClear(5)
    355("move_actor_ex(354)")
    EndEventProcessing()
    0()
   EndIf()
   If(1,11,0,2,0)
    ShowMessageFace("",0,0,2,32)
    ShowMessage("Affection     500:\\ia[1562]")
    ShowMessage("Affection   2000:\\ia[1203]")
    ShowMessage("Affection   4000:\\ia[1563]")
    ShowMessage("Affection   6000:\\ia[1499]")
    0()
   EndIf()
   If(1,11,0,3,0)
    PictureClear(5)
    ShowMessageFace("",0,0,2,33)
    ShowMessage("Ask her for what? (Affection:\\V[3354])")
    ShowChoices(strings("Reverse Rape(Affection:10)","Never mind"),2)
    IfPlayerPicksChoice(0,null)
     If(1,3354,0,10,1)
      355("call_novel_scene(5586)")
      EndEventProcessing()
      0()
     Else()
      ShowMessageFace("shirokuma_fc1",0,0,2,34)
      ShowMessage("\\n<Knoot (Affection:\\V[3354])>Cold, next time...")
      0()
     EndIf()
     0()
    IfPlayerPicksChoice(1,null)
     0()
    404()
    0()
   EndIf()
   If(1,11,0,4,1)
    PictureClear(5)
    EndEventProcessing()
    0()
   EndIf()
   0()
  EndLoop()
  0()
 PAGE   2
  // condition: party contains actor #354
  0()
