﻿


EVENT   1
 PAGE   1
  ShowMessageFace("sirousagi_fc1",0,0,2,1)
  ShowMessage("\\n<White Rabbit>Congratulations! You've arrived at the boss floor! As a special gift, I'll heal you up!")
  250(bytes(0x04,0x08,0x6f,0x3a,0x0c,0x52,0x50,0x47,0x3a,0x3a,0x53,0x45,0x08,0x3a,0x0a,0x40,0x6e,0x61,0x6d,0x65,0x49,0x22,0x0a,0x48,0x65,0x61,0x6c,0x37,0x06,0x3a,0x06,0x45,0x54,0x3a,0x0b,0x40,0x70,0x69,0x74,0x63,0x68,0x69,0x69,0x3a,0x0c,0x40,0x76,0x6f,0x6c,0x75,0x6d,0x65,0x69,0x55))
  224(bytes(0x04,0x08,0x75,0x3a,0x0a,0x43,0x6f,0x6c,0x6f,0x72,0x25,0x00,0x00,0x00,0x00,0x00,0xe0,0x6f,0x40,0x00,0x00,0x00,0x00,0x00,0xe0,0x6f,0x40,0x00,0x00,0x00,0x00,0x00,0xe0,0x6f,0x40,0x00,0x00,0x00,0x00,0x00,0xe0,0x6f,0x40),30,true)
  314(0,0)
  ShowMessageFace("",0,0,2,2)
  ShowMessage("The party's HP and MP have been fully recovered!")
  ShowMessageFace("sirousagi_fc1",0,0,2,3)
  ShowMessage("\\n<White Rabbit>So, do you want something from me?")
  RunCommonEvent(912)
  0()



EVENT   3
 PAGE   1
  If(1,123,0,8,2)
   RunCommonEvent(920)
   EndEventProcessing()
   0()
  EndIf()
  DefineLabel("メイン")
  ShowChoices(strings("Save","Proceed to next floor"),2)
  IfPlayerPicksChoice(0,null)
   352()
   JumpToLabel("メイン")
   0()
  IfPlayerPicksChoice(1,null)
   RunCommonEvent(901)
   EndEventProcessing()
   0()
  404()
  0()



EVENT   4
 PAGE   1
  ChangeSwitch(49,49,0)
  250(bytes(0x04,0x08,0x6f,0x3a,0x0c,0x52,0x50,0x47,0x3a,0x3a,0x53,0x45,0x08,0x3a,0x0a,0x40,0x6e,0x61,0x6d,0x65,0x49,0x22,0x0a,0x43,0x68,0x65,0x73,0x74,0x06,0x3a,0x06,0x45,0x54,0x3a,0x0b,0x40,0x70,0x69,0x74,0x63,0x68,0x69,0x69,0x3a,0x0c,0x40,0x76,0x6f,0x6c,0x75,0x6d,0x65,0x69,0x55))
  205(0,bytes(0x04,0x08,0x6f,0x3a,0x13,0x52,0x50,0x47,0x3a,0x3a,0x4d,0x6f,0x76,0x65,0x52,0x6f,0x75,0x74,0x65,0x09,0x3a,0x0c,0x40,0x72,0x65,0x70,0x65,0x61,0x74,0x46,0x3a,0x0f,0x40,0x73,0x6b,0x69,0x70,0x70,0x61,0x62,0x6c,0x65,0x46,0x3a,0x0a,0x40,0x77,0x61,0x69,0x74,0x54,0x3a,0x0a,0x40,0x6c,0x69,0x73,0x74,0x5b,0x0b,0x6f,0x3a,0x15,0x52,0x50,0x47,0x3a,0x3a,0x4d,0x6f,0x76,0x65,0x43,0x6f,0x6d,0x6d,0x61,0x6e,0x64,0x07,0x3a,0x0a,0x40,0x63,0x6f,0x64,0x65,0x69,0x29,0x3a,0x10,0x40,0x70,0x61,0x72,0x61,0x6d,0x65,0x74,0x65,0x72,0x73,0x5b,0x00,0x6f,0x3b,0x0a,0x07,0x3b,0x0b,0x69,0x16,0x3b,0x0c,0x5b,0x00,0x6f,0x3b,0x0a,0x07,0x3b,0x0b,0x69,0x14,0x3b,0x0c,0x5b,0x06,0x69,0x08,0x6f,0x3b,0x0a,0x07,0x3b,0x0b,0x69,0x17,0x3b,0x0c,0x5b,0x00,0x6f,0x3b,0x0a,0x07,0x3b,0x0b,0x69,0x14,0x3b,0x0c,0x5b,0x06,0x69,0x08,0x6f,0x3b,0x0a,0x07,0x3b,0x0b,0x69,0x00,0x3b,0x0c,0x5b,0x00))
  ChangeSwitch(57,57,0)
  RunCommonEvent(903)
  ChangeSwitch(49,49,1)
  0()
 PAGE   2
  // condition: switch 57 is ON
  0()



EVENT   5
 PAGE   1
  RunCommonEvent(890)
  0()
 PAGE   2
  // condition: switch 50 is ON
  0()



EVENT   6
 PAGE   1
  // condition: switch 54 is ON
  ChangeSwitch(50,50,0)
  ShowMessageFace("nero_fc1",0,0,2,1)
  ShowMessage("\\n<Nero>I defeated the boss of this floor. Well then, take care of yourselves...")
  Wait(15)
  250(bytes(0x04,0x08,0x6f,0x3a,0x0c,0x52,0x50,0x47,0x3a,0x3a,0x53,0x45,0x08,0x3a,0x0a,0x40,0x6e,0x61,0x6d,0x65,0x49,0x22,0x0d,0x6d,0x6f,0x6e,0x5f,0x77,0x61,0x72,0x70,0x06,0x3a,0x06,0x45,0x54,0x3a,0x0b,0x40,0x70,0x69,0x74,0x63,0x68,0x69,0x69,0x3a,0x0c,0x40,0x76,0x6f,0x6c,0x75,0x6d,0x65,0x69,0x69))
  ChangeSwitch(54,54,1)
  ShowMessageFace("",0,0,2,2)
  ShowMessage("Nero has disappeared...")
  0()



EVENT   7
 PAGE   1
  ChangeSwitch(49,49,0)
  250(bytes(0x04,0x08,0x6f,0x3a,0x0c,0x52,0x50,0x47,0x3a,0x3a,0x53,0x45,0x08,0x3a,0x0a,0x40,0x6e,0x61,0x6d,0x65,0x49,0x22,0x0a,0x43,0x68,0x65,0x73,0x74,0x06,0x3a,0x06,0x45,0x54,0x3a,0x0b,0x40,0x70,0x69,0x74,0x63,0x68,0x69,0x69,0x3a,0x0c,0x40,0x76,0x6f,0x6c,0x75,0x6d,0x65,0x69,0x55))
  205(0,bytes(0x04,0x08,0x6f,0x3a,0x13,0x52,0x50,0x47,0x3a,0x3a,0x4d,0x6f,0x76,0x65,0x52,0x6f,0x75,0x74,0x65,0x09,0x3a,0x0c,0x40,0x72,0x65,0x70,0x65,0x61,0x74,0x46,0x3a,0x0f,0x40,0x73,0x6b,0x69,0x70,0x70,0x61,0x62,0x6c,0x65,0x46,0x3a,0x0a,0x40,0x77,0x61,0x69,0x74,0x54,0x3a,0x0a,0x40,0x6c,0x69,0x73,0x74,0x5b,0x0b,0x6f,0x3a,0x15,0x52,0x50,0x47,0x3a,0x3a,0x4d,0x6f,0x76,0x65,0x43,0x6f,0x6d,0x6d,0x61,0x6e,0x64,0x07,0x3a,0x0a,0x40,0x63,0x6f,0x64,0x65,0x69,0x29,0x3a,0x10,0x40,0x70,0x61,0x72,0x61,0x6d,0x65,0x74,0x65,0x72,0x73,0x5b,0x00,0x6f,0x3b,0x0a,0x07,0x3b,0x0b,0x69,0x16,0x3b,0x0c,0x5b,0x00,0x6f,0x3b,0x0a,0x07,0x3b,0x0b,0x69,0x14,0x3b,0x0c,0x5b,0x06,0x69,0x08,0x6f,0x3b,0x0a,0x07,0x3b,0x0b,0x69,0x17,0x3b,0x0c,0x5b,0x00,0x6f,0x3b,0x0a,0x07,0x3b,0x0b,0x69,0x14,0x3b,0x0c,0x5b,0x06,0x69,0x08,0x6f,0x3b,0x0a,0x07,0x3b,0x0b,0x69,0x00,0x3b,0x0c,0x5b,0x00))
  ChangeSwitch(47,47,0)
  RunCommonEvent(903)
  ChangeSwitch(49,49,1)
  0()
 PAGE   2
  // condition: switch 47 is ON
  0()



EVENT   8
 PAGE   1
  ChangeSwitch(49,49,0)
  250(bytes(0x04,0x08,0x6f,0x3a,0x0c,0x52,0x50,0x47,0x3a,0x3a,0x53,0x45,0x08,0x3a,0x0a,0x40,0x6e,0x61,0x6d,0x65,0x49,0x22,0x0a,0x43,0x68,0x65,0x73,0x74,0x06,0x3a,0x06,0x45,0x54,0x3a,0x0b,0x40,0x70,0x69,0x74,0x63,0x68,0x69,0x69,0x3a,0x0c,0x40,0x76,0x6f,0x6c,0x75,0x6d,0x65,0x69,0x55))
  205(0,bytes(0x04,0x08,0x6f,0x3a,0x13,0x52,0x50,0x47,0x3a,0x3a,0x4d,0x6f,0x76,0x65,0x52,0x6f,0x75,0x74,0x65,0x09,0x3a,0x0c,0x40,0x72,0x65,0x70,0x65,0x61,0x74,0x46,0x3a,0x0f,0x40,0x73,0x6b,0x69,0x70,0x70,0x61,0x62,0x6c,0x65,0x46,0x3a,0x0a,0x40,0x77,0x61,0x69,0x74,0x54,0x3a,0x0a,0x40,0x6c,0x69,0x73,0x74,0x5b,0x0b,0x6f,0x3a,0x15,0x52,0x50,0x47,0x3a,0x3a,0x4d,0x6f,0x76,0x65,0x43,0x6f,0x6d,0x6d,0x61,0x6e,0x64,0x07,0x3a,0x0a,0x40,0x63,0x6f,0x64,0x65,0x69,0x29,0x3a,0x10,0x40,0x70,0x61,0x72,0x61,0x6d,0x65,0x74,0x65,0x72,0x73,0x5b,0x00,0x6f,0x3b,0x0a,0x07,0x3b,0x0b,0x69,0x16,0x3b,0x0c,0x5b,0x00,0x6f,0x3b,0x0a,0x07,0x3b,0x0b,0x69,0x14,0x3b,0x0c,0x5b,0x06,0x69,0x08,0x6f,0x3b,0x0a,0x07,0x3b,0x0b,0x69,0x17,0x3b,0x0c,0x5b,0x00,0x6f,0x3b,0x0a,0x07,0x3b,0x0b,0x69,0x14,0x3b,0x0c,0x5b,0x06,0x69,0x08,0x6f,0x3b,0x0a,0x07,0x3b,0x0b,0x69,0x00,0x3b,0x0c,0x5b,0x00))
  ChangeSwitch(58,58,0)
  RunCommonEvent(903)
  ChangeSwitch(49,49,1)
  0()
 PAGE   2
  // condition: switch 58 is ON
  0()



EVENT   9
 PAGE   1
  If(12,"unlock_level < 2")
   ShowMessageFace("",0,0,2,1)
   ShowMessage("The treasure chest is locked...")
   EndEventProcessing()
   0()
  EndIf()
  250(bytes(0x04,0x08,0x6f,0x3a,0x0c,0x52,0x50,0x47,0x3a,0x3a,0x53,0x45,0x08,0x3a,0x0a,0x40,0x6e,0x61,0x6d,0x65,0x49,0x22,0x0a,0x43,0x68,0x65,0x73,0x74,0x06,0x3a,0x06,0x45,0x54,0x3a,0x0b,0x40,0x70,0x69,0x74,0x63,0x68,0x69,0x69,0x3a,0x0c,0x40,0x76,0x6f,0x6c,0x75,0x6d,0x65,0x69,0x55))
  205(0,bytes(0x04,0x08,0x6f,0x3a,0x13,0x52,0x50,0x47,0x3a,0x3a,0x4d,0x6f,0x76,0x65,0x52,0x6f,0x75,0x74,0x65,0x09,0x3a,0x0c,0x40,0x72,0x65,0x70,0x65,0x61,0x74,0x46,0x3a,0x0f,0x40,0x73,0x6b,0x69,0x70,0x70,0x61,0x62,0x6c,0x65,0x46,0x3a,0x0a,0x40,0x77,0x61,0x69,0x74,0x54,0x3a,0x0a,0x40,0x6c,0x69,0x73,0x74,0x5b,0x0b,0x6f,0x3a,0x15,0x52,0x50,0x47,0x3a,0x3a,0x4d,0x6f,0x76,0x65,0x43,0x6f,0x6d,0x6d,0x61,0x6e,0x64,0x07,0x3a,0x0a,0x40,0x63,0x6f,0x64,0x65,0x69,0x29,0x3a,0x10,0x40,0x70,0x61,0x72,0x61,0x6d,0x65,0x74,0x65,0x72,0x73,0x5b,0x00,0x6f,0x3b,0x0a,0x07,0x3b,0x0b,0x69,0x16,0x3b,0x0c,0x5b,0x00,0x6f,0x3b,0x0a,0x07,0x3b,0x0b,0x69,0x14,0x3b,0x0c,0x5b,0x06,0x69,0x08,0x6f,0x3b,0x0a,0x07,0x3b,0x0b,0x69,0x17,0x3b,0x0c,0x5b,0x00,0x6f,0x3b,0x0a,0x07,0x3b,0x0b,0x69,0x14,0x3b,0x0c,0x5b,0x06,0x69,0x08,0x6f,0x3b,0x0a,0x07,0x3b,0x0b,0x69,0x00,0x3b,0x0c,0x5b,0x00))
  ChangeSwitch(46,46,0)
  RunCommonEvent(914)
  0()
 PAGE   2
  // condition: switch 46 is ON
  0()



EVENT   10
 PAGE   1
  ChangeSwitch(49,49,0)
  250(bytes(0x04,0x08,0x6f,0x3a,0x0c,0x52,0x50,0x47,0x3a,0x3a,0x53,0x45,0x08,0x3a,0x0a,0x40,0x6e,0x61,0x6d,0x65,0x49,0x22,0x0a,0x43,0x68,0x65,0x73,0x74,0x06,0x3a,0x06,0x45,0x54,0x3a,0x0b,0x40,0x70,0x69,0x74,0x63,0x68,0x69,0x69,0x3a,0x0c,0x40,0x76,0x6f,0x6c,0x75,0x6d,0x65,0x69,0x55))
  205(0,bytes(0x04,0x08,0x6f,0x3a,0x13,0x52,0x50,0x47,0x3a,0x3a,0x4d,0x6f,0x76,0x65,0x52,0x6f,0x75,0x74,0x65,0x09,0x3a,0x0c,0x40,0x72,0x65,0x70,0x65,0x61,0x74,0x46,0x3a,0x0f,0x40,0x73,0x6b,0x69,0x70,0x70,0x61,0x62,0x6c,0x65,0x46,0x3a,0x0a,0x40,0x77,0x61,0x69,0x74,0x54,0x3a,0x0a,0x40,0x6c,0x69,0x73,0x74,0x5b,0x0b,0x6f,0x3a,0x15,0x52,0x50,0x47,0x3a,0x3a,0x4d,0x6f,0x76,0x65,0x43,0x6f,0x6d,0x6d,0x61,0x6e,0x64,0x07,0x3a,0x0a,0x40,0x63,0x6f,0x64,0x65,0x69,0x29,0x3a,0x10,0x40,0x70,0x61,0x72,0x61,0x6d,0x65,0x74,0x65,0x72,0x73,0x5b,0x00,0x6f,0x3b,0x0a,0x07,0x3b,0x0b,0x69,0x16,0x3b,0x0c,0x5b,0x00,0x6f,0x3b,0x0a,0x07,0x3b,0x0b,0x69,0x14,0x3b,0x0c,0x5b,0x06,0x69,0x08,0x6f,0x3b,0x0a,0x07,0x3b,0x0b,0x69,0x17,0x3b,0x0c,0x5b,0x00,0x6f,0x3b,0x0a,0x07,0x3b,0x0b,0x69,0x14,0x3b,0x0c,0x5b,0x06,0x69,0x08,0x6f,0x3b,0x0a,0x07,0x3b,0x0b,0x69,0x00,0x3b,0x0c,0x5b,0x00))
  ChangeSwitch(45,45,0)
  RunCommonEvent(903)
  ChangeSwitch(49,49,1)
  0()
 PAGE   2
  // condition: switch 45 is ON
  0()



EVENT   11
 PAGE   1
  221()
  ChangeSwitch(41,41,1)
  ChangeSwitch(52,52,1)
  ChangeSaveEnabled(1)
  ChangeSwitch(61,61,1)
  ChangeSwitch(62,62,1)
  ChangeSwitch(63,63,1)
  ChangeSwitch(64,64,1)
  ChangeSwitch(65,65,1)
  ChangeSwitch(69,69,1)
  ChangeSwitch(70,70,1)
  ChangeSwitch(71,71,1)
  ChangeSwitch(72,72,1)
  ChangeSwitch(54,54,1)
  ChangeSwitch(66,66,1)
  ChangeSwitch(67,67,1)
  ChangeSwitch(68,68,1)
  ChangeVariable(131,131,0,0,0)
  ChangeVariable(121,121,0,0,0)
  RunCommonEvent(112)
  If(1,121,1,122,1)
   ChangeVariable(122,122,0,1,121)
   0()
  EndIf()
  TeleportPlayer(0,576,14,50,2,2)
  ShowMessageFace("",0,0,2,1)
  ShowMessage("With the renewal of the Labyrinth of Chaos, the past labyrinth got erased!")
  Wait(60)
  222()
  TemporaryRemoveEvent()
  0()
 PAGE   2
  // condition: switch 1926 is ON
  0()

EVENT   12
 PAGE   1
  // condition: variable 123 >= 9
  PictureDisplay(5,"80_s_mermaid_st02",0,0,0,0,100,100,0,0)
  PictureMove(5,null,0,0,0,0,100,100,255,0,15,true)
  ShowMessageFace("s_mermaid_fc1",1,0,2,1)
  ShowMessage("\\n<Mermaid Merchant>Greetings, I'm the Mermaid Merchant.")
  ShowMessage("Do you want to shop here?")
  ShowChoices(strings("Item Shop","Secret Weapon Bulk Sale","Secret Armor Bulk Sale","Nothing"),4)
  IfPlayerPicksChoice(0,null)
   Shop(0,2,0,0,false)
   605(0,4,0,0)
   605(0,7,0,0)
   605(0,11,0,0)
   605(0,13,0,0)
   605(0,14,0,0)
   605(0,15,0,0)
   605(0,16,0,0)
   605(0,17,0,0)
   605(0,18,0,0)
   605(0,19,0,0)
   605(0,20,0,0)
   605(0,21,0,0)
   605(0,23,0,0)
   605(0,35,0,0)
   605(0,52,0,0)
   605(0,56,0,0)
   605(0,60,0,0)
   605(0,64,0,0)
   605(0,68,0,0)
   605(0,72,0,0)
   605(0,76,0,0)
   605(0,80,0,0)
   605(0,102,0,0)
   605(0,109,0,0)
   ShowMessageFace("s_mermaid_fc1",0,0,2,2)
   ShowMessage("\\n<Mermaid Merchant>Thank you for your continued patronage, come again!")
   PictureClear(5)
   EndEventProcessing()
   0()
  IfPlayerPicksChoice(1,null)
   ShowMessageFace("s_mermaid_fc1",0,0,2,3)
   ShowMessage("\\n<Mermaid Merchant>Secret equipment that isn't equipped or set as favorite will be sold.")
   ShowMessage("Do you want to dispose of all your secret weapons?")
   ShowChoices(strings("Stop","Sell in bulk"),1)
   IfPlayerPicksChoice(0,null)
    PictureClear(5)
    EndEventProcessing()
    0()
   IfPlayerPicksChoice(1,null)
    ShowMessageFace("s_mermaid_fc1",0,0,2,4)
    ShowMessage("\\n<Mermaid Merchant>Again, just to make sure.")
    ShowMessage("Is it okay to dispose of all the secret weapons in your possession?")
    ShowChoices(strings("Stop","Sell in bulk"),1)
    IfPlayerPicksChoice(0,null)
     PictureClear(5)
     EndEventProcessing()
     0()
    IfPlayerPicksChoice(1,null)
     250(bytes(0x04,0x08,0x6f,0x3a,0x0c,0x52,0x50,0x47,0x3a,0x3a,0x53,0x45,0x08,0x3a,0x0a,0x40,0x6e,0x61,0x6d,0x65,0x49,0x22,0x0b,0x45,0x71,0x75,0x69,0x70,0x33,0x06,0x3a,0x06,0x45,0x54,0x3a,0x0b,0x40,0x70,0x69,0x74,0x63,0x68,0x69,0x69,0x3a,0x0c,0x40,0x76,0x6f,0x6c,0x75,0x6d,0x65,0x69,0x55))
     355("sell_enchant_weapons")
     ShowMessageFace("",0,0,2,5)
     ShowMessage("Sold all secret weapons!")
     PictureClear(5)
     EndEventProcessing()
     0()
    404()
    0()
   404()
   0()
  IfPlayerPicksChoice(2,null)
   ShowMessageFace("s_mermaid_fc1",0,0,2,6)
   ShowMessage("\\n<Mermaid Merchant>Secret equipment that isn't equipped or set as favorite will be sold.")
   ShowMessage("Do you want to dispose of all your secret armor?")
   ShowChoices(strings("Stop","Sell in bulk"),1)
   IfPlayerPicksChoice(0,null)
    PictureClear(5)
    EndEventProcessing()
    0()
   IfPlayerPicksChoice(1,null)
    ShowMessageFace("s_mermaid_fc1",0,0,2,7)
    ShowMessage("\\n<Mermaid Merchant>Again, just to make sure.")
    ShowMessage("Is it okay to dispose of all the secret armor in your possession?")
    ShowChoices(strings("Stop","Sell in bulk"),1)
    IfPlayerPicksChoice(0,null)
     PictureClear(5)
     EndEventProcessing()
     0()
    IfPlayerPicksChoice(1,null)
     250(bytes(0x04,0x08,0x6f,0x3a,0x0c,0x52,0x50,0x47,0x3a,0x3a,0x53,0x45,0x08,0x3a,0x0a,0x40,0x6e,0x61,0x6d,0x65,0x49,0x22,0x0b,0x45,0x71,0x75,0x69,0x70,0x33,0x06,0x3a,0x06,0x45,0x54,0x3a,0x0b,0x40,0x70,0x69,0x74,0x63,0x68,0x69,0x69,0x3a,0x0c,0x40,0x76,0x6f,0x6c,0x75,0x6d,0x65,0x69,0x55))
     355("sell_enchant_armors")
     ShowMessageFace("",0,0,2,8)
     ShowMessage("Sold all secret armor!")
     PictureClear(5)
     EndEventProcessing()
     0()
    404()
    0()
   404()
   0()
  IfPlayerPicksChoice(3,null)
   PictureClear(5)
   EndEventProcessing()
   0()
  404()
  0()



EVENT   13
 PAGE   1
  // condition: variable 123 >= 9
  PictureDisplay(5,"80_dragonp_st21",0,0,0,0,100,100,0,0)
  PictureMove(5,null,0,0,0,0,100,100,255,0,30,true)
  ShowMessageFace("dragonp_fc2",0,0,2,1)
  ShowMessage("\\n<Smith>...You got something for me?")
  ShowMessage("（Secret Weapons Owned: \\V[200]/1000 Secret Armors Owned: \\V[201]/2000）")
  DefineLabel("鍛冶")
  ShowChoices(strings("Apply Gems","Refine Gems","Enhance Secret Equipment","I Want an Explanation"),5)
  IfPlayerPicksChoice(0,null)
   355("SceneManager.call(Scene_EquipStone)")
   JumpToLabel("鍛冶")
   0()
  IfPlayerPicksChoice(1,null)
   DefineLabel("秘石精製")
   355("unlimited_choices(12,")
   655(" [\"Combat Gems\",")
   655("\"Job Gems\",")
   655("\"Magic Gems\",")
   655("\"Defense Gems\",")
   655("\"Special Gems\",")
   655("\"Equipment Gems\",")
   655("\"Nevermind\"])")
   If(1,12,0,0,0)
    355("call_synthesize(31)")
    JumpToLabel("秘石精製")
    0()
   EndIf()
   If(1,12,0,1,0)
    355("call_synthesize(32)")
    JumpToLabel("秘石精製")
    0()
   EndIf()
   If(1,12,0,2,0)
    355("call_synthesize(33)")
    JumpToLabel("秘石精製")
    0()
   EndIf()
   If(1,12,0,3,0)
    355("call_synthesize(34)")
    JumpToLabel("秘石精製")
    0()
   EndIf()
   If(1,12,0,4,0)
    355("call_synthesize(35)")
    JumpToLabel("秘石精製")
    0()
   EndIf()
   If(1,12,0,5,0)
    DefineLabel("装備秘石")
    355("unlimited_choices(13,")
    655(" [\"Attack Weapons\",")
    655("\"Dexterity/Agility Weapons\",")
    655("\"Job Weapons\",")
    655("\"Magic Weapons\",")
    655("\"Armor\",")
    655("\"Nevermind\"])")
    If(1,13,0,0,0)
     355("call_synthesize(41)")
     JumpToLabel("装備秘石")
     0()
    EndIf()
    If(1,13,0,1,0)
     355("call_synthesize(42)")
     JumpToLabel("装備秘石")
     0()
    EndIf()
    If(1,13,0,2,0)
     355("call_synthesize(43)")
     JumpToLabel("装備秘石")
     0()
    EndIf()
    If(1,13,0,3,0)
     355("call_synthesize(44)")
     JumpToLabel("装備秘石")
     0()
    EndIf()
    If(1,13,0,4,0)
     355("call_synthesize(45)")
     JumpToLabel("装備秘石")
     0()
    EndIf()
    JumpToLabel("秘石精製")
    0()
   EndIf()
   JumpToLabel("鍛冶")
   0()
  IfPlayerPicksChoice(2,null)
   355("SceneManager.call(Scene_Smith)")
   JumpToLabel("鍛冶")
   0()
  IfPlayerPicksChoice(3,null)
   DefineLabel("解説")
   ShowMessageFace("",0,0,2,2)
   ShowMessage("What do you want to know?")
   355("unlimited_choices(12,")
   655(" [\"Ask about Secret Weapons/Secret Armor\",")
   655("\"Ask about Gems\",")
   655("\"Ask about Refining Gems\",")
   655("\"Ask about Enhancing Secret Equipment\",")
   655("\"Nevermind\"])")
   If(1,12,0,0,0)
    ShowMessageFace("dragonp_fc2",0,0,2,3)
    ShowMessage("\\n<Smith>Secret weapons, secret armor, gems... They are collectively called secret equipment.")
    ShowMessage("Born in chaos, they are extremely powerful items.")
    ShowMessageFace("dragonp_fc2",0,0,2,4)
    ShowMessage("\\n<Smith>Every secret weapon and armor are extremely unique.")
    ShowMessage("Basically, you could say that there is no item that has the same performance.")
    ShowMessageFace("dragonp_fc2",0,0,2,5)
    ShowMessage("\\n<Smith>Both the secret weapons and armor don't have a fixed value for their ability values...")
    ShowMessage("And, even the type and number of special abilities added are different.")
    ShowMessageFace("dragonp_fc2",0,0,2,6)
    ShowMessage("\\n<Smith>The higher your rare points,")
    ShowMessage("the more rare equipment is available and it has higher performance.")
    ShowMessageFace("dragonp_fc2",0,0,2,7)
    ShowMessage("\\n<Smith>Rare points increase the deeper you're in the Labyrinth.")
    ShowMessage("Also, they'll increase by defeating enemies.")
    ShowMessageFace("dragonp_fc2",0,0,2,8)
    ShowMessage("\\n<Smith>So if you want powerful secret equipment, in the deep floors of the Labyrinth,")
    ShowMessage("You'll have to defeat as many enemies as possible while exploring.")
    ShowMessageFace("dragonp_fc2",0,0,2,9)
    ShowMessage("\\n<Smith>Most of the secret equipment's names are displayed in blue.")
    ShowMessage("These items are called common, so to speak, they're regular secret equipment.")
    ShowMessageFace("dragonp_fc2",0,0,2,10)
    ShowMessage("\\n<Smith>However, there are some that have rare yellow names.")
    ShowMessage("Rares are like precious gems, with higher abilities than common equipment.")
    ShowMessageFace("dragonp_fc2",0,0,2,11)
    ShowMessage("\\n<Smith>Additionally, it's effective to set gems into secret armor and secret weapons.")
    ShowMessage("I'll explain in detail elsewhere.")
    ShowMessageFace("dragonp_fc2",0,0,2,12)
    ShowMessage("\\n<Smith>Anyway, excellent equipment is essential for breaking down the obstacles.")
    ShowMessage("Collect powerful equipment to strengthen yourself.")
    ShowMessageFace("dragonp_fc2",0,0,2,13)
    ShowMessage("\\n<Smith>Well, what else would you like to know?")
    JumpToLabel("解説")
    0()
   EndIf()
   If(1,12,0,1,0)
    ShowMessageFace("dragonp_fc2",0,0,2,14)
    ShowMessage("\\n<Smith>Gems are jewels set into secret weapons or secret armor to increase their performance.")
    ShowMessage("In other words, they are meaningless if they're not set in equipment.")
    ShowMessageFace("dragonp_fc2",0,0,2,15)
    ShowMessage("\\n<Smith>In secret equipment, sometimes there are holes called sockets.")
    ShowMessage("Some of them should have multiple sockets.")
    ShowMessageFace("dragonp_fc2",0,0,2,16)
    ShowMessage("\\n<Smith>I can set one gem per socket.")
    ShowMessage("Then, the effect of the gem is added to the equipment's performance.")
    ShowMessageFace("dragonp_fc2",0,0,2,17)
    ShowMessage("\\n<Smith>The number of sockets is proportional to the rarity of the equipment.")
    ShowMessage("For example, the number of sockets will be higher for equipment found in deeper floors.")
    ShowMessageFace("dragonp_fc2",0,0,2,18)
    ShowMessage("\\n<Smith>Also, there are six different types of gems, depending on the effects.")
    ShowMessage("The six types are Combat, Job, Magic, Defense, Special, and Equipment.")
    ShowMessageFace("dragonp_fc2",0,0,2,19)
    ShowMessage("\\n<Smith>And even if there are multiple sockets on a piece of equipment...")
    ShowMessage("It's impossible to set more than one of the same kind of gem.")
    ShowMessageFace("dragonp_fc2",0,0,2,20)
    ShowMessage("\\n<Smith>For example, let's say you set a Combat gem to a secret weapon.")
    ShowMessage("Then in other sockets, only gems other than the Combat gems can be set.")
    ShowMessageFace("dragonp_fc2",0,0,2,21)
    ShowMessage("\\n<Smith>You can't remove or set a gem just anywhere.")
    ShowMessage("You cannot handle gems without the proper techniques.")
    ShowMessageFace("dragonp_fc2",0,0,2,22)
    ShowMessage("\\n<Smith>...Well, you can leave it to me to handle that.")
    ShowMessage("It's a free service, specially for you.")
    ShowMessageFace("dragonp_fc2",0,0,2,23)
    ShowMessage("\\n<Smith>Furthermore, the method of obtaining gems...")
    ShowMessage("You can pick them up in the 'Trials of Chaos' and 'Labyrinth of Chaos'.")
    ShowMessageFace("dragonp_fc2",0,0,2,24)
    ShowMessage("\\n<Smith>Using them as materials, I can refine them into higher level gems...")
    ShowMessage("I'll explain in detail elsewhere.")
    ShowMessageFace("dragonp_fc2",0,0,2,25)
    ShowMessage("\\n<Smith>Well, what else would you like to know?")
    JumpToLabel("解説")
    0()
   EndIf()
   If(1,12,0,2,0)
    ShowMessageFace("dragonp_fc2",0,0,2,26)
    ShowMessage("\\n<Smith>Gems are hard to obtain.")
    ShowMessage("Even within the dungeons, you'll only be able to find the lower rank ones...")
    ShowMessageFace("dragonp_fc2",0,0,2,27)
    ShowMessage("\\n<Smith>Therefore to get the top rank gems,")
    ShowMessage("There's no choice but to refine them by using the lower rank gems as materials.")
    ShowMessageFace("dragonp_fc2",0,0,2,28)
    ShowMessage("\\n<Smith>For example, if you collected 3 '10% HP' gems...")
    ShowMessage("They can be consumed as materials to refine into a '20% HP' gem.")
    ShowMessageFace("dragonp_fc2",0,0,2,29)
    ShowMessage("\\n<Smith>Refining such gems is my job...")
    ShowMessage("With fairly advanced work, you'll receive a decent reward.")
    ShowMessageFace("dragonp_fc2",0,0,2,30)
    ShowMessage("\\n<Smith>Moreover, There's also a special gem called an equipment gem.")
    ShowMessage("This is a gem made from the equipment of this world.")
    ShowMessageFace("dragonp_fc2",0,0,2,31)
    ShowMessage("\\n<Smith>For example, the Knight Sword 'Defender' with defensive abilities...")
    ShowMessage("Gem: Defender has the effects of this weapon.")
    ShowMessageFace("dragonp_fc2",0,0,2,32)
    ShowMessage("\\n<Smith>Therefore, if you set the Gem: Defender to a weapon...")
    ShowMessage("The weapon now has the effects of a 'Defender'.")
    ShowMessageFace("dragonp_fc2",0,0,2,33)
    ShowMessage("\\n<Smith>It's the method of refining equipment gems.")
    ShowMessage("'Sky Stone' that can be found in dungeons, and equipment of this world is necessary for the process.")
    ShowMessageFace("dragonp_fc2",0,0,2,34)
    ShowMessage("\\n<Smith>The process will consume both and refine them into an equipment gem but...")
    ShowMessage("Remember that no earthly equipment can be made into a gem.")
    ShowMessageFace("dragonp_fc2",0,0,2,35)
    ShowMessage("\\n<Smith>The equipment that can be made into gems are those with fame or special abilities.")
    ShowMessage("There's no meaning in refining common equipment into gems.")
    ShowMessageFace("dragonp_fc2",0,0,2,36)
    ShowMessage("\\n<Smith>As for the refinement of gems, this is the place to do it.")
    ShowMessage("Refine repeatedly to obtain stronger gems.")
    ShowMessageFace("dragonp_fc2",0,0,2,37)
    ShowMessage("\\n<Smith>Well, what else would you like to know?")
    JumpToLabel("解説")
    0()
   EndIf()
   If(1,12,0,3,0)
    ShowMessageFace("dragonp_fc2",0,0,2,38)
    ShowMessage("\\n<Smith>Secret weapons and secret armor have a reinforcement value.")
    ShowMessage("For example the '+1' of 'Flame Sword +1' is a reinforcement value.")
    ShowMessageFace("dragonp_fc2",0,0,2,39)
    ShowMessage("\\n<Smith>The higher the reinforcement value, the higher the ability value of the equipment.")
    ShowMessage("And the reinforcement value can be strengthened by synthesizing the equipment.")
    ShowMessageFace("dragonp_fc2",0,0,2,40)
    ShowMessage("\\n<Smith>It's a synthesis of reinforcement values... only the equipment of the same type can be synthesized.")
    ShowMessage("Weapons can only be synthesized with weapons, shields can only be synthesized with shields.")
    ShowMessageFace("dragonp_fc2",0,0,2,41)
    ShowMessage("\\n<Smith>When synthesizing Equipment A and B...")
    ShowMessage("After synthesis, Equipment A is strengthened and B is consumed as a material.")
    ShowMessageFace("dragonp_fc2",0,0,2,42)
    ShowMessage("\\n<Smith>Only the reinforcement values explained earlier are enhanced by synthesis.")
    ShowMessage("There is no change other than that, so be careful.")
    ShowMessageFace("dragonp_fc2",0,0,2,43)
    ShowMessage("\\n<Smith>Moreover, the reinforcement values aren't just added together.")
    ShowMessage("For example, if you synthesize a 'Flame Sword +2' with an 'Iron Sword +2'...")
    ShowMessageFace("dragonp_fc2",0,0,2,44)
    ShowMessage("\\n<Smith>After synthesis, it would become a 'Flame Sword +3'.")
    ShowMessage("Reinforcement Values only go up by +1 in one synthesis.")
    ShowMessageFace("dragonp_fc2",0,0,2,45)
    ShowMessage("\\n<Smith>So even if you synthesized a 'Flame Sword +2' with an 'Iron Sword +3',")
    ShowMessage("It'll become a 'Flame Sword +3' as it only goes up by +1.")
    ShowMessageFace("dragonp_fc2",0,0,2,46)
    ShowMessage("\\n<Smith>The reinforcement value of B must be greater than or equal to A.")
    ShowMessage("It is not be possible to synthesize a 'Flame Sword +2' with an 'Iron Sword +1'.")
    ShowMessageFace("dragonp_fc2",0,0,2,47)
    ShowMessage("\\n<Smith>Thus, there are many restrictions on synthesis...")
    ShowMessageFace("dragonp_fc2",0,0,2,48)
    ShowMessage("\\n<Smith>Tenaciously strengthen your equipment and improve your strength.")
    ShowMessage("That way, you should be able to defeat any difficult enemy.")
    ShowMessageFace("dragonp_fc2",0,0,2,49)
    ShowMessage("\\n<Smith>Well, what else would you like to know?")
    JumpToLabel("解説")
    0()
   EndIf()
   JumpToLabel("鍛冶")
   0()
  IfPlayerCancelsChoice()
   PictureClear(5)
   EndEventProcessing()
   0()
  404()
  0()



EVENT   15
 PAGE   1
  // condition: variable 123 >= 9
  ShowMessageFace("sirousagi_fc1",0,0,2,1)
  ShowMessage("\\n<White Rabbit>You currently have \\V[910] UP Points.\nWhat would you like to do?")
  ShowChoices(strings("Exchange for items/equipment","Exchange for Legendary Collab Equipment","What is UP?","Nothing"),2)
  IfPlayerPicksChoice(0,null)
   DefineLabel("リスト")
   355("unlimited_choices(11,[\"Sky Stone (10)\",")
   655("\"Heaven Stone (50)\",\"Void Stone (200)\",")
   655("\"10 Gems Gacha (200)\",")
   655("\"5 Legendary Weapons Gacha (1000)\",")
   655("\"5 Legendary Armors Gacha (1000)\",")
   655("\"Nevermind\"])")
   If(1,11,0,0,0)
    If(1,910,0,10,1)
     ChangeVariable(910,910,2,0,10)
     ShowMessageFace("sirousagi_fc1",0,0,2,2)
     ShowMessage("\\n<White Rabbit>Okay, here you go♪")
     250(bytes(0x04,0x08,0x6f,0x3a,0x0c,0x52,0x50,0x47,0x3a,0x3a,0x53,0x45,0x08,0x3a,0x0a,0x40,0x6e,0x61,0x6d,0x65,0x49,0x22,0x0a,0x49,0x74,0x65,0x6d,0x31,0x06,0x3a,0x06,0x45,0x54,0x3a,0x0b,0x40,0x70,0x69,0x74,0x63,0x68,0x69,0x69,0x3a,0x0c,0x40,0x76,0x6f,0x6c,0x75,0x6d,0x65,0x69,0x55))
     ChangeInventory_Item(91,0,0,1)
     ShowMessageFace("sirousagi_fc1",0,0,2,3)
     ShowMessage("\\n<White Rabbit>You have \\V[910] UP left.\nDo you want to exchange for anything else?")
     JumpToLabel("リスト")
     0()
    Else()
     ShowMessageFace("sirousagi_fc1",0,0,2,4)
     ShowMessage("\\n<White Rabbit>You don't have enough UP to exchange with!")
     JumpToLabel("リスト")
     0()
    EndIf()
    0()
   EndIf()
   If(1,11,0,1,0)
    If(1,910,0,50,1)
     ChangeVariable(910,910,2,0,50)
     ShowMessageFace("sirousagi_fc1",0,0,2,5)
     ShowMessage("\\n<White Rabbit>Okay, here you go♪")
     250(bytes(0x04,0x08,0x6f,0x3a,0x0c,0x52,0x50,0x47,0x3a,0x3a,0x53,0x45,0x08,0x3a,0x0a,0x40,0x6e,0x61,0x6d,0x65,0x49,0x22,0x0a,0x49,0x74,0x65,0x6d,0x31,0x06,0x3a,0x06,0x45,0x54,0x3a,0x0b,0x40,0x70,0x69,0x74,0x63,0x68,0x69,0x69,0x3a,0x0c,0x40,0x76,0x6f,0x6c,0x75,0x6d,0x65,0x69,0x55))
     ChangeInventory_Item(92,0,0,1)
     ShowMessageFace("sirousagi_fc1",0,0,2,6)
     ShowMessage("\\n<White Rabbit>You have \\V[910] UP left.\nDo you want to exchange your points for anything else?")
     JumpToLabel("リスト")
     0()
    Else()
     ShowMessageFace("sirousagi_fc1",0,0,2,7)
     ShowMessage("\\n<White Rabbit>You don't have enough UP to exchange with!")
     JumpToLabel("リスト")
     0()
    EndIf()
    0()
   EndIf()
   If(1,11,0,2,0)
    If(1,910,0,200,1)
     ChangeVariable(910,910,2,0,200)
     ShowMessageFace("sirousagi_fc1",0,0,2,8)
     ShowMessage("\\n<White Rabbit>Okay, here you go♪")
     250(bytes(0x04,0x08,0x6f,0x3a,0x0c,0x52,0x50,0x47,0x3a,0x3a,0x53,0x45,0x08,0x3a,0x0a,0x40,0x6e,0x61,0x6d,0x65,0x49,0x22,0x0a,0x49,0x74,0x65,0x6d,0x31,0x06,0x3a,0x06,0x45,0x54,0x3a,0x0b,0x40,0x70,0x69,0x74,0x63,0x68,0x69,0x69,0x3a,0x0c,0x40,0x76,0x6f,0x6c,0x75,0x6d,0x65,0x69,0x55))
     ChangeInventory_Item(93,0,0,1)
     ShowMessageFace("sirousagi_fc1",0,0,2,9)
     ShowMessage("\\n<White Rabbit>You have \\V[910] UP left.\nDo you want to exchange your points for anything else?")
     JumpToLabel("リスト")
     0()
    Else()
     ShowMessageFace("sirousagi_fc1",0,0,2,10)
     ShowMessage("\\n<White Rabbit>You don't have enough UP to exchange with!")
     JumpToLabel("リスト")
     0()
    EndIf()
    0()
   EndIf()
   If(1,11,0,3,0)
    If(1,910,0,200,1)
     ChangeVariable(910,910,2,0,200)
     ShowMessageFace("sirousagi_fc1",0,0,2,11)
     ShowMessage("\\n<White Rabbit>You want to spin the gem gacha?\nOkay then, here we gooo♪")
     ChangeVariable(15,15,0,0,0)
     StartLoop()
      ChangeVariable(15,15,1,0,1)
      If(1,15,0,11,0)
       Break()
       0()
      EndIf()
      ChangeVariable(18,18,0,2,1,5)
      If(1,18,0,4,2)
       RunCommonEvent(822)
       0()
      EndIf()
      If(1,18,0,5,0)
       RunCommonEvent(823)
       0()
      EndIf()
      0()
     EndLoop()
     ShowMessageFace("sirousagi_fc1",0,0,2,12)
     ShowMessage("\\n<White Rabbit>You have \\V[910] UP left.\nDo you want to exchange your points for anything else?")
     JumpToLabel("リスト")
     0()
    Else()
     ShowMessageFace("sirousagi_fc1",0,0,2,13)
     ShowMessage("\\n<White Rabbit>You don't have enough UP to spin the gacha!")
     JumpToLabel("リスト")
     0()
    EndIf()
    0()
   EndIf()
   If(1,11,0,4,0)
    If(1,910,0,1000,1)
     ChangeVariable(910,910,2,0,1000)
     ShowMessageFace("sirousagi_fc1",0,0,2,14)
     ShowMessage("\\n<White Rabbit>You want to spin the legendary weapon gacha?\nOkay then, here we gooo♪")
     ChangeVariable(15,15,0,0,0)
     StartLoop()
      ChangeVariable(15,15,1,0,1)
      If(1,15,0,6,0)
       Break()
       0()
      EndIf()
      ChangeVariable(18,18,0,2,1,4)
      If(1,18,0,1,0)
       RunCommonEvent(806)
       0()
      EndIf()
      If(1,18,0,2,0)
       RunCommonEvent(812)
       0()
      EndIf()
      If(1,18,0,3,0)
       RunCommonEvent(803)
       0()
      EndIf()
      If(1,18,0,4,0)
       RunCommonEvent(809)
       0()
      EndIf()
      0()
     EndLoop()
     ShowMessageFace("sirousagi_fc1",0,0,2,15)
     ShowMessage("\\n<White Rabbit>You have \\V[910] UP left.\nDo you want to exchange your points for anything else?")
     JumpToLabel("リスト")
     0()
    Else()
     ShowMessageFace("sirousagi_fc1",0,0,2,16)
     ShowMessage("\\n<White Rabbit>You don't have enough UP to spin the gacha!")
     JumpToLabel("リスト")
     0()
    EndIf()
    0()
   EndIf()
   If(1,11,0,5,0)
    If(1,910,0,1000,1)
     ChangeVariable(910,910,2,0,1000)
     ShowMessageFace("sirousagi_fc1",0,0,2,17)
     ShowMessage("\\n<White Rabbit>You want to spin the legendary armor gacha?\nOkay then, here we gooo♪")
     ChangeVariable(15,15,0,0,0)
     StartLoop()
      ChangeVariable(15,15,1,0,1)
      If(1,15,0,6,0)
       Break()
       0()
      EndIf()
      ChangeVariable(18,18,0,2,1,5)
      If(1,18,0,2,2)
       RunCommonEvent(815)
       0()
      EndIf()
      If(1,18,0,3,1)
       If(1,18,0,4,2)
        RunCommonEvent(818)
        0()
       EndIf()
       0()
      EndIf()
      If(1,18,0,5,0)
       RunCommonEvent(821)
       0()
      EndIf()
      0()
     EndLoop()
     ShowMessageFace("sirousagi_fc1",0,0,2,18)
     ShowMessage("\\n<White Rabbit>You have \\V[910] UP left.\nDo you want to exchange your points for anything else?")
     JumpToLabel("リスト")
     0()
    Else()
     ShowMessageFace("sirousagi_fc1",0,0,2,19)
     ShowMessage("\\n<White Rabbit>You don't have enough UP to spin the gacha!")
     JumpToLabel("リスト")
     0()
    EndIf()
    0()
   EndIf()
   EndEventProcessing()
   0()
  IfPlayerPicksChoice(1,null)
   If(1,910,0,200,4)
    ShowMessageFace("sirousagi_fc1",0,0,2,20)
    ShowMessage("\\n<White Rabbit>It will cost 200 points to convert Collab equipment into its legendary form. You don't appear to have enough points on hand...")
    EndEventProcessing()
    0()
   EndIf()
   ShowMessageFace("sirousagi_fc1",0,0,2,21)
   ShowMessage("\\n<White Rabbit>It will cost 200 points to convert Collab equipment into its legendary form. Don't forget to take off the equipment you wish to convert.")
   ChangeVariable(58,58,0,0,0)
   ShowChoices(strings("Convert Collab Weapon into Legendary","Convert Collab Armor into Legendary","Cancel"),3)
   IfPlayerPicksChoice(0,null)
    355("choice_weapon")
    If(1,58,0,0,0)
     EndEventProcessing()
     0()
    EndIf()
    ChangeVariable(910,910,2,0,200)
    If(1,58,0,940,0)
     250(bytes(0x04,0x08,0x6f,0x3a,0x0c,0x52,0x50,0x47,0x3a,0x3a,0x53,0x45,0x08,0x3a,0x0a,0x40,0x6e,0x61,0x6d,0x65,0x49,0x22,0x0a,0x49,0x74,0x65,0x6d,0x32,0x06,0x3a,0x06,0x45,0x54,0x3a,0x0b,0x40,0x70,0x69,0x74,0x63,0x68,0x69,0x69,0x3a,0x0c,0x40,0x76,0x6f,0x6c,0x75,0x6d,0x65,0x69,0x55))
     ChangeInventoryWeapon(940,1,0,1,false)
     ChangeInventoryWeapon(4051,0,0,1,false)
     EndEventProcessing()
     0()
    EndIf()
    If(1,58,0,941,0)
     250(bytes(0x04,0x08,0x6f,0x3a,0x0c,0x52,0x50,0x47,0x3a,0x3a,0x53,0x45,0x08,0x3a,0x0a,0x40,0x6e,0x61,0x6d,0x65,0x49,0x22,0x0a,0x49,0x74,0x65,0x6d,0x32,0x06,0x3a,0x06,0x45,0x54,0x3a,0x0b,0x40,0x70,0x69,0x74,0x63,0x68,0x69,0x69,0x3a,0x0c,0x40,0x76,0x6f,0x6c,0x75,0x6d,0x65,0x69,0x55))
     ChangeInventoryWeapon(941,1,0,1,false)
     ChangeInventoryWeapon(4052,0,0,1,false)
     EndEventProcessing()
     0()
    EndIf()
    If(1,58,0,942,0)
     250(bytes(0x04,0x08,0x6f,0x3a,0x0c,0x52,0x50,0x47,0x3a,0x3a,0x53,0x45,0x08,0x3a,0x0a,0x40,0x6e,0x61,0x6d,0x65,0x49,0x22,0x0a,0x49,0x74,0x65,0x6d,0x32,0x06,0x3a,0x06,0x45,0x54,0x3a,0x0b,0x40,0x70,0x69,0x74,0x63,0x68,0x69,0x69,0x3a,0x0c,0x40,0x76,0x6f,0x6c,0x75,0x6d,0x65,0x69,0x55))
     ChangeInventoryWeapon(942,1,0,1,false)
     ChangeInventoryWeapon(4053,0,0,1,false)
     EndEventProcessing()
     0()
    EndIf()
    If(1,58,0,943,0)
     250(bytes(0x04,0x08,0x6f,0x3a,0x0c,0x52,0x50,0x47,0x3a,0x3a,0x53,0x45,0x08,0x3a,0x0a,0x40,0x6e,0x61,0x6d,0x65,0x49,0x22,0x0a,0x49,0x74,0x65,0x6d,0x32,0x06,0x3a,0x06,0x45,0x54,0x3a,0x0b,0x40,0x70,0x69,0x74,0x63,0x68,0x69,0x69,0x3a,0x0c,0x40,0x76,0x6f,0x6c,0x75,0x6d,0x65,0x69,0x55))
     ChangeInventoryWeapon(943,1,0,1,false)
     ChangeInventoryWeapon(4054,0,0,1,false)
     EndEventProcessing()
     0()
    EndIf()
    If(1,58,0,944,0)
     250(bytes(0x04,0x08,0x6f,0x3a,0x0c,0x52,0x50,0x47,0x3a,0x3a,0x53,0x45,0x08,0x3a,0x0a,0x40,0x6e,0x61,0x6d,0x65,0x49,0x22,0x0a,0x49,0x74,0x65,0x6d,0x32,0x06,0x3a,0x06,0x45,0x54,0x3a,0x0b,0x40,0x70,0x69,0x74,0x63,0x68,0x69,0x69,0x3a,0x0c,0x40,0x76,0x6f,0x6c,0x75,0x6d,0x65,0x69,0x55))
     ChangeInventoryWeapon(944,1,0,1,false)
     ChangeInventoryWeapon(4055,0,0,1,false)
     EndEventProcessing()
     0()
    EndIf()
    If(1,58,0,945,0)
     250(bytes(0x04,0x08,0x6f,0x3a,0x0c,0x52,0x50,0x47,0x3a,0x3a,0x53,0x45,0x08,0x3a,0x0a,0x40,0x6e,0x61,0x6d,0x65,0x49,0x22,0x0a,0x49,0x74,0x65,0x6d,0x32,0x06,0x3a,0x06,0x45,0x54,0x3a,0x0b,0x40,0x70,0x69,0x74,0x63,0x68,0x69,0x69,0x3a,0x0c,0x40,0x76,0x6f,0x6c,0x75,0x6d,0x65,0x69,0x55))
     ChangeInventoryWeapon(945,1,0,1,false)
     ChangeInventoryWeapon(4056,0,0,1,false)
     EndEventProcessing()
     0()
    EndIf()
    If(1,58,0,946,0)
     250(bytes(0x04,0x08,0x6f,0x3a,0x0c,0x52,0x50,0x47,0x3a,0x3a,0x53,0x45,0x08,0x3a,0x0a,0x40,0x6e,0x61,0x6d,0x65,0x49,0x22,0x0a,0x49,0x74,0x65,0x6d,0x32,0x06,0x3a,0x06,0x45,0x54,0x3a,0x0b,0x40,0x70,0x69,0x74,0x63,0x68,0x69,0x69,0x3a,0x0c,0x40,0x76,0x6f,0x6c,0x75,0x6d,0x65,0x69,0x55))
     ChangeInventoryWeapon(946,1,0,1,false)
     ChangeInventoryWeapon(4057,0,0,1,false)
     EndEventProcessing()
     0()
    EndIf()
    If(1,58,0,947,0)
     250(bytes(0x04,0x08,0x6f,0x3a,0x0c,0x52,0x50,0x47,0x3a,0x3a,0x53,0x45,0x08,0x3a,0x0a,0x40,0x6e,0x61,0x6d,0x65,0x49,0x22,0x0a,0x49,0x74,0x65,0x6d,0x32,0x06,0x3a,0x06,0x45,0x54,0x3a,0x0b,0x40,0x70,0x69,0x74,0x63,0x68,0x69,0x69,0x3a,0x0c,0x40,0x76,0x6f,0x6c,0x75,0x6d,0x65,0x69,0x55))
     ChangeInventoryWeapon(947,1,0,1,false)
     ChangeInventoryWeapon(4058,0,0,1,false)
     EndEventProcessing()
     0()
    EndIf()
    If(1,58,0,949,0)
     250(bytes(0x04,0x08,0x6f,0x3a,0x0c,0x52,0x50,0x47,0x3a,0x3a,0x53,0x45,0x08,0x3a,0x0a,0x40,0x6e,0x61,0x6d,0x65,0x49,0x22,0x0a,0x49,0x74,0x65,0x6d,0x32,0x06,0x3a,0x06,0x45,0x54,0x3a,0x0b,0x40,0x70,0x69,0x74,0x63,0x68,0x69,0x69,0x3a,0x0c,0x40,0x76,0x6f,0x6c,0x75,0x6d,0x65,0x69,0x55))
     ChangeInventoryWeapon(949,1,0,1,false)
     ChangeInventoryWeapon(4059,0,0,1,false)
     EndEventProcessing()
     0()
    EndIf()
    If(1,58,0,950,0)
     250(bytes(0x04,0x08,0x6f,0x3a,0x0c,0x52,0x50,0x47,0x3a,0x3a,0x53,0x45,0x08,0x3a,0x0a,0x40,0x6e,0x61,0x6d,0x65,0x49,0x22,0x0a,0x49,0x74,0x65,0x6d,0x32,0x06,0x3a,0x06,0x45,0x54,0x3a,0x0b,0x40,0x70,0x69,0x74,0x63,0x68,0x69,0x69,0x3a,0x0c,0x40,0x76,0x6f,0x6c,0x75,0x6d,0x65,0x69,0x55))
     ChangeInventoryWeapon(950,1,0,1,false)
     ChangeInventoryWeapon(4060,0,0,1,false)
     EndEventProcessing()
     0()
    EndIf()
    If(1,58,0,951,0)
     250(bytes(0x04,0x08,0x6f,0x3a,0x0c,0x52,0x50,0x47,0x3a,0x3a,0x53,0x45,0x08,0x3a,0x0a,0x40,0x6e,0x61,0x6d,0x65,0x49,0x22,0x0a,0x49,0x74,0x65,0x6d,0x32,0x06,0x3a,0x06,0x45,0x54,0x3a,0x0b,0x40,0x70,0x69,0x74,0x63,0x68,0x69,0x69,0x3a,0x0c,0x40,0x76,0x6f,0x6c,0x75,0x6d,0x65,0x69,0x55))
     ChangeInventoryWeapon(951,1,0,1,false)
     ChangeInventoryWeapon(4061,0,0,1,false)
     EndEventProcessing()
     0()
    EndIf()
    If(1,58,0,952,0)
     250(bytes(0x04,0x08,0x6f,0x3a,0x0c,0x52,0x50,0x47,0x3a,0x3a,0x53,0x45,0x08,0x3a,0x0a,0x40,0x6e,0x61,0x6d,0x65,0x49,0x22,0x0a,0x49,0x74,0x65,0x6d,0x32,0x06,0x3a,0x06,0x45,0x54,0x3a,0x0b,0x40,0x70,0x69,0x74,0x63,0x68,0x69,0x69,0x3a,0x0c,0x40,0x76,0x6f,0x6c,0x75,0x6d,0x65,0x69,0x55))
     ChangeInventoryWeapon(952,1,0,1,false)
     ChangeInventoryWeapon(4062,0,0,1,false)
     EndEventProcessing()
     0()
    EndIf()
    If(1,58,0,953,0)
     250(bytes(0x04,0x08,0x6f,0x3a,0x0c,0x52,0x50,0x47,0x3a,0x3a,0x53,0x45,0x08,0x3a,0x0a,0x40,0x6e,0x61,0x6d,0x65,0x49,0x22,0x0a,0x49,0x74,0x65,0x6d,0x32,0x06,0x3a,0x06,0x45,0x54,0x3a,0x0b,0x40,0x70,0x69,0x74,0x63,0x68,0x69,0x69,0x3a,0x0c,0x40,0x76,0x6f,0x6c,0x75,0x6d,0x65,0x69,0x55))
     ChangeInventoryWeapon(953,1,0,1,false)
     ChangeInventoryWeapon(4063,0,0,1,false)
     EndEventProcessing()
     0()
    EndIf()
    If(1,58,0,954,0)
     250(bytes(0x04,0x08,0x6f,0x3a,0x0c,0x52,0x50,0x47,0x3a,0x3a,0x53,0x45,0x08,0x3a,0x0a,0x40,0x6e,0x61,0x6d,0x65,0x49,0x22,0x0a,0x49,0x74,0x65,0x6d,0x32,0x06,0x3a,0x06,0x45,0x54,0x3a,0x0b,0x40,0x70,0x69,0x74,0x63,0x68,0x69,0x69,0x3a,0x0c,0x40,0x76,0x6f,0x6c,0x75,0x6d,0x65,0x69,0x55))
     ChangeInventoryWeapon(954,1,0,1,false)
     ChangeInventoryWeapon(4064,0,0,1,false)
     EndEventProcessing()
     0()
    EndIf()
    If(1,58,0,955,0)
     250(bytes(0x04,0x08,0x6f,0x3a,0x0c,0x52,0x50,0x47,0x3a,0x3a,0x53,0x45,0x08,0x3a,0x0a,0x40,0x6e,0x61,0x6d,0x65,0x49,0x22,0x0a,0x49,0x74,0x65,0x6d,0x32,0x06,0x3a,0x06,0x45,0x54,0x3a,0x0b,0x40,0x70,0x69,0x74,0x63,0x68,0x69,0x69,0x3a,0x0c,0x40,0x76,0x6f,0x6c,0x75,0x6d,0x65,0x69,0x55))
     ChangeInventoryWeapon(955,1,0,1,false)
     ChangeInventoryWeapon(4065,0,0,1,false)
     EndEventProcessing()
     0()
    EndIf()
    If(1,58,0,956,0)
     250(bytes(0x04,0x08,0x6f,0x3a,0x0c,0x52,0x50,0x47,0x3a,0x3a,0x53,0x45,0x08,0x3a,0x0a,0x40,0x6e,0x61,0x6d,0x65,0x49,0x22,0x0a,0x49,0x74,0x65,0x6d,0x32,0x06,0x3a,0x06,0x45,0x54,0x3a,0x0b,0x40,0x70,0x69,0x74,0x63,0x68,0x69,0x69,0x3a,0x0c,0x40,0x76,0x6f,0x6c,0x75,0x6d,0x65,0x69,0x55))
     ChangeInventoryWeapon(956,1,0,1,false)
     ChangeInventoryWeapon(4066,0,0,1,false)
     EndEventProcessing()
     0()
    EndIf()
    If(1,58,0,957,0)
     250(bytes(0x04,0x08,0x6f,0x3a,0x0c,0x52,0x50,0x47,0x3a,0x3a,0x53,0x45,0x08,0x3a,0x0a,0x40,0x6e,0x61,0x6d,0x65,0x49,0x22,0x0a,0x49,0x74,0x65,0x6d,0x32,0x06,0x3a,0x06,0x45,0x54,0x3a,0x0b,0x40,0x70,0x69,0x74,0x63,0x68,0x69,0x69,0x3a,0x0c,0x40,0x76,0x6f,0x6c,0x75,0x6d,0x65,0x69,0x55))
     ChangeInventoryWeapon(957,1,0,1,false)
     ChangeInventoryWeapon(4067,0,0,1,false)
     EndEventProcessing()
     0()
    EndIf()
    If(1,58,0,958,0)
     250(bytes(0x04,0x08,0x6f,0x3a,0x0c,0x52,0x50,0x47,0x3a,0x3a,0x53,0x45,0x08,0x3a,0x0a,0x40,0x6e,0x61,0x6d,0x65,0x49,0x22,0x0a,0x49,0x74,0x65,0x6d,0x32,0x06,0x3a,0x06,0x45,0x54,0x3a,0x0b,0x40,0x70,0x69,0x74,0x63,0x68,0x69,0x69,0x3a,0x0c,0x40,0x76,0x6f,0x6c,0x75,0x6d,0x65,0x69,0x55))
     ChangeInventoryWeapon(958,1,0,1,false)
     ChangeInventoryWeapon(4068,0,0,1,false)
     EndEventProcessing()
     0()
    EndIf()
    If(1,58,0,959,0)
     250(bytes(0x04,0x08,0x6f,0x3a,0x0c,0x52,0x50,0x47,0x3a,0x3a,0x53,0x45,0x08,0x3a,0x0a,0x40,0x6e,0x61,0x6d,0x65,0x49,0x22,0x0a,0x49,0x74,0x65,0x6d,0x32,0x06,0x3a,0x06,0x45,0x54,0x3a,0x0b,0x40,0x70,0x69,0x74,0x63,0x68,0x69,0x69,0x3a,0x0c,0x40,0x76,0x6f,0x6c,0x75,0x6d,0x65,0x69,0x55))
     ChangeInventoryWeapon(959,1,0,1,false)
     ChangeInventoryWeapon(4069,0,0,1,false)
     EndEventProcessing()
     0()
    EndIf()
    If(1,58,0,960,0)
     250(bytes(0x04,0x08,0x6f,0x3a,0x0c,0x52,0x50,0x47,0x3a,0x3a,0x53,0x45,0x08,0x3a,0x0a,0x40,0x6e,0x61,0x6d,0x65,0x49,0x22,0x0a,0x49,0x74,0x65,0x6d,0x32,0x06,0x3a,0x06,0x45,0x54,0x3a,0x0b,0x40,0x70,0x69,0x74,0x63,0x68,0x69,0x69,0x3a,0x0c,0x40,0x76,0x6f,0x6c,0x75,0x6d,0x65,0x69,0x55))
     ChangeInventoryWeapon(960,1,0,1,false)
     ChangeInventoryWeapon(4070,0,0,1,false)
     EndEventProcessing()
     0()
    EndIf()
    If(1,58,0,961,0)
     250(bytes(0x04,0x08,0x6f,0x3a,0x0c,0x52,0x50,0x47,0x3a,0x3a,0x53,0x45,0x08,0x3a,0x0a,0x40,0x6e,0x61,0x6d,0x65,0x49,0x22,0x0a,0x49,0x74,0x65,0x6d,0x32,0x06,0x3a,0x06,0x45,0x54,0x3a,0x0b,0x40,0x70,0x69,0x74,0x63,0x68,0x69,0x69,0x3a,0x0c,0x40,0x76,0x6f,0x6c,0x75,0x6d,0x65,0x69,0x55))
     ChangeInventoryWeapon(961,1,0,1,false)
     ChangeInventoryWeapon(4071,0,0,1,false)
     EndEventProcessing()
     0()
    EndIf()
    If(1,58,0,962,0)
     250(bytes(0x04,0x08,0x6f,0x3a,0x0c,0x52,0x50,0x47,0x3a,0x3a,0x53,0x45,0x08,0x3a,0x0a,0x40,0x6e,0x61,0x6d,0x65,0x49,0x22,0x0a,0x49,0x74,0x65,0x6d,0x32,0x06,0x3a,0x06,0x45,0x54,0x3a,0x0b,0x40,0x70,0x69,0x74,0x63,0x68,0x69,0x69,0x3a,0x0c,0x40,0x76,0x6f,0x6c,0x75,0x6d,0x65,0x69,0x55))
     ChangeInventoryWeapon(962,1,0,1,false)
     ChangeInventoryWeapon(4072,0,0,1,false)
     EndEventProcessing()
     0()
    EndIf()
    If(1,58,0,963,0)
     250(bytes(0x04,0x08,0x6f,0x3a,0x0c,0x52,0x50,0x47,0x3a,0x3a,0x53,0x45,0x08,0x3a,0x0a,0x40,0x6e,0x61,0x6d,0x65,0x49,0x22,0x0a,0x49,0x74,0x65,0x6d,0x32,0x06,0x3a,0x06,0x45,0x54,0x3a,0x0b,0x40,0x70,0x69,0x74,0x63,0x68,0x69,0x69,0x3a,0x0c,0x40,0x76,0x6f,0x6c,0x75,0x6d,0x65,0x69,0x55))
     ChangeInventoryWeapon(963,1,0,1,false)
     ChangeInventoryWeapon(4073,0,0,1,false)
     EndEventProcessing()
     0()
    EndIf()
    If(1,58,0,964,0)
     250(bytes(0x04,0x08,0x6f,0x3a,0x0c,0x52,0x50,0x47,0x3a,0x3a,0x53,0x45,0x08,0x3a,0x0a,0x40,0x6e,0x61,0x6d,0x65,0x49,0x22,0x0a,0x49,0x74,0x65,0x6d,0x32,0x06,0x3a,0x06,0x45,0x54,0x3a,0x0b,0x40,0x70,0x69,0x74,0x63,0x68,0x69,0x69,0x3a,0x0c,0x40,0x76,0x6f,0x6c,0x75,0x6d,0x65,0x69,0x55))
     ChangeInventoryWeapon(964,1,0,1,false)
     ChangeInventoryWeapon(4074,0,0,1,false)
     EndEventProcessing()
     0()
    EndIf()
    If(1,58,0,965,0)
     250(bytes(0x04,0x08,0x6f,0x3a,0x0c,0x52,0x50,0x47,0x3a,0x3a,0x53,0x45,0x08,0x3a,0x0a,0x40,0x6e,0x61,0x6d,0x65,0x49,0x22,0x0a,0x49,0x74,0x65,0x6d,0x32,0x06,0x3a,0x06,0x45,0x54,0x3a,0x0b,0x40,0x70,0x69,0x74,0x63,0x68,0x69,0x69,0x3a,0x0c,0x40,0x76,0x6f,0x6c,0x75,0x6d,0x65,0x69,0x55))
     ChangeInventoryWeapon(965,1,0,1,false)
     ChangeInventoryWeapon(4075,0,0,1,false)
     EndEventProcessing()
     0()
    EndIf()
    If(1,58,0,966,0)
     250(bytes(0x04,0x08,0x6f,0x3a,0x0c,0x52,0x50,0x47,0x3a,0x3a,0x53,0x45,0x08,0x3a,0x0a,0x40,0x6e,0x61,0x6d,0x65,0x49,0x22,0x0a,0x49,0x74,0x65,0x6d,0x32,0x06,0x3a,0x06,0x45,0x54,0x3a,0x0b,0x40,0x70,0x69,0x74,0x63,0x68,0x69,0x69,0x3a,0x0c,0x40,0x76,0x6f,0x6c,0x75,0x6d,0x65,0x69,0x55))
     ChangeInventoryWeapon(966,1,0,1,false)
     ChangeInventoryWeapon(4076,0,0,1,false)
     EndEventProcessing()
     0()
    EndIf()
    If(1,58,0,967,0)
     250(bytes(0x04,0x08,0x6f,0x3a,0x0c,0x52,0x50,0x47,0x3a,0x3a,0x53,0x45,0x08,0x3a,0x0a,0x40,0x6e,0x61,0x6d,0x65,0x49,0x22,0x0a,0x49,0x74,0x65,0x6d,0x32,0x06,0x3a,0x06,0x45,0x54,0x3a,0x0b,0x40,0x70,0x69,0x74,0x63,0x68,0x69,0x69,0x3a,0x0c,0x40,0x76,0x6f,0x6c,0x75,0x6d,0x65,0x69,0x55))
     ChangeInventoryWeapon(967,1,0,1,false)
     ChangeInventoryWeapon(4077,0,0,1,false)
     EndEventProcessing()
     0()
    EndIf()
    0()
   IfPlayerPicksChoice(1,null)
    355("choice_armor")
    If(1,58,0,0,0)
     EndEventProcessing()
     0()
    EndIf()
    ChangeVariable(910,910,2,0,200)
    If(1,58,0,333,0)
     250(bytes(0x04,0x08,0x6f,0x3a,0x0c,0x52,0x50,0x47,0x3a,0x3a,0x53,0x45,0x08,0x3a,0x0a,0x40,0x6e,0x61,0x6d,0x65,0x49,0x22,0x0a,0x49,0x74,0x65,0x6d,0x32,0x06,0x3a,0x06,0x45,0x54,0x3a,0x0b,0x40,0x70,0x69,0x74,0x63,0x68,0x69,0x69,0x3a,0x0c,0x40,0x76,0x6f,0x6c,0x75,0x6d,0x65,0x69,0x55))
     ChangeInventoryArmor(333,1,0,1,false)
     ChangeInventoryArmor(3751,0,0,1,false)
     EndEventProcessing()
     0()
    EndIf()
    If(1,58,0,334,0)
     250(bytes(0x04,0x08,0x6f,0x3a,0x0c,0x52,0x50,0x47,0x3a,0x3a,0x53,0x45,0x08,0x3a,0x0a,0x40,0x6e,0x61,0x6d,0x65,0x49,0x22,0x0a,0x49,0x74,0x65,0x6d,0x32,0x06,0x3a,0x06,0x45,0x54,0x3a,0x0b,0x40,0x70,0x69,0x74,0x63,0x68,0x69,0x69,0x3a,0x0c,0x40,0x76,0x6f,0x6c,0x75,0x6d,0x65,0x69,0x55))
     ChangeInventoryArmor(334,1,0,1,false)
     ChangeInventoryArmor(3752,0,0,1,false)
     EndEventProcessing()
     0()
    EndIf()
    If(1,58,0,335,0)
     250(bytes(0x04,0x08,0x6f,0x3a,0x0c,0x52,0x50,0x47,0x3a,0x3a,0x53,0x45,0x08,0x3a,0x0a,0x40,0x6e,0x61,0x6d,0x65,0x49,0x22,0x0a,0x49,0x74,0x65,0x6d,0x32,0x06,0x3a,0x06,0x45,0x54,0x3a,0x0b,0x40,0x70,0x69,0x74,0x63,0x68,0x69,0x69,0x3a,0x0c,0x40,0x76,0x6f,0x6c,0x75,0x6d,0x65,0x69,0x55))
     ChangeInventoryArmor(335,1,0,1,false)
     ChangeInventoryArmor(3753,0,0,1,false)
     EndEventProcessing()
     0()
    EndIf()
    If(1,58,0,336,0)
     250(bytes(0x04,0x08,0x6f,0x3a,0x0c,0x52,0x50,0x47,0x3a,0x3a,0x53,0x45,0x08,0x3a,0x0a,0x40,0x6e,0x61,0x6d,0x65,0x49,0x22,0x0a,0x49,0x74,0x65,0x6d,0x32,0x06,0x3a,0x06,0x45,0x54,0x3a,0x0b,0x40,0x70,0x69,0x74,0x63,0x68,0x69,0x69,0x3a,0x0c,0x40,0x76,0x6f,0x6c,0x75,0x6d,0x65,0x69,0x55))
     ChangeInventoryArmor(336,1,0,1,false)
     ChangeInventoryArmor(3754,0,0,1,false)
     EndEventProcessing()
     0()
    EndIf()
    If(1,58,0,337,0)
     250(bytes(0x04,0x08,0x6f,0x3a,0x0c,0x52,0x50,0x47,0x3a,0x3a,0x53,0x45,0x08,0x3a,0x0a,0x40,0x6e,0x61,0x6d,0x65,0x49,0x22,0x0a,0x49,0x74,0x65,0x6d,0x32,0x06,0x3a,0x06,0x45,0x54,0x3a,0x0b,0x40,0x70,0x69,0x74,0x63,0x68,0x69,0x69,0x3a,0x0c,0x40,0x76,0x6f,0x6c,0x75,0x6d,0x65,0x69,0x55))
     ChangeInventoryArmor(337,1,0,1,false)
     ChangeInventoryArmor(3755,0,0,1,false)
     EndEventProcessing()
     0()
    EndIf()
    If(1,58,0,338,0)
     250(bytes(0x04,0x08,0x6f,0x3a,0x0c,0x52,0x50,0x47,0x3a,0x3a,0x53,0x45,0x08,0x3a,0x0a,0x40,0x6e,0x61,0x6d,0x65,0x49,0x22,0x0a,0x49,0x74,0x65,0x6d,0x32,0x06,0x3a,0x06,0x45,0x54,0x3a,0x0b,0x40,0x70,0x69,0x74,0x63,0x68,0x69,0x69,0x3a,0x0c,0x40,0x76,0x6f,0x6c,0x75,0x6d,0x65,0x69,0x55))
     ChangeInventoryArmor(338,1,0,1,false)
     ChangeInventoryArmor(3756,0,0,1,false)
     EndEventProcessing()
     0()
    EndIf()
    If(1,58,0,339,0)
     250(bytes(0x04,0x08,0x6f,0x3a,0x0c,0x52,0x50,0x47,0x3a,0x3a,0x53,0x45,0x08,0x3a,0x0a,0x40,0x6e,0x61,0x6d,0x65,0x49,0x22,0x0a,0x49,0x74,0x65,0x6d,0x32,0x06,0x3a,0x06,0x45,0x54,0x3a,0x0b,0x40,0x70,0x69,0x74,0x63,0x68,0x69,0x69,0x3a,0x0c,0x40,0x76,0x6f,0x6c,0x75,0x6d,0x65,0x69,0x55))
     ChangeInventoryArmor(339,1,0,1,false)
     ChangeInventoryArmor(3757,0,0,1,false)
     EndEventProcessing()
     0()
    EndIf()
    If(1,58,0,340,0)
     250(bytes(0x04,0x08,0x6f,0x3a,0x0c,0x52,0x50,0x47,0x3a,0x3a,0x53,0x45,0x08,0x3a,0x0a,0x40,0x6e,0x61,0x6d,0x65,0x49,0x22,0x0a,0x49,0x74,0x65,0x6d,0x32,0x06,0x3a,0x06,0x45,0x54,0x3a,0x0b,0x40,0x70,0x69,0x74,0x63,0x68,0x69,0x69,0x3a,0x0c,0x40,0x76,0x6f,0x6c,0x75,0x6d,0x65,0x69,0x55))
     ChangeInventoryArmor(340,1,0,1,false)
     ChangeInventoryArmor(3758,0,0,1,false)
     EndEventProcessing()
     0()
    EndIf()
    If(1,58,0,341,0)
     250(bytes(0x04,0x08,0x6f,0x3a,0x0c,0x52,0x50,0x47,0x3a,0x3a,0x53,0x45,0x08,0x3a,0x0a,0x40,0x6e,0x61,0x6d,0x65,0x49,0x22,0x0a,0x49,0x74,0x65,0x6d,0x32,0x06,0x3a,0x06,0x45,0x54,0x3a,0x0b,0x40,0x70,0x69,0x74,0x63,0x68,0x69,0x69,0x3a,0x0c,0x40,0x76,0x6f,0x6c,0x75,0x6d,0x65,0x69,0x55))
     ChangeInventoryArmor(341,1,0,1,false)
     ChangeInventoryArmor(3759,0,0,1,false)
     EndEventProcessing()
     0()
    EndIf()
    If(1,58,0,342,0)
     250(bytes(0x04,0x08,0x6f,0x3a,0x0c,0x52,0x50,0x47,0x3a,0x3a,0x53,0x45,0x08,0x3a,0x0a,0x40,0x6e,0x61,0x6d,0x65,0x49,0x22,0x0a,0x49,0x74,0x65,0x6d,0x32,0x06,0x3a,0x06,0x45,0x54,0x3a,0x0b,0x40,0x70,0x69,0x74,0x63,0x68,0x69,0x69,0x3a,0x0c,0x40,0x76,0x6f,0x6c,0x75,0x6d,0x65,0x69,0x55))
     ChangeInventoryArmor(342,1,0,1,false)
     ChangeInventoryArmor(3760,0,0,1,false)
     EndEventProcessing()
     0()
    EndIf()
    If(1,58,0,343,0)
     250(bytes(0x04,0x08,0x6f,0x3a,0x0c,0x52,0x50,0x47,0x3a,0x3a,0x53,0x45,0x08,0x3a,0x0a,0x40,0x6e,0x61,0x6d,0x65,0x49,0x22,0x0a,0x49,0x74,0x65,0x6d,0x32,0x06,0x3a,0x06,0x45,0x54,0x3a,0x0b,0x40,0x70,0x69,0x74,0x63,0x68,0x69,0x69,0x3a,0x0c,0x40,0x76,0x6f,0x6c,0x75,0x6d,0x65,0x69,0x55))
     ChangeInventoryArmor(343,1,0,1,false)
     ChangeInventoryArmor(3761,0,0,1,false)
     EndEventProcessing()
     0()
    EndIf()
    If(1,58,0,344,0)
     250(bytes(0x04,0x08,0x6f,0x3a,0x0c,0x52,0x50,0x47,0x3a,0x3a,0x53,0x45,0x08,0x3a,0x0a,0x40,0x6e,0x61,0x6d,0x65,0x49,0x22,0x0a,0x49,0x74,0x65,0x6d,0x32,0x06,0x3a,0x06,0x45,0x54,0x3a,0x0b,0x40,0x70,0x69,0x74,0x63,0x68,0x69,0x69,0x3a,0x0c,0x40,0x76,0x6f,0x6c,0x75,0x6d,0x65,0x69,0x55))
     ChangeInventoryArmor(344,1,0,1,false)
     ChangeInventoryArmor(3762,0,0,1,false)
     EndEventProcessing()
     0()
    EndIf()
    If(1,58,0,345,0)
     250(bytes(0x04,0x08,0x6f,0x3a,0x0c,0x52,0x50,0x47,0x3a,0x3a,0x53,0x45,0x08,0x3a,0x0a,0x40,0x6e,0x61,0x6d,0x65,0x49,0x22,0x0a,0x49,0x74,0x65,0x6d,0x32,0x06,0x3a,0x06,0x45,0x54,0x3a,0x0b,0x40,0x70,0x69,0x74,0x63,0x68,0x69,0x69,0x3a,0x0c,0x40,0x76,0x6f,0x6c,0x75,0x6d,0x65,0x69,0x55))
     ChangeInventoryArmor(345,1,0,1,false)
     ChangeInventoryArmor(3763,0,0,1,false)
     EndEventProcessing()
     0()
    EndIf()
    If(1,58,0,346,0)
     250(bytes(0x04,0x08,0x6f,0x3a,0x0c,0x52,0x50,0x47,0x3a,0x3a,0x53,0x45,0x08,0x3a,0x0a,0x40,0x6e,0x61,0x6d,0x65,0x49,0x22,0x0a,0x49,0x74,0x65,0x6d,0x32,0x06,0x3a,0x06,0x45,0x54,0x3a,0x0b,0x40,0x70,0x69,0x74,0x63,0x68,0x69,0x69,0x3a,0x0c,0x40,0x76,0x6f,0x6c,0x75,0x6d,0x65,0x69,0x55))
     ChangeInventoryArmor(346,1,0,1,false)
     ChangeInventoryArmor(3764,0,0,1,false)
     EndEventProcessing()
     0()
    EndIf()
    If(1,58,0,347,0)
     250(bytes(0x04,0x08,0x6f,0x3a,0x0c,0x52,0x50,0x47,0x3a,0x3a,0x53,0x45,0x08,0x3a,0x0a,0x40,0x6e,0x61,0x6d,0x65,0x49,0x22,0x0a,0x49,0x74,0x65,0x6d,0x32,0x06,0x3a,0x06,0x45,0x54,0x3a,0x0b,0x40,0x70,0x69,0x74,0x63,0x68,0x69,0x69,0x3a,0x0c,0x40,0x76,0x6f,0x6c,0x75,0x6d,0x65,0x69,0x55))
     ChangeInventoryArmor(347,1,0,1,false)
     ChangeInventoryArmor(3765,0,0,1,false)
     EndEventProcessing()
     0()
    EndIf()
    If(1,58,0,348,0)
     250(bytes(0x04,0x08,0x6f,0x3a,0x0c,0x52,0x50,0x47,0x3a,0x3a,0x53,0x45,0x08,0x3a,0x0a,0x40,0x6e,0x61,0x6d,0x65,0x49,0x22,0x0a,0x49,0x74,0x65,0x6d,0x32,0x06,0x3a,0x06,0x45,0x54,0x3a,0x0b,0x40,0x70,0x69,0x74,0x63,0x68,0x69,0x69,0x3a,0x0c,0x40,0x76,0x6f,0x6c,0x75,0x6d,0x65,0x69,0x55))
     ChangeInventoryArmor(348,1,0,1,false)
     ChangeInventoryArmor(3766,0,0,1,false)
     EndEventProcessing()
     0()
    EndIf()
    If(1,58,0,349,0)
     250(bytes(0x04,0x08,0x6f,0x3a,0x0c,0x52,0x50,0x47,0x3a,0x3a,0x53,0x45,0x08,0x3a,0x0a,0x40,0x6e,0x61,0x6d,0x65,0x49,0x22,0x0a,0x49,0x74,0x65,0x6d,0x32,0x06,0x3a,0x06,0x45,0x54,0x3a,0x0b,0x40,0x70,0x69,0x74,0x63,0x68,0x69,0x69,0x3a,0x0c,0x40,0x76,0x6f,0x6c,0x75,0x6d,0x65,0x69,0x55))
     ChangeInventoryArmor(349,1,0,1,false)
     ChangeInventoryArmor(3767,0,0,1,false)
     EndEventProcessing()
     0()
    EndIf()
    If(1,58,0,350,0)
     250(bytes(0x04,0x08,0x6f,0x3a,0x0c,0x52,0x50,0x47,0x3a,0x3a,0x53,0x45,0x08,0x3a,0x0a,0x40,0x6e,0x61,0x6d,0x65,0x49,0x22,0x0a,0x49,0x74,0x65,0x6d,0x32,0x06,0x3a,0x06,0x45,0x54,0x3a,0x0b,0x40,0x70,0x69,0x74,0x63,0x68,0x69,0x69,0x3a,0x0c,0x40,0x76,0x6f,0x6c,0x75,0x6d,0x65,0x69,0x55))
     ChangeInventoryArmor(350,1,0,1,false)
     ChangeInventoryArmor(3768,0,0,1,false)
     EndEventProcessing()
     0()
    EndIf()
    If(1,58,0,351,0)
     250(bytes(0x04,0x08,0x6f,0x3a,0x0c,0x52,0x50,0x47,0x3a,0x3a,0x53,0x45,0x08,0x3a,0x0a,0x40,0x6e,0x61,0x6d,0x65,0x49,0x22,0x0a,0x49,0x74,0x65,0x6d,0x32,0x06,0x3a,0x06,0x45,0x54,0x3a,0x0b,0x40,0x70,0x69,0x74,0x63,0x68,0x69,0x69,0x3a,0x0c,0x40,0x76,0x6f,0x6c,0x75,0x6d,0x65,0x69,0x55))
     ChangeInventoryArmor(351,1,0,1,false)
     ChangeInventoryArmor(3769,0,0,1,false)
     EndEventProcessing()
     0()
    EndIf()
    If(1,58,0,352,0)
     250(bytes(0x04,0x08,0x6f,0x3a,0x0c,0x52,0x50,0x47,0x3a,0x3a,0x53,0x45,0x08,0x3a,0x0a,0x40,0x6e,0x61,0x6d,0x65,0x49,0x22,0x0a,0x49,0x74,0x65,0x6d,0x32,0x06,0x3a,0x06,0x45,0x54,0x3a,0x0b,0x40,0x70,0x69,0x74,0x63,0x68,0x69,0x69,0x3a,0x0c,0x40,0x76,0x6f,0x6c,0x75,0x6d,0x65,0x69,0x55))
     ChangeInventoryArmor(352,1,0,1,false)
     ChangeInventoryArmor(3770,0,0,1,false)
     EndEventProcessing()
     0()
    EndIf()
    If(1,58,0,353,0)
     250(bytes(0x04,0x08,0x6f,0x3a,0x0c,0x52,0x50,0x47,0x3a,0x3a,0x53,0x45,0x08,0x3a,0x0a,0x40,0x6e,0x61,0x6d,0x65,0x49,0x22,0x0a,0x49,0x74,0x65,0x6d,0x32,0x06,0x3a,0x06,0x45,0x54,0x3a,0x0b,0x40,0x70,0x69,0x74,0x63,0x68,0x69,0x69,0x3a,0x0c,0x40,0x76,0x6f,0x6c,0x75,0x6d,0x65,0x69,0x55))
     ChangeInventoryArmor(353,1,0,1,false)
     ChangeInventoryArmor(3771,0,0,1,false)
     EndEventProcessing()
     0()
    EndIf()
    If(1,58,0,354,0)
     250(bytes(0x04,0x08,0x6f,0x3a,0x0c,0x52,0x50,0x47,0x3a,0x3a,0x53,0x45,0x08,0x3a,0x0a,0x40,0x6e,0x61,0x6d,0x65,0x49,0x22,0x0a,0x49,0x74,0x65,0x6d,0x32,0x06,0x3a,0x06,0x45,0x54,0x3a,0x0b,0x40,0x70,0x69,0x74,0x63,0x68,0x69,0x69,0x3a,0x0c,0x40,0x76,0x6f,0x6c,0x75,0x6d,0x65,0x69,0x55))
     ChangeInventoryArmor(354,1,0,1,false)
     ChangeInventoryArmor(3772,0,0,1,false)
     EndEventProcessing()
     0()
    EndIf()
    If(1,58,0,355,0)
     250(bytes(0x04,0x08,0x6f,0x3a,0x0c,0x52,0x50,0x47,0x3a,0x3a,0x53,0x45,0x08,0x3a,0x0a,0x40,0x6e,0x61,0x6d,0x65,0x49,0x22,0x0a,0x49,0x74,0x65,0x6d,0x32,0x06,0x3a,0x06,0x45,0x54,0x3a,0x0b,0x40,0x70,0x69,0x74,0x63,0x68,0x69,0x69,0x3a,0x0c,0x40,0x76,0x6f,0x6c,0x75,0x6d,0x65,0x69,0x55))
     ChangeInventoryArmor(355,1,0,1,false)
     ChangeInventoryArmor(3773,0,0,1,false)
     EndEventProcessing()
     0()
    EndIf()
    If(1,58,0,356,0)
     250(bytes(0x04,0x08,0x6f,0x3a,0x0c,0x52,0x50,0x47,0x3a,0x3a,0x53,0x45,0x08,0x3a,0x0a,0x40,0x6e,0x61,0x6d,0x65,0x49,0x22,0x0a,0x49,0x74,0x65,0x6d,0x32,0x06,0x3a,0x06,0x45,0x54,0x3a,0x0b,0x40,0x70,0x69,0x74,0x63,0x68,0x69,0x69,0x3a,0x0c,0x40,0x76,0x6f,0x6c,0x75,0x6d,0x65,0x69,0x55))
     ChangeInventoryArmor(356,1,0,1,false)
     ChangeInventoryArmor(3774,0,0,1,false)
     EndEventProcessing()
     0()
    EndIf()
    If(1,58,0,357,0)
     250(bytes(0x04,0x08,0x6f,0x3a,0x0c,0x52,0x50,0x47,0x3a,0x3a,0x53,0x45,0x08,0x3a,0x0a,0x40,0x6e,0x61,0x6d,0x65,0x49,0x22,0x0a,0x49,0x74,0x65,0x6d,0x32,0x06,0x3a,0x06,0x45,0x54,0x3a,0x0b,0x40,0x70,0x69,0x74,0x63,0x68,0x69,0x69,0x3a,0x0c,0x40,0x76,0x6f,0x6c,0x75,0x6d,0x65,0x69,0x55))
     ChangeInventoryArmor(357,1,0,1,false)
     ChangeInventoryArmor(3775,0,0,1,false)
     EndEventProcessing()
     0()
    EndIf()
    If(1,58,0,358,0)
     250(bytes(0x04,0x08,0x6f,0x3a,0x0c,0x52,0x50,0x47,0x3a,0x3a,0x53,0x45,0x08,0x3a,0x0a,0x40,0x6e,0x61,0x6d,0x65,0x49,0x22,0x0a,0x49,0x74,0x65,0x6d,0x32,0x06,0x3a,0x06,0x45,0x54,0x3a,0x0b,0x40,0x70,0x69,0x74,0x63,0x68,0x69,0x69,0x3a,0x0c,0x40,0x76,0x6f,0x6c,0x75,0x6d,0x65,0x69,0x55))
     ChangeInventoryArmor(358,1,0,1,false)
     ChangeInventoryArmor(3776,0,0,1,false)
     EndEventProcessing()
     0()
    EndIf()
    If(1,58,0,359,0)
     250(bytes(0x04,0x08,0x6f,0x3a,0x0c,0x52,0x50,0x47,0x3a,0x3a,0x53,0x45,0x08,0x3a,0x0a,0x40,0x6e,0x61,0x6d,0x65,0x49,0x22,0x0a,0x49,0x74,0x65,0x6d,0x32,0x06,0x3a,0x06,0x45,0x54,0x3a,0x0b,0x40,0x70,0x69,0x74,0x63,0x68,0x69,0x69,0x3a,0x0c,0x40,0x76,0x6f,0x6c,0x75,0x6d,0x65,0x69,0x55))
     ChangeInventoryArmor(359,1,0,1,false)
     ChangeInventoryArmor(3777,0,0,1,false)
     EndEventProcessing()
     0()
    EndIf()
    If(1,58,0,360,0)
     250(bytes(0x04,0x08,0x6f,0x3a,0x0c,0x52,0x50,0x47,0x3a,0x3a,0x53,0x45,0x08,0x3a,0x0a,0x40,0x6e,0x61,0x6d,0x65,0x49,0x22,0x0a,0x49,0x74,0x65,0x6d,0x32,0x06,0x3a,0x06,0x45,0x54,0x3a,0x0b,0x40,0x70,0x69,0x74,0x63,0x68,0x69,0x69,0x3a,0x0c,0x40,0x76,0x6f,0x6c,0x75,0x6d,0x65,0x69,0x55))
     ChangeInventoryArmor(360,1,0,1,false)
     ChangeInventoryArmor(3778,0,0,1,false)
     EndEventProcessing()
     0()
    EndIf()
    If(1,58,0,361,0)
     250(bytes(0x04,0x08,0x6f,0x3a,0x0c,0x52,0x50,0x47,0x3a,0x3a,0x53,0x45,0x08,0x3a,0x0a,0x40,0x6e,0x61,0x6d,0x65,0x49,0x22,0x0a,0x49,0x74,0x65,0x6d,0x32,0x06,0x3a,0x06,0x45,0x54,0x3a,0x0b,0x40,0x70,0x69,0x74,0x63,0x68,0x69,0x69,0x3a,0x0c,0x40,0x76,0x6f,0x6c,0x75,0x6d,0x65,0x69,0x55))
     ChangeInventoryArmor(361,1,0,1,false)
     ChangeInventoryArmor(3779,0,0,1,false)
     EndEventProcessing()
     0()
    EndIf()
    If(1,58,0,362,0)
     250(bytes(0x04,0x08,0x6f,0x3a,0x0c,0x52,0x50,0x47,0x3a,0x3a,0x53,0x45,0x08,0x3a,0x0a,0x40,0x6e,0x61,0x6d,0x65,0x49,0x22,0x0a,0x49,0x74,0x65,0x6d,0x32,0x06,0x3a,0x06,0x45,0x54,0x3a,0x0b,0x40,0x70,0x69,0x74,0x63,0x68,0x69,0x69,0x3a,0x0c,0x40,0x76,0x6f,0x6c,0x75,0x6d,0x65,0x69,0x55))
     ChangeInventoryArmor(362,1,0,1,false)
     ChangeInventoryArmor(3780,0,0,1,false)
     EndEventProcessing()
     0()
    EndIf()
    If(1,58,0,363,0)
     250(bytes(0x04,0x08,0x6f,0x3a,0x0c,0x52,0x50,0x47,0x3a,0x3a,0x53,0x45,0x08,0x3a,0x0a,0x40,0x6e,0x61,0x6d,0x65,0x49,0x22,0x0a,0x49,0x74,0x65,0x6d,0x32,0x06,0x3a,0x06,0x45,0x54,0x3a,0x0b,0x40,0x70,0x69,0x74,0x63,0x68,0x69,0x69,0x3a,0x0c,0x40,0x76,0x6f,0x6c,0x75,0x6d,0x65,0x69,0x55))
     ChangeInventoryArmor(363,1,0,1,false)
     ChangeInventoryArmor(3781,0,0,1,false)
     EndEventProcessing()
     0()
    EndIf()
    If(1,58,0,364,0)
     250(bytes(0x04,0x08,0x6f,0x3a,0x0c,0x52,0x50,0x47,0x3a,0x3a,0x53,0x45,0x08,0x3a,0x0a,0x40,0x6e,0x61,0x6d,0x65,0x49,0x22,0x0a,0x49,0x74,0x65,0x6d,0x32,0x06,0x3a,0x06,0x45,0x54,0x3a,0x0b,0x40,0x70,0x69,0x74,0x63,0x68,0x69,0x69,0x3a,0x0c,0x40,0x76,0x6f,0x6c,0x75,0x6d,0x65,0x69,0x55))
     ChangeInventoryArmor(364,1,0,1,false)
     ChangeInventoryArmor(3782,0,0,1,false)
     EndEventProcessing()
     0()
    EndIf()
    If(1,58,0,365,0)
     250(bytes(0x04,0x08,0x6f,0x3a,0x0c,0x52,0x50,0x47,0x3a,0x3a,0x53,0x45,0x08,0x3a,0x0a,0x40,0x6e,0x61,0x6d,0x65,0x49,0x22,0x0a,0x49,0x74,0x65,0x6d,0x32,0x06,0x3a,0x06,0x45,0x54,0x3a,0x0b,0x40,0x70,0x69,0x74,0x63,0x68,0x69,0x69,0x3a,0x0c,0x40,0x76,0x6f,0x6c,0x75,0x6d,0x65,0x69,0x55))
     ChangeInventoryArmor(365,1,0,1,false)
     ChangeInventoryArmor(3783,0,0,1,false)
     EndEventProcessing()
     0()
    EndIf()
    If(1,58,0,366,0)
     250(bytes(0x04,0x08,0x6f,0x3a,0x0c,0x52,0x50,0x47,0x3a,0x3a,0x53,0x45,0x08,0x3a,0x0a,0x40,0x6e,0x61,0x6d,0x65,0x49,0x22,0x0a,0x49,0x74,0x65,0x6d,0x32,0x06,0x3a,0x06,0x45,0x54,0x3a,0x0b,0x40,0x70,0x69,0x74,0x63,0x68,0x69,0x69,0x3a,0x0c,0x40,0x76,0x6f,0x6c,0x75,0x6d,0x65,0x69,0x55))
     ChangeInventoryArmor(366,1,0,1,false)
     ChangeInventoryArmor(3784,0,0,1,false)
     EndEventProcessing()
     0()
    EndIf()
    If(1,58,0,367,0)
     250(bytes(0x04,0x08,0x6f,0x3a,0x0c,0x52,0x50,0x47,0x3a,0x3a,0x53,0x45,0x08,0x3a,0x0a,0x40,0x6e,0x61,0x6d,0x65,0x49,0x22,0x0a,0x49,0x74,0x65,0x6d,0x32,0x06,0x3a,0x06,0x45,0x54,0x3a,0x0b,0x40,0x70,0x69,0x74,0x63,0x68,0x69,0x69,0x3a,0x0c,0x40,0x76,0x6f,0x6c,0x75,0x6d,0x65,0x69,0x55))
     ChangeInventoryArmor(367,1,0,1,false)
     ChangeInventoryArmor(3785,0,0,1,false)
     EndEventProcessing()
     0()
    EndIf()
    If(1,58,0,368,0)
     250(bytes(0x04,0x08,0x6f,0x3a,0x0c,0x52,0x50,0x47,0x3a,0x3a,0x53,0x45,0x08,0x3a,0x0a,0x40,0x6e,0x61,0x6d,0x65,0x49,0x22,0x0a,0x49,0x74,0x65,0x6d,0x32,0x06,0x3a,0x06,0x45,0x54,0x3a,0x0b,0x40,0x70,0x69,0x74,0x63,0x68,0x69,0x69,0x3a,0x0c,0x40,0x76,0x6f,0x6c,0x75,0x6d,0x65,0x69,0x55))
     ChangeInventoryArmor(368,1,0,1,false)
     ChangeInventoryArmor(3786,0,0,1,false)
     EndEventProcessing()
     0()
    EndIf()
    If(1,58,0,369,0)
     250(bytes(0x04,0x08,0x6f,0x3a,0x0c,0x52,0x50,0x47,0x3a,0x3a,0x53,0x45,0x08,0x3a,0x0a,0x40,0x6e,0x61,0x6d,0x65,0x49,0x22,0x0a,0x49,0x74,0x65,0x6d,0x32,0x06,0x3a,0x06,0x45,0x54,0x3a,0x0b,0x40,0x70,0x69,0x74,0x63,0x68,0x69,0x69,0x3a,0x0c,0x40,0x76,0x6f,0x6c,0x75,0x6d,0x65,0x69,0x55))
     ChangeInventoryArmor(369,1,0,1,false)
     ChangeInventoryArmor(3787,0,0,1,false)
     EndEventProcessing()
     0()
    EndIf()
    If(1,58,0,370,0)
     250(bytes(0x04,0x08,0x6f,0x3a,0x0c,0x52,0x50,0x47,0x3a,0x3a,0x53,0x45,0x08,0x3a,0x0a,0x40,0x6e,0x61,0x6d,0x65,0x49,0x22,0x0a,0x49,0x74,0x65,0x6d,0x32,0x06,0x3a,0x06,0x45,0x54,0x3a,0x0b,0x40,0x70,0x69,0x74,0x63,0x68,0x69,0x69,0x3a,0x0c,0x40,0x76,0x6f,0x6c,0x75,0x6d,0x65,0x69,0x55))
     ChangeInventoryArmor(370,1,0,1,false)
     ChangeInventoryArmor(3788,0,0,1,false)
     EndEventProcessing()
     0()
    EndIf()
    If(1,58,0,371,0)
     250(bytes(0x04,0x08,0x6f,0x3a,0x0c,0x52,0x50,0x47,0x3a,0x3a,0x53,0x45,0x08,0x3a,0x0a,0x40,0x6e,0x61,0x6d,0x65,0x49,0x22,0x0a,0x49,0x74,0x65,0x6d,0x32,0x06,0x3a,0x06,0x45,0x54,0x3a,0x0b,0x40,0x70,0x69,0x74,0x63,0x68,0x69,0x69,0x3a,0x0c,0x40,0x76,0x6f,0x6c,0x75,0x6d,0x65,0x69,0x55))
     ChangeInventoryArmor(371,1,0,1,false)
     ChangeInventoryArmor(3789,0,0,1,false)
     EndEventProcessing()
     0()
    EndIf()
    If(1,58,0,372,0)
     250(bytes(0x04,0x08,0x6f,0x3a,0x0c,0x52,0x50,0x47,0x3a,0x3a,0x53,0x45,0x08,0x3a,0x0a,0x40,0x6e,0x61,0x6d,0x65,0x49,0x22,0x0a,0x49,0x74,0x65,0x6d,0x32,0x06,0x3a,0x06,0x45,0x54,0x3a,0x0b,0x40,0x70,0x69,0x74,0x63,0x68,0x69,0x69,0x3a,0x0c,0x40,0x76,0x6f,0x6c,0x75,0x6d,0x65,0x69,0x55))
     ChangeInventoryArmor(372,1,0,1,false)
     ChangeInventoryArmor(3790,0,0,1,false)
     EndEventProcessing()
     0()
    EndIf()
    If(1,58,0,373,0)
     250(bytes(0x04,0x08,0x6f,0x3a,0x0c,0x52,0x50,0x47,0x3a,0x3a,0x53,0x45,0x08,0x3a,0x0a,0x40,0x6e,0x61,0x6d,0x65,0x49,0x22,0x0a,0x49,0x74,0x65,0x6d,0x32,0x06,0x3a,0x06,0x45,0x54,0x3a,0x0b,0x40,0x70,0x69,0x74,0x63,0x68,0x69,0x69,0x3a,0x0c,0x40,0x76,0x6f,0x6c,0x75,0x6d,0x65,0x69,0x55))
     ChangeInventoryArmor(373,1,0,1,false)
     ChangeInventoryArmor(3791,0,0,1,false)
     EndEventProcessing()
     0()
    EndIf()
    If(1,58,0,374,0)
     250(bytes(0x04,0x08,0x6f,0x3a,0x0c,0x52,0x50,0x47,0x3a,0x3a,0x53,0x45,0x08,0x3a,0x0a,0x40,0x6e,0x61,0x6d,0x65,0x49,0x22,0x0a,0x49,0x74,0x65,0x6d,0x32,0x06,0x3a,0x06,0x45,0x54,0x3a,0x0b,0x40,0x70,0x69,0x74,0x63,0x68,0x69,0x69,0x3a,0x0c,0x40,0x76,0x6f,0x6c,0x75,0x6d,0x65,0x69,0x55))
     ChangeInventoryArmor(374,1,0,1,false)
     ChangeInventoryArmor(3792,0,0,1,false)
     EndEventProcessing()
     0()
    EndIf()
    If(1,58,0,375,0)
     250(bytes(0x04,0x08,0x6f,0x3a,0x0c,0x52,0x50,0x47,0x3a,0x3a,0x53,0x45,0x08,0x3a,0x0a,0x40,0x6e,0x61,0x6d,0x65,0x49,0x22,0x0a,0x49,0x74,0x65,0x6d,0x32,0x06,0x3a,0x06,0x45,0x54,0x3a,0x0b,0x40,0x70,0x69,0x74,0x63,0x68,0x69,0x69,0x3a,0x0c,0x40,0x76,0x6f,0x6c,0x75,0x6d,0x65,0x69,0x55))
     ChangeInventoryArmor(375,1,0,1,false)
     ChangeInventoryArmor(3793,0,0,1,false)
     EndEventProcessing()
     0()
    EndIf()
    If(1,58,0,376,0)
     250(bytes(0x04,0x08,0x6f,0x3a,0x0c,0x52,0x50,0x47,0x3a,0x3a,0x53,0x45,0x08,0x3a,0x0a,0x40,0x6e,0x61,0x6d,0x65,0x49,0x22,0x0a,0x49,0x74,0x65,0x6d,0x32,0x06,0x3a,0x06,0x45,0x54,0x3a,0x0b,0x40,0x70,0x69,0x74,0x63,0x68,0x69,0x69,0x3a,0x0c,0x40,0x76,0x6f,0x6c,0x75,0x6d,0x65,0x69,0x55))
     ChangeInventoryArmor(376,1,0,1,false)
     ChangeInventoryArmor(3794,0,0,1,false)
     EndEventProcessing()
     0()
    EndIf()
    If(1,58,0,377,0)
     250(bytes(0x04,0x08,0x6f,0x3a,0x0c,0x52,0x50,0x47,0x3a,0x3a,0x53,0x45,0x08,0x3a,0x0a,0x40,0x6e,0x61,0x6d,0x65,0x49,0x22,0x0a,0x49,0x74,0x65,0x6d,0x32,0x06,0x3a,0x06,0x45,0x54,0x3a,0x0b,0x40,0x70,0x69,0x74,0x63,0x68,0x69,0x69,0x3a,0x0c,0x40,0x76,0x6f,0x6c,0x75,0x6d,0x65,0x69,0x55))
     ChangeInventoryArmor(377,1,0,1,false)
     ChangeInventoryArmor(3795,0,0,1,false)
     EndEventProcessing()
     0()
    EndIf()
    If(1,58,0,378,0)
     250(bytes(0x04,0x08,0x6f,0x3a,0x0c,0x52,0x50,0x47,0x3a,0x3a,0x53,0x45,0x08,0x3a,0x0a,0x40,0x6e,0x61,0x6d,0x65,0x49,0x22,0x0a,0x49,0x74,0x65,0x6d,0x32,0x06,0x3a,0x06,0x45,0x54,0x3a,0x0b,0x40,0x70,0x69,0x74,0x63,0x68,0x69,0x69,0x3a,0x0c,0x40,0x76,0x6f,0x6c,0x75,0x6d,0x65,0x69,0x55))
     ChangeInventoryArmor(378,1,0,1,false)
     ChangeInventoryArmor(3796,0,0,1,false)
     EndEventProcessing()
     0()
    EndIf()
    If(1,58,0,379,0)
     250(bytes(0x04,0x08,0x6f,0x3a,0x0c,0x52,0x50,0x47,0x3a,0x3a,0x53,0x45,0x08,0x3a,0x0a,0x40,0x6e,0x61,0x6d,0x65,0x49,0x22,0x0a,0x49,0x74,0x65,0x6d,0x32,0x06,0x3a,0x06,0x45,0x54,0x3a,0x0b,0x40,0x70,0x69,0x74,0x63,0x68,0x69,0x69,0x3a,0x0c,0x40,0x76,0x6f,0x6c,0x75,0x6d,0x65,0x69,0x55))
     ChangeInventoryArmor(379,1,0,1,false)
     ChangeInventoryArmor(3797,0,0,1,false)
     EndEventProcessing()
     0()
    EndIf()
    If(1,58,0,380,0)
     250(bytes(0x04,0x08,0x6f,0x3a,0x0c,0x52,0x50,0x47,0x3a,0x3a,0x53,0x45,0x08,0x3a,0x0a,0x40,0x6e,0x61,0x6d,0x65,0x49,0x22,0x0a,0x49,0x74,0x65,0x6d,0x32,0x06,0x3a,0x06,0x45,0x54,0x3a,0x0b,0x40,0x70,0x69,0x74,0x63,0x68,0x69,0x69,0x3a,0x0c,0x40,0x76,0x6f,0x6c,0x75,0x6d,0x65,0x69,0x55))
     ChangeInventoryArmor(380,1,0,1,false)
     ChangeInventoryArmor(3798,0,0,1,false)
     EndEventProcessing()
     0()
    EndIf()
    If(1,58,0,381,0)
     250(bytes(0x04,0x08,0x6f,0x3a,0x0c,0x52,0x50,0x47,0x3a,0x3a,0x53,0x45,0x08,0x3a,0x0a,0x40,0x6e,0x61,0x6d,0x65,0x49,0x22,0x0a,0x49,0x74,0x65,0x6d,0x32,0x06,0x3a,0x06,0x45,0x54,0x3a,0x0b,0x40,0x70,0x69,0x74,0x63,0x68,0x69,0x69,0x3a,0x0c,0x40,0x76,0x6f,0x6c,0x75,0x6d,0x65,0x69,0x55))
     ChangeInventoryArmor(381,1,0,1,false)
     ChangeInventoryArmor(3799,0,0,1,false)
     EndEventProcessing()
     0()
    EndIf()
    0()
   IfPlayerPicksChoice(2,null)
    EndEventProcessing()
    0()
   404()
   0()
  IfPlayerPicksChoice(2,null)
   ShowMessageFace("sirousagi_fc1",0,0,2,22)
   ShowMessage("\\n<White Rabbit>UP stands for Usagi Points.\nThey're points that I made up on a whim.")
   ShowMessageFace("sirousagi_fc1",0,0,2,23)
   ShowMessage("\\n<White Rabbit>When the current rare points exceed the RP limit, I'll convert the extra points to UP.")
   ShowMessageFace("sirousagi_fc1",0,0,2,24)
   ShowMessage("\\n<White Rabbit>UP can be exchanged for items. Even if you leave the dungeon, your UP won't disappear!")
   EndEventProcessing()
   0()
  IfPlayerPicksChoice(3,null)
   EndEventProcessing()
   0()
  404()
  0()



EVENT   2
 PAGE   1
  If(1,123,0,8,2)
   RunCommonEvent(920)
   EndEventProcessing()
   0()
  EndIf()
  If(1,123,0,9,0)
   DefineLabel("メイン")
   ShowChoices(strings("Save","Proceed to next floor"),2)
   IfPlayerPicksChoice(0,null)
    352()
    JumpToLabel("メイン")
    0()
   IfPlayerPicksChoice(1,null)
    RunCommonEvent(901)
    EndEventProcessing()
    0()
   404()
   0()
  EndIf()
  If(1,123,0,10,0)
   RunCommonEvent(901)
   EndEventProcessing()
   0()
  EndIf()
  0()
