﻿


EVENT   1
 PAGE   1
  281(1)
  250(bytes(0x04,0x08,0x6f,0x3a,0x0c,0x52,0x50,0x47,0x3a,0x3a,0x53,0x45,0x08,0x3a,0x0a,0x40,0x6e,0x61,0x6d,0x65,0x49,0x22,0x09,0x4d,0x6f,0x76,0x65,0x06,0x3a,0x06,0x45,0x54,0x3a,0x0b,0x40,0x70,0x69,0x74,0x63,0x68,0x69,0x69,0x3a,0x0c,0x40,0x76,0x6f,0x6c,0x75,0x6d,0x65,0x69,0x55))
  TeleportPlayer(0,852,23,7,0,0)
  0()



EVENT   3
 PAGE   1
  0()



EVENT   4
 PAGE   1
  0()



EVENT   6
 PAGE   1
  0()



EVENT   7
 PAGE   1
  0()



EVENT   14
 PAGE   1
  0()



EVENT   15
 PAGE   1
  0()



EVENT   17
 PAGE   1
  0()



EVENT   2
 PAGE   1
  281(1)
  250(bytes(0x04,0x08,0x6f,0x3a,0x0c,0x52,0x50,0x47,0x3a,0x3a,0x53,0x45,0x08,0x3a,0x0a,0x40,0x6e,0x61,0x6d,0x65,0x49,0x22,0x09,0x4d,0x6f,0x76,0x65,0x06,0x3a,0x06,0x45,0x54,0x3a,0x0b,0x40,0x70,0x69,0x74,0x63,0x68,0x69,0x69,0x3a,0x0c,0x40,0x76,0x6f,0x6c,0x75,0x6d,0x65,0x69,0x55))
  TeleportPlayer(0,852,44,23,0,0)
  0()



EVENT   5
 PAGE   1
  281(1)
  250(bytes(0x04,0x08,0x6f,0x3a,0x0c,0x52,0x50,0x47,0x3a,0x3a,0x53,0x45,0x08,0x3a,0x0a,0x40,0x6e,0x61,0x6d,0x65,0x49,0x22,0x09,0x4d,0x6f,0x76,0x65,0x06,0x3a,0x06,0x45,0x54,0x3a,0x0b,0x40,0x70,0x69,0x74,0x63,0x68,0x69,0x69,0x3a,0x0c,0x40,0x76,0x6f,0x6c,0x75,0x6d,0x65,0x69,0x55))
  TeleportPlayer(0,852,6,39,0,0)
  0()



EVENT   12
 PAGE   1
  281(1)
  250(bytes(0x04,0x08,0x6f,0x3a,0x0c,0x52,0x50,0x47,0x3a,0x3a,0x53,0x45,0x08,0x3a,0x0a,0x40,0x6e,0x61,0x6d,0x65,0x49,0x22,0x09,0x4d,0x6f,0x76,0x65,0x06,0x3a,0x06,0x45,0x54,0x3a,0x0b,0x40,0x70,0x69,0x74,0x63,0x68,0x69,0x69,0x3a,0x0c,0x40,0x76,0x6f,0x6c,0x75,0x6d,0x65,0x69,0x55))
  TeleportPlayer(0,852,26,42,0,0)
  0()



EVENT   13
 PAGE   1
  281(1)
  250(bytes(0x04,0x08,0x6f,0x3a,0x0c,0x52,0x50,0x47,0x3a,0x3a,0x53,0x45,0x08,0x3a,0x0a,0x40,0x6e,0x61,0x6d,0x65,0x49,0x22,0x09,0x4d,0x6f,0x76,0x65,0x06,0x3a,0x06,0x45,0x54,0x3a,0x0b,0x40,0x70,0x69,0x74,0x63,0x68,0x69,0x69,0x3a,0x0c,0x40,0x76,0x6f,0x6c,0x75,0x6d,0x65,0x69,0x55))
  TeleportPlayer(0,852,35,45,0,0)
  0()



EVENT   16
 PAGE   1
  281(1)
  250(bytes(0x04,0x08,0x6f,0x3a,0x0c,0x52,0x50,0x47,0x3a,0x3a,0x53,0x45,0x08,0x3a,0x0a,0x40,0x6e,0x61,0x6d,0x65,0x49,0x22,0x09,0x4d,0x6f,0x76,0x65,0x06,0x3a,0x06,0x45,0x54,0x3a,0x0b,0x40,0x70,0x69,0x74,0x63,0x68,0x69,0x69,0x3a,0x0c,0x40,0x76,0x6f,0x6c,0x75,0x6d,0x65,0x69,0x55))
  TeleportPlayer(0,852,24,52,0,0)
  0()



EVENT   18
 PAGE   1
  281(1)
  250(bytes(0x04,0x08,0x6f,0x3a,0x0c,0x52,0x50,0x47,0x3a,0x3a,0x53,0x45,0x08,0x3a,0x0a,0x40,0x6e,0x61,0x6d,0x65,0x49,0x22,0x09,0x4d,0x6f,0x76,0x65,0x06,0x3a,0x06,0x45,0x54,0x3a,0x0b,0x40,0x70,0x69,0x74,0x63,0x68,0x69,0x69,0x3a,0x0c,0x40,0x76,0x6f,0x6c,0x75,0x6d,0x65,0x69,0x55))
  TeleportPlayer(0,852,45,51,0,0)
  0()



EVENT   10
 PAGE   1
  250(bytes(0x04,0x08,0x6f,0x3a,0x0c,0x52,0x50,0x47,0x3a,0x3a,0x53,0x45,0x08,0x3a,0x0a,0x40,0x6e,0x61,0x6d,0x65,0x49,0x22,0x09,0x4d,0x6f,0x76,0x65,0x06,0x3a,0x06,0x45,0x54,0x3a,0x0b,0x40,0x70,0x69,0x74,0x63,0x68,0x69,0x69,0x3a,0x0c,0x40,0x76,0x6f,0x6c,0x75,0x6d,0x65,0x69,0x55))
  TeleportPlayer(0,853,28,5,0,0)
  0()



EVENT   23
 PAGE   1
  0()



EVENT   24
 PAGE   1
  0()



EVENT   25
 PAGE   1
  0()



EVENT   26
 PAGE   1
  0()



EVENT   27
 PAGE   1
  0()



EVENT   28
 PAGE   1
  108("明かり設定3300300")
  0()



EVENT   32
 PAGE   1
  108("明かり設定3300300")
  0()



EVENT   31
 PAGE   1
  108("明かり設定1243070015")
  0()



EVENT   33
 PAGE   1
  108("明かり設定3300200")
  0()



EVENT   38
 PAGE   1
  0()



EVENT   37
 PAGE   1
  0()



EVENT   39
 PAGE   1
  0()



EVENT   40
 PAGE   1
  0()



EVENT   41
 PAGE   1
  0()



EVENT   46
 PAGE   1
  0()



EVENT   47
 PAGE   1
  0()



EVENT   48
 PAGE   1
  0()



EVENT   49
 PAGE   1
  0()



EVENT   50
 PAGE   1
  0()



EVENT   51
 PAGE   1
  0()



EVENT   52
 PAGE   1
  0()



EVENT   53
 PAGE   1
  0()



EVENT   54
 PAGE   1
  0()



EVENT   55
 PAGE   1
  0()



EVENT   56
 PAGE   1
  0()



EVENT   57
 PAGE   1
  0()



EVENT   58
 PAGE   1
  0()



EVENT   59
 PAGE   1
  281(1)
  250(bytes(0x04,0x08,0x6f,0x3a,0x0c,0x52,0x50,0x47,0x3a,0x3a,0x53,0x45,0x08,0x3a,0x0a,0x40,0x6e,0x61,0x6d,0x65,0x49,0x22,0x09,0x4d,0x6f,0x76,0x65,0x06,0x3a,0x06,0x45,0x54,0x3a,0x0b,0x40,0x70,0x69,0x74,0x63,0x68,0x69,0x69,0x3a,0x0c,0x40,0x76,0x6f,0x6c,0x75,0x6d,0x65,0x69,0x55))
  TeleportPlayer(0,852,39,11,0,0)
  0()



EVENT   42
 PAGE   1
  250(bytes(0x04,0x08,0x6f,0x3a,0x0c,0x52,0x50,0x47,0x3a,0x3a,0x53,0x45,0x08,0x3a,0x0a,0x40,0x6e,0x61,0x6d,0x65,0x49,0x22,0x09,0x4d,0x6f,0x76,0x65,0x06,0x3a,0x06,0x45,0x54,0x3a,0x0b,0x40,0x70,0x69,0x74,0x63,0x68,0x69,0x69,0x3a,0x0c,0x40,0x76,0x6f,0x6c,0x75,0x6d,0x65,0x69,0x55))
  TeleportPlayer(0,853,66,97,8,0)
  0()



EVENT   65
 PAGE   1
  ShowMessageFace("mob_ozyou_fc1",0,0,2,1)
  ShowMessage("\\n<Alleria>Oh, do I have visitor?\nI am Alleria, and I am a battle fucker.")
  ShowMessageFace("mob_ozyou_fc1",0,0,2,2)
  ShowMessage("\\n<Alleria>...That gentleman appears to be quite skilled.\nWould you be willing to have a match with me?")
  ShowMessageFace("lawrat_fc1",0,0,2,3)
  ShowMessage("\\n<Lauratt>............")
  ShowMessageFace("",0,0,2,4)
  ShowMessage("Lauratt turns down her battle fuck challenge...")
  ShowMessageFace("mob_ozyou_fc1",0,0,2,5)
  ShowMessage("\\n<Alleria>That's a shame... I'll be happy to have a match any time.")
  0()
 PAGE   2
  // condition: party contains actor #580
  0()



EVENT   67
 PAGE   1
  If(1,1205,0,2,0)
   PictureDisplay(5,"80_succubus_st01",0,0,0,0,100,100,0,0)
   PictureMove(5,null,0,0,0,0,100,100,255,0,30,true)
   217()
   ShowMessageFace("succubus_fc1",0,0,2,1)
   ShowMessage("\\n<Succubus>Ah, welcome to Succubus Village.\nHow may I help you?")
   ShowMessageFace("rejeo_fc1",0,0,2,2)
   ShowMessage("\\n<Rigeo>Um, we're travelers, and--")
   ShowMessageFace("",0,0,2,3)
   ShowMessage("Rigeo explained the situation without mentioning she was from another world.")
   ShowMessageFace("",0,0,2,4)
   ShowMessage("They had come from afar with a troubling matter.\nTheir runes were no longer working, and they were confused as to why...")
   ShowMessageFace("succubus_fc1",0,0,2,5)
   ShowMessage("\\n<Succubus>I see... You appear to have gone through a lot of hardship. I will try to help you as much as I can.")
   ShowMessageFace("succubus_fc1",0,0,2,6)
   ShowMessage("\\n<Succubus>But about these runes...\nI'm afraid I'm not familiar with them.")
   ShowMessageFace("rejeo_fc1",0,0,2,7)
   ShowMessage("\\n<Rigeo>Is that so...")
   ShowMessageFace("succubus_fc1",0,0,2,8)
   ShowMessage("\\n<Succubus>But, you're in luck.\nOur magic expert has just returned to our village today.")
   ShowMessageFace("succubus_fc1",0,0,2,9)
   ShowMessage("\\n<Succubus>You heard me, right Witch?\nThese travelers need your help...")
   PictureClear(5)
   Wait(30)
   250(bytes(0x04,0x08,0x6f,0x3a,0x0c,0x52,0x50,0x47,0x3a,0x3a,0x53,0x45,0x08,0x3a,0x0a,0x40,0x6e,0x61,0x6d,0x65,0x49,0x22,0x0d,0x6d,0x6f,0x6e,0x5f,0x77,0x61,0x72,0x70,0x06,0x3a,0x06,0x45,0x54,0x3a,0x0b,0x40,0x70,0x69,0x74,0x63,0x68,0x69,0x69,0x3a,0x0c,0x40,0x76,0x6f,0x6c,0x75,0x6d,0x65,0x69,0x69))
   ChangeSwitch(31,31,0)
   ShowMessageFace("",0,0,2,10)
   ShowMessage("Succubus claps her hands...\nA woman who looked like a magician appeared on the spot.")
   PictureDisplay(5,"80_witchs_st11",0,0,0,0,100,100,0,0)
   PictureMove(5,null,0,0,0,0,100,100,255,0,30,true)
   ShowMessageFace("witchs_fc1",0,0,2,11)
   ShowMessage("\\n<Witch>Fufu, I heard your conversation.")
   PictureDisplay(5,"80_witchs_st12",0,0,0,0,100,100,255,0)
   ShowMessageFace("witchs_fc1",1,0,2,12)
   ShowMessage("\\n<Witch>I've only seen runes in ancient texts...\nNever have I imagined I would meet people who could actually use them.")
   ShowMessageFace("",0,0,2,13)
   ShowMessage("Witch takes Lauratt's hand, staring at it intently.")
   PictureDisplay(5,"80_witchs_st11",0,0,0,0,100,100,255,0)
   ShowMessageFace("witchs_fc1",0,0,2,14)
   ShowMessage("\\n<Witch>This is the first time I've ever seen a living rune... Granted, I've never seen a dead rune either.")
   ShowMessageFace("witchs_fc1",0,0,2,15)
   ShowMessage("\\n<Witch>This rune... Its magic circuit doesn't appear to be working. I wonder if it's because there is an abundant supply of mana? If that process were optimized...")
   ShowMessageFace("",0,0,2,16)
   ShowMessage("Witch lets go of Lauratt's hand, and smiles broadly.")
   ShowMessageFace("witchs_fc1",0,0,2,17)
   ShowMessage("\\n<Witch>...Maybe there is something I can do.\nHowever, it will take a few days.")
   ShowMessageFace("lawrat_fc1",0,0,2,18)
   ShowMessage("\\n<Lauratt>............")
   ShowMessageFace("",0,0,2,19)
   ShowMessage("Lauratt would be putting his life in danger if he were to throw himself into a fierce battle as he is now. If he can regain the ability to fight, it will be worth waiting a few days.")
   ShowMessageFace("witchs_fc1",0,0,2,20)
   ShowMessage("\\n<Witch>It seems you have no objections.\nIn which case, I will rewrite and optimize the magic circuit.")
   PictureDisplay(5,"80_witchs_st12",0,0,0,0,100,100,255,0)
   ShowMessageFace("witchs_fc1",1,0,2,21)
   ShowMessage("\\n<Witch>Come to my room, Mister Lauratt.\n...Ufufufufu.")
   ShowMessageFace("rejeo_fc1",0,0,2,22)
   ShowMessage("\\n<Rigeo>............")
   PictureDisplay(5,"80_witchs_st11",0,0,0,0,100,100,255,0)
   ShowMessageFace("witchs_fc1",0,0,2,23)
   ShowMessage("\\n<Witch>Don't worry, I'm only going to be adjusting his runes. I won't be stealing away your lover.")
   ShowMessageFace("rejeo_fc1",1,0,2,24)
   ShowMessage("\\n<Rigeo>Hey, it's not like he's my boyfriend...!")
   ShowMessageFace("magatu_fc1",1,0,2,25)
   ShowMessage("\\n<Magatsu>Hmph, you're so naive...")
   Wait(30)
   242(1)
   221()
   PictureClear(5)
   ShowMessageFace("",0,0,2,26)
   ShowMessage("And so they decided to stay a few days in Succubus Village. To defeat the Queen of Dreams, they needed to learn how to fight in this world...")
   Wait(60)
   ChangeVariable(1205,1205,0,0,3)
   ChangeSwitch(31,31,1)
   216(1)
   TeleportPlayer(0,853,32,94,8,2)
   205(66,bytes(0x04,0x08,0x6f,0x3a,0x13,0x52,0x50,0x47,0x3a,0x3a,0x4d,0x6f,0x76,0x65,0x52,0x6f,0x75,0x74,0x65,0x09,0x3a,0x0c,0x40,0x72,0x65,0x70,0x65,0x61,0x74,0x46,0x3a,0x0f,0x40,0x73,0x6b,0x69,0x70,0x70,0x61,0x62,0x6c,0x65,0x46,0x3a,0x0a,0x40,0x77,0x61,0x69,0x74,0x54,0x3a,0x0a,0x40,0x6c,0x69,0x73,0x74,0x5b,0x07,0x6f,0x3a,0x15,0x52,0x50,0x47,0x3a,0x3a,0x4d,0x6f,0x76,0x65,0x43,0x6f,0x6d,0x6d,0x61,0x6e,0x64,0x07,0x3a,0x0a,0x40,0x63,0x6f,0x64,0x65,0x69,0x15,0x3a,0x10,0x40,0x70,0x61,0x72,0x61,0x6d,0x65,0x74,0x65,0x72,0x73,0x5b,0x00,0x6f,0x3b,0x0a,0x07,0x3b,0x0b,0x69,0x00,0x3b,0x0c,0x5b,0x00))
   222()
   241(bytes(0x04,0x08,0x6f,0x3a,0x0d,0x52,0x50,0x47,0x3a,0x3a,0x42,0x47,0x4d,0x08,0x3a,0x0a,0x40,0x6e,0x61,0x6d,0x65,0x49,0x22,0x12,0x64,0x75,0x6e,0x67,0x65,0x6f,0x6e,0x5f,0x6d,0x61,0x64,0x6f,0x75,0x06,0x3a,0x06,0x45,0x54,0x3a,0x0c,0x40,0x76,0x6f,0x6c,0x75,0x6d,0x65,0x69,0x69,0x3a,0x0b,0x40,0x70,0x69,0x74,0x63,0x68,0x69,0x69))
   PictureDisplay(5,"80_witchs_st11",0,0,0,0,100,100,0,0)
   PictureMove(5,null,0,0,0,0,100,100,255,0,30,true)
   ShowMessageFace("witchs_fc1",0,0,2,27)
   ShowMessage("\\n<Witch>Fire magic rune optimization complete...")
   ShowMessageFace("witchs_fc1",0,0,2,28)
   ShowMessage("\\n<Witch>That said, your runes are quite advanced.\nIf you activate them properly, you should be able to demonstrate immense power.")
   ShowMessageFace("witchs_fc1",0,0,2,29)
   ShowMessage("\\n<Witch>They also don't appear to have any effect on your body if they're destroyed... It's a very sophisticated technique... Just where in the world did you learn to use them?")
   ShowMessageFace("lawrat_fc1",0,0,2,30)
   ShowMessage("\\n<Lauratt>............")
   ShowMessageFace("",0,0,2,31)
   ShowMessage("He was still hiding the fact that he came from a different world. If he were to tell them, it could be an inconvenience to these kind people.")
   ShowMessageFace("witchs_fc1",0,0,2,32)
   ShowMessage("\\n<Witch>Runes are a secret art that was forbidden by the Goddess Ilias. There was a fear that they were linked to the worship of the spirits and the earth goddess due to their nature.")
   ShowMessageFace("witchs_fc1",0,0,2,33)
   ShowMessage("\\n<Witch>So it was a valuable experience for me to tinker with actual runes. I thought it was an extinct art that could only be read of in books.")
   ShowMessageFace("witchs_fc1",0,0,2,34)
   ShowMessage("\\n<Witch>The fire magic output appears to be stable.\nNext up is ice, however...it will take some time to refine the raw ice magic.")
   ShowMessageFace("witchs_fc1",0,0,2,35)
   ShowMessage("\\n<Witch>In the meantime, you can go relax a little.\nSince you've come from so far, why don't you spend some time around the village?")
   ShowMessageFace("lawrat_fc1",0,0,2,36)
   ShowMessage("\\n<Lauratt>............")
   PictureClear(5)
   ShowMessageFace("",0,0,2,37)
   ShowMessage("What could Rigeo and Magatsu be doing at this moment?\nLauratt decides to take a break and check on them...")
   205(66,bytes(0x04,0x08,0x6f,0x3a,0x13,0x52,0x50,0x47,0x3a,0x3a,0x4d,0x6f,0x76,0x65,0x52,0x6f,0x75,0x74,0x65,0x09,0x3a,0x0c,0x40,0x72,0x65,0x70,0x65,0x61,0x74,0x46,0x3a,0x0f,0x40,0x73,0x6b,0x69,0x70,0x70,0x61,0x62,0x6c,0x65,0x46,0x3a,0x0a,0x40,0x77,0x61,0x69,0x74,0x54,0x3a,0x0a,0x40,0x6c,0x69,0x73,0x74,0x5b,0x07,0x6f,0x3a,0x15,0x52,0x50,0x47,0x3a,0x3a,0x4d,0x6f,0x76,0x65,0x43,0x6f,0x6d,0x6d,0x61,0x6e,0x64,0x07,0x3a,0x0a,0x40,0x63,0x6f,0x64,0x65,0x69,0x16,0x3a,0x10,0x40,0x70,0x61,0x72,0x61,0x6d,0x65,0x74,0x65,0x72,0x73,0x5b,0x00,0x6f,0x3b,0x0a,0x07,0x3b,0x0b,0x69,0x00,0x3b,0x0c,0x5b,0x00))
   241(bytes(0x04,0x08,0x6f,0x3a,0x0d,0x52,0x50,0x47,0x3a,0x3a,0x42,0x47,0x4d,0x08,0x3a,0x0a,0x40,0x6e,0x61,0x6d,0x65,0x49,0x22,0x0a,0x6d,0x75,0x72,0x61,0x32,0x06,0x3a,0x06,0x45,0x54,0x3a,0x0c,0x40,0x76,0x6f,0x6c,0x75,0x6d,0x65,0x69,0x69,0x3a,0x0b,0x40,0x70,0x69,0x74,0x63,0x68,0x69,0x69))
   EndEventProcessing()
   0()
  EndIf()
  If(1,1205,0,3,0)
   ShowMessageFace("succubus_fc1",1,0,2,38)
   ShowMessage("\\n<Succubus>Fufu, you seem to be working really hard.\nPlease accept this...♪")
   250(bytes(0x04,0x08,0x6f,0x3a,0x0c,0x52,0x50,0x47,0x3a,0x3a,0x53,0x45,0x08,0x3a,0x0a,0x40,0x6e,0x61,0x6d,0x65,0x49,0x22,0x0a,0x49,0x74,0x65,0x6d,0x31,0x06,0x3a,0x06,0x45,0x54,0x3a,0x0b,0x40,0x70,0x69,0x74,0x63,0x68,0x69,0x69,0x3a,0x0c,0x40,0x76,0x6f,0x6c,0x75,0x6d,0x65,0x69,0x55))
   ChangeInventory_Item(319,0,0,1)
   ShowMessageFace("succubus_fc1",0,0,2,39)
   ShowMessage("\\n<Succubus>Oh, are you looking for your friends?\nRigeo was taking a walk around the village, and I believe Magatsu went to the pub.")
   EndEventProcessing()
   0()
  EndIf()
  If(1,1205,0,4,1)
   ShowMessageFace("succubus_fc1",0,0,2,40)
   ShowMessage("\\n<Succubus>So you're heading out to Gold Volcano...\nDo be careful, it's a dangerous place.")
   250(bytes(0x04,0x08,0x6f,0x3a,0x0c,0x52,0x50,0x47,0x3a,0x3a,0x53,0x45,0x08,0x3a,0x0a,0x40,0x6e,0x61,0x6d,0x65,0x49,0x22,0x0a,0x49,0x74,0x65,0x6d,0x31,0x06,0x3a,0x06,0x45,0x54,0x3a,0x0b,0x40,0x70,0x69,0x74,0x63,0x68,0x69,0x69,0x3a,0x0c,0x40,0x76,0x6f,0x6c,0x75,0x6d,0x65,0x69,0x55))
   ChangeInventory_Item(319,0,0,1)
   EndEventProcessing()
   0()
  EndIf()
  0()



EVENT   68
 PAGE   1
  ShowMessageFace("",0,0,2,1)
  ShowMessage("\\n<Maid>Welcome.\nThe mayor will meet with any visitors.")
  0()



EVENT   69
 PAGE   1
  ShowMessageFace("",0,0,2,1)
  ShowMessage("\\n<Maid>What kind of potato dish shall I cook today...")
  0()



EVENT   70
 PAGE   1
  ShowMessageFace("",0,0,2,1)
  ShowMessage("\\n<Maid>The mayor is an exceptionally wonderful person.\nHer only fault is in regards to potatoes...")
  If(1,1205,0,3,0)
   EndEventProcessing()
   0()
  EndIf()
  ShowMessageFace("magatu_fc1",2,0,2,2)
  ShowMessage("\\n<Magatsu>Why are the people of this village scared of potatoes...?")
  0()



EVENT   71
 PAGE   1
  ShowMessageFace("",0,0,2,1)
  ShowMessage("\\n<Maid>Now that Miss Witch has returned, we must serve our finest cuisine. I'll need to add plenty of semen from this warrior who fought in the Colosseum championship...")
  ShowMessageFace("lawrat_fc1",0,0,2,2)
  ShowMessage("\\n<Lauratt>............")
  ShowMessageFace("",0,0,2,3)
  ShowMessage("There's no way he'd want to eat that dish...")
  0()



EVENT   74
 PAGE   1
  ShowMessageFace("",0,0,2,1)
  ShowMessage("\\n<Maid>Alleria is the daughter of a distant relative of the mayor. She's completely human though, without any trace of succubus in her.")
  ShowMessageFace("",0,0,2,2)
  ShowMessage("\\n<Maid>That said, she knows magic and is a great battle fucker. She's honestly more skilled than the average succubus.")
  If(1,1205,0,3,0)
   EndEventProcessing()
   0()
  EndIf()
  ShowMessageFace("rejeo_fc1",0,0,2,3)
  ShowMessage("\\n<Rigeo>Battle fucker?\nI'm not familiar with this term...")
  ShowMessageFace("magatu_fc1",0,0,2,4)
  ShowMessage("\\n<Magatsu>Isn't that a competition where people use their sexual skills? I assumed you did that in your own world...")
  ShowMessageFace("rejeo_fc1",0,0,2,5)
  ShowMessage("\\n<Rigeo>But we never actually had competitions.")
  0()



EVENT   76
 PAGE   1
  ShowMessageFace("",0,0,2,1)
  ShowMessage("\\n<Maid>This is the ritual room...\nIn the past, there were apparently plans to summon some legendary succubi here.")
  ShowMessageFace("",0,0,2,2)
  ShowMessage("\\n<Maid>However, after the Great Disaster, human society's attitudes towards monsters softened, and the village didn't require a savior anymore.")
  If(1,1205,0,3,0)
   EndEventProcessing()
   0()
  EndIf()
  ShowMessageFace("magatu_fc1",0,0,2,3)
  ShowMessage("\\n<Magatsu>I don't know anything about this Great Disaster, but...has coexistence between humans and monsters really been achieved?")
  ShowMessageFace("rejeo_fc1",0,0,2,4)
  ShowMessage("\\n<Rigeo>It feels more like the humans have become food...")
  0()



EVENT   77
 PAGE   1
  ShowMessageFace("",0,0,2,1)
  ShowMessage("\\n<Worn-down Blacksmith>oooh...")
  0()



EVENT   19
 PAGE   1
  ShowMessageFace("",0,0,2,1)
  ShowMessage("\\n<Worn-down Weapon Dealer>Oh, a customer?\nPlease, buy whatever you'd like.")
  Shop(1,268,0,0,false)
  605(1,526,0,0)
  605(1,736,0,0)
  605(2,135,0,0)
  605(2,168,0,0)
  605(2,247,0,0)
  605(2,264,0,0)
  605(2,274,0,0)
  0()



EVENT   80
 PAGE   1
  ShowMessageFace("",0,0,2,1)
  ShowMessage("\\n<Thug>Hauuu...")
  0()



EVENT   81
 PAGE   1
  ShowMessageFace("",0,0,2,1)
  ShowMessage("\\n<Youth>S-sucked dry...")
  0()



EVENT   82
 PAGE   1
  ShowMessageFace("",0,0,2,1)
  ShowMessage("\\n<Young Boy>No more...")
  0()



EVENT   83
 PAGE   1
  ShowMessageFace("",0,0,2,1)
  ShowMessage("\\n<Man>All...sucked out...")
  0()



EVENT   84
 PAGE   1
  ShowMessageFace("",0,0,2,1)
  ShowMessage("\\n<Old Man>Faaa...")
  0()



EVENT   85
 PAGE   1
  ShowMessageFace("",0,0,2,1)
  ShowMessage("\\n<Youth>Aauuu...")
  0()



EVENT   86
 PAGE   1
  ShowMessageFace("",0,0,2,1)
  ShowMessage("\\n<Succubus Innkeeper>Our inn is famous for giving you sexy dreams...\nWould you like to stay the night for 50G?\\$")
  ShowChoices(strings("Yes","No"),2)
  IfPlayerPicksChoice(0,null)
   If(7,50,0)
    125(1,0,50)
    221()
    249(bytes(0x04,0x08,0x6f,0x3a,0x0c,0x52,0x50,0x47,0x3a,0x3a,0x4d,0x45,0x08,0x3a,0x0a,0x40,0x6e,0x61,0x6d,0x65,0x49,0x22,0x08,0x49,0x6e,0x6e,0x06,0x3a,0x06,0x45,0x54,0x3a,0x0b,0x40,0x70,0x69,0x74,0x63,0x68,0x69,0x69,0x3a,0x0c,0x40,0x76,0x6f,0x6c,0x75,0x6d,0x65,0x69,0x69))
    Wait(150)
    314(0,0)
    222()
    0()
   Else()
    ShowMessageFace("",0,0,2,2)
    ShowMessage("\\n<Succubus Innkeeper>Oh dear, you don't have enough money.")
    0()
   EndIf()
   0()
  IfPlayerPicksChoice(1,null)
   0()
  404()
  EndEventProcessing()
  0()



EVENT   21
 PAGE   1
  ShowMessageFace("",0,0,2,1)
  ShowMessage("\\n<Succubus Shopkeeper>Don't mind the mess.\nSo what'll it be...?")
  Shop(0,428,0,0,false)
  605(0,429,0,0)
  605(0,430,0,0)
  605(0,431,0,0)
  0()



EVENT   20
 PAGE   1
  ShowMessageFace("",0,0,2,1)
  ShowMessage("\\n<Worn-down Shopkeeper>Aaah... That was the best...\n...Oh, a customer?")
  Shop(0,2,0,0,false)
  605(0,11,0,0)
  605(0,13,0,0)
  605(0,14,0,0)
  605(0,15,0,0)
  605(0,16,0,0)
  605(0,17,0,0)
  605(0,18,0,0)
  605(0,19,0,0)
  605(0,20,0,0)
  605(0,21,0,0)
  0()



EVENT   88
 PAGE   1
  ShowMessageFace("",0,0,2,1)
  ShowMessage("\\n<Soldier>Hauuu...")
  0()



EVENT   91
 PAGE   1
  ShowMessageFace("",0,0,2,1)
  ShowMessage("\\n<Swordsman>Such amazing technique...")
  0()



EVENT   92
 PAGE   1
  ShowMessageFace("",0,0,2,1)
  ShowMessage("\\n<Warrior>Ah, auuuu...")
  0()



EVENT   94
 PAGE   1
  ShowMessageFace("",0,0,2,1)
  ShowMessage("\\n<Burly Man>Aaah... Heaven...")
  0()



EVENT   96
 PAGE   1
  ShowMessageFace("",0,0,2,1)
  ShowMessage("\\n<Warrior>Can't come...any more... Hauuu...")
  0()



EVENT   98
 PAGE   1
  ShowMessageFace("",0,0,2,1)
  ShowMessage("\\n<Youth>I can see heaven... Haaaa...")
  0()



EVENT   99
 PAGE   1
  ShowMessageFace("",0,0,2,1)
  ShowMessage("\\n<Man>T-too intense...")
  0()



EVENT   100
 PAGE   1
  ShowMessageFace("",0,0,2,1)
  ShowMessage("\\n<Black Mage>B-but I'm a woman... Aaaah...")
  ShowMessageFace("",0,0,2,2)
  ShowMessage("\\n<Succubus>Ahaha, what a sensitive girl...♪")
  0()



EVENT   101
 PAGE   1
  ShowMessageFace("",0,0,2,1)
  ShowMessage("\\n<Succubus>Ufufufu...♪")
  ShowMessageFace("",0,0,2,2)
  ShowMessage("\\n<Swordsman>Aaah... N-no way...")
  0()



EVENT   102
 PAGE   1
  ShowMessageFace("",0,0,2,1)
  ShowMessage("\\n<Man>I'm floating to heaven...")
  ShowMessageFace("",0,0,2,2)
  ShowMessage("\\n<Succubus>You can come over and over♪")
  0()



EVENT   105
 PAGE   1
  ShowMessageFace("",0,0,2,1)
  ShowMessage("\\n<Black Mage>B-but I'm a woman... Aaaah...")
  ShowMessageFace("",0,0,2,2)
  ShowMessage("\\n<Succubus>Ahaha, what a sensitive girl...♪")
  0()



EVENT   106
 PAGE   1
  ShowMessageFace("",0,0,2,1)
  ShowMessage("\\n<Man>I'm floating to heaven...")
  ShowMessageFace("",0,0,2,2)
  ShowMessage("\\n<Succubus>You can come over and over♪")
  0()



EVENT   107
 PAGE   1
  ShowMessageFace("",0,0,2,1)
  ShowMessage("\\n<Succubus>Ufufufu...♪")
  ShowMessageFace("",0,0,2,2)
  ShowMessage("\\n<Swordsman>Aaah... N-no way...")
  0()



EVENT   110
 PAGE   1
  ShowMessageFace("",0,0,2,1)
  ShowMessage("\\n<Thug>Can't lift...my body...")
  0()



EVENT   111
 PAGE   1
  ShowMessageFace("",0,0,2,1)
  ShowMessage("\\n<Man>So tired...")
  If(1,1205,0,3,0)
   EndEventProcessing()
   0()
  EndIf()
  ShowMessageFace("rejeo_fc1",0,0,2,2)
  ShowMessage("\\n<Rigeo>This inn is full of these men lying around...")
  0()



EVENT   112
 PAGE   1
  ShowMessageFace("",0,0,2,1)
  ShowMessage("\\n<Traveling Warrior>This is...the best inn ever...")
  0()



EVENT   113
 PAGE   1
  ShowMessageFace("",0,0,2,1)
  ShowMessage("\\n<Soldier>Aauuu...")
  0()



EVENT   103
 PAGE   1
  ShowMessageFace("",0,0,2,1)
  ShowMessage("\\n<Warrior>Oooh... She's draining me...")
  ShowMessageFace("",0,0,2,2)
  ShowMessage("\\n<Succubus>Did you think I'd give you a break? Ufufu...♪")
  0()



EVENT   104
 PAGE   1
  ShowMessageFace("",0,0,2,1)
  ShowMessage("\\n<Warrior>Oooh... She's draining me...")
  ShowMessageFace("",0,0,2,2)
  ShowMessage("\\n<Succubus>Did you think I'd give you a break? Ufufu...♪")
  0()



EVENT   108
 PAGE   1
  ShowMessageFace("",0,0,2,1)
  ShowMessage("\\n<Succubus>Please spend the night here, sir...♪\nWe'll even give you plenty of \"service\"♪")
  If(1,1205,0,3,0)
   EndEventProcessing()
   0()
  EndIf()
  ShowMessageFace("rejeo_fc1",1,0,2,2)
  ShowMessage("\\n<Rigeo>Lauratt, don't...")
  0()



EVENT   109
 PAGE   1
  ShowMessageFace("",0,0,2,1)
  ShowMessage("\\n<Succubus>He looks so strong, but I guess he's inexperienced.\n...Oh, sorry, the blacksmith is closed for a while.")
  0()



EVENT   114
 PAGE   1
  ShowMessageFace("",0,0,2,1)
  ShowMessage("\\n<Succubus>I've heard that villages and towns across the Noah region are being attacked by succubi. I'm wondering if some of our kin have gone astray...")
  0()



EVENT   115
 PAGE   1
  ShowMessageFace("",0,0,2,1)
  ShowMessage("\\n<Succubus>I'm as full as you'd expect♪")
  0()



EVENT   116
 PAGE   1
  ShowMessageFace("",0,0,2,1)
  ShowMessage("\\n<Succubus>Having a drink after exercise is the best...♪")
  0()



EVENT   118
 PAGE   1
  ShowMessageFace("",0,0,2,1)
  ShowMessage("\\n<Knight>I need De-Love Potions... Lots of them...")
  0()



EVENT   119
 PAGE   1
  ShowMessageFace("",0,0,2,1)
  ShowMessage("\\n<Succubus>As you'd expect from a household of four succubi, our meals pile up...")
  0()



EVENT   120
 PAGE   1
  ShowMessageFace("",0,0,2,1)
  ShowMessage("\\n<Succubus>The men look so happy, so I don't think it's a big deal to leave them lying around after meals♪")
  If(1,1205,0,3,0)
   EndEventProcessing()
   0()
  EndIf()
  ShowMessageFace("magatu_fc1",2,0,2,2)
  ShowMessage("\\n<Magatsu>Their thinking is just the same as the foxes.")
  0()



EVENT   121
 PAGE   1
  ShowMessageFace("",0,0,2,1)
  ShowMessage("\\n<Succubus>Everyone here is such a sloppy eater...\nTaking them home afterwards is a major pain.")
  0()



EVENT   122
 PAGE   1
  ShowMessageFace("",0,0,2,1)
  ShowMessage("\\n<Succubus>Don't get the wrong idea... We only suck people who have given affirmative consent.")
  If(1,1205,0,3,0)
   EndEventProcessing()
   0()
  EndIf()
  ShowMessageFace("rejeo_fc1",1,0,2,2)
  ShowMessage("\\n<Rigeo>That may be, but this...\nI suppose I have no right to speak out against it.")
  0()



EVENT   123
 PAGE   1
  ShowMessageFace("",0,0,2,1)
  ShowMessage("\\n<Thug>Hauuu...")
  0()



EVENT   124
 PAGE   1
  ShowMessageFace("",0,0,2,1)
  ShowMessage("\\n<Thug>Hauuu...")
  0()



EVENT   127
 PAGE   1
  ShowMessageFace("",0,0,2,1)
  ShowMessage("\\n<Thug>Hauuu...")
  0()



EVENT   128
 PAGE   1
  ShowMessageFace("",0,0,2,1)
  ShowMessage("\\n<Old Man>Uaaaa...")
  0()



EVENT   129
 PAGE   1
  ShowMessageFace("",0,0,2,1)
  ShowMessage("\\n<Thug>Hauuu...")
  0()



EVENT   132
 PAGE   1
  ShowMessageFace("",0,0,2,1)
  ShowMessage("\\n<Thug>Hauuu...")
  0()



EVENT   133
 PAGE   1
  ShowMessageFace("",0,0,2,1)
  ShowMessage("\\n<Thug>Hauuu...")
  0()



EVENT   134
 PAGE   1
  ShowMessageFace("",0,0,2,1)
  ShowMessage("\\n<Thug>Hauuu...")
  0()



EVENT   126
 PAGE   1
  ShowMessageFace("",0,0,2,1)
  ShowMessage("\\n<Thug>Hauuu...")
  0()



EVENT   125
 PAGE   1
  ShowMessageFace("",0,0,2,1)
  ShowMessage("\\n<Thug>Hauuu...")
  0()



EVENT   130
 PAGE   1
  ShowMessageFace("",0,0,2,1)
  ShowMessage("\\n<Thug>Hauuu...")
  0()



EVENT   131
 PAGE   1
  ShowMessageFace("",0,0,2,1)
  ShowMessage("\\n<Thug>Hauuu...")
  0()



EVENT   135
 PAGE   1
  ShowMessageFace("",0,0,2,1)
  ShowMessage("\\n<Youth>Aauuu...")
  0()



EVENT   137
 PAGE   1
  250(bytes(0x04,0x08,0x6f,0x3a,0x0c,0x52,0x50,0x47,0x3a,0x3a,0x53,0x45,0x08,0x3a,0x0a,0x40,0x6e,0x61,0x6d,0x65,0x49,0x22,0x0a,0x49,0x74,0x65,0x6d,0x31,0x06,0x3a,0x06,0x45,0x54,0x3a,0x0b,0x40,0x70,0x69,0x74,0x63,0x68,0x69,0x69,0x3a,0x0c,0x40,0x76,0x6f,0x6c,0x75,0x6d,0x65,0x69,0x55))
  ChangeSelfSwitch("A",0)
  ChangeInventory_Item(222,0,0,1)
  0()
 PAGE   2
  // condition: self-switch A is ON
  0()



EVENT   138
 PAGE   1
  250(bytes(0x04,0x08,0x6f,0x3a,0x0c,0x52,0x50,0x47,0x3a,0x3a,0x53,0x45,0x08,0x3a,0x0a,0x40,0x6e,0x61,0x6d,0x65,0x49,0x22,0x0a,0x49,0x74,0x65,0x6d,0x31,0x06,0x3a,0x06,0x45,0x54,0x3a,0x0b,0x40,0x70,0x69,0x74,0x63,0x68,0x69,0x69,0x3a,0x0c,0x40,0x76,0x6f,0x6c,0x75,0x6d,0x65,0x69,0x55))
  ChangeSelfSwitch("A",0)
  ChangeInventory_Item(342,0,0,1)
  0()
 PAGE   2
  // condition: self-switch A is ON
  0()



EVENT   140
 PAGE   1
  250(bytes(0x04,0x08,0x6f,0x3a,0x0c,0x52,0x50,0x47,0x3a,0x3a,0x53,0x45,0x08,0x3a,0x0a,0x40,0x6e,0x61,0x6d,0x65,0x49,0x22,0x0a,0x49,0x74,0x65,0x6d,0x31,0x06,0x3a,0x06,0x45,0x54,0x3a,0x0b,0x40,0x70,0x69,0x74,0x63,0x68,0x69,0x69,0x3a,0x0c,0x40,0x76,0x6f,0x6c,0x75,0x6d,0x65,0x69,0x55))
  ChangeSelfSwitch("A",0)
  ChangeInventory_Item(319,0,0,1)
  0()
 PAGE   2
  // condition: self-switch A is ON
  0()



EVENT   141
 PAGE   1
  250(bytes(0x04,0x08,0x6f,0x3a,0x0c,0x52,0x50,0x47,0x3a,0x3a,0x53,0x45,0x08,0x3a,0x0a,0x40,0x6e,0x61,0x6d,0x65,0x49,0x22,0x0a,0x49,0x74,0x65,0x6d,0x31,0x06,0x3a,0x06,0x45,0x54,0x3a,0x0b,0x40,0x70,0x69,0x74,0x63,0x68,0x69,0x69,0x3a,0x0c,0x40,0x76,0x6f,0x6c,0x75,0x6d,0x65,0x69,0x55))
  ChangeSelfSwitch("A",0)
  ChangeInventory_Item(319,0,0,1)
  0()
 PAGE   2
  // condition: self-switch A is ON
  0()



EVENT   142
 PAGE   1
  250(bytes(0x04,0x08,0x6f,0x3a,0x0c,0x52,0x50,0x47,0x3a,0x3a,0x53,0x45,0x08,0x3a,0x0a,0x40,0x6e,0x61,0x6d,0x65,0x49,0x22,0x0a,0x49,0x74,0x65,0x6d,0x31,0x06,0x3a,0x06,0x45,0x54,0x3a,0x0b,0x40,0x70,0x69,0x74,0x63,0x68,0x69,0x69,0x3a,0x0c,0x40,0x76,0x6f,0x6c,0x75,0x6d,0x65,0x69,0x55))
  ChangeSelfSwitch("A",0)
  ChangeInventory_Item(319,0,0,1)
  0()
 PAGE   2
  // condition: self-switch A is ON
  0()



EVENT   143
 PAGE   1
  250(bytes(0x04,0x08,0x6f,0x3a,0x0c,0x52,0x50,0x47,0x3a,0x3a,0x53,0x45,0x08,0x3a,0x0a,0x40,0x6e,0x61,0x6d,0x65,0x49,0x22,0x0a,0x49,0x74,0x65,0x6d,0x31,0x06,0x3a,0x06,0x45,0x54,0x3a,0x0b,0x40,0x70,0x69,0x74,0x63,0x68,0x69,0x69,0x3a,0x0c,0x40,0x76,0x6f,0x6c,0x75,0x6d,0x65,0x69,0x55))
  ChangeSelfSwitch("A",0)
  ChangeInventory_Item(319,0,0,1)
  0()
 PAGE   2
  // condition: self-switch A is ON
  0()



EVENT   144
 PAGE   1
  250(bytes(0x04,0x08,0x6f,0x3a,0x0c,0x52,0x50,0x47,0x3a,0x3a,0x53,0x45,0x08,0x3a,0x0a,0x40,0x6e,0x61,0x6d,0x65,0x49,0x22,0x0a,0x49,0x74,0x65,0x6d,0x31,0x06,0x3a,0x06,0x45,0x54,0x3a,0x0b,0x40,0x70,0x69,0x74,0x63,0x68,0x69,0x69,0x3a,0x0c,0x40,0x76,0x6f,0x6c,0x75,0x6d,0x65,0x69,0x55))
  ChangeSelfSwitch("A",0)
  ChangeInventory_Item(319,0,0,1)
  0()
 PAGE   2
  // condition: self-switch A is ON
  0()



EVENT   145
 PAGE   1
  250(bytes(0x04,0x08,0x6f,0x3a,0x0c,0x52,0x50,0x47,0x3a,0x3a,0x53,0x45,0x08,0x3a,0x0a,0x40,0x6e,0x61,0x6d,0x65,0x49,0x22,0x0a,0x49,0x74,0x65,0x6d,0x31,0x06,0x3a,0x06,0x45,0x54,0x3a,0x0b,0x40,0x70,0x69,0x74,0x63,0x68,0x69,0x69,0x3a,0x0c,0x40,0x76,0x6f,0x6c,0x75,0x6d,0x65,0x69,0x55))
  ChangeSelfSwitch("A",0)
  ChangeInventory_Item(319,0,0,1)
  0()
 PAGE   2
  // condition: self-switch A is ON
  0()



EVENT   146
 PAGE   1
  250(bytes(0x04,0x08,0x6f,0x3a,0x0c,0x52,0x50,0x47,0x3a,0x3a,0x53,0x45,0x08,0x3a,0x0a,0x40,0x6e,0x61,0x6d,0x65,0x49,0x22,0x0a,0x49,0x74,0x65,0x6d,0x31,0x06,0x3a,0x06,0x45,0x54,0x3a,0x0b,0x40,0x70,0x69,0x74,0x63,0x68,0x69,0x69,0x3a,0x0c,0x40,0x76,0x6f,0x6c,0x75,0x6d,0x65,0x69,0x55))
  ChangeSelfSwitch("A",0)
  ChangeInventory_Item(319,0,0,1)
  0()
 PAGE   2
  // condition: self-switch A is ON
  0()



EVENT   147
 PAGE   1
  250(bytes(0x04,0x08,0x6f,0x3a,0x0c,0x52,0x50,0x47,0x3a,0x3a,0x53,0x45,0x08,0x3a,0x0a,0x40,0x6e,0x61,0x6d,0x65,0x49,0x22,0x0a,0x49,0x74,0x65,0x6d,0x31,0x06,0x3a,0x06,0x45,0x54,0x3a,0x0b,0x40,0x70,0x69,0x74,0x63,0x68,0x69,0x69,0x3a,0x0c,0x40,0x76,0x6f,0x6c,0x75,0x6d,0x65,0x69,0x55))
  ChangeSelfSwitch("A",0)
  ChangeInventory_Item(319,0,0,1)
  If(1,1205,0,3,0)
   EndEventProcessing()
   0()
  EndIf()
  ShowMessageFace("rejeo_fc1",0,0,2,1)
  ShowMessage("\\n<Rigeo>Why was there a potato inside the wardrobe...?")
  0()
 PAGE   2
  // condition: self-switch A is ON
  0()



EVENT   22
 PAGE   1
  281(1)
  250(bytes(0x04,0x08,0x6f,0x3a,0x0c,0x52,0x50,0x47,0x3a,0x3a,0x53,0x45,0x08,0x3a,0x0a,0x40,0x6e,0x61,0x6d,0x65,0x49,0x22,0x09,0x4d,0x6f,0x76,0x65,0x06,0x3a,0x06,0x45,0x54,0x3a,0x0b,0x40,0x70,0x69,0x74,0x63,0x68,0x69,0x69,0x3a,0x0c,0x40,0x76,0x6f,0x6c,0x75,0x6d,0x65,0x69,0x55))
  TeleportPlayer(0,852,39,11,0,0)
  0()



EVENT   60
 PAGE   1
  281(1)
  250(bytes(0x04,0x08,0x6f,0x3a,0x0c,0x52,0x50,0x47,0x3a,0x3a,0x53,0x45,0x08,0x3a,0x0a,0x40,0x6e,0x61,0x6d,0x65,0x49,0x22,0x09,0x4d,0x6f,0x76,0x65,0x06,0x3a,0x06,0x45,0x54,0x3a,0x0b,0x40,0x70,0x69,0x74,0x63,0x68,0x69,0x69,0x3a,0x0c,0x40,0x76,0x6f,0x6c,0x75,0x6d,0x65,0x69,0x55))
  TeleportPlayer(0,852,39,11,0,0)
  0()



EVENT   61
 PAGE   1
  281(1)
  250(bytes(0x04,0x08,0x6f,0x3a,0x0c,0x52,0x50,0x47,0x3a,0x3a,0x53,0x45,0x08,0x3a,0x0a,0x40,0x6e,0x61,0x6d,0x65,0x49,0x22,0x09,0x4d,0x6f,0x76,0x65,0x06,0x3a,0x06,0x45,0x54,0x3a,0x0b,0x40,0x70,0x69,0x74,0x63,0x68,0x69,0x69,0x3a,0x0c,0x40,0x76,0x6f,0x6c,0x75,0x6d,0x65,0x69,0x55))
  TeleportPlayer(0,852,39,11,0,0)
  0()



EVENT   11
 PAGE   1
  250(bytes(0x04,0x08,0x6f,0x3a,0x0c,0x52,0x50,0x47,0x3a,0x3a,0x53,0x45,0x08,0x3a,0x0a,0x40,0x6e,0x61,0x6d,0x65,0x49,0x22,0x09,0x4d,0x6f,0x76,0x65,0x06,0x3a,0x06,0x45,0x54,0x3a,0x0b,0x40,0x70,0x69,0x74,0x63,0x68,0x69,0x69,0x3a,0x0c,0x40,0x76,0x6f,0x6c,0x75,0x6d,0x65,0x69,0x55))
  TeleportPlayer(0,853,29,5,0,0)
  0()



EVENT   8
 PAGE   1
  250(bytes(0x04,0x08,0x6f,0x3a,0x0c,0x52,0x50,0x47,0x3a,0x3a,0x53,0x45,0x08,0x3a,0x0a,0x40,0x6e,0x61,0x6d,0x65,0x49,0x22,0x09,0x4d,0x6f,0x76,0x65,0x06,0x3a,0x06,0x45,0x54,0x3a,0x0b,0x40,0x70,0x69,0x74,0x63,0x68,0x69,0x69,0x3a,0x0c,0x40,0x76,0x6f,0x6c,0x75,0x6d,0x65,0x69,0x55))
  TeleportPlayer(0,853,28,30,0,0)
  0()



EVENT   9
 PAGE   1
  250(bytes(0x04,0x08,0x6f,0x3a,0x0c,0x52,0x50,0x47,0x3a,0x3a,0x53,0x45,0x08,0x3a,0x0a,0x40,0x6e,0x61,0x6d,0x65,0x49,0x22,0x09,0x4d,0x6f,0x76,0x65,0x06,0x3a,0x06,0x45,0x54,0x3a,0x0b,0x40,0x70,0x69,0x74,0x63,0x68,0x69,0x69,0x3a,0x0c,0x40,0x76,0x6f,0x6c,0x75,0x6d,0x65,0x69,0x55))
  TeleportPlayer(0,853,29,30,0,0)
  0()



EVENT   43
 PAGE   1
  250(bytes(0x04,0x08,0x6f,0x3a,0x0c,0x52,0x50,0x47,0x3a,0x3a,0x53,0x45,0x08,0x3a,0x0a,0x40,0x6e,0x61,0x6d,0x65,0x49,0x22,0x09,0x4d,0x6f,0x76,0x65,0x06,0x3a,0x06,0x45,0x54,0x3a,0x0b,0x40,0x70,0x69,0x74,0x63,0x68,0x69,0x69,0x3a,0x0c,0x40,0x76,0x6f,0x6c,0x75,0x6d,0x65,0x69,0x55))
  TeleportPlayer(0,853,66,97,8,0)
  0()



EVENT   44
 PAGE   1
  250(bytes(0x04,0x08,0x6f,0x3a,0x0c,0x52,0x50,0x47,0x3a,0x3a,0x53,0x45,0x08,0x3a,0x0a,0x40,0x6e,0x61,0x6d,0x65,0x49,0x22,0x09,0x4d,0x6f,0x76,0x65,0x06,0x3a,0x06,0x45,0x54,0x3a,0x0b,0x40,0x70,0x69,0x74,0x63,0x68,0x69,0x69,0x3a,0x0c,0x40,0x76,0x6f,0x6c,0x75,0x6d,0x65,0x69,0x55))
  TeleportPlayer(0,853,66,97,8,0)
  0()



EVENT   45
 PAGE   1
  250(bytes(0x04,0x08,0x6f,0x3a,0x0c,0x52,0x50,0x47,0x3a,0x3a,0x53,0x45,0x08,0x3a,0x0a,0x40,0x6e,0x61,0x6d,0x65,0x49,0x22,0x09,0x4d,0x6f,0x76,0x65,0x06,0x3a,0x06,0x45,0x54,0x3a,0x0b,0x40,0x70,0x69,0x74,0x63,0x68,0x69,0x69,0x3a,0x0c,0x40,0x76,0x6f,0x6c,0x75,0x6d,0x65,0x69,0x55))
  TeleportPlayer(0,853,66,67,2,0)
  0()



EVENT   62
 PAGE   1
  250(bytes(0x04,0x08,0x6f,0x3a,0x0c,0x52,0x50,0x47,0x3a,0x3a,0x53,0x45,0x08,0x3a,0x0a,0x40,0x6e,0x61,0x6d,0x65,0x49,0x22,0x09,0x4d,0x6f,0x76,0x65,0x06,0x3a,0x06,0x45,0x54,0x3a,0x0b,0x40,0x70,0x69,0x74,0x63,0x68,0x69,0x69,0x3a,0x0c,0x40,0x76,0x6f,0x6c,0x75,0x6d,0x65,0x69,0x55))
  TeleportPlayer(0,853,66,67,2,0)
  0()



EVENT   63
 PAGE   1
  250(bytes(0x04,0x08,0x6f,0x3a,0x0c,0x52,0x50,0x47,0x3a,0x3a,0x53,0x45,0x08,0x3a,0x0a,0x40,0x6e,0x61,0x6d,0x65,0x49,0x22,0x09,0x4d,0x6f,0x76,0x65,0x06,0x3a,0x06,0x45,0x54,0x3a,0x0b,0x40,0x70,0x69,0x74,0x63,0x68,0x69,0x69,0x3a,0x0c,0x40,0x76,0x6f,0x6c,0x75,0x6d,0x65,0x69,0x55))
  TeleportPlayer(0,853,66,67,2,0)
  0()



EVENT   29
 PAGE   1
  250(bytes(0x04,0x08,0x6f,0x3a,0x0c,0x52,0x50,0x47,0x3a,0x3a,0x53,0x45,0x08,0x3a,0x0a,0x40,0x6e,0x61,0x6d,0x65,0x49,0x22,0x09,0x4d,0x6f,0x76,0x65,0x06,0x3a,0x06,0x45,0x54,0x3a,0x0b,0x40,0x70,0x69,0x74,0x63,0x68,0x69,0x69,0x3a,0x0c,0x40,0x76,0x6f,0x6c,0x75,0x6d,0x65,0x69,0x55))
  TeleportPlayer(0,853,20,92,2,0)
  0()



EVENT   34
 PAGE   1
  250(bytes(0x04,0x08,0x6f,0x3a,0x0c,0x52,0x50,0x47,0x3a,0x3a,0x53,0x45,0x08,0x3a,0x0a,0x40,0x6e,0x61,0x6d,0x65,0x49,0x22,0x09,0x4d,0x6f,0x76,0x65,0x06,0x3a,0x06,0x45,0x54,0x3a,0x0b,0x40,0x70,0x69,0x74,0x63,0x68,0x69,0x69,0x3a,0x0c,0x40,0x76,0x6f,0x6c,0x75,0x6d,0x65,0x69,0x55))
  TeleportPlayer(0,853,20,92,2,0)
  0()



EVENT   35
 PAGE   1
  250(bytes(0x04,0x08,0x6f,0x3a,0x0c,0x52,0x50,0x47,0x3a,0x3a,0x53,0x45,0x08,0x3a,0x0a,0x40,0x6e,0x61,0x6d,0x65,0x49,0x22,0x09,0x4d,0x6f,0x76,0x65,0x06,0x3a,0x06,0x45,0x54,0x3a,0x0b,0x40,0x70,0x69,0x74,0x63,0x68,0x69,0x69,0x3a,0x0c,0x40,0x76,0x6f,0x6c,0x75,0x6d,0x65,0x69,0x55))
  TeleportPlayer(0,853,20,92,2,0)
  0()



EVENT   30
 PAGE   1
  250(bytes(0x04,0x08,0x6f,0x3a,0x0c,0x52,0x50,0x47,0x3a,0x3a,0x53,0x45,0x08,0x3a,0x0a,0x40,0x6e,0x61,0x6d,0x65,0x49,0x22,0x09,0x4d,0x6f,0x76,0x65,0x06,0x3a,0x06,0x45,0x54,0x3a,0x0b,0x40,0x70,0x69,0x74,0x63,0x68,0x69,0x69,0x3a,0x0c,0x40,0x76,0x6f,0x6c,0x75,0x6d,0x65,0x69,0x55))
  TeleportPlayer(0,853,66,62,8,0)
  0()



EVENT   36
 PAGE   1
  250(bytes(0x04,0x08,0x6f,0x3a,0x0c,0x52,0x50,0x47,0x3a,0x3a,0x53,0x45,0x08,0x3a,0x0a,0x40,0x6e,0x61,0x6d,0x65,0x49,0x22,0x09,0x4d,0x6f,0x76,0x65,0x06,0x3a,0x06,0x45,0x54,0x3a,0x0b,0x40,0x70,0x69,0x74,0x63,0x68,0x69,0x69,0x3a,0x0c,0x40,0x76,0x6f,0x6c,0x75,0x6d,0x65,0x69,0x55))
  TeleportPlayer(0,853,66,62,8,0)
  0()



EVENT   64
 PAGE   1
  // condition: switch 31 is ON
  0()



EVENT   66
 PAGE   1
  // condition: variable 1205 >= 3
  If(1,1205,0,2,0)
   ShowMessageFace("witchs_fc1",0,0,2,1)
   ShowMessage("\\n<Witch>Let's take a break now.\nMaybe you should see how your friends are doing...?")
   0()
  EndIf()
  If(1,1205,0,3,0)
   If(0,2907,0)
    If(0,2908,0)
     ChangeSwitch(31,31,1)
     ShowMessageFace("witchs_fc1",0,0,2,2)
     ShowMessage("\\n<Witch>Very well then, let's continue.\nFrom here on, you're going to be expending a lot of magical power...")
     242(1)
     221()
     ShowMessageFace("",0,0,2,3)
     ShowMessage("And so, three days had passed.\nThe rune optimization appeared to be done sooner than was originally planned...")
     222()
     241(bytes(0x04,0x08,0x6f,0x3a,0x0d,0x52,0x50,0x47,0x3a,0x3a,0x42,0x47,0x4d,0x08,0x3a,0x0a,0x40,0x6e,0x61,0x6d,0x65,0x49,0x22,0x12,0x64,0x75,0x6e,0x67,0x65,0x6f,0x6e,0x5f,0x6d,0x61,0x64,0x6f,0x75,0x06,0x3a,0x06,0x45,0x54,0x3a,0x0c,0x40,0x76,0x6f,0x6c,0x75,0x6d,0x65,0x69,0x69,0x3a,0x0b,0x40,0x70,0x69,0x74,0x63,0x68,0x69,0x69))
     PictureDisplay(5,"80_witchs_st11",0,0,0,0,100,100,0,0)
     PictureMove(5,null,0,0,0,0,100,100,255,0,30,true)
     ShowMessageFace("witchs_fc1",0,0,2,4)
     ShowMessage("\\n<Witch>With this, you should now be able to use your runes. That said, I don't think you'll be able to use your original skills right away.")
     ShowMessageFace("witchs_fc1",0,0,2,5)
     ShowMessage("\\n<Witch>To sum it up... By using your runes as intermediaries, you should be able to cast basic black and white magic spells.")
     249(bytes(0x04,0x08,0x6f,0x3a,0x0c,0x52,0x50,0x47,0x3a,0x3a,0x4d,0x45,0x08,0x3a,0x0a,0x40,0x6e,0x61,0x6d,0x65,0x49,0x22,0x11,0x6d,0x6f,0x6e,0x5f,0x66,0x61,0x6e,0x66,0x61,0x6c,0x65,0x33,0x06,0x3a,0x06,0x45,0x54,0x3a,0x0b,0x40,0x70,0x69,0x74,0x63,0x68,0x69,0x69,0x3a,0x0c,0x40,0x76,0x6f,0x6c,0x75,0x6d,0x65,0x69,0x69))
     If(0,1927,1)
      355("set_class_level(807, 33, 10, false, true)")
      655("set_class_level(807, 44, 10, false, false)")
      655("set_class_level(807, 151, 10, false, true)")
      0()
     Else()
      355("set_class_level(807, 33, 10, false, false)")
      655("set_class_level(807, 44, 10, false, false)")
      655("set_class_level(807, 151, 10, false, false)")
      0()
     EndIf()
     318(0,807,0,278)
     318(0,807,0,5633)
     ShowMessageFace("",0,0,2,6)
     ShowMessage("Lauratt has mastered the Magician job!")
     ShowMessage("Lauratt has mastered the Priest job!")
     Wait(30)
     ShowMessageFace("witchs_fc1",0,0,2,7)
     ShowMessage("\\n<Witch>To have mastered every level of magician and priest in just a few days... You actually possess an incredible talent for this, don't you?")
     ShowMessageFace("lawrat_fc1",0,0,2,8)
     ShowMessage("\\n<Lauratt>............")
     ShowMessageFace("",0,0,2,9)
     ShowMessage("Until now, Lauratt had learned to used magic from his master. Even though the systems are different, they share many common principles.")
     ShowMessageFace("witchs_fc1",0,0,2,10)
     ShowMessage("\\n<Witch>That said, don't you find this much power to still be lacking? There is a way to gain even more power.")
     ShowMessageFace("lawrat_fc1",0,0,2,11)
     ShowMessage("\\n<Lauratt>......?")
     ShowMessageFace("witchs_fc1",0,0,2,12)
     ShowMessage("\\n<Witch>You possess the power in your runes to form contracts with the Four Great Spirits. Just one of the four by itself should increase your power considerably.")
     ShowMessageFace("witchs_fc1",0,0,2,13)
     ShowMessage("\\n<Witch>That way, you could use the spells of advanced jobs through your runes.")
     ShowMessageFace("",0,0,2,14)
     ShowMessage("It would be very reassuring if that is the case.\nBut for now, he should refrain from confronting the formidable foe known as the Queen of Dreams.")
     ShowMessageFace("witchs_fc1",0,0,2,15)
     ShowMessage("\\n<Witch>The closest spirit to here would be...\nSalamander, who resides in Gold Volcano.")
     ShowMessageFace("witchs_fc1",0,0,2,16)
     ShowMessage("\\n<Witch>Although Salamander is the closest, her home is still a considerable distance to travel to by foot. But I'm sure you'll be able to reach it.")
     ShowMessageFace("lawrat_fc1",0,0,2,17)
     ShowMessage("\\n<Lauratt>............")
     ShowMessageFace("",0,0,2,18)
     ShowMessage("Lauratt nodded confidently.\nHe needed to reach that volcano in order to gain more power...")
     PictureClear(5)
     242(1)
     221()
     Wait(60)
     TeleportPlayer(0,852,28,55,8,2)
     ChangeVariable(1205,1205,0,0,4)
     222()
     EndEventProcessing()
     0()
    EndIf()
    0()
   EndIf()
   ShowMessageFace("witchs_fc1",0,0,2,19)
   ShowMessage("\\n<Witch>It will take me some time to refine the materials, so go relax for a while. Maybe you should see how your friends are doing...?")
   EndEventProcessing()
   0()
  EndIf()
  0()
 PAGE   2
  // condition: variable 1205 >= 4
  0()



EVENT   75
 PAGE   1
  // condition: variable 1205 >= 3
  PictureDisplay(5,"80_magatu_st01",0,0,0,0,100,100,0,0)
  PictureMove(5,null,0,0,0,0,100,100,255,0,30,true)
  ShowMessageFace("magatu_fc1",2,0,2,1)
  ShowMessage("\\n<Magatsu>You and Rigeo have been studying really hard...\nMeanwhile I've just been drinking here by myself, thinking about stuff.")
  ShowMessageFace("magatu_fc1",2,0,2,2)
  ShowMessage("\\n<Magatsu>My magic is mediated by my own power...\nIt's said to use the influence of the land to demonstrate its effects.")
  ShowMessageFace("magatu_fc1",2,0,2,3)
  ShowMessage("\\n<Magatsu>Seems like I can use this kind of technique no problem in this world. You kids were really unlucky.")
  ShowMessageFace("magatu_fc1",2,0,2,4)
  ShowMessage("\\n<Magatsu>Hakunen...\nI wonder how my disciple's doing...")
  ShowMessageFace("lawrat_fc1",0,0,2,5)
  ShowMessage("\\n<Lauratt>............")
  ShowMessageFace("",0,0,2,6)
  ShowMessage("Magatsu's disciple also appears to have arrived in this world. She doesn't talk much about him, but she seems to be genuinely concerned...")
  ShowMessageFace("magatu_fc1",0,0,2,7)
  ShowMessage("\\n<Magatsu>Anyway... I can't let myself be spoiled by the mayor's favors. I gotta lend a hand with hauling the potatoes around.")
  PictureClear(5)
  ShowMessageFace("",0,0,2,8)
  ShowMessage("Magatsu finishes her drink and gets up from her seat...")
  205(-1,bytes(0x04,0x08,0x6f,0x3a,0x13,0x52,0x50,0x47,0x3a,0x3a,0x4d,0x6f,0x76,0x65,0x52,0x6f,0x75,0x74,0x65,0x09,0x3a,0x0c,0x40,0x72,0x65,0x70,0x65,0x61,0x74,0x46,0x3a,0x0f,0x40,0x73,0x6b,0x69,0x70,0x70,0x61,0x62,0x6c,0x65,0x46,0x3a,0x0a,0x40,0x77,0x61,0x69,0x74,0x54,0x3a,0x0a,0x40,0x6c,0x69,0x73,0x74,0x5b,0x07,0x6f,0x3a,0x15,0x52,0x50,0x47,0x3a,0x3a,0x4d,0x6f,0x76,0x65,0x43,0x6f,0x6d,0x6d,0x61,0x6e,0x64,0x07,0x3a,0x0a,0x40,0x63,0x6f,0x64,0x65,0x69,0x15,0x3a,0x10,0x40,0x70,0x61,0x72,0x61,0x6d,0x65,0x74,0x65,0x72,0x73,0x5b,0x00,0x6f,0x3b,0x0a,0x07,0x3b,0x0b,0x69,0x00,0x3b,0x0c,0x5b,0x00))
  205(0,bytes(0x04,0x08,0x6f,0x3a,0x13,0x52,0x50,0x47,0x3a,0x3a,0x4d,0x6f,0x76,0x65,0x52,0x6f,0x75,0x74,0x65,0x09,0x3a,0x0c,0x40,0x72,0x65,0x70,0x65,0x61,0x74,0x46,0x3a,0x0f,0x40,0x73,0x6b,0x69,0x70,0x70,0x61,0x62,0x6c,0x65,0x46,0x3a,0x0a,0x40,0x77,0x61,0x69,0x74,0x54,0x3a,0x0a,0x40,0x6c,0x69,0x73,0x74,0x5b,0x0f,0x6f,0x3a,0x15,0x52,0x50,0x47,0x3a,0x3a,0x4d,0x6f,0x76,0x65,0x43,0x6f,0x6d,0x6d,0x61,0x6e,0x64,0x07,0x3a,0x0a,0x40,0x63,0x6f,0x64,0x65,0x69,0x2a,0x3a,0x10,0x40,0x70,0x61,0x72,0x61,0x6d,0x65,0x74,0x65,0x72,0x73,0x5b,0x00,0x6f,0x3b,0x0a,0x07,0x3b,0x0b,0x69,0x06,0x3b,0x0c,0x5b,0x00,0x6f,0x3b,0x0a,0x07,0x3b,0x0b,0x69,0x06,0x3b,0x0c,0x5b,0x00,0x6f,0x3b,0x0a,0x07,0x3b,0x0b,0x69,0x06,0x3b,0x0c,0x5b,0x00,0x6f,0x3b,0x0a,0x07,0x3b,0x0b,0x69,0x07,0x3b,0x0c,0x5b,0x00,0x6f,0x3b,0x0a,0x07,0x3b,0x0b,0x69,0x06,0x3b,0x0c,0x5b,0x00,0x6f,0x3b,0x0a,0x07,0x3b,0x0b,0x69,0x06,0x3b,0x0c,0x5b,0x00,0x6f,0x3b,0x0a,0x07,0x3b,0x0b,0x69,0x06,0x3b,0x0c,0x5b,0x00,0x6f,0x3b,0x0a,0x07,0x3b,0x0b,0x69,0x20,0x3b,0x0c,0x5b,0x06,0x69,0x02,0x5c,0x0b,0x6f,0x3b,0x0a,0x07,0x3b,0x0b,0x69,0x00,0x3b,0x0c,0x5b,0x00))
  If(0,2907,0)
   ShowMessageFace("",0,0,2,9)
   ShowMessage("Lauratt's friends appear to be doing well.\nHe should return to Witch's lab soon...")
   0()
  Else()
   ShowMessageFace("",0,0,2,10)
   ShowMessage("Magatsu appears to be concerned about her disciple.\nWhat could Rigeo be doing right now...?")
   0()
  EndIf()
  0()
 PAGE   2
  // condition: switch 2908 is ON
  0()



EVENT   79
 PAGE   1
  ShowMessageFace("mob_mahousyouzyo_fc1",0,0,2,1)
  ShowMessage("\\n<Magical Mari-chan>I'm here to buy magical medicine that is only sold here. It seems there was an attack on the town to the north of here.")
  ShowMessageFace("mob_mahousyouzyo_fc1",0,0,2,2)
  ShowMessage("\\n<Magical Mari-chan>There have also been several attacks on villages in the Noah region. Maybe now is the time people will seek the power of magical girls.")
  If(1,1205,0,2,0)
   ShowMessageFace("rejeo_fc1",0,0,2,3)
   ShowMessage("\\n<Rigeo>Magical girls...?")
   ShowMessageFace("mob_mahousyouzyo_fc1",0,0,2,4)
   ShowMessage("\\n<Magical Mari-chan>You...look amazing!\nJust by looking at you, I can tell you're already about 80% magical girl.")
   ShowMessageFace("mob_mahousyouzyo_fc1",0,0,2,5)
   ShowMessage("\\n<Magical Mari-chan>Would you like to form a contract with me and become a real magical girl?")
   ShowMessageFace("rejeo_fc1",0,0,2,6)
   ShowMessage("\\n<Rigeo>I don't really understand what you're saying, so I'll have to decline.")
   0()
  EndIf()
  0()
 PAGE   2
  // condition: variable 1205 >= 3
  0()



EVENT   72
 PAGE   1
  250(bytes(0x04,0x08,0x6f,0x3a,0x0c,0x52,0x50,0x47,0x3a,0x3a,0x53,0x45,0x08,0x3a,0x0a,0x40,0x6e,0x61,0x6d,0x65,0x49,0x22,0x0a,0x49,0x74,0x65,0x6d,0x31,0x06,0x3a,0x06,0x45,0x54,0x3a,0x0b,0x40,0x70,0x69,0x74,0x63,0x68,0x69,0x69,0x3a,0x0c,0x40,0x76,0x6f,0x6c,0x75,0x6d,0x65,0x69,0x55))
  ChangeSelfSwitch("A",0)
  ChangeInventory_Item(7,0,0,1)
  0()
 PAGE   2
  // condition: self-switch A is ON
  0()



EVENT   73
 PAGE   1
  250(bytes(0x04,0x08,0x6f,0x3a,0x0c,0x52,0x50,0x47,0x3a,0x3a,0x53,0x45,0x08,0x3a,0x0a,0x40,0x6e,0x61,0x6d,0x65,0x49,0x22,0x0a,0x49,0x74,0x65,0x6d,0x31,0x06,0x3a,0x06,0x45,0x54,0x3a,0x0b,0x40,0x70,0x69,0x74,0x63,0x68,0x69,0x69,0x3a,0x0c,0x40,0x76,0x6f,0x6c,0x75,0x6d,0x65,0x69,0x55))
  ChangeSelfSwitch("A",0)
  ChangeInventory_Item(7,0,0,1)
  0()
 PAGE   2
  // condition: self-switch A is ON
  0()
