﻿


EVENT   3
 PAGE   1
  250(bytes(0x04,0x08,0x6f,0x3a,0x0c,0x52,0x50,0x47,0x3a,0x3a,0x53,0x45,0x08,0x3a,0x0a,0x40,0x6e,0x61,0x6d,0x65,0x49,0x22,0x09,0x4d,0x6f,0x76,0x65,0x06,0x3a,0x06,0x45,0x54,0x3a,0x0b,0x40,0x70,0x69,0x74,0x63,0x68,0x69,0x69,0x3a,0x0c,0x40,0x76,0x6f,0x6c,0x75,0x6d,0x65,0x69,0x55))
  TeleportPlayer(0,904,25,1,0,0)
  ChangeSwitch(31,31,1)
  0()



EVENT   4
 PAGE   1
  If(1,1209,0,3,0)
   ShowMessageFace("rest_fc1",0,0,2,1)
   ShowMessage("\\n<Lest>")
   ShowMessage("The underground's too dangerous!")
   205(-1,bytes(0x04,0x08,0x6f,0x3a,0x13,0x52,0x50,0x47,0x3a,0x3a,0x4d,0x6f,0x76,0x65,0x52,0x6f,0x75,0x74,0x65,0x09,0x3a,0x0c,0x40,0x72,0x65,0x70,0x65,0x61,0x74,0x46,0x3a,0x0f,0x40,0x73,0x6b,0x69,0x70,0x70,0x61,0x62,0x6c,0x65,0x46,0x3a,0x0a,0x40,0x77,0x61,0x69,0x74,0x54,0x3a,0x0a,0x40,0x6c,0x69,0x73,0x74,0x5b,0x07,0x6f,0x3a,0x15,0x52,0x50,0x47,0x3a,0x3a,0x4d,0x6f,0x76,0x65,0x43,0x6f,0x6d,0x6d,0x61,0x6e,0x64,0x07,0x3a,0x0a,0x40,0x63,0x6f,0x64,0x65,0x69,0x09,0x3a,0x10,0x40,0x70,0x61,0x72,0x61,0x6d,0x65,0x74,0x65,0x72,0x73,0x5b,0x00,0x6f,0x3b,0x0a,0x07,0x3b,0x0b,0x69,0x00,0x3b,0x0c,0x5b,0x00))
   EndEventProcessing()
   0()
  EndIf()
  250(bytes(0x04,0x08,0x6f,0x3a,0x0c,0x52,0x50,0x47,0x3a,0x3a,0x53,0x45,0x08,0x3a,0x0a,0x40,0x6e,0x61,0x6d,0x65,0x49,0x22,0x09,0x4d,0x6f,0x76,0x65,0x06,0x3a,0x06,0x45,0x54,0x3a,0x0b,0x40,0x70,0x69,0x74,0x63,0x68,0x69,0x69,0x3a,0x0c,0x40,0x76,0x6f,0x6c,0x75,0x6d,0x65,0x69,0x55))
  TeleportPlayer(0,909,36,5,0,0)
  0()



EVENT   1
 PAGE   1
  ChangeSwitch(31,31,1)
  ChangeSwitch(32,32,1)
  ChangeSwitch(33,33,1)
  ChangeSwitch(34,34,1)
  250(bytes(0x04,0x08,0x6f,0x3a,0x0c,0x52,0x50,0x47,0x3a,0x3a,0x53,0x45,0x08,0x3a,0x0a,0x40,0x6e,0x61,0x6d,0x65,0x49,0x22,0x09,0x4d,0x6f,0x76,0x65,0x06,0x3a,0x06,0x45,0x54,0x3a,0x0b,0x40,0x70,0x69,0x74,0x63,0x68,0x69,0x69,0x3a,0x0c,0x40,0x76,0x6f,0x6c,0x75,0x6d,0x65,0x69,0x55))
  TeleportPlayer(0,901,1,15,0,0)
  0()



EVENT   5
 PAGE   1
  // condition: switch 31 is ON
  0()
 PAGE   2
  // condition: variable 1209 >= 3
  PictureDisplay(5,"80_executioner_st01",0,0,70,-50,70,70,0,0)
  PictureDisplay(6,"80_ogretooth_st01",0,0,-150,80,100,100,0,0)
  PictureDisplay(7,"80_mistilteinn_st01",0,0,280,130,80,80,0,0)
  PictureMove(5,null,0,0,70,-50,70,70,255,0,30,false)
  PictureMove(6,null,0,0,-150,80,100,100,255,0,30,false)
  PictureMove(7,null,0,0,280,130,80,80,255,0,30,true)
  ShowMessageFace("mistilteinn_fc1",0,0,2,1)
  ShowMessage("\\n<Mysteltainn>")
  ShowMessage("Now you can't run...")
  250(bytes(0x04,0x08,0x6f,0x3a,0x0c,0x52,0x50,0x47,0x3a,0x3a,0x53,0x45,0x08,0x3a,0x0a,0x40,0x6e,0x61,0x6d,0x65,0x49,0x22,0x0a,0x44,0x6f,0x77,0x6e,0x31,0x06,0x3a,0x06,0x45,0x54,0x3a,0x0b,0x40,0x70,0x69,0x74,0x63,0x68,0x69,0x69,0x3a,0x0c,0x40,0x76,0x6f,0x6c,0x75,0x6d,0x65,0x69,0x55))
  ShowMessageFace("",0,0,2,2)
  ShowMessage("You were caught by the Cursed Sword Sisters...")
  241(bytes(0x04,0x08,0x6f,0x3a,0x0d,0x52,0x50,0x47,0x3a,0x3a,0x42,0x47,0x4d,0x08,0x3a,0x0a,0x40,0x6e,0x61,0x6d,0x65,0x49,0x22,0x09,0x65,0x72,0x6f,0x31,0x06,0x3a,0x06,0x45,0x54,0x3a,0x0c,0x40,0x76,0x6f,0x6c,0x75,0x6d,0x65,0x69,0x69,0x3a,0x0b,0x40,0x70,0x69,0x74,0x63,0x68,0x69,0x69))
  ShowMessageFace("mistilteinn_fc1",0,0,2,3)
  ShowMessage("\\n<Mysteltainn>")
  ShowMessage("Well then, we'll drain your energy.\nWe're busy too, so we'll make this quick.")
  ShowMessageFace("executioner_fc1",1,0,2,4)
  ShowMessage("\\n<Executioner>")
  ShowMessage("Fufu, I'll make your execution feel wonderful♪")
  ShowMessageFace("ogretooth_fc1",0,0,2,5)
  ShowMessage("\\n<Ogretooth>")
  ShowMessage("Come on, I'll rape you 'till you die!")
  ShowMessageFace("rest_fc1",0,0,2,6)
  ShowMessage("\\n<Lest>")
  ShowMessage("St-stop...!")
  221()
  PictureClear(5)
  PictureClear(6)
  PictureClear(7)
  RunCommonEvent(104)
  RunCommonEvent(105)
  ShowMessageFace("rest_fc1",0,0,2,7)
  ShowMessage("\\n<Lest>")
  ShowMessage("U...uu...")
  ShowMessageFace("mistilteinn_fc1",0,0,2,8)
  ShowMessage("\\n<Mysteltainn>")
  ShowMessage("Thank you for the meal...\nWith this, we've cleaned up this area.")
  242(1)
  Wait(120)
  ShowMessageFace("",0,0,2,9)
  ShowMessage("........")
  RunCommonEvent(2999)
  0()
 PAGE   3
  // condition: variable 1209 >= 4
  0()



EVENT   6
 PAGE   1
  // condition: switch 31 is ON
  0()
 PAGE   2
  // condition: variable 1209 >= 3
  PictureDisplay(5,"80_executioner_st01",0,0,70,-50,70,70,0,0)
  PictureDisplay(6,"80_ogretooth_st01",0,0,-150,80,100,100,0,0)
  PictureDisplay(7,"80_mistilteinn_st01",0,0,280,130,80,80,0,0)
  PictureMove(5,null,0,0,70,-50,70,70,255,0,30,false)
  PictureMove(6,null,0,0,-150,80,100,100,255,0,30,false)
  PictureMove(7,null,0,0,280,130,80,80,255,0,30,true)
  ShowMessageFace("executioner_fc1",1,0,2,1)
  ShowMessage("\\n<Executioner>")
  ShowMessage("There we go, caught you~♪")
  250(bytes(0x04,0x08,0x6f,0x3a,0x0c,0x52,0x50,0x47,0x3a,0x3a,0x53,0x45,0x08,0x3a,0x0a,0x40,0x6e,0x61,0x6d,0x65,0x49,0x22,0x0a,0x44,0x6f,0x77,0x6e,0x31,0x06,0x3a,0x06,0x45,0x54,0x3a,0x0b,0x40,0x70,0x69,0x74,0x63,0x68,0x69,0x69,0x3a,0x0c,0x40,0x76,0x6f,0x6c,0x75,0x6d,0x65,0x69,0x55))
  ShowMessageFace("",0,0,2,2)
  ShowMessage("You were caught by the Cursed Sword Sisters...")
  241(bytes(0x04,0x08,0x6f,0x3a,0x0d,0x52,0x50,0x47,0x3a,0x3a,0x42,0x47,0x4d,0x08,0x3a,0x0a,0x40,0x6e,0x61,0x6d,0x65,0x49,0x22,0x09,0x65,0x72,0x6f,0x31,0x06,0x3a,0x06,0x45,0x54,0x3a,0x0c,0x40,0x76,0x6f,0x6c,0x75,0x6d,0x65,0x69,0x69,0x3a,0x0b,0x40,0x70,0x69,0x74,0x63,0x68,0x69,0x69))
  ShowMessageFace("mistilteinn_fc1",0,0,2,3)
  ShowMessage("\\n<Mysteltainn>")
  ShowMessage("Well then, we'll drain your energy.\nWe're busy too, so we'll make this quick.")
  ShowMessageFace("executioner_fc1",1,0,2,4)
  ShowMessage("\\n<Executioner>")
  ShowMessage("Fufu, I'll make your execution feel wonderful♪")
  ShowMessageFace("ogretooth_fc1",0,0,2,5)
  ShowMessage("\\n<Ogretooth>")
  ShowMessage("Come on, I'll rape you 'till you die!")
  ShowMessageFace("rest_fc1",0,0,2,6)
  ShowMessage("\\n<Lest>")
  ShowMessage("St-stop...!")
  221()
  PictureClear(5)
  PictureClear(6)
  PictureClear(7)
  RunCommonEvent(104)
  RunCommonEvent(105)
  ShowMessageFace("rest_fc1",0,0,2,7)
  ShowMessage("\\n<Lest>")
  ShowMessage("U...uu...")
  ShowMessageFace("mistilteinn_fc1",0,0,2,8)
  ShowMessage("\\n<Mysteltainn>")
  ShowMessage("Thank you for the meal...\nWith this, we've cleaned up this area.")
  242(1)
  Wait(120)
  ShowMessageFace("",0,0,2,9)
  ShowMessage("........")
  RunCommonEvent(2999)
  0()
 PAGE   3
  // condition: variable 1209 >= 4
  0()



EVENT   7
 PAGE   1
  // condition: switch 31 is ON
  0()
 PAGE   2
  // condition: variable 1209 >= 3
  PictureDisplay(5,"80_executioner_st01",0,0,70,-50,70,70,0,0)
  PictureDisplay(6,"80_ogretooth_st01",0,0,-150,80,100,100,0,0)
  PictureDisplay(7,"80_mistilteinn_st01",0,0,280,130,80,80,0,0)
  PictureMove(5,null,0,0,70,-50,70,70,255,0,30,false)
  PictureMove(6,null,0,0,-150,80,100,100,255,0,30,false)
  PictureMove(7,null,0,0,280,130,80,80,255,0,30,true)
  ShowMessageFace("ogretooth_fc1",0,0,2,1)
  ShowMessage("\\n<Ogretooth>")
  ShowMessage("Haha, gotcha!")
  250(bytes(0x04,0x08,0x6f,0x3a,0x0c,0x52,0x50,0x47,0x3a,0x3a,0x53,0x45,0x08,0x3a,0x0a,0x40,0x6e,0x61,0x6d,0x65,0x49,0x22,0x0a,0x44,0x6f,0x77,0x6e,0x31,0x06,0x3a,0x06,0x45,0x54,0x3a,0x0b,0x40,0x70,0x69,0x74,0x63,0x68,0x69,0x69,0x3a,0x0c,0x40,0x76,0x6f,0x6c,0x75,0x6d,0x65,0x69,0x55))
  ShowMessageFace("",0,0,2,2)
  ShowMessage("You were caught by the Cursed Sword Sisters...")
  241(bytes(0x04,0x08,0x6f,0x3a,0x0d,0x52,0x50,0x47,0x3a,0x3a,0x42,0x47,0x4d,0x08,0x3a,0x0a,0x40,0x6e,0x61,0x6d,0x65,0x49,0x22,0x09,0x65,0x72,0x6f,0x31,0x06,0x3a,0x06,0x45,0x54,0x3a,0x0c,0x40,0x76,0x6f,0x6c,0x75,0x6d,0x65,0x69,0x69,0x3a,0x0b,0x40,0x70,0x69,0x74,0x63,0x68,0x69,0x69))
  ShowMessageFace("mistilteinn_fc1",0,0,2,3)
  ShowMessage("\\n<Mysteltainn>")
  ShowMessage("Well then, we'll drain your energy.\nWe're busy too, so we'll make this quick.")
  ShowMessageFace("executioner_fc1",1,0,2,4)
  ShowMessage("\\n<Executioner>")
  ShowMessage("Fufu, I'll make your execution feel wonderful♪")
  ShowMessageFace("ogretooth_fc1",0,0,2,5)
  ShowMessage("\\n<Ogretooth>")
  ShowMessage("Come on, I'll rape you 'till you die!")
  ShowMessageFace("rest_fc1",0,0,2,6)
  ShowMessage("\\n<Lest>")
  ShowMessage("St-stop...!")
  221()
  PictureClear(5)
  PictureClear(6)
  PictureClear(7)
  RunCommonEvent(104)
  RunCommonEvent(105)
  ShowMessageFace("rest_fc1",0,0,2,7)
  ShowMessage("\\n<Lest>")
  ShowMessage("U...uu...")
  ShowMessageFace("mistilteinn_fc1",0,0,2,8)
  ShowMessage("\\n<Mysteltainn>")
  ShowMessage("Thank you for the meal...\nWith this, we've cleaned up this area.")
  242(1)
  Wait(120)
  ShowMessageFace("",0,0,2,9)
  ShowMessage("........")
  RunCommonEvent(2999)
  0()
 PAGE   3
  // condition: variable 1209 >= 4
  0()



EVENT   8
 PAGE   1
  205(-1,bytes(0x04,0x08,0x6f,0x3a,0x13,0x52,0x50,0x47,0x3a,0x3a,0x4d,0x6f,0x76,0x65,0x52,0x6f,0x75,0x74,0x65,0x09,0x3a,0x0c,0x40,0x72,0x65,0x70,0x65,0x61,0x74,0x46,0x3a,0x0f,0x40,0x73,0x6b,0x69,0x70,0x70,0x61,0x62,0x6c,0x65,0x46,0x3a,0x0a,0x40,0x77,0x61,0x69,0x74,0x54,0x3a,0x0a,0x40,0x6c,0x69,0x73,0x74,0x5b,0x08,0x6f,0x3a,0x15,0x52,0x50,0x47,0x3a,0x3a,0x4d,0x6f,0x76,0x65,0x43,0x6f,0x6d,0x6d,0x61,0x6e,0x64,0x07,0x3a,0x0a,0x40,0x63,0x6f,0x64,0x65,0x69,0x08,0x3a,0x10,0x40,0x70,0x61,0x72,0x61,0x6d,0x65,0x74,0x65,0x72,0x73,0x5b,0x00,0x6f,0x3b,0x0a,0x07,0x3b,0x0b,0x69,0x08,0x3b,0x0c,0x5b,0x00,0x6f,0x3b,0x0a,0x07,0x3b,0x0b,0x69,0x00,0x3b,0x0c,0x5b,0x00))
  217()
  242(1)
  Wait(30)
  205(-1,bytes(0x04,0x08,0x6f,0x3a,0x13,0x52,0x50,0x47,0x3a,0x3a,0x4d,0x6f,0x76,0x65,0x52,0x6f,0x75,0x74,0x65,0x09,0x3a,0x0c,0x40,0x72,0x65,0x70,0x65,0x61,0x74,0x46,0x3a,0x0f,0x40,0x73,0x6b,0x69,0x70,0x70,0x61,0x62,0x6c,0x65,0x46,0x3a,0x0a,0x40,0x77,0x61,0x69,0x74,0x54,0x3a,0x0a,0x40,0x6c,0x69,0x73,0x74,0x5b,0x07,0x6f,0x3a,0x15,0x52,0x50,0x47,0x3a,0x3a,0x4d,0x6f,0x76,0x65,0x43,0x6f,0x6d,0x6d,0x61,0x6e,0x64,0x07,0x3a,0x0a,0x40,0x63,0x6f,0x64,0x65,0x69,0x18,0x3a,0x10,0x40,0x70,0x61,0x72,0x61,0x6d,0x65,0x74,0x65,0x72,0x73,0x5b,0x00,0x6f,0x3b,0x0a,0x07,0x3b,0x0b,0x69,0x00,0x3b,0x0c,0x5b,0x00))
  ShowSpeechBalloon(-1,1,false)
  212(5,542,false)
  Wait(60)
  241(bytes(0x04,0x08,0x6f,0x3a,0x0d,0x52,0x50,0x47,0x3a,0x3a,0x42,0x47,0x4d,0x08,0x3a,0x0a,0x40,0x6e,0x61,0x6d,0x65,0x49,0x22,0x0c,0x62,0x6f,0x73,0x73,0x30,0x2d,0x34,0x06,0x3a,0x06,0x45,0x54,0x3a,0x0c,0x40,0x76,0x6f,0x6c,0x75,0x6d,0x65,0x69,0x69,0x3a,0x0b,0x40,0x70,0x69,0x74,0x63,0x68,0x69,0x69))
  ChangeSwitch(31,31,0)
  216(1)
  205(-1,bytes(0x04,0x08,0x6f,0x3a,0x13,0x52,0x50,0x47,0x3a,0x3a,0x4d,0x6f,0x76,0x65,0x52,0x6f,0x75,0x74,0x65,0x09,0x3a,0x0c,0x40,0x72,0x65,0x70,0x65,0x61,0x74,0x46,0x3a,0x0f,0x40,0x73,0x6b,0x69,0x70,0x70,0x61,0x62,0x6c,0x65,0x46,0x3a,0x0a,0x40,0x77,0x61,0x69,0x74,0x46,0x3a,0x0a,0x40,0x6c,0x69,0x73,0x74,0x5b,0x09,0x6f,0x3a,0x15,0x52,0x50,0x47,0x3a,0x3a,0x4d,0x6f,0x76,0x65,0x43,0x6f,0x6d,0x6d,0x61,0x6e,0x64,0x07,0x3a,0x0a,0x40,0x63,0x6f,0x64,0x65,0x69,0x28,0x3a,0x10,0x40,0x70,0x61,0x72,0x61,0x6d,0x65,0x74,0x65,0x72,0x73,0x5b,0x00,0x6f,0x3b,0x0a,0x07,0x3b,0x0b,0x69,0x13,0x3b,0x0c,0x5b,0x07,0x69,0x00,0x69,0x08,0x6f,0x3b,0x0a,0x07,0x3b,0x0b,0x69,0x29,0x3b,0x0c,0x5b,0x00,0x6f,0x3b,0x0a,0x07,0x3b,0x0b,0x69,0x00,0x3b,0x0c,0x5b,0x00))
  Wait(60)
  ShowMessageFace("rovissa_fc1",0,0,2,1)
  ShowMessage("\\n<Rovissa>")
  ShowMessage("You three are...!")
  ShowMessageFace("lars_fc01",0,0,2,2)
  ShowMessage("\\n<Lars>")
  ShowMessage("............!!")
  PictureDisplay(5,"80_executioner_st02",0,0,70,-50,70,70,0,0)
  PictureDisplay(6,"80_ogretooth_st01",0,0,-150,80,100,100,0,0)
  PictureDisplay(7,"80_mistilteinn_st01",0,0,280,130,80,80,0,0)
  PictureMove(5,null,0,0,70,-50,70,70,255,0,30,false)
  PictureMove(6,null,0,0,-150,80,100,100,255,0,30,false)
  PictureMove(7,null,0,0,280,130,80,80,255,0,30,true)
  ShowMessageFace("ogretooth_fc1",0,0,2,3)
  ShowMessage("\\n<Ogretooth>")
  ShowMessage("Haha! I come here to stamp out some rats, but it seems I've found some familiar faces!")
  ShowMessageFace("executioner_fc1",1,0,2,4)
  ShowMessage("\\n<Executioner>")
  ShowMessage("There are lots of new faces, too. They all look delicious...♪")
  ShowMessageFace("mistilteinn_fc1",0,0,2,5)
  ShowMessage("\\n<Mysteltainn>")
  ShowMessage("You two, we didn't come here to play. Here, we absolutely must take the intruders' lives...")
  ShowMessageFace("rest_fc1",0,0,2,6)
  ShowMessage("\\n<Lest>")
  ShowMessage("These guys... Are they alliance members!?")
  ShowMessageFace("rovissa_fc1",0,0,2,7)
  ShowMessage("\\n<Rovissa>")
  ShowMessage("Yes, and they're quite strong. It might be better to run here.")
  PictureClear(5)
  PictureClear(6)
  PictureClear(7)
  Wait(30)
  205(-1,bytes(0x04,0x08,0x6f,0x3a,0x13,0x52,0x50,0x47,0x3a,0x3a,0x4d,0x6f,0x76,0x65,0x52,0x6f,0x75,0x74,0x65,0x09,0x3a,0x0c,0x40,0x72,0x65,0x70,0x65,0x61,0x74,0x46,0x3a,0x0f,0x40,0x73,0x6b,0x69,0x70,0x70,0x61,0x62,0x6c,0x65,0x46,0x3a,0x0a,0x40,0x77,0x61,0x69,0x74,0x46,0x3a,0x0a,0x40,0x6c,0x69,0x73,0x74,0x5b,0x09,0x6f,0x3a,0x15,0x52,0x50,0x47,0x3a,0x3a,0x4d,0x6f,0x76,0x65,0x43,0x6f,0x6d,0x6d,0x61,0x6e,0x64,0x07,0x3a,0x0a,0x40,0x63,0x6f,0x64,0x65,0x69,0x28,0x3a,0x10,0x40,0x70,0x61,0x72,0x61,0x6d,0x65,0x74,0x65,0x72,0x73,0x5b,0x00,0x6f,0x3b,0x0a,0x07,0x3b,0x0b,0x69,0x06,0x3b,0x0c,0x5b,0x00,0x6f,0x3b,0x0a,0x07,0x3b,0x0b,0x69,0x29,0x3b,0x0c,0x5b,0x00,0x6f,0x3b,0x0a,0x07,0x3b,0x0b,0x69,0x00,0x3b,0x0c,0x5b,0x00))
  ShowMessageFace("",0,0,2,8)
  ShowMessage("Truly, fighting even one of them looks to be a hard battle. Fighting all three at once would be certain death.")
  ShowMessageFace("ogretooth_fc1",0,0,2,9)
  ShowMessage("\\n<Ogretooth>")
  ShowMessage("Oioi, you're really gonna run? Hey, play with me instead!")
  ShowMessageFace("daimeikai_fc1",1,0,2,10)
  ShowMessage("\\n<Daimyokai>")
  ShowMessage("Don't turn back! We have to retreat from here!")
  ShowMessageFace("executioner_fc1",1,0,2,11)
  ShowMessage("\\n<Executioner>")
  ShowMessage("Ahaha, wait, wait~♪")
  250(bytes(0x04,0x08,0x6f,0x3a,0x0c,0x52,0x50,0x47,0x3a,0x3a,0x53,0x45,0x08,0x3a,0x0a,0x40,0x6e,0x61,0x6d,0x65,0x49,0x22,0x0c,0x50,0x6f,0x77,0x65,0x72,0x75,0x70,0x06,0x3a,0x06,0x45,0x54,0x3a,0x0b,0x40,0x70,0x69,0x74,0x63,0x68,0x69,0x69,0x3a,0x0c,0x40,0x76,0x6f,0x6c,0x75,0x6d,0x65,0x69,0x55))
  241(bytes(0x04,0x08,0x6f,0x3a,0x0d,0x52,0x50,0x47,0x3a,0x3a,0x42,0x47,0x4d,0x08,0x3a,0x0a,0x40,0x6e,0x61,0x6d,0x65,0x49,0x22,0x0a,0x6b,0x69,0x6b,0x69,0x31,0x06,0x3a,0x06,0x45,0x54,0x3a,0x0c,0x40,0x76,0x6f,0x6c,0x75,0x6d,0x65,0x69,0x69,0x3a,0x0b,0x40,0x70,0x69,0x74,0x63,0x68,0x69,0x69))
  216(1)
  ShowMessageFace("",0,1,1,12)
  ShowMessage("Run from the three Cursed Sword Sisters!\nIf you're caught, it's game over!")
  Wait(30)
  ChangeVariable(1209,1209,0,0,3)
  ChangeSwitch(89,89,0)
  ChangeSaveEnabled(0)
  EndEventProcessing()
  0()
 PAGE   2
  // condition: variable 1209 >= 3
  0()



EVENT   2
 PAGE   1
  ChangeSwitch(31,31,1)
  ChangeSwitch(32,32,1)
  ChangeSwitch(33,33,1)
  ChangeSwitch(34,34,1)
  250(bytes(0x04,0x08,0x6f,0x3a,0x0c,0x52,0x50,0x47,0x3a,0x3a,0x53,0x45,0x08,0x3a,0x0a,0x40,0x6e,0x61,0x6d,0x65,0x49,0x22,0x09,0x4d,0x6f,0x76,0x65,0x06,0x3a,0x06,0x45,0x54,0x3a,0x0b,0x40,0x70,0x69,0x74,0x63,0x68,0x69,0x69,0x3a,0x0c,0x40,0x76,0x6f,0x6c,0x75,0x6d,0x65,0x69,0x55))
  TeleportPlayer(0,901,1,15,0,0)
  0()



EVENT   9
 PAGE   1
  If(6,-1,2)
   205(0,bytes(0x04,0x08,0x6f,0x3a,0x13,0x52,0x50,0x47,0x3a,0x3a,0x4d,0x6f,0x76,0x65,0x52,0x6f,0x75,0x74,0x65,0x09,0x3a,0x0c,0x40,0x72,0x65,0x70,0x65,0x61,0x74,0x46,0x3a,0x0f,0x40,0x73,0x6b,0x69,0x70,0x70,0x61,0x62,0x6c,0x65,0x46,0x3a,0x0a,0x40,0x77,0x61,0x69,0x74,0x54,0x3a,0x0a,0x40,0x6c,0x69,0x73,0x74,0x5b,0x09,0x6f,0x3a,0x15,0x52,0x50,0x47,0x3a,0x3a,0x4d,0x6f,0x76,0x65,0x43,0x6f,0x6d,0x6d,0x61,0x6e,0x64,0x07,0x3a,0x0a,0x40,0x63,0x6f,0x64,0x65,0x69,0x31,0x3a,0x10,0x40,0x70,0x61,0x72,0x61,0x6d,0x65,0x74,0x65,0x72,0x73,0x5b,0x06,0x6f,0x3a,0x0c,0x52,0x50,0x47,0x3a,0x3a,0x53,0x45,0x08,0x3a,0x0a,0x40,0x6e,0x61,0x6d,0x65,0x49,0x22,0x10,0x68,0x61,0x6e,0x64,0x2d,0x64,0x72,0x75,0x6d,0x30,0x31,0x06,0x3a,0x06,0x45,0x54,0x3a,0x0b,0x40,0x70,0x69,0x74,0x63,0x68,0x69,0x69,0x3a,0x0c,0x40,0x76,0x6f,0x6c,0x75,0x6d,0x65,0x69,0x69,0x6f,0x3b,0x0a,0x07,0x3b,0x0b,0x69,0x2e,0x3b,0x0c,0x5b,0x07,0x49,0x22,0x0b,0x73,0x61,0x6e,0x6d,0x61,0x69,0x06,0x3b,0x0f,0x54,0x69,0x06,0x6f,0x3b,0x0a,0x07,0x3b,0x0b,0x69,0x13,0x3b,0x0c,0x5b,0x07,0x69,0x00,0x69,0x00,0x6f,0x3b,0x0a,0x07,0x3b,0x0b,0x69,0x00,0x3b,0x0c,0x5b,0x00))
   205(0,bytes(0x04,0x08,0x6f,0x3a,0x13,0x52,0x50,0x47,0x3a,0x3a,0x4d,0x6f,0x76,0x65,0x52,0x6f,0x75,0x74,0x65,0x09,0x3a,0x0c,0x40,0x72,0x65,0x70,0x65,0x61,0x74,0x46,0x3a,0x0f,0x40,0x73,0x6b,0x69,0x70,0x70,0x61,0x62,0x6c,0x65,0x46,0x3a,0x0a,0x40,0x77,0x61,0x69,0x74,0x46,0x3a,0x0a,0x40,0x6c,0x69,0x73,0x74,0x5b,0x0d,0x6f,0x3a,0x15,0x52,0x50,0x47,0x3a,0x3a,0x4d,0x6f,0x76,0x65,0x43,0x6f,0x6d,0x6d,0x61,0x6e,0x64,0x07,0x3a,0x0a,0x40,0x63,0x6f,0x64,0x65,0x69,0x31,0x3a,0x10,0x40,0x70,0x61,0x72,0x61,0x6d,0x65,0x74,0x65,0x72,0x73,0x5b,0x06,0x6f,0x3a,0x0c,0x52,0x50,0x47,0x3a,0x3a,0x53,0x45,0x08,0x3a,0x0a,0x40,0x6e,0x61,0x6d,0x65,0x49,0x22,0x09,0x53,0x61,0x6e,0x64,0x06,0x3a,0x06,0x45,0x54,0x3a,0x0b,0x40,0x70,0x69,0x74,0x63,0x68,0x69,0x01,0x96,0x3a,0x0c,0x40,0x76,0x6f,0x6c,0x75,0x6d,0x65,0x69,0x55,0x6f,0x3b,0x0a,0x07,0x3b,0x0b,0x69,0x29,0x3b,0x0c,0x5b,0x00,0x6f,0x3b,0x0a,0x07,0x3b,0x0b,0x69,0x2e,0x3b,0x0c,0x5b,0x07,0x49,0x22,0x0b,0x21,0x46,0x6c,0x61,0x6d,0x65,0x06,0x3b,0x0f,0x54,0x69,0x0c,0x6f,0x3b,0x0a,0x07,0x3b,0x0b,0x69,0x17,0x3b,0x0c,0x5b,0x00,0x6f,0x3b,0x0a,0x07,0x3b,0x0b,0x69,0x22,0x3b,0x0c,0x5b,0x06,0x69,0x0a,0x6f,0x3b,0x0a,0x07,0x3b,0x0b,0x69,0x26,0x3b,0x0c,0x5b,0x00,0x6f,0x3b,0x0a,0x07,0x3b,0x0b,0x69,0x14,0x3b,0x0c,0x5b,0x06,0x69,0x23,0x6f,0x3b,0x0a,0x07,0x3b,0x0b,0x69,0x00,0x3b,0x0c,0x5b,0x00))
   ShowMessageFace("youkosan_fc1",3,0,2,1)
   ShowMessage("\\n<Spirit Fox>")
   ShowMessage("\\n<Spirit Fox>Mugyaaa!!\\^\\.\\.")
   ChangeSelfSwitch("A",0)
   EndEventProcessing()
   0()
  Else()
   ShowMessageFace("youkosan_fc2",0,0,2,2)
   ShowMessage("\\n<Fox Statue>Fufufu... I am a Fox Statue.\nI won't step aside unless you talk to my \"arse\".")
   EndEventProcessing()
   0()
  EndIf()
  0()
 PAGE   2
  // condition: self-switch A is ON
  0()



EVENT   10
 PAGE   1
  0()



EVENT   11
 PAGE   1
  0()



EVENT   12
 PAGE   1
  0()



EVENT   13
 PAGE   1
  0()



EVENT   14
 PAGE   1
  0()



EVENT   15
 PAGE   1
  0()



EVENT   16
 PAGE   1
  0()



EVENT   17
 PAGE   1
  0()



EVENT   18
 PAGE   1
  0()



EVENT   19
 PAGE   1
  0()



EVENT   20
 PAGE   1
  0()



EVENT   21
 PAGE   1
  0()



EVENT   22
 PAGE   1
  0()



EVENT   23
 PAGE   1
  0()



EVENT   24
 PAGE   1
  0()
