﻿


EVENT   10
 PAGE   1
  0()



EVENT   12
 PAGE   1
  0()



EVENT   13
 PAGE   1
  0()



EVENT   16
 PAGE   1
  // condition: switch 4 is ON
  0()
 PAGE   2
  // condition: switch 5 is ON
  0()



EVENT   19
 PAGE   1
  0()



EVENT   1
 PAGE   1
  ChangeSaveEnabled(1)
  ChangeSwitch(89,89,1)
  205(-1,bytes(0x04,0x08,0x6f,0x3a,0x13,0x52,0x50,0x47,0x3a,0x3a,0x4d,0x6f,0x76,0x65,0x52,0x6f,0x75,0x74,0x65,0x09,0x3a,0x0c,0x40,0x72,0x65,0x70,0x65,0x61,0x74,0x46,0x3a,0x0f,0x40,0x73,0x6b,0x69,0x70,0x70,0x61,0x62,0x6c,0x65,0x46,0x3a,0x0a,0x40,0x77,0x61,0x69,0x74,0x46,0x3a,0x0a,0x40,0x6c,0x69,0x73,0x74,0x5b,0x09,0x6f,0x3a,0x15,0x52,0x50,0x47,0x3a,0x3a,0x4d,0x6f,0x76,0x65,0x43,0x6f,0x6d,0x6d,0x61,0x6e,0x64,0x07,0x3a,0x0a,0x40,0x63,0x6f,0x64,0x65,0x69,0x09,0x3a,0x10,0x40,0x70,0x61,0x72,0x61,0x6d,0x65,0x74,0x65,0x72,0x73,0x5b,0x00,0x6f,0x3b,0x0a,0x07,0x3b,0x0b,0x69,0x09,0x3b,0x0c,0x5b,0x00,0x6f,0x3b,0x0a,0x07,0x3b,0x0b,0x69,0x09,0x3b,0x0c,0x5b,0x00,0x6f,0x3b,0x0a,0x07,0x3b,0x0b,0x69,0x00,0x3b,0x0c,0x5b,0x00))
  ShowMessageFace("rest_fc1",0,0,2,1)
  ShowMessage("\\n<Lest>What's going on here?")
  If(0,4,0)
   PictureDisplay(5,"80_alice_st81",0,0,0,0,100,100,0,0)
   PictureMove(5,null,0,0,0,0,100,100,255,0,30,true)
   ShowMessageFace("alice_fc6",0,0,2,2)
   ShowMessage("\\n<Alice>Enemy reinforcements... No, allies?")
   0()
  EndIf()
  If(0,5,0)
   PictureDisplay(5,"80_iriasu_st36",0,0,0,0,100,100,0,0)
   PictureMove(5,null,0,0,0,0,100,100,255,0,30,true)
   ShowMessageFace("iriasu_fc4",5,0,2,3)
   ShowMessage("\\n<Ilias>Enemy reinforcements--\nWait, are these people also heroes?")
   0()
  EndIf()
  PictureDisplay(5,"80_myuska_st11",0,0,0,0,100,100,255,0)
  ShowMessageFace("myuska_fc1",5,0,2,4)
  ShowMessage("\\n<Myusca>Ahaha, even more heroes joined in...♪\nNew menu items?")
  PictureDisplay(5,"iv_collabo_emb",0,0,0,0,100,100,0,0)
  PictureMove(5,null,0,0,0,0,100,100,255,0,30,true)
  ShowMessageFace("",0,0,2,5)
  ShowMessage("All around, a strange group of people were fighting.\nAmong them, some number of them had the Proof of Collaboration shining from their hand.")
  PictureMove(5,null,0,0,0,0,100,100,0,0,30,true)
  PictureClear(5)
  ShowMessageFace("lars_fc01",0,0,2,6)
  ShowMessage("\\n<Lars>............!!")
  ShowMessageFace("rovissa_fc1",0,0,2,7)
  ShowMessage("\\n<Rovissa>Wait...by some chance, are you guys heroes from another world, too?")
  PictureDisplay(5,"80_kazuya_st01",0,0,0,0,100,100,0,0)
  PictureMove(5,null,0,0,0,0,100,100,255,0,30,true)
  ShowMessageFace("kazuya_fc2",2,0,2,8)
  ShowMessage("\\n<Kazuya>Yes. You too, right?")
  PictureDisplay(5,"80_byakunen_st01",0,0,0,0,100,100,255,0)
  ShowMessageFace("byakunen_fc1",1,0,2,9)
  ShowMessage("\\n<Hakunen>With the newcomers, there are three heroes...?\nWith us that's six pe-")
  PictureDisplay(5,"80_myuska_st11",0,0,-200,0,100,100,255,0)
  PictureDisplay(6,"80_nemea_st01",0,0,15,0,100,100,255,0)
  PictureDisplay(7,"80_vinum_st05",0,0,250,0,100,100,255,0)
  ShowMessageFace("vinum_fc1",4,0,2,10)
  ShowMessage("\\n<Vinum>Are you sure you have time to look elsewhere?")
  ShowMessageFace("ruka_fc1",0,0,2,11)
  ShowMessage("\\n<Luka>Gu...!")
  ShowMessageFace("nobissa_fc1",0,0,2,12)
  ShowMessage("\\n<Novissa>............!!")
  ShowMessageFace("",0,0,2,13)
  ShowMessage("Those three succubi are insanely strong.\nBut our time to help is also-")
  PictureClear(5)
  PictureClear(6)
  PictureClear(7)
  Wait(30)
  205(-1,bytes(0x04,0x08,0x6f,0x3a,0x13,0x52,0x50,0x47,0x3a,0x3a,0x4d,0x6f,0x76,0x65,0x52,0x6f,0x75,0x74,0x65,0x09,0x3a,0x0c,0x40,0x72,0x65,0x70,0x65,0x61,0x74,0x46,0x3a,0x0f,0x40,0x73,0x6b,0x69,0x70,0x70,0x61,0x62,0x6c,0x65,0x46,0x3a,0x0a,0x40,0x77,0x61,0x69,0x74,0x54,0x3a,0x0a,0x40,0x6c,0x69,0x73,0x74,0x5b,0x07,0x6f,0x3a,0x15,0x52,0x50,0x47,0x3a,0x3a,0x4d,0x6f,0x76,0x65,0x43,0x6f,0x6d,0x6d,0x61,0x6e,0x64,0x07,0x3a,0x0a,0x40,0x63,0x6f,0x64,0x65,0x69,0x15,0x3a,0x10,0x40,0x70,0x61,0x72,0x61,0x6d,0x65,0x74,0x65,0x72,0x73,0x5b,0x00,0x6f,0x3b,0x0a,0x07,0x3b,0x0b,0x69,0x00,0x3b,0x0c,0x5b,0x00))
  ChangeSwitch(31,31,0)
  205(18,bytes(0x04,0x08,0x6f,0x3a,0x13,0x52,0x50,0x47,0x3a,0x3a,0x4d,0x6f,0x76,0x65,0x52,0x6f,0x75,0x74,0x65,0x09,0x3a,0x0c,0x40,0x72,0x65,0x70,0x65,0x61,0x74,0x46,0x3a,0x0f,0x40,0x73,0x6b,0x69,0x70,0x70,0x61,0x62,0x6c,0x65,0x46,0x3a,0x0a,0x40,0x77,0x61,0x69,0x74,0x46,0x3a,0x0a,0x40,0x6c,0x69,0x73,0x74,0x5b,0x09,0x6f,0x3a,0x15,0x52,0x50,0x47,0x3a,0x3a,0x4d,0x6f,0x76,0x65,0x43,0x6f,0x6d,0x6d,0x61,0x6e,0x64,0x07,0x3a,0x0a,0x40,0x63,0x6f,0x64,0x65,0x69,0x09,0x3a,0x10,0x40,0x70,0x61,0x72,0x61,0x6d,0x65,0x74,0x65,0x72,0x73,0x5b,0x00,0x6f,0x3b,0x0a,0x07,0x3b,0x0b,0x69,0x09,0x3b,0x0c,0x5b,0x00,0x6f,0x3b,0x0a,0x07,0x3b,0x0b,0x69,0x09,0x3b,0x0c,0x5b,0x00,0x6f,0x3b,0x0a,0x07,0x3b,0x0b,0x69,0x00,0x3b,0x0c,0x5b,0x00))
  205(20,bytes(0x04,0x08,0x6f,0x3a,0x13,0x52,0x50,0x47,0x3a,0x3a,0x4d,0x6f,0x76,0x65,0x52,0x6f,0x75,0x74,0x65,0x09,0x3a,0x0c,0x40,0x72,0x65,0x70,0x65,0x61,0x74,0x46,0x3a,0x0f,0x40,0x73,0x6b,0x69,0x70,0x70,0x61,0x62,0x6c,0x65,0x46,0x3a,0x0a,0x40,0x77,0x61,0x69,0x74,0x46,0x3a,0x0a,0x40,0x6c,0x69,0x73,0x74,0x5b,0x09,0x6f,0x3a,0x15,0x52,0x50,0x47,0x3a,0x3a,0x4d,0x6f,0x76,0x65,0x43,0x6f,0x6d,0x6d,0x61,0x6e,0x64,0x07,0x3a,0x0a,0x40,0x63,0x6f,0x64,0x65,0x69,0x09,0x3a,0x10,0x40,0x70,0x61,0x72,0x61,0x6d,0x65,0x74,0x65,0x72,0x73,0x5b,0x00,0x6f,0x3b,0x0a,0x07,0x3b,0x0b,0x69,0x09,0x3b,0x0c,0x5b,0x00,0x6f,0x3b,0x0a,0x07,0x3b,0x0b,0x69,0x09,0x3b,0x0c,0x5b,0x00,0x6f,0x3b,0x0a,0x07,0x3b,0x0b,0x69,0x00,0x3b,0x0c,0x5b,0x00))
  205(21,bytes(0x04,0x08,0x6f,0x3a,0x13,0x52,0x50,0x47,0x3a,0x3a,0x4d,0x6f,0x76,0x65,0x52,0x6f,0x75,0x74,0x65,0x09,0x3a,0x0c,0x40,0x72,0x65,0x70,0x65,0x61,0x74,0x46,0x3a,0x0f,0x40,0x73,0x6b,0x69,0x70,0x70,0x61,0x62,0x6c,0x65,0x46,0x3a,0x0a,0x40,0x77,0x61,0x69,0x74,0x54,0x3a,0x0a,0x40,0x6c,0x69,0x73,0x74,0x5b,0x09,0x6f,0x3a,0x15,0x52,0x50,0x47,0x3a,0x3a,0x4d,0x6f,0x76,0x65,0x43,0x6f,0x6d,0x6d,0x61,0x6e,0x64,0x07,0x3a,0x0a,0x40,0x63,0x6f,0x64,0x65,0x69,0x09,0x3a,0x10,0x40,0x70,0x61,0x72,0x61,0x6d,0x65,0x74,0x65,0x72,0x73,0x5b,0x00,0x6f,0x3b,0x0a,0x07,0x3b,0x0b,0x69,0x09,0x3b,0x0c,0x5b,0x00,0x6f,0x3b,0x0a,0x07,0x3b,0x0b,0x69,0x09,0x3b,0x0c,0x5b,0x00,0x6f,0x3b,0x0a,0x07,0x3b,0x0b,0x69,0x00,0x3b,0x0c,0x5b,0x00))
  PictureDisplay(5,"80_executioner_st03",0,0,70,-50,70,70,0,0)
  PictureDisplay(6,"80_ogretooth_st01",0,0,-150,80,100,100,0,0)
  PictureDisplay(7,"80_mistilteinn_st01",0,0,280,130,80,80,0,0)
  PictureMove(5,null,0,0,70,-50,70,70,255,0,30,false)
  PictureMove(6,null,0,0,-150,80,100,100,255,0,30,false)
  PictureMove(7,null,0,0,280,130,80,80,255,0,30,true)
  ShowMessageFace("executioner_fc1",2,0,2,14)
  ShowMessage("\\n<Executioner>We caught up♪\n...Huh? What's up with this commotion?")
  ShowMessageFace("mistilteinn_fc1",0,0,2,15)
  ShowMessage("\\n<Mysteltainn>It seems we ended up bumping into another group of rats by chance.")
  ShowMessageFace("ogretooth_fc1",0,0,2,16)
  ShowMessage("\\n<Ogretooth>I don't really understand, but I'm getting pumped up! Come on, someone, join me!")
  PictureClear(5)
  PictureClear(6)
  PictureClear(7)
  Wait(30)
  205(21,bytes(0x04,0x08,0x6f,0x3a,0x13,0x52,0x50,0x47,0x3a,0x3a,0x4d,0x6f,0x76,0x65,0x52,0x6f,0x75,0x74,0x65,0x09,0x3a,0x0c,0x40,0x72,0x65,0x70,0x65,0x61,0x74,0x46,0x3a,0x0f,0x40,0x73,0x6b,0x69,0x70,0x70,0x61,0x62,0x6c,0x65,0x46,0x3a,0x0a,0x40,0x77,0x61,0x69,0x74,0x46,0x3a,0x0a,0x40,0x6c,0x69,0x73,0x74,0x5b,0x07,0x6f,0x3a,0x15,0x52,0x50,0x47,0x3a,0x3a,0x4d,0x6f,0x76,0x65,0x43,0x6f,0x6d,0x6d,0x61,0x6e,0x64,0x07,0x3a,0x0a,0x40,0x63,0x6f,0x64,0x65,0x69,0x13,0x3a,0x10,0x40,0x70,0x61,0x72,0x61,0x6d,0x65,0x74,0x65,0x72,0x73,0x5b,0x07,0x69,0x00,0x69,0xf7,0x6f,0x3b,0x0a,0x07,0x3b,0x0b,0x69,0x00,0x3b,0x0c,0x5b,0x00))
  250(bytes(0x04,0x08,0x6f,0x3a,0x0c,0x52,0x50,0x47,0x3a,0x3a,0x53,0x45,0x08,0x3a,0x0a,0x40,0x6e,0x61,0x6d,0x65,0x49,0x22,0x0a,0x57,0x69,0x6e,0x64,0x31,0x06,0x3a,0x06,0x45,0x54,0x3a,0x0b,0x40,0x70,0x69,0x74,0x63,0x68,0x69,0x69,0x3a,0x0c,0x40,0x76,0x6f,0x6c,0x75,0x6d,0x65,0x69,0x55))
  ChangeSwitch(32,32,0)
  205(8,bytes(0x04,0x08,0x6f,0x3a,0x13,0x52,0x50,0x47,0x3a,0x3a,0x4d,0x6f,0x76,0x65,0x52,0x6f,0x75,0x74,0x65,0x09,0x3a,0x0c,0x40,0x72,0x65,0x70,0x65,0x61,0x74,0x46,0x3a,0x0f,0x40,0x73,0x6b,0x69,0x70,0x70,0x61,0x62,0x6c,0x65,0x46,0x3a,0x0a,0x40,0x77,0x61,0x69,0x74,0x54,0x3a,0x0a,0x40,0x6c,0x69,0x73,0x74,0x5b,0x08,0x6f,0x3a,0x15,0x52,0x50,0x47,0x3a,0x3a,0x4d,0x6f,0x76,0x65,0x43,0x6f,0x6d,0x6d,0x61,0x6e,0x64,0x07,0x3a,0x0a,0x40,0x63,0x6f,0x64,0x65,0x69,0x13,0x3a,0x10,0x40,0x70,0x61,0x72,0x61,0x6d,0x65,0x74,0x65,0x72,0x73,0x5b,0x07,0x69,0x00,0x69,0x0c,0x6f,0x3b,0x0a,0x07,0x3b,0x0b,0x69,0x22,0x3b,0x0c,0x5b,0x06,0x69,0x09,0x6f,0x3b,0x0a,0x07,0x3b,0x0b,0x69,0x00,0x3b,0x0c,0x5b,0x00))
  If(0,4,0)
   250(bytes(0x04,0x08,0x6f,0x3a,0x0c,0x52,0x50,0x47,0x3a,0x3a,0x53,0x45,0x08,0x3a,0x0a,0x40,0x6e,0x61,0x6d,0x65,0x49,0x22,0x0a,0x57,0x69,0x6e,0x64,0x31,0x06,0x3a,0x06,0x45,0x54,0x3a,0x0b,0x40,0x70,0x69,0x74,0x63,0x68,0x69,0x69,0x3a,0x0c,0x40,0x76,0x6f,0x6c,0x75,0x6d,0x65,0x69,0x55))
   PictureDisplay(5,"ct_arumaeruma1",0,0,0,0,100,100,0,0)
   PictureMove(5,null,0,0,0,0,100,100,255,0,30,true)
   ShowMessageFace("arumaeruma_fc2",5,0,2,17)
   ShowMessage("\\n<Alma Elma>An opening... Lightspeed Palm!")
   PictureClear(5)
   212(21,480,false)
   0()
  EndIf()
  If(0,5,0)
   250(bytes(0x04,0x08,0x6f,0x3a,0x0c,0x52,0x50,0x47,0x3a,0x3a,0x53,0x45,0x08,0x3a,0x0a,0x40,0x6e,0x61,0x6d,0x65,0x49,0x22,0x0a,0x57,0x69,0x6e,0x64,0x31,0x06,0x3a,0x06,0x45,0x54,0x3a,0x0b,0x40,0x70,0x69,0x74,0x63,0x68,0x69,0x69,0x3a,0x0c,0x40,0x76,0x6f,0x6c,0x75,0x6d,0x65,0x69,0x55))
   PictureDisplay(5,"80_eden_st21",0,0,0,0,100,100,0,0)
   PictureMove(5,null,0,0,0,0,100,100,255,0,30,true)
   ShowMessageFace("eden_fc1",1,0,2,18)
   ShowMessage("\\n<Eden>I won't let you touch Lady Ilias!\nStand down!")
   PictureClear(5)
   212(21,561,false)
   0()
  EndIf()
  Wait(120)
  ShowMessageFace("ogretooth_fc1",2,0,2,19)
  ShowMessage("\\n<Ogretooth>...! You canceled out my attack?\nYou look like a fun fight!")
  Wait(30)
  205(18,bytes(0x04,0x08,0x6f,0x3a,0x13,0x52,0x50,0x47,0x3a,0x3a,0x4d,0x6f,0x76,0x65,0x52,0x6f,0x75,0x74,0x65,0x09,0x3a,0x0c,0x40,0x72,0x65,0x70,0x65,0x61,0x74,0x46,0x3a,0x0f,0x40,0x73,0x6b,0x69,0x70,0x70,0x61,0x62,0x6c,0x65,0x46,0x3a,0x0a,0x40,0x77,0x61,0x69,0x74,0x46,0x3a,0x0a,0x40,0x6c,0x69,0x73,0x74,0x5b,0x09,0x6f,0x3a,0x15,0x52,0x50,0x47,0x3a,0x3a,0x4d,0x6f,0x76,0x65,0x43,0x6f,0x6d,0x6d,0x61,0x6e,0x64,0x07,0x3a,0x0a,0x40,0x63,0x6f,0x64,0x65,0x69,0x09,0x3a,0x10,0x40,0x70,0x61,0x72,0x61,0x6d,0x65,0x74,0x65,0x72,0x73,0x5b,0x00,0x6f,0x3b,0x0a,0x07,0x3b,0x0b,0x69,0x09,0x3b,0x0c,0x5b,0x00,0x6f,0x3b,0x0a,0x07,0x3b,0x0b,0x69,0x09,0x3b,0x0c,0x5b,0x00,0x6f,0x3b,0x0a,0x07,0x3b,0x0b,0x69,0x00,0x3b,0x0c,0x5b,0x00))
  ShowMessageFace("executioner_fc1",0,0,2,20)
  ShowMessage("\\n<Executioner>Wait, let me play too!")
  ChangeSwitch(33,33,0)
  205(2,bytes(0x04,0x08,0x6f,0x3a,0x13,0x52,0x50,0x47,0x3a,0x3a,0x4d,0x6f,0x76,0x65,0x52,0x6f,0x75,0x74,0x65,0x09,0x3a,0x0c,0x40,0x72,0x65,0x70,0x65,0x61,0x74,0x46,0x3a,0x0f,0x40,0x73,0x6b,0x69,0x70,0x70,0x61,0x62,0x6c,0x65,0x46,0x3a,0x0a,0x40,0x77,0x61,0x69,0x74,0x46,0x3a,0x0a,0x40,0x6c,0x69,0x73,0x74,0x5b,0x08,0x6f,0x3a,0x15,0x52,0x50,0x47,0x3a,0x3a,0x4d,0x6f,0x76,0x65,0x43,0x6f,0x6d,0x6d,0x61,0x6e,0x64,0x07,0x3a,0x0a,0x40,0x63,0x6f,0x64,0x65,0x69,0x13,0x3a,0x10,0x40,0x70,0x61,0x72,0x61,0x6d,0x65,0x74,0x65,0x72,0x73,0x5b,0x07,0x69,0x00,0x69,0x0c,0x6f,0x3b,0x0a,0x07,0x3b,0x0b,0x69,0x22,0x3b,0x0c,0x5b,0x06,0x69,0x09,0x6f,0x3b,0x0a,0x07,0x3b,0x0b,0x69,0x00,0x3b,0x0c,0x5b,0x00))
  205(4,bytes(0x04,0x08,0x6f,0x3a,0x13,0x52,0x50,0x47,0x3a,0x3a,0x4d,0x6f,0x76,0x65,0x52,0x6f,0x75,0x74,0x65,0x09,0x3a,0x0c,0x40,0x72,0x65,0x70,0x65,0x61,0x74,0x46,0x3a,0x0f,0x40,0x73,0x6b,0x69,0x70,0x70,0x61,0x62,0x6c,0x65,0x46,0x3a,0x0a,0x40,0x77,0x61,0x69,0x74,0x54,0x3a,0x0a,0x40,0x6c,0x69,0x73,0x74,0x5b,0x08,0x6f,0x3a,0x15,0x52,0x50,0x47,0x3a,0x3a,0x4d,0x6f,0x76,0x65,0x43,0x6f,0x6d,0x6d,0x61,0x6e,0x64,0x07,0x3a,0x0a,0x40,0x63,0x6f,0x64,0x65,0x69,0x13,0x3a,0x10,0x40,0x70,0x61,0x72,0x61,0x6d,0x65,0x74,0x65,0x72,0x73,0x5b,0x07,0x69,0x00,0x69,0x0c,0x6f,0x3b,0x0a,0x07,0x3b,0x0b,0x69,0x22,0x3b,0x0c,0x5b,0x06,0x69,0x09,0x6f,0x3b,0x0a,0x07,0x3b,0x0b,0x69,0x00,0x3b,0x0c,0x5b,0x00))
  Wait(30)
  If(0,4,0)
   250(bytes(0x04,0x08,0x6f,0x3a,0x0c,0x52,0x50,0x47,0x3a,0x3a,0x53,0x45,0x08,0x3a,0x0a,0x40,0x6e,0x61,0x6d,0x65,0x49,0x22,0x0a,0x57,0x69,0x6e,0x64,0x31,0x06,0x3a,0x06,0x45,0x54,0x3a,0x0b,0x40,0x70,0x69,0x74,0x63,0x68,0x69,0x69,0x3a,0x0c,0x40,0x76,0x6f,0x6c,0x75,0x6d,0x65,0x69,0x55))
   PictureDisplay(5,"ct_alicetromeria1",0,0,0,0,100,100,0,0)
   PictureMove(5,null,0,0,0,0,100,100,255,0,30,true)
   ShowMessageFace("alicetromeria_fc1",4,0,2,21)
   ShowMessage("\\n<Alicetroemeria>Well then...\nI'll play with you to the fullest.")
   PictureClear(5)
   212(18,531,true)
   Wait(30)
   0()
  EndIf()
  If(0,5,0)
   250(bytes(0x04,0x08,0x6f,0x3a,0x0c,0x52,0x50,0x47,0x3a,0x3a,0x53,0x45,0x08,0x3a,0x0a,0x40,0x6e,0x61,0x6d,0x65,0x49,0x22,0x0a,0x57,0x69,0x6e,0x64,0x31,0x06,0x3a,0x06,0x45,0x54,0x3a,0x0b,0x40,0x70,0x69,0x74,0x63,0x68,0x69,0x69,0x3a,0x0c,0x40,0x76,0x6f,0x6c,0x75,0x6d,0x65,0x69,0x55))
   PictureDisplay(6,"80_micaelac_st01",0,0,-260,0,100,100,255,0)
   PictureDisplay(5,"80_rucyfinac_st01",0,0,90,0,100,100,255,0)
   PictureMove(6,null,0,0,-260,0,100,100,255,0,30,false)
   PictureMove(5,null,0,0,90,0,100,100,255,0,30,true)
   ShowMessageFace("rucyfinac_fc1",1,0,2,22)
   ShowMessage("\\n<Lucifina-chan>Let's play, let's plaaay♪")
   ShowMessageFace("micaelac_fc1",0,0,2,23)
   ShowMessage("\\n<Micaela-chan>I'll... I'll play with you.")
   PictureClear(5)
   PictureClear(6)
   212(18,571,true)
   Wait(30)
   0()
  EndIf()
  ShowMessageFace("executioner_fc1",2,0,2,24)
  ShowMessage("\\n<Executioner>What are you doing so suddenly!")
  Wait(60)
  205(20,bytes(0x04,0x08,0x6f,0x3a,0x13,0x52,0x50,0x47,0x3a,0x3a,0x4d,0x6f,0x76,0x65,0x52,0x6f,0x75,0x74,0x65,0x09,0x3a,0x0c,0x40,0x72,0x65,0x70,0x65,0x61,0x74,0x46,0x3a,0x0f,0x40,0x73,0x6b,0x69,0x70,0x70,0x61,0x62,0x6c,0x65,0x46,0x3a,0x0a,0x40,0x77,0x61,0x69,0x74,0x46,0x3a,0x0a,0x40,0x6c,0x69,0x73,0x74,0x5b,0x07,0x6f,0x3a,0x15,0x52,0x50,0x47,0x3a,0x3a,0x4d,0x6f,0x76,0x65,0x43,0x6f,0x6d,0x6d,0x61,0x6e,0x64,0x07,0x3a,0x0a,0x40,0x63,0x6f,0x64,0x65,0x69,0x09,0x3a,0x10,0x40,0x70,0x61,0x72,0x61,0x6d,0x65,0x74,0x65,0x72,0x73,0x5b,0x00,0x6f,0x3b,0x0a,0x07,0x3b,0x0b,0x69,0x00,0x3b,0x0c,0x5b,0x00))
  PictureDisplay(5,"80_mistilteinn_st31",0,0,0,0,100,100,0,0)
  PictureMove(5,null,0,0,0,0,100,100,255,0,30,true)
  ShowMessageFace("mistilteinn_fc1",0,0,2,25)
  ShowMessage("\\n<Mysteltainn>This is becoming quite the hectic battle...\nI wanted to crush you before this happened.")
  ShowMessageFace("rovissa_fc1",0,0,2,26)
  ShowMessage("\\n<Rovissa>Without my sisters, I can't fight...\nWould be a joke, right?")
  ShowMessageFace("",0,0,2,27)
  ShowMessage("Rovissa provokes Mysteltainn.\nIf it's only one opponent, we may be able to win...")
  ShowMessageFace("rest_fc1",0,0,2,28)
  ShowMessage("\\n<Lest>All right, let's go!\nWe'll ride on the flow and take down Mysteltainn!")
  ShowMessageFace("mistilteinn_fc1",0,0,2,29)
  ShowMessage("\\n<Mysteltainn>It seems I've been underestimated.\nEven by myself, it should be a simple matter to bury you all!")
  ShowMessageFace("nobissa_fc1",0,0,2,30)
  ShowMessage("\\n<Novissa>............!!")
  ShowMessageFace("tarsa_fc2",2,0,2,31)
  ShowMessage("\\n<Tarsa>Mysteltainn's strong! Don't let your guard down!")
  ShowMessageFace("mistilteinn_fc1",0,0,2,32)
  ShowMessage("\\n<Mysteltainn>I won't show any mercy...\nI will have all of you die here!")
  SetBattleBGM(bytes(0x04,0x08,0x6f,0x3a,0x0d,0x52,0x50,0x47,0x3a,0x3a,0x42,0x47,0x4d,0x08,0x3a,0x0a,0x40,0x6e,0x61,0x6d,0x65,0x49,0x22,0x0a,0x62,0x6f,0x73,0x73,0x32,0x06,0x3a,0x06,0x45,0x54,0x3a,0x0c,0x40,0x76,0x6f,0x6c,0x75,0x6d,0x65,0x69,0x69,0x3a,0x0b,0x40,0x70,0x69,0x74,0x63,0x68,0x69,0x69))
  Battle(0,1387,false,false)
  SetBattleBGM(bytes(0x04,0x08,0x6f,0x3a,0x0d,0x52,0x50,0x47,0x3a,0x3a,0x42,0x47,0x4d,0x08,0x3a,0x0a,0x40,0x6e,0x61,0x6d,0x65,0x49,0x22,0x0b,0x62,0x61,0x74,0x74,0x6c,0x65,0x06,0x3a,0x06,0x45,0x54,0x3a,0x0c,0x40,0x76,0x6f,0x6c,0x75,0x6d,0x65,0x69,0x69,0x3a,0x0b,0x40,0x70,0x69,0x74,0x63,0x68,0x69,0x69))
  ShowMessageFace("mistilteinn_fc1",0,0,2,33)
  ShowMessage("\\n<Mysteltainn>Without releasing my power, it's surprisingly difficult. Being heroes from another world isn't just for show, it seems.")
  ShowMessageFace("rest_fc1",0,0,2,34)
  ShowMessage("\\n<Lest>Give yourself up, Mysteltainn!")
  PictureClear(5)
  Wait(30)
  ShowMessageFace("",0,0,2,35)
  ShowMessage("Somehow, we managed to win the battle.\nIn the same way, the other groups are-")
  PictureDisplay(5,"80_kazuya_st01",0,0,0,0,100,100,0,0)
  PictureMove(5,null,0,0,0,0,100,100,255,0,30,true)
  ShowMessageFace("kazuya_fc1",0,0,2,36)
  ShowMessage("\\n<Kazuya>Haa!!")
  PictureClear(5)
  Wait(30)
  212(10,24,false)
  Wait(15)
  205(10,bytes(0x04,0x08,0x6f,0x3a,0x13,0x52,0x50,0x47,0x3a,0x3a,0x4d,0x6f,0x76,0x65,0x52,0x6f,0x75,0x74,0x65,0x09,0x3a,0x0c,0x40,0x72,0x65,0x70,0x65,0x61,0x74,0x46,0x3a,0x0f,0x40,0x73,0x6b,0x69,0x70,0x70,0x61,0x62,0x6c,0x65,0x46,0x3a,0x0a,0x40,0x77,0x61,0x69,0x74,0x46,0x3a,0x0a,0x40,0x6c,0x69,0x73,0x74,0x5b,0x08,0x6f,0x3a,0x15,0x52,0x50,0x47,0x3a,0x3a,0x4d,0x6f,0x76,0x65,0x43,0x6f,0x6d,0x6d,0x61,0x6e,0x64,0x07,0x3a,0x0a,0x40,0x63,0x6f,0x64,0x65,0x69,0x13,0x3a,0x10,0x40,0x70,0x61,0x72,0x61,0x6d,0x65,0x74,0x65,0x72,0x73,0x5b,0x07,0x69,0xf9,0x69,0x06,0x6f,0x3b,0x0a,0x07,0x3b,0x0b,0x69,0x17,0x3b,0x0c,0x5b,0x00,0x6f,0x3b,0x0a,0x07,0x3b,0x0b,0x69,0x00,0x3b,0x0c,0x5b,0x00))
  205(7,bytes(0x04,0x08,0x6f,0x3a,0x13,0x52,0x50,0x47,0x3a,0x3a,0x4d,0x6f,0x76,0x65,0x52,0x6f,0x75,0x74,0x65,0x09,0x3a,0x0c,0x40,0x72,0x65,0x70,0x65,0x61,0x74,0x46,0x3a,0x0f,0x40,0x73,0x6b,0x69,0x70,0x70,0x61,0x62,0x6c,0x65,0x46,0x3a,0x0a,0x40,0x77,0x61,0x69,0x74,0x46,0x3a,0x0a,0x40,0x6c,0x69,0x73,0x74,0x5b,0x07,0x6f,0x3a,0x15,0x52,0x50,0x47,0x3a,0x3a,0x4d,0x6f,0x76,0x65,0x43,0x6f,0x6d,0x6d,0x61,0x6e,0x64,0x07,0x3a,0x0a,0x40,0x63,0x6f,0x64,0x65,0x69,0x16,0x3a,0x10,0x40,0x70,0x61,0x72,0x61,0x6d,0x65,0x74,0x65,0x72,0x73,0x5b,0x00,0x6f,0x3b,0x0a,0x07,0x3b,0x0b,0x69,0x00,0x3b,0x0c,0x5b,0x00))
  ShowMessageFace("myuska_fc1",5,0,2,37)
  ShowMessage("\\n<Myusca>Aha...over here, over here♪")
  205(11,bytes(0x04,0x08,0x6f,0x3a,0x13,0x52,0x50,0x47,0x3a,0x3a,0x4d,0x6f,0x76,0x65,0x52,0x6f,0x75,0x74,0x65,0x09,0x3a,0x0c,0x40,0x72,0x65,0x70,0x65,0x61,0x74,0x46,0x3a,0x0f,0x40,0x73,0x6b,0x69,0x70,0x70,0x61,0x62,0x6c,0x65,0x46,0x3a,0x0a,0x40,0x77,0x61,0x69,0x74,0x46,0x3a,0x0a,0x40,0x6c,0x69,0x73,0x74,0x5b,0x08,0x6f,0x3a,0x15,0x52,0x50,0x47,0x3a,0x3a,0x4d,0x6f,0x76,0x65,0x43,0x6f,0x6d,0x6d,0x61,0x6e,0x64,0x07,0x3a,0x0a,0x40,0x63,0x6f,0x64,0x65,0x69,0x22,0x3a,0x10,0x40,0x70,0x61,0x72,0x61,0x6d,0x65,0x74,0x65,0x72,0x73,0x5b,0x06,0x69,0x0a,0x6f,0x3b,0x0a,0x07,0x3b,0x0b,0x69,0x07,0x3b,0x0c,0x5b,0x00,0x6f,0x3b,0x0a,0x07,0x3b,0x0b,0x69,0x00,0x3b,0x0c,0x5b,0x00))
  PictureDisplay(5,"80_magatu_st01",0,0,0,0,100,100,0,0)
  PictureMove(5,null,0,0,0,0,100,100,255,0,30,true)
  ShowMessageFace("magatu_fc1",2,0,2,38)
  ShowMessage("\\n<Magatsu>Eat this... Ha!")
  PictureClear(5)
  Wait(30)
  212(10,11,false)
  Wait(15)
  205(10,bytes(0x04,0x08,0x6f,0x3a,0x13,0x52,0x50,0x47,0x3a,0x3a,0x4d,0x6f,0x76,0x65,0x52,0x6f,0x75,0x74,0x65,0x09,0x3a,0x0c,0x40,0x72,0x65,0x70,0x65,0x61,0x74,0x46,0x3a,0x0f,0x40,0x73,0x6b,0x69,0x70,0x70,0x61,0x62,0x6c,0x65,0x46,0x3a,0x0a,0x40,0x77,0x61,0x69,0x74,0x46,0x3a,0x0a,0x40,0x6c,0x69,0x73,0x74,0x5b,0x08,0x6f,0x3a,0x15,0x52,0x50,0x47,0x3a,0x3a,0x4d,0x6f,0x76,0x65,0x43,0x6f,0x6d,0x6d,0x61,0x6e,0x64,0x07,0x3a,0x0a,0x40,0x63,0x6f,0x64,0x65,0x69,0x13,0x3a,0x10,0x40,0x70,0x61,0x72,0x61,0x6d,0x65,0x74,0x65,0x72,0x73,0x5b,0x07,0x69,0xfa,0x69,0xfa,0x6f,0x3b,0x0a,0x07,0x3b,0x0b,0x69,0x17,0x3b,0x0c,0x5b,0x00,0x6f,0x3b,0x0a,0x07,0x3b,0x0b,0x69,0x00,0x3b,0x0c,0x5b,0x00))
  ShowMessageFace("myuska_fc1",7,0,2,39)
  ShowMessage("\\n<Myusca>One after another...this is getting annoying!")
  250(bytes(0x04,0x08,0x6f,0x3a,0x0c,0x52,0x50,0x47,0x3a,0x3a,0x53,0x45,0x08,0x3a,0x0a,0x40,0x6e,0x61,0x6d,0x65,0x49,0x22,0x0b,0x4d,0x61,0x67,0x69,0x63,0x31,0x06,0x3a,0x06,0x45,0x54,0x3a,0x0b,0x40,0x70,0x69,0x74,0x63,0x68,0x69,0x69,0x3a,0x0c,0x40,0x76,0x6f,0x6c,0x75,0x6d,0x65,0x69,0x55))
  ChangeSwitch(34,34,0)
  Wait(30)
  212(10,35,false)
  205(10,bytes(0x04,0x08,0x6f,0x3a,0x13,0x52,0x50,0x47,0x3a,0x3a,0x4d,0x6f,0x76,0x65,0x52,0x6f,0x75,0x74,0x65,0x09,0x3a,0x0c,0x40,0x72,0x65,0x70,0x65,0x61,0x74,0x46,0x3a,0x0f,0x40,0x73,0x6b,0x69,0x70,0x70,0x61,0x62,0x6c,0x65,0x46,0x3a,0x0a,0x40,0x77,0x61,0x69,0x74,0x46,0x3a,0x0a,0x40,0x6c,0x69,0x73,0x74,0x5b,0x08,0x6f,0x3a,0x15,0x52,0x50,0x47,0x3a,0x3a,0x4d,0x6f,0x76,0x65,0x43,0x6f,0x6d,0x6d,0x61,0x6e,0x64,0x07,0x3a,0x0a,0x40,0x63,0x6f,0x64,0x65,0x69,0x27,0x3a,0x10,0x40,0x70,0x61,0x72,0x61,0x6d,0x65,0x74,0x65,0x72,0x73,0x5b,0x00,0x6f,0x3b,0x0a,0x07,0x3b,0x0b,0x69,0x15,0x3b,0x0c,0x5b,0x00,0x6f,0x3b,0x0a,0x07,0x3b,0x0b,0x69,0x00,0x3b,0x0c,0x5b,0x00))
  ShowMessageFace("",0,0,2,40)
  ShowMessage("It was when Myusca jumped back.\nThe moment she landed, a sealing circle activated at her feet.")
  205(19,bytes(0x04,0x08,0x6f,0x3a,0x13,0x52,0x50,0x47,0x3a,0x3a,0x4d,0x6f,0x76,0x65,0x52,0x6f,0x75,0x74,0x65,0x09,0x3a,0x0c,0x40,0x72,0x65,0x70,0x65,0x61,0x74,0x46,0x3a,0x0f,0x40,0x73,0x6b,0x69,0x70,0x70,0x61,0x62,0x6c,0x65,0x46,0x3a,0x0a,0x40,0x77,0x61,0x69,0x74,0x54,0x3a,0x0a,0x40,0x6c,0x69,0x73,0x74,0x5b,0x07,0x6f,0x3a,0x15,0x52,0x50,0x47,0x3a,0x3a,0x4d,0x6f,0x76,0x65,0x43,0x6f,0x6d,0x6d,0x61,0x6e,0x64,0x07,0x3a,0x0a,0x40,0x63,0x6f,0x64,0x65,0x69,0x15,0x3a,0x10,0x40,0x70,0x61,0x72,0x61,0x6d,0x65,0x74,0x65,0x72,0x73,0x5b,0x00,0x6f,0x3b,0x0a,0x07,0x3b,0x0b,0x69,0x00,0x3b,0x0c,0x5b,0x00))
  205(16,bytes(0x04,0x08,0x6f,0x3a,0x13,0x52,0x50,0x47,0x3a,0x3a,0x4d,0x6f,0x76,0x65,0x52,0x6f,0x75,0x74,0x65,0x09,0x3a,0x0c,0x40,0x72,0x65,0x70,0x65,0x61,0x74,0x46,0x3a,0x0f,0x40,0x73,0x6b,0x69,0x70,0x70,0x61,0x62,0x6c,0x65,0x46,0x3a,0x0a,0x40,0x77,0x61,0x69,0x74,0x54,0x3a,0x0a,0x40,0x6c,0x69,0x73,0x74,0x5b,0x07,0x6f,0x3a,0x15,0x52,0x50,0x47,0x3a,0x3a,0x4d,0x6f,0x76,0x65,0x43,0x6f,0x6d,0x6d,0x61,0x6e,0x64,0x07,0x3a,0x0a,0x40,0x63,0x6f,0x64,0x65,0x69,0x15,0x3a,0x10,0x40,0x70,0x61,0x72,0x61,0x6d,0x65,0x74,0x65,0x72,0x73,0x5b,0x00,0x6f,0x3b,0x0a,0x07,0x3b,0x0b,0x69,0x00,0x3b,0x0c,0x5b,0x00))
  205(17,bytes(0x04,0x08,0x6f,0x3a,0x13,0x52,0x50,0x47,0x3a,0x3a,0x4d,0x6f,0x76,0x65,0x52,0x6f,0x75,0x74,0x65,0x09,0x3a,0x0c,0x40,0x72,0x65,0x70,0x65,0x61,0x74,0x46,0x3a,0x0f,0x40,0x73,0x6b,0x69,0x70,0x70,0x61,0x62,0x6c,0x65,0x46,0x3a,0x0a,0x40,0x77,0x61,0x69,0x74,0x54,0x3a,0x0a,0x40,0x6c,0x69,0x73,0x74,0x5b,0x07,0x6f,0x3a,0x15,0x52,0x50,0x47,0x3a,0x3a,0x4d,0x6f,0x76,0x65,0x43,0x6f,0x6d,0x6d,0x61,0x6e,0x64,0x07,0x3a,0x0a,0x40,0x63,0x6f,0x64,0x65,0x69,0x15,0x3a,0x10,0x40,0x70,0x61,0x72,0x61,0x6d,0x65,0x74,0x65,0x72,0x73,0x5b,0x00,0x6f,0x3b,0x0a,0x07,0x3b,0x0b,0x69,0x00,0x3b,0x0c,0x5b,0x00))
  205(14,bytes(0x04,0x08,0x6f,0x3a,0x13,0x52,0x50,0x47,0x3a,0x3a,0x4d,0x6f,0x76,0x65,0x52,0x6f,0x75,0x74,0x65,0x09,0x3a,0x0c,0x40,0x72,0x65,0x70,0x65,0x61,0x74,0x46,0x3a,0x0f,0x40,0x73,0x6b,0x69,0x70,0x70,0x61,0x62,0x6c,0x65,0x46,0x3a,0x0a,0x40,0x77,0x61,0x69,0x74,0x54,0x3a,0x0a,0x40,0x6c,0x69,0x73,0x74,0x5b,0x07,0x6f,0x3a,0x15,0x52,0x50,0x47,0x3a,0x3a,0x4d,0x6f,0x76,0x65,0x43,0x6f,0x6d,0x6d,0x61,0x6e,0x64,0x07,0x3a,0x0a,0x40,0x63,0x6f,0x64,0x65,0x69,0x17,0x3a,0x10,0x40,0x70,0x61,0x72,0x61,0x6d,0x65,0x74,0x65,0x72,0x73,0x5b,0x00,0x6f,0x3b,0x0a,0x07,0x3b,0x0b,0x69,0x00,0x3b,0x0c,0x5b,0x00))
  205(9,bytes(0x04,0x08,0x6f,0x3a,0x13,0x52,0x50,0x47,0x3a,0x3a,0x4d,0x6f,0x76,0x65,0x52,0x6f,0x75,0x74,0x65,0x09,0x3a,0x0c,0x40,0x72,0x65,0x70,0x65,0x61,0x74,0x46,0x3a,0x0f,0x40,0x73,0x6b,0x69,0x70,0x70,0x61,0x62,0x6c,0x65,0x46,0x3a,0x0a,0x40,0x77,0x61,0x69,0x74,0x54,0x3a,0x0a,0x40,0x6c,0x69,0x73,0x74,0x5b,0x07,0x6f,0x3a,0x15,0x52,0x50,0x47,0x3a,0x3a,0x4d,0x6f,0x76,0x65,0x43,0x6f,0x6d,0x6d,0x61,0x6e,0x64,0x07,0x3a,0x0a,0x40,0x63,0x6f,0x64,0x65,0x69,0x17,0x3a,0x10,0x40,0x70,0x61,0x72,0x61,0x6d,0x65,0x74,0x65,0x72,0x73,0x5b,0x00,0x6f,0x3b,0x0a,0x07,0x3b,0x0b,0x69,0x00,0x3b,0x0c,0x5b,0x00))
  205(12,bytes(0x04,0x08,0x6f,0x3a,0x13,0x52,0x50,0x47,0x3a,0x3a,0x4d,0x6f,0x76,0x65,0x52,0x6f,0x75,0x74,0x65,0x09,0x3a,0x0c,0x40,0x72,0x65,0x70,0x65,0x61,0x74,0x46,0x3a,0x0f,0x40,0x73,0x6b,0x69,0x70,0x70,0x61,0x62,0x6c,0x65,0x46,0x3a,0x0a,0x40,0x77,0x61,0x69,0x74,0x54,0x3a,0x0a,0x40,0x6c,0x69,0x73,0x74,0x5b,0x07,0x6f,0x3a,0x15,0x52,0x50,0x47,0x3a,0x3a,0x4d,0x6f,0x76,0x65,0x43,0x6f,0x6d,0x6d,0x61,0x6e,0x64,0x07,0x3a,0x0a,0x40,0x63,0x6f,0x64,0x65,0x69,0x17,0x3a,0x10,0x40,0x70,0x61,0x72,0x61,0x6d,0x65,0x74,0x65,0x72,0x73,0x5b,0x00,0x6f,0x3b,0x0a,0x07,0x3b,0x0b,0x69,0x00,0x3b,0x0c,0x5b,0x00))
  PictureDisplay(5,"80_myuska_st13",0,0,-150,0,100,100,0,0)
  PictureDisplay(6,"80_vinum_st03",0,0,150,0,100,100,0,0)
  PictureMove(5,null,0,0,-150,0,100,100,255,0,30,false)
  PictureMove(6,null,0,0,150,0,100,100,255,0,30,true)
  ShowMessageFace("vinum_fc1",2,0,2,41)
  ShowMessage("\\n<Vinum>Myusca!")
  ShowMessageFace("myuska_fc1",7,0,2,42)
  ShowMessage("\\n<Myusca>Wh...What's this?")
  PictureClear(5)
  PictureClear(6)
  205(-1,bytes(0x04,0x08,0x6f,0x3a,0x13,0x52,0x50,0x47,0x3a,0x3a,0x4d,0x6f,0x76,0x65,0x52,0x6f,0x75,0x74,0x65,0x09,0x3a,0x0c,0x40,0x72,0x65,0x70,0x65,0x61,0x74,0x46,0x3a,0x0f,0x40,0x73,0x6b,0x69,0x70,0x70,0x61,0x62,0x6c,0x65,0x46,0x3a,0x0a,0x40,0x77,0x61,0x69,0x74,0x54,0x3a,0x0a,0x40,0x6c,0x69,0x73,0x74,0x5b,0x07,0x6f,0x3a,0x15,0x52,0x50,0x47,0x3a,0x3a,0x4d,0x6f,0x76,0x65,0x43,0x6f,0x6d,0x6d,0x61,0x6e,0x64,0x07,0x3a,0x0a,0x40,0x63,0x6f,0x64,0x65,0x69,0x18,0x3a,0x10,0x40,0x70,0x61,0x72,0x61,0x6d,0x65,0x74,0x65,0x72,0x73,0x5b,0x00,0x6f,0x3b,0x0a,0x07,0x3b,0x0b,0x69,0x00,0x3b,0x0c,0x5b,0x00))
  PictureDisplay(5,"80_daimeikai_st01",0,0,0,0,100,100,0,0)
  PictureMove(5,null,0,0,0,0,100,100,255,0,30,true)
  ShowMessageFace("daimeikai_fc1",2,0,2,43)
  ShowMessage("\\n<Daimyokai>Hyahahaha, you let your guard down!\nWhile you were fighting, I set traps all over this room!")
  ShowMessageFace("magatu_fc1",2,0,2,44)
  ShowMessage("\\n<Magatsu>Daimyokai... so you were called to this world, too. To think that you would be our ally here...")
  ShowMessageFace("daimeikai_fc1",0,0,2,45)
  ShowMessage("\\n<Daimyokai>I don't remember ever becoming your ally!\nI'm just acting to my own ends!")
  ShowMessageFace("daimeikai_fc1",0,0,2,46)
  ShowMessage("\\n<Daimyokai>And with that, I've caught one! Now give it up already!")
  241(bytes(0x04,0x08,0x6f,0x3a,0x0d,0x52,0x50,0x47,0x3a,0x3a,0x42,0x47,0x4d,0x08,0x3a,0x0a,0x40,0x6e,0x61,0x6d,0x65,0x49,0x22,0x0a,0x6b,0x69,0x6b,0x69,0x32,0x06,0x3a,0x06,0x45,0x54,0x3a,0x0c,0x40,0x76,0x6f,0x6c,0x75,0x6d,0x65,0x69,0x69,0x3a,0x0b,0x40,0x70,0x69,0x74,0x63,0x68,0x69,0x69))
  PictureDisplay(5,"80_nemea_st03",0,0,-150,0,100,100,255,0)
  PictureDisplay(6,"80_vinum_st03",0,0,150,0,100,100,255,0)
  ShowMessageFace("nemea_fc1",2,0,2,47)
  ShowMessage("\\n<Nemea>Ara ara, things have gotten a bit troublesome.")
  ShowMessageFace("vinum_fc1",2,0,2,48)
  ShowMessage("\\n<Vinum>............")
  ShowMessageFace("myuska_fc1",6,0,2,49)
  ShowMessage("\\n<Myusca>Aha, I'm fine, you know...?\nIf I use my full power, I could break this kind of seal...")
  PictureClear(5)
  PictureClear(6)
  Wait(30)
  250(bytes(0x04,0x08,0x6f,0x3a,0x0c,0x52,0x50,0x47,0x3a,0x3a,0x53,0x45,0x08,0x3a,0x0a,0x40,0x6e,0x61,0x6d,0x65,0x49,0x22,0x0f,0x6d,0x6f,0x6e,0x5f,0x65,0x61,0x72,0x74,0x68,0x32,0x06,0x3a,0x06,0x45,0x54,0x3a,0x0b,0x40,0x70,0x69,0x74,0x63,0x68,0x69,0x69,0x3a,0x0c,0x40,0x76,0x6f,0x6c,0x75,0x6d,0x65,0x69,0x69))
  225(5,5,60,false)
  224(bytes(0x04,0x08,0x75,0x3a,0x0a,0x43,0x6f,0x6c,0x6f,0x72,0x25,0x00,0x00,0x00,0x00,0x00,0xe0,0x6f,0x40,0x00,0x00,0x00,0x00,0x00,0xe0,0x6f,0x40,0x00,0x00,0x00,0x00,0x00,0xe0,0x6f,0x40,0x00,0x00,0x00,0x00,0x00,0xe0,0x6f,0x40),60,true)
  ShowMessageFace("daimeikai_fc1",1,0,2,50)
  ShowMessage("\\n<Daimyokai>Oioi, there's no way!\nYou really think you can break this sealing circle from the inside?")
  PictureDisplay(5,"80_myuska_st13",0,0,-150,0,100,100,0,0)
  PictureDisplay(6,"80_vinum_st03",0,0,150,0,100,100,0,0)
  PictureMove(5,null,0,0,-150,0,100,100,255,0,30,false)
  PictureMove(6,null,0,0,150,0,100,100,255,0,30,true)
  ShowMessageFace("vinum_fc1",2,0,2,51)
  ShowMessage("\\n<Vinum>...Quit it, Myusca.\nDon't push yourself too hard.")
  ShowMessageFace("myuska_fc1",6,0,2,52)
  ShowMessage("\\n<Myusca>Why, grandma?\nI'm telling you, I can break out of a seal of this level on my own.")
  ShowMessageFace("myuska_fc1",6,0,2,53)
  ShowMessage("\\n<Myusca>I'm a bit pissed off right now, after all...")
  PictureClear(6)
  PictureDisplay(5,"80_vinum_st03",0,0,0,0,100,100,255,0)
  ShowMessageFace("vinum_fc1",2,0,2,54)
  ShowMessage("\\n<Vinum>...Let's make a deal, heroes.\nIn return for Myusca's release, what do you want?")
  ShowMessageFace("rest_fc1",0,0,2,55)
  ShowMessage("\\n<Lest>Eh...?")
  ShowMessageFace("",0,0,2,56)
  ShowMessage("No one expected her to offer a deal.\nBoth enemy and ally stopped, and the fight instantly quieted down.")
  PictureDisplay(5,"80_ogretooth_st03",0,0,-150,0,100,100,255,0)
  PictureDisplay(6,"80_mistilteinn_st01",0,0,250,50,80,80,255,0)
  ShowMessageFace("ogretooth_fc1",2,0,2,57)
  ShowMessage("\\n<Ogretooth>Hey, what are you doing, dragging this-")
  ShowMessageFace("mistilteinn_fc1",0,0,2,58)
  ShowMessage("\\n<Mysteltainn>Shh... Ogre, let's wait and see what happens.")
  PictureClear(5)
  PictureClear(6)
  ShowMessageFace("kazuya_fc2",2,0,2,59)
  ShowMessage("\\n<Kazuya>A deal, you said...")
  If(0,4,0)
   ShowMessageFace("",0,0,2,60)
   ShowMessage("Each of us turn our faces to each other.\nThe first one to speak was the girl calling herself the Monster Lord.")
   PictureDisplay(5,"80_alice_st73",0,0,0,0,100,100,0,0)
   PictureMove(5,null,0,0,0,0,100,100,255,0,30,true)
   ShowMessageFace("alice_fc5",2,0,2,61)
   ShowMessage("\\n<Alice>...Allies of Est, retreat from here.\nThere's no point to us fighting more here.")
   ShowMessageFace("alice_fc5",2,0,2,62)
   ShowMessage("\\n<Alice>Let alone when you guys are all holding each other back.")
   0()
  EndIf()
  If(0,5,0)
   PictureDisplay(5,"80_iriasu_st38",0,0,0,0,100,100,0,0)
   PictureMove(5,null,0,0,0,0,100,100,255,0,30,true)
   ShowMessageFace("",0,0,2,63)
   ShowMessage("Each of us turn our faces to each other.\nThe first one to speak was the girl calling herself a goddess.")
   ShowMessageFace("iriasu_fc4",7,0,2,64)
   ShowMessage("\\n<Ilias>...Allies of Est, retreat from here.\nThere's no point to us fighting more here.")
   ShowMessageFace("iriasu_fc4",7,0,2,65)
   ShowMessage("\\n<Ilias>Let alone when you guys are all holding each other back.")
   0()
  EndIf()
  PictureDisplay(6,"80_vinum_st03",0,0,-150,0,100,100,0,0)
  PictureDisplay(5,"80_mistilteinn_st31",0,0,150,0,100,100,0,0)
  ShowMessageFace("vinum_fc1",2,0,2,66)
  ShowMessage("\\n<Vinum>............")
  ShowMessageFace("mistilteinn_fc1",0,0,2,67)
  ShowMessage("\\n<Mysteltainn>............")
  ShowMessageFace("",0,0,2,68)
  ShowMessage("It's true--Vinum's group and Mysteltainn's group, neither attempted to help the other.")
  ShowMessageFace("",0,0,2,69)
  ShowMessage("It looks more like they're surveying the other side.\nThose two, would they kill each other if they had the chance?")
  PictureClear(6)
  PictureDisplay(5,"80_vinum_st03",0,0,0,0,100,100,255,0)
  ShowMessageFace("vinum_fc1",2,0,2,70)
  ShowMessage("\\n<Vinum>...That is acceptable.\nIf our retreat is your condition, then...")
  ShowMessageFace("kazuya_fc1",0,0,2,71)
  ShowMessage("\\n<Kazuya>Hold on...let me add one more thing.\nHand over Myusca's Proof of Collaboration to us.")
  PictureDisplay(5,"80_myuska_st13",0,0,0,0,100,100,255,0)
  If(0,4,0)
   ShowMessageFace("alice_fc6",0,0,2,72)
   ShowMessage("\\n<Alice>Myusca is to hand over...the Proof of Collaboration!?")
   0()
  EndIf()
  If(0,5,0)
   ShowMessageFace("iriasu_fc4",5,0,2,73)
   ShowMessage("\\n<Ilias>Myusca is to hand over...the Proof of Collaboration!?")
   0()
  EndIf()
  ShowMessageFace("",0,0,2,74)
  ShowMessage("This was the first time the majority of the crowd noticed.\nThat a crest rested on the back of Myusca's hand...")
  ShowMessageFace("rovissa_fc1",0,0,2,75)
  ShowMessage("\\n<Rovissa>\"Hand over the Proof of Collaboration\"...you can do that?")
  ShowMessageFace("kazuya_fc1",0,0,2,76)
  ShowMessage("\\n<Kazuya>Myusca drained the original wielder and stole the crest. In the same way, I think it should be possible to give it to someone else.")
  ShowMessageFace("myuska_fc1",7,0,2,77)
  ShowMessage("\\n<Myusca>You want this weird crest?\nIt's not cute, so I'm fine giving it to you.")
  PictureDisplay(5,"80_myuska_st11",0,0,-150,0,100,100,255,0)
  PictureDisplay(6,"80_vinum_st03",0,0,150,0,100,100,255,0)
  ShowMessageFace("vinum_fc1",2,0,2,78)
  ShowMessage("\\n<Vinum>Well then, with that condition we've come to an agreement. Our retreat, and the surrender of Myusca's crest, right?")
  ShowMessageFace("myuska_fc1",5,0,2,79)
  ShowMessage("\\n<Myusca>Okay, understood♪\nSo, who should I give it to...?")
  If(0,4,0)
   ShowMessageFace("alice_fc5",2,0,2,80)
   ShowMessage("\\n<Alice>In that case... we'll have you give it to Luka.\nHe's the hero of this world after all, he should have the qualification for accepting it.")
   0()
  EndIf()
  If(0,5,0)
   ShowMessageFace("iriasu_fc4",7,0,2,81)
   ShowMessage("\\n<Ilias>In that case... we'll have you give it to Luka.\nHe's the hero of this world after all, he should have the qualification for accepting it.")
   0()
  EndIf()
  PictureClear(6)
  PictureDisplay(5,"80_ruka_st01",0,0,0,0,100,100,255,0)
  ShowMessageFace("ruka_fc1",0,0,2,82)
  ShowMessage("\\n<Luka>Huh? Me?!")
  ShowMessageFace("kazuya_fc1",0,0,2,83)
  ShowMessage("\\n<Kazuya>The hero of this world, Luka, huh...\nPlease, take the Proof of Collaboration.")
  ShowMessageFace("byakunen_fc1",0,0,2,84)
  ShowMessage("\\n<Hakunen>With this, all seven heroes will be together!\nPlease accept it!")
  ShowMessageFace("ruka_fc1",0,0,2,85)
  ShowMessage("\\n<Luka>Understood...\nWell then, please give me the Proof.")
  PictureClear(5)
  Wait(30)
  205(10,bytes(0x04,0x08,0x6f,0x3a,0x13,0x52,0x50,0x47,0x3a,0x3a,0x4d,0x6f,0x76,0x65,0x52,0x6f,0x75,0x74,0x65,0x09,0x3a,0x0c,0x40,0x72,0x65,0x70,0x65,0x61,0x74,0x46,0x3a,0x0f,0x40,0x73,0x6b,0x69,0x70,0x70,0x61,0x62,0x6c,0x65,0x46,0x3a,0x0a,0x40,0x77,0x61,0x69,0x74,0x54,0x3a,0x0a,0x40,0x6c,0x69,0x73,0x74,0x5b,0x07,0x6f,0x3a,0x15,0x52,0x50,0x47,0x3a,0x3a,0x4d,0x6f,0x76,0x65,0x43,0x6f,0x6d,0x6d,0x61,0x6e,0x64,0x07,0x3a,0x0a,0x40,0x63,0x6f,0x64,0x65,0x69,0x18,0x3a,0x10,0x40,0x70,0x61,0x72,0x61,0x6d,0x65,0x74,0x65,0x72,0x73,0x5b,0x00,0x6f,0x3b,0x0a,0x07,0x3b,0x0b,0x69,0x00,0x3b,0x0c,0x5b,0x00))
  ShowMessageFace("myuska_fc1",5,0,2,86)
  ShowMessage("\\n<Myusca>Got it, you, right... Ei♪")
  250(bytes(0x04,0x08,0x6f,0x3a,0x0c,0x52,0x50,0x47,0x3a,0x3a,0x53,0x45,0x08,0x3a,0x0a,0x40,0x6e,0x61,0x6d,0x65,0x49,0x22,0x0c,0x41,0x62,0x73,0x6f,0x72,0x62,0x32,0x06,0x3a,0x06,0x45,0x54,0x3a,0x0b,0x40,0x70,0x69,0x74,0x63,0x68,0x69,0x69,0x3a,0x0c,0x40,0x76,0x6f,0x6c,0x75,0x6d,0x65,0x69,0x55))
  TeleportEvent(5,0,17,14,0)
  ChangeSwitch(35,35,0)
  205(5,bytes(0x04,0x08,0x6f,0x3a,0x13,0x52,0x50,0x47,0x3a,0x3a,0x4d,0x6f,0x76,0x65,0x52,0x6f,0x75,0x74,0x65,0x09,0x3a,0x0c,0x40,0x72,0x65,0x70,0x65,0x61,0x74,0x46,0x3a,0x0f,0x40,0x73,0x6b,0x69,0x70,0x70,0x61,0x62,0x6c,0x65,0x46,0x3a,0x0a,0x40,0x77,0x61,0x69,0x74,0x54,0x3a,0x0a,0x40,0x6c,0x69,0x73,0x74,0x5b,0x08,0x6f,0x3a,0x15,0x52,0x50,0x47,0x3a,0x3a,0x4d,0x6f,0x76,0x65,0x43,0x6f,0x6d,0x6d,0x61,0x6e,0x64,0x07,0x3a,0x0a,0x40,0x63,0x6f,0x64,0x65,0x69,0x13,0x3a,0x10,0x40,0x70,0x61,0x72,0x61,0x6d,0x65,0x74,0x65,0x72,0x73,0x5b,0x07,0x69,0x00,0x69,0xf9,0x6f,0x3b,0x0a,0x07,0x3b,0x0b,0x69,0x21,0x3b,0x0c,0x5b,0x06,0x69,0x28,0x6f,0x3b,0x0a,0x07,0x3b,0x0b,0x69,0x00,0x3b,0x0c,0x5b,0x00))
  ShowMessageFace("",0,0,2,87)
  ShowMessage("Myusca shoots a formless chunk of energy towards Luka.\nWhen he takes it...")
  250(bytes(0x04,0x08,0x6f,0x3a,0x0c,0x52,0x50,0x47,0x3a,0x3a,0x53,0x45,0x08,0x3a,0x0a,0x40,0x6e,0x61,0x6d,0x65,0x49,0x22,0x0e,0x6d,0x6f,0x6e,0x5f,0x70,0x6f,0x77,0x65,0x72,0x06,0x3a,0x06,0x45,0x54,0x3a,0x0b,0x40,0x70,0x69,0x74,0x63,0x68,0x69,0x69,0x3a,0x0c,0x40,0x76,0x6f,0x6c,0x75,0x6d,0x65,0x69,0x69))
  ShowMessageFace("ruka_fc1",0,0,2,88)
  ShowMessage("\\n<Luka>This is...the back of my hand feels hot!")
  PictureDisplay(5,"iv_collabo_emb",0,0,0,0,100,100,0,0)
  PictureMove(5,null,0,0,0,0,100,100,255,0,30,true)
  ShowMessageFace("",0,0,2,89)
  ShowMessage("And then, a crest like that of the other heroes, the Proof of Collaboration, shone on the back of Luka's hand.")
  PictureMove(5,null,0,0,0,0,100,100,0,0,30,true)
  PictureClear(5)
  ShowMessageFace("vinum_fc1",2,0,2,90)
  ShowMessage("\\n<Vinum>...Well then, let's have Myusca released.")
  If(0,4,0)
   ShowMessageFace("alice_fc5",2,0,2,91)
   ShowMessage("\\n<Alice>Yes... Exorcist, I leave it to you to undo the sealing circle.")
   0()
  EndIf()
  If(0,5,0)
   ShowMessageFace("iriasu_fc4",7,0,2,92)
   ShowMessage("\\n<Ilias>Well then, exorcist...\nAs agreed, you are to undo the sealing circle.")
   0()
  EndIf()
  ShowMessageFace("daimeikai_fc1",1,0,2,93)
  ShowMessage("\\n<Daimyokai>Oh well...\nIt's a detestable thing to do, but there's no way around it...")
  250(bytes(0x04,0x08,0x6f,0x3a,0x0c,0x52,0x50,0x47,0x3a,0x3a,0x53,0x45,0x08,0x3a,0x0a,0x40,0x6e,0x61,0x6d,0x65,0x49,0x22,0x0b,0x4d,0x61,0x67,0x69,0x63,0x31,0x06,0x3a,0x06,0x45,0x54,0x3a,0x0b,0x40,0x70,0x69,0x74,0x63,0x68,0x69,0x69,0x3a,0x0c,0x40,0x76,0x6f,0x6c,0x75,0x6d,0x65,0x69,0x55))
  ChangeSwitch(34,34,1)
  205(10,bytes(0x04,0x08,0x6f,0x3a,0x13,0x52,0x50,0x47,0x3a,0x3a,0x4d,0x6f,0x76,0x65,0x52,0x6f,0x75,0x74,0x65,0x09,0x3a,0x0c,0x40,0x72,0x65,0x70,0x65,0x61,0x74,0x46,0x3a,0x0f,0x40,0x73,0x6b,0x69,0x70,0x70,0x61,0x62,0x6c,0x65,0x46,0x3a,0x0a,0x40,0x77,0x61,0x69,0x74,0x46,0x3a,0x0a,0x40,0x6c,0x69,0x73,0x74,0x5b,0x07,0x6f,0x3a,0x15,0x52,0x50,0x47,0x3a,0x3a,0x4d,0x6f,0x76,0x65,0x43,0x6f,0x6d,0x6d,0x61,0x6e,0x64,0x07,0x3a,0x0a,0x40,0x63,0x6f,0x64,0x65,0x69,0x26,0x3a,0x10,0x40,0x70,0x61,0x72,0x61,0x6d,0x65,0x74,0x65,0x72,0x73,0x5b,0x00,0x6f,0x3b,0x0a,0x07,0x3b,0x0b,0x69,0x00,0x3b,0x0c,0x5b,0x00))
  ShowMessageFace("",0,0,2,94)
  ShowMessage("When Daimyokai recites the dispelling word, the magic cage trapping Myusca vanished.")
  ShowMessageFace("",0,0,2,95)
  ShowMessage("With this, Myusca is once again free.")
  PictureDisplay(5,"80_myuska_st13",0,0,-200,0,100,100,0,0)
  PictureDisplay(6,"80_nemea_st05",0,0,15,0,100,100,0,0)
  PictureDisplay(7,"80_vinum_st03",0,0,250,0,100,100,0,0)
  PictureMove(5,null,0,0,-200,0,100,100,255,0,30,false)
  PictureMove(6,null,0,0,15,0,100,100,255,0,30,false)
  PictureMove(7,null,0,0,250,0,100,100,255,0,30,true)
  ShowMessageFace("myuska_fc1",7,0,2,96)
  ShowMessage("\\n<Myusca>Is this really fine?\nIt would have tired me out a bit, but I could have broken that myself...")
  ShowMessageFace("vinum_fc1",2,0,2,97)
  ShowMessage("\\n<Vinum>I won't have you waste your power for no reason.\nNow then... let us retreat.")
  ShowMessageFace("nemea_fc1",4,0,2,98)
  ShowMessage("\\n<Nemea>Understood, Lady Vinum...")
  PictureClear(5)
  PictureClear(6)
  PictureClear(7)
  Wait(30)
  205(10,bytes(0x04,0x08,0x6f,0x3a,0x13,0x52,0x50,0x47,0x3a,0x3a,0x4d,0x6f,0x76,0x65,0x52,0x6f,0x75,0x74,0x65,0x09,0x3a,0x0c,0x40,0x72,0x65,0x70,0x65,0x61,0x74,0x46,0x3a,0x0f,0x40,0x73,0x6b,0x69,0x70,0x70,0x61,0x62,0x6c,0x65,0x46,0x3a,0x0a,0x40,0x77,0x61,0x69,0x74,0x54,0x3a,0x0a,0x40,0x6c,0x69,0x73,0x74,0x5b,0x07,0x6f,0x3a,0x15,0x52,0x50,0x47,0x3a,0x3a,0x4d,0x6f,0x76,0x65,0x43,0x6f,0x6d,0x6d,0x61,0x6e,0x64,0x07,0x3a,0x0a,0x40,0x63,0x6f,0x64,0x65,0x69,0x15,0x3a,0x10,0x40,0x70,0x61,0x72,0x61,0x6d,0x65,0x74,0x65,0x72,0x73,0x5b,0x00,0x6f,0x3b,0x0a,0x07,0x3b,0x0b,0x69,0x00,0x3b,0x0c,0x5b,0x00))
  ShowMessageFace("myuska_fc1",5,0,2,99)
  ShowMessage("\\n<Myusca>Hora, you three Cursed Sword Sisters should go back, too♪")
  205(-1,bytes(0x04,0x08,0x6f,0x3a,0x13,0x52,0x50,0x47,0x3a,0x3a,0x4d,0x6f,0x76,0x65,0x52,0x6f,0x75,0x74,0x65,0x09,0x3a,0x0c,0x40,0x72,0x65,0x70,0x65,0x61,0x74,0x46,0x3a,0x0f,0x40,0x73,0x6b,0x69,0x70,0x70,0x61,0x62,0x6c,0x65,0x46,0x3a,0x0a,0x40,0x77,0x61,0x69,0x74,0x54,0x3a,0x0a,0x40,0x6c,0x69,0x73,0x74,0x5b,0x07,0x6f,0x3a,0x15,0x52,0x50,0x47,0x3a,0x3a,0x4d,0x6f,0x76,0x65,0x43,0x6f,0x6d,0x6d,0x61,0x6e,0x64,0x07,0x3a,0x0a,0x40,0x63,0x6f,0x64,0x65,0x69,0x15,0x3a,0x10,0x40,0x70,0x61,0x72,0x61,0x6d,0x65,0x74,0x65,0x72,0x73,0x5b,0x00,0x6f,0x3b,0x0a,0x07,0x3b,0x0b,0x69,0x00,0x3b,0x0c,0x5b,0x00))
  PictureDisplay(5,"80_executioner_st03",0,0,70,-50,70,70,0,0)
  PictureDisplay(6,"80_ogretooth_st03",0,0,-150,80,100,100,0,0)
  PictureDisplay(7,"80_mistilteinn_st01",0,0,280,130,80,80,0,0)
  PictureMove(5,null,0,0,70,-50,70,70,255,0,30,false)
  PictureMove(6,null,0,0,-150,80,100,100,255,0,30,false)
  PictureMove(7,null,0,0,280,130,80,80,255,0,30,true)
  ShowMessageFace("ogretooth_fc1",2,0,2,100)
  ShowMessage("\\n<Ogretooth>Huh?!\nWe have no obligation to follow tha-")
  ShowMessageFace("mistilteinn_fc1",0,0,2,101)
  ShowMessage("\\n<Mysteltainn>...No, we'll retreat.\nDo you want to fight all the heroes with just the three of us?")
  ShowMessageFace("executioner_fc1",2,0,2,102)
  ShowMessage("\\n<Executioner>That...could be a bit tough.")
  ShowMessageFace("ogretooth_fc1",5,0,2,103)
  ShowMessage("\\n<Ogretooth>Tch... Fine, I get it, Sis.")
  ShowMessageFace("ogretooth_fc1",2,0,2,104)
  ShowMessage("\\n<Ogretooth>All this plotting within the alliance makes me want to hurl. It looks like we could still get along with the hero side, though...")
  ShowMessageFace("mistilteinn_fc1",0,0,2,105)
  ShowMessage("\\n<Mysteltainn>Well then, heroes... If we have a chance, let us meet again. Next time I'm looking forward to a chance to duke it out with no one interfering.")
  PictureClear(5)
  PictureClear(6)
  PictureClear(7)
  Wait(30)
  205(18,bytes(0x04,0x08,0x6f,0x3a,0x13,0x52,0x50,0x47,0x3a,0x3a,0x4d,0x6f,0x76,0x65,0x52,0x6f,0x75,0x74,0x65,0x09,0x3a,0x0c,0x40,0x72,0x65,0x70,0x65,0x61,0x74,0x46,0x3a,0x0f,0x40,0x73,0x6b,0x69,0x70,0x70,0x61,0x62,0x6c,0x65,0x46,0x3a,0x0a,0x40,0x77,0x61,0x69,0x74,0x46,0x3a,0x0a,0x40,0x6c,0x69,0x73,0x74,0x5b,0x08,0x6f,0x3a,0x15,0x52,0x50,0x47,0x3a,0x3a,0x4d,0x6f,0x76,0x65,0x43,0x6f,0x6d,0x6d,0x61,0x6e,0x64,0x07,0x3a,0x0a,0x40,0x63,0x6f,0x64,0x65,0x69,0x28,0x3a,0x10,0x40,0x70,0x61,0x72,0x61,0x6d,0x65,0x74,0x65,0x72,0x73,0x5b,0x00,0x6f,0x3b,0x0a,0x07,0x3b,0x0b,0x69,0x13,0x3b,0x0c,0x5b,0x07,0x69,0x00,0x69,0x07,0x6f,0x3b,0x0a,0x07,0x3b,0x0b,0x69,0x00,0x3b,0x0c,0x5b,0x00))
  205(21,bytes(0x04,0x08,0x6f,0x3a,0x13,0x52,0x50,0x47,0x3a,0x3a,0x4d,0x6f,0x76,0x65,0x52,0x6f,0x75,0x74,0x65,0x09,0x3a,0x0c,0x40,0x72,0x65,0x70,0x65,0x61,0x74,0x46,0x3a,0x0f,0x40,0x73,0x6b,0x69,0x70,0x70,0x61,0x62,0x6c,0x65,0x46,0x3a,0x0a,0x40,0x77,0x61,0x69,0x74,0x54,0x3a,0x0a,0x40,0x6c,0x69,0x73,0x74,0x5b,0x08,0x6f,0x3a,0x15,0x52,0x50,0x47,0x3a,0x3a,0x4d,0x6f,0x76,0x65,0x43,0x6f,0x6d,0x6d,0x61,0x6e,0x64,0x07,0x3a,0x0a,0x40,0x63,0x6f,0x64,0x65,0x69,0x28,0x3a,0x10,0x40,0x70,0x61,0x72,0x61,0x6d,0x65,0x74,0x65,0x72,0x73,0x5b,0x00,0x6f,0x3b,0x0a,0x07,0x3b,0x0b,0x69,0x13,0x3b,0x0c,0x5b,0x07,0x69,0x00,0x69,0x08,0x6f,0x3b,0x0a,0x07,0x3b,0x0b,0x69,0x00,0x3b,0x0c,0x5b,0x00))
  Wait(30)
  212(20,542,false)
  Wait(60)
  ChangeSwitch(31,31,1)
  Wait(60)
  ShowMessageFace("",0,0,2,106)
  ShowMessage("And then, without so much as a glance at Vinum's group, the Cursed Sword Sisters left the area.")
  205(-1,bytes(0x04,0x08,0x6f,0x3a,0x13,0x52,0x50,0x47,0x3a,0x3a,0x4d,0x6f,0x76,0x65,0x52,0x6f,0x75,0x74,0x65,0x09,0x3a,0x0c,0x40,0x72,0x65,0x70,0x65,0x61,0x74,0x46,0x3a,0x0f,0x40,0x73,0x6b,0x69,0x70,0x70,0x61,0x62,0x6c,0x65,0x46,0x3a,0x0a,0x40,0x77,0x61,0x69,0x74,0x54,0x3a,0x0a,0x40,0x6c,0x69,0x73,0x74,0x5b,0x07,0x6f,0x3a,0x15,0x52,0x50,0x47,0x3a,0x3a,0x4d,0x6f,0x76,0x65,0x43,0x6f,0x6d,0x6d,0x61,0x6e,0x64,0x07,0x3a,0x0a,0x40,0x63,0x6f,0x64,0x65,0x69,0x18,0x3a,0x10,0x40,0x70,0x61,0x72,0x61,0x6d,0x65,0x74,0x65,0x72,0x73,0x5b,0x00,0x6f,0x3b,0x0a,0x07,0x3b,0x0b,0x69,0x00,0x3b,0x0c,0x5b,0x00))
  PictureDisplay(5,"80_myuska_st11",0,0,-200,0,100,100,0,0)
  PictureDisplay(6,"80_nemea_st01",0,0,15,0,100,100,0,0)
  PictureDisplay(7,"80_vinum_st03",0,0,250,0,100,100,0,0)
  PictureMove(5,null,0,0,-200,0,100,100,255,0,30,false)
  PictureMove(6,null,0,0,15,0,100,100,255,0,30,false)
  PictureMove(7,null,0,0,250,0,100,100,255,0,30,true)
  ShowMessageFace("vinum_fc1",2,0,2,107)
  ShowMessage("\\n<Vinum>Well then, we should leave too.\nYou've already seen through us, but we have problems in cooperation.")
  ShowMessageFace("vinum_fc1",2,0,2,108)
  ShowMessage("\\n<Vinum>Actually, it might be better put like this:\nFrom beginning to end, we're all looking for openings to stab each other in the back.")
  ShowMessageFace("magatu_fc1",2,0,2,109)
  ShowMessage("\\n<Magatsu>Hm...you villains aren't good at compromising with each other, huh?")
  PictureDisplay(7,"80_vinum_st03",0,0,250,0,100,100,255,0)
  ShowMessageFace("vinum_fc1",4,0,2,110)
  ShowMessage("\\n<Vinum>Fufu, at least it feels better than being an ally of justice... Well then, let's meet again...")
  ShowMessageFace("myuska_fc1",5,0,2,111)
  ShowMessage("\\n<Myusca>Next time, I'll definitely eat you all♪")
  PictureDisplay(6,"80_nemea_st06",0,0,15,0,100,100,255,0)
  ShowMessageFace("nemea_fc1",5,0,2,112)
  ShowMessage("\\n<Nemea>I'll pamper you next time, okay? Hakunen.")
  PictureClear(5)
  PictureClear(6)
  PictureClear(7)
  Wait(30)
  212(13,542,false)
  Wait(30)
  205(13,bytes(0x04,0x08,0x6f,0x3a,0x13,0x52,0x50,0x47,0x3a,0x3a,0x4d,0x6f,0x76,0x65,0x52,0x6f,0x75,0x74,0x65,0x09,0x3a,0x0c,0x40,0x72,0x65,0x70,0x65,0x61,0x74,0x46,0x3a,0x0f,0x40,0x73,0x6b,0x69,0x70,0x70,0x61,0x62,0x6c,0x65,0x46,0x3a,0x0a,0x40,0x77,0x61,0x69,0x74,0x54,0x3a,0x0a,0x40,0x6c,0x69,0x73,0x74,0x5b,0x07,0x6f,0x3a,0x15,0x52,0x50,0x47,0x3a,0x3a,0x4d,0x6f,0x76,0x65,0x43,0x6f,0x6d,0x6d,0x61,0x6e,0x64,0x07,0x3a,0x0a,0x40,0x63,0x6f,0x64,0x65,0x69,0x2c,0x3a,0x10,0x40,0x70,0x61,0x72,0x61,0x6d,0x65,0x74,0x65,0x72,0x73,0x5b,0x00,0x6f,0x3b,0x0a,0x07,0x3b,0x0b,0x69,0x00,0x3b,0x0c,0x5b,0x00))
  212(12,542,false)
  Wait(30)
  205(12,bytes(0x04,0x08,0x6f,0x3a,0x13,0x52,0x50,0x47,0x3a,0x3a,0x4d,0x6f,0x76,0x65,0x52,0x6f,0x75,0x74,0x65,0x09,0x3a,0x0c,0x40,0x72,0x65,0x70,0x65,0x61,0x74,0x46,0x3a,0x0f,0x40,0x73,0x6b,0x69,0x70,0x70,0x61,0x62,0x6c,0x65,0x46,0x3a,0x0a,0x40,0x77,0x61,0x69,0x74,0x54,0x3a,0x0a,0x40,0x6c,0x69,0x73,0x74,0x5b,0x07,0x6f,0x3a,0x15,0x52,0x50,0x47,0x3a,0x3a,0x4d,0x6f,0x76,0x65,0x43,0x6f,0x6d,0x6d,0x61,0x6e,0x64,0x07,0x3a,0x0a,0x40,0x63,0x6f,0x64,0x65,0x69,0x2c,0x3a,0x10,0x40,0x70,0x61,0x72,0x61,0x6d,0x65,0x74,0x65,0x72,0x73,0x5b,0x00,0x6f,0x3b,0x0a,0x07,0x3b,0x0b,0x69,0x00,0x3b,0x0c,0x5b,0x00))
  212(10,542,false)
  Wait(30)
  205(10,bytes(0x04,0x08,0x6f,0x3a,0x13,0x52,0x50,0x47,0x3a,0x3a,0x4d,0x6f,0x76,0x65,0x52,0x6f,0x75,0x74,0x65,0x09,0x3a,0x0c,0x40,0x72,0x65,0x70,0x65,0x61,0x74,0x46,0x3a,0x0f,0x40,0x73,0x6b,0x69,0x70,0x70,0x61,0x62,0x6c,0x65,0x46,0x3a,0x0a,0x40,0x77,0x61,0x69,0x74,0x54,0x3a,0x0a,0x40,0x6c,0x69,0x73,0x74,0x5b,0x07,0x6f,0x3a,0x15,0x52,0x50,0x47,0x3a,0x3a,0x4d,0x6f,0x76,0x65,0x43,0x6f,0x6d,0x6d,0x61,0x6e,0x64,0x07,0x3a,0x0a,0x40,0x63,0x6f,0x64,0x65,0x69,0x2c,0x3a,0x10,0x40,0x70,0x61,0x72,0x61,0x6d,0x65,0x74,0x65,0x72,0x73,0x5b,0x00,0x6f,0x3b,0x0a,0x07,0x3b,0x0b,0x69,0x00,0x3b,0x0c,0x5b,0x00))
  Wait(60)
  ShowMessageFace("",0,0,2,113)
  ShowMessage("Vinum's group promptly left.")
  246(1)
  Wait(60)
  241(bytes(0x04,0x08,0x6f,0x3a,0x0d,0x52,0x50,0x47,0x3a,0x3a,0x42,0x47,0x4d,0x08,0x3a,0x0a,0x40,0x6e,0x61,0x6d,0x65,0x49,0x22,0x14,0x73,0x63,0x65,0x6e,0x65,0x5f,0x65,0x70,0x69,0x6c,0x6f,0x67,0x75,0x65,0x32,0x06,0x3a,0x06,0x45,0x54,0x3a,0x0c,0x40,0x76,0x6f,0x6c,0x75,0x6d,0x65,0x69,0x69,0x3a,0x0b,0x40,0x70,0x69,0x74,0x63,0x68,0x69,0x69))
  PictureDisplay(5,"80_byakunen_st01",0,0,0,0,100,100,0,0)
  PictureMove(5,null,0,0,0,0,100,100,255,0,30,true)
  ShowMessageFace("byakunen_fc2",0,0,2,114)
  ShowMessage("\\n<Hakunen>Only naming me, huh... That's not comforting.")
  PictureDisplay(5,"80_byakunen_st01",0,0,-150,0,100,100,255,0)
  PictureDisplay(6,"80_daimeikai_st01",0,0,125,0,100,100,255,0)
  ShowMessageFace("daimeikai_fc1",0,0,2,115)
  ShowMessage("\\n<Daimyokai>Uhyahyahya!\nYou get all kinds of weird attention, don't you, boy!")
  PictureClear(6)
  PictureDisplay(5,"80_rovissa_st01",0,0,0,0,100,100,255,0)
  ShowMessageFace("rovissa_fc1",0,0,2,116)
  ShowMessage("\\n<Rovissa>Anyways, our ranks grew all at once...\nShouldn't we all do a simple introduction?")
  PictureDisplay(5,"80_kazuya_st01",0,0,0,0,100,100,255,0)
  ShowMessageFace("kazuya_fc1",0,0,2,117)
  ShowMessage("\\n<Kazuya>Yeah, that's true...\nIt's comforting to have new friends, but with all these new faces together it gets confusing.")
  If(0,4,0)
   ShowMessageFace("alice_fc5",0,0,2,118)
   ShowMessage("\\n<Alice>With the situation at hand, we can't take much time, but... Even if it's simple, we should know some information about each other.")
   0()
  EndIf()
  If(0,5,0)
   ShowMessageFace("iriasu_fc4",2,0,2,119)
   ShowMessage("\\n<Ilias>In this situation, we don't have much time, but... It's best that we know about each other, even on a simple level.")
   0()
  EndIf()
  PictureClear(5)
  ShowMessageFace("",0,0,2,120)
  ShowMessage("In this way, the heroes from each world exchange personal introductions. Everyone appears to be a powerful ally.")
  PictureDisplay(5,"80_rest_st01",0,0,0,0,100,100,255,0)
  ShowMessageFace("rest_fc1",0,0,2,121)
  ShowMessage("\\n<Lest>And now, at last...all seven heroes have been aligned.")
  PictureDisplay(5,"80_kazuya_st01",0,0,0,0,100,100,255,0)
  ShowMessageFace("kazuya_fc1",0,0,2,122)
  ShowMessage("\\n<Kazuya>Yes...heroes gathered from seven worlds.\nThis isn't any small matter anymore.")
  PictureDisplay(5,"80_byakunen_st01",0,0,0,0,100,100,255,0)
  ShowMessageFace("byakunen_fc1",1,0,2,123)
  ShowMessage("\\n<Hakunen>I'm not used to being called a hero, but...\n...I'm honored!")
  PictureClear(5)
  249(bytes(0x04,0x08,0x6f,0x3a,0x0c,0x52,0x50,0x47,0x3a,0x3a,0x4d,0x45,0x08,0x3a,0x0a,0x40,0x6e,0x61,0x6d,0x65,0x49,0x22,0x11,0x6d,0x6f,0x6e,0x5f,0x66,0x61,0x6e,0x66,0x61,0x6c,0x65,0x33,0x06,0x3a,0x06,0x45,0x54,0x3a,0x0b,0x40,0x70,0x69,0x74,0x63,0x68,0x69,0x69,0x3a,0x0c,0x40,0x76,0x6f,0x6c,0x75,0x6d,0x65,0x69,0x69))
  ShowMessageFace("",0,0,2,124)
  ShowMessage("The parties of the seven heroes joined together!")
  Wait(60)
  PictureDisplay(6,"80_lawrat_st01",0,0,-200,50,100,100,0,0)
  PictureDisplay(5,"80_lars_st11",0,0,0,30,95,95,0,0)
  PictureDisplay(7,"80_nobissa_st01",0,0,200,30,95,95,0,0)
  PictureMove(6,null,0,0,-200,50,100,100,255,0,30,false)
  PictureMove(5,null,0,0,0,30,95,95,255,0,30,false)
  PictureMove(7,null,0,0,200,30,95,95,255,0,30,true)
  ShowMessageFace("lawrat_fc1",0,0,2,125)
  ShowMessage("\\n<Lauratt>............")
  ShowMessageFace("lars_fc01",0,0,2,126)
  ShowMessage("\\n<Lars>............")
  ShowMessageFace("nobissa_fc1",0,0,2,127)
  ShowMessage("\\n<Novissa>............")
  If(0,4,0)
   ShowMessageFace("alice_fc5",0,0,2,128)
   ShowMessage("\\n<Alice>That being said, quite a lot of you are dead silent... Is that normal for you heroes?")
   0()
  EndIf()
  If(0,5,0)
   ShowMessageFace("iriasu_fc4",2,0,2,129)
   ShowMessage("\\n<Ilias>That being said, a lot of you are rather quiet...\nIs that expected for you heroes?")
   0()
  EndIf()
  ShowMessageFace("rejeo_fc1",0,0,2,130)
  ShowMessage("\\n<Rigeo>He doesn't talk much, but he's kind and has a strong sense of justice... That's the kind of person Lauratt is.")
  ShowMessageFace("rovissa_fc1",0,0,2,131)
  ShowMessage("\\n<Rovissa>Yeah yeah, you get it.\nIsn't talking with your eyes all hero-like?")
  ShowMessageFace("ruka_fc1",0,0,2,132)
  ShowMessage("\\n<Luka>Heroes don't talk with their mouth, but their eyes...")
  ShowMessageFace("ruka_fc1",0,0,2,133)
  ShowMessage("\\n<Luka>..............................")
  ShowMessageFace("",0,0,2,134)
  ShowMessage("Luka stands silently, trying to talk with his eyes.")
  If(0,4,0)
   ShowMessageFace("alice_fc5",6,0,2,135)
   ShowMessage("\\n<Alice>No, no, not you, too!")
   0()
  EndIf()
  If(0,5,0)
   ShowMessageFace("iriasu_fc4",5,0,2,136)
   ShowMessage("\\n<Ilias>What are you trying to do by imitating them?\nStop doing things that don't fit you!")
   0()
  EndIf()
  Wait(60)
  221()
  PictureClear(5)
  PictureClear(6)
  PictureClear(7)
  ShowMessageFace("",0,0,2,137)
  ShowMessage("And so, all seven heroes had finally joined together.")
  ShowMessageFace("",0,0,2,138)
  ShowMessage("Lauratt, Kazuya, Hakunen, Lest, Lars, Novissa--and finally, Luka.")
  ShowMessageFace("",0,0,2,139)
  ShowMessage("The heroes called from other worlds to oppose the Queen of Dreams. Their fight begins here.")
  Wait(60)
  242(2)
  221()
  ChangeVariable(1209,1209,0,0,8)
  ChangeSwitch(31,31,1)
  ChangeSwitch(32,32,1)
  ChangeSwitch(33,33,1)
  ChangeSwitch(34,34,1)
  ChangeSwitch(35,35,1)
  Wait(120)
  PictureDisplay(5,"iv_chapter10",0,0,0,0,100,100,255,0)
  222()
  Wait(180)
  221()
  PictureClear(5)
  Wait(120)
  TeleportPlayer(0,876,17,17,8,2)
  0()



EVENT   7
 PAGE   1
  0()



EVENT   9
 PAGE   1
  0()



EVENT   11
 PAGE   1
  0()



EVENT   14
 PAGE   1
  0()



EVENT   15
 PAGE   1
  0()



EVENT   17
 PAGE   1
  0()



EVENT   18
 PAGE   1
  // condition: switch 31 is ON
  0()



EVENT   20
 PAGE   1
  // condition: switch 31 is ON
  0()



EVENT   21
 PAGE   1
  // condition: switch 31 is ON
  0()



EVENT   8
 PAGE   1
  // condition: switch 32 is ON
  // condition: switch 4 is ON
  0()
 PAGE   2
  // condition: switch 32 is ON
  // condition: switch 5 is ON
  0()



EVENT   2
 PAGE   1
  // condition: switch 33 is ON
  // condition: switch 4 is ON
  0()
 PAGE   2
  // condition: switch 33 is ON
  // condition: switch 5 is ON
  0()



EVENT   3
 PAGE   1
  // condition: switch 34 is ON
  0()



EVENT   4
 PAGE   1
  // condition: switch 33 is ON
  // condition: switch 5 is ON
  0()



EVENT   5
 PAGE   1
  // condition: switch 35 is ON
  0()
