﻿


EVENT   1
 PAGE   1
  // condition: switch 4 is ON
  0()
 PAGE   2
  // condition: switch 5 is ON
  0()



EVENT   2
 PAGE   1
  0()



EVENT   3
 PAGE   1
  0()



EVENT   4
 PAGE   1
  0()



EVENT   5
 PAGE   1
  0()



EVENT   6
 PAGE   1
  0()



EVENT   7
 PAGE   1
  0()



EVENT   8
 PAGE   1
  0()



EVENT   9
 PAGE   1
  0()



EVENT   10
 PAGE   1
  0()



EVENT   11
 PAGE   1
  0()



EVENT   12
 PAGE   1
  0()



EVENT   13
 PAGE   1
  0()



EVENT   14
 PAGE   1
  0()
 PAGE   2
  // condition: switch 37 is ON
  0()
 PAGE   3
  // condition: switch 38 is ON
  0()



EVENT   15
 PAGE   1
  0()



EVENT   16
 PAGE   1
  If(0,4,0)
   ShowMessageFace("alice_fc5",2,0,2,1)
   ShowMessage("\\n<Alice>They're still coming, don't let up!\nGilgorn, keep it up!")
   0()
  EndIf()
  If(0,5,0)
   ShowMessageFace("iriasu_fc4",7,0,2,2)
   ShowMessage("\\n<Ilias>They're still coming, don't let up!\nGilgorn, keep it up!")
   0()
  EndIf()
  250(bytes(0x04,0x08,0x6f,0x3a,0x0c,0x52,0x50,0x47,0x3a,0x3a,0x53,0x45,0x08,0x3a,0x0a,0x40,0x6e,0x61,0x6d,0x65,0x49,0x22,0x0b,0x4d,0x61,0x67,0x69,0x63,0x32,0x06,0x3a,0x06,0x45,0x54,0x3a,0x0b,0x40,0x70,0x69,0x74,0x63,0x68,0x69,0x69,0x3a,0x0c,0x40,0x76,0x6f,0x6c,0x75,0x6d,0x65,0x69,0x55))
  205(14,bytes(0x04,0x08,0x6f,0x3a,0x13,0x52,0x50,0x47,0x3a,0x3a,0x4d,0x6f,0x76,0x65,0x52,0x6f,0x75,0x74,0x65,0x09,0x3a,0x0c,0x40,0x72,0x65,0x70,0x65,0x61,0x74,0x46,0x3a,0x0f,0x40,0x73,0x6b,0x69,0x70,0x70,0x61,0x62,0x6c,0x65,0x46,0x3a,0x0a,0x40,0x77,0x61,0x69,0x74,0x54,0x3a,0x0a,0x40,0x6c,0x69,0x73,0x74,0x5b,0x08,0x6f,0x3a,0x15,0x52,0x50,0x47,0x3a,0x3a,0x4d,0x6f,0x76,0x65,0x43,0x6f,0x6d,0x6d,0x61,0x6e,0x64,0x07,0x3a,0x0a,0x40,0x63,0x6f,0x64,0x65,0x69,0x16,0x3a,0x10,0x40,0x70,0x61,0x72,0x61,0x6d,0x65,0x74,0x65,0x72,0x73,0x5b,0x00,0x6f,0x3b,0x0a,0x07,0x3b,0x0b,0x69,0x2e,0x3b,0x0c,0x5b,0x07,0x49,0x22,0x18,0x43,0x6f,0x6c,0x6c,0x61,0x62,0x6f,0x72,0x61,0x74,0x69,0x6f,0x6e,0x30,0x33,0x5f,0x63,0x69,0x70,0x06,0x3a,0x06,0x45,0x54,0x69,0x0b,0x6f,0x3b,0x0a,0x07,0x3b,0x0b,0x69,0x00,0x3b,0x0c,0x5b,0x00))
  ShowMessageFace("gilgoon_fc1",0,0,2,3)
  ShowMessage("\\n<Gilgorn>Leave it to me... Meteor Eclipse!!")
  PictureDisplay(5,"iv_castle1",0,0,0,0,100,100,0,0)
  PictureMove(5,null,0,0,0,0,100,100,255,0,30,true)
  212(4,544,true)
  225(9,9,60,true)
  ShowMessageFace("",0,0,2,4)
  ShowMessage("Gilgorn drops another massive meteor!\nThe castle walls continue to crumble as the towers collapse.")
  ShowMessageFace("",0,0,2,5)
  ShowMessage("At the same time, even more enemies began to approach us.\nAll of us move to intercept them.")
  ChangeSwitch(31,31,0)
  205(14,bytes(0x04,0x08,0x6f,0x3a,0x13,0x52,0x50,0x47,0x3a,0x3a,0x4d,0x6f,0x76,0x65,0x52,0x6f,0x75,0x74,0x65,0x09,0x3a,0x0c,0x40,0x72,0x65,0x70,0x65,0x61,0x74,0x46,0x3a,0x0f,0x40,0x73,0x6b,0x69,0x70,0x70,0x61,0x62,0x6c,0x65,0x46,0x3a,0x0a,0x40,0x77,0x61,0x69,0x74,0x54,0x3a,0x0a,0x40,0x6c,0x69,0x73,0x74,0x5b,0x08,0x6f,0x3a,0x15,0x52,0x50,0x47,0x3a,0x3a,0x4d,0x6f,0x76,0x65,0x43,0x6f,0x6d,0x6d,0x61,0x6e,0x64,0x07,0x3a,0x0a,0x40,0x63,0x6f,0x64,0x65,0x69,0x18,0x3a,0x10,0x40,0x70,0x61,0x72,0x61,0x6d,0x65,0x74,0x65,0x72,0x73,0x5b,0x00,0x6f,0x3b,0x0a,0x07,0x3b,0x0b,0x69,0x2e,0x3b,0x0c,0x5b,0x07,0x49,0x22,0x18,0x43,0x6f,0x6c,0x6c,0x61,0x62,0x6f,0x72,0x61,0x74,0x69,0x6f,0x6e,0x30,0x33,0x5f,0x63,0x69,0x70,0x06,0x3a,0x06,0x45,0x54,0x69,0x08,0x6f,0x3b,0x0a,0x07,0x3b,0x0b,0x69,0x00,0x3b,0x0c,0x5b,0x00))
  PictureMove(5,null,0,0,0,0,100,100,0,0,30,true)
  PictureClear(5)
  PictureDisplay(5,"80_succubusq_st01",0,0,-150,0,100,100,0,0)
  PictureDisplay(6,"80_succubusq_st01",0,0,150,0,100,100,0,0)
  PictureMove(5,null,0,0,-150,0,100,100,255,0,30,false)
  PictureMove(6,null,0,0,150,0,100,100,255,0,30,true)
  ShowMessageFace("rest_fc1",0,0,2,6)
  ShowMessage("\\n<Lest>Ku... There sure are a lot of them!")
  ShowMessageFace("lawrat_fc1",0,0,2,7)
  ShowMessage("\\n<Lauratt>............!!")
  PictureClear(5)
  PictureClear(6)
  Battle(0,1400,false,false)
  ChangeSwitch(32,32,0)
  If(0,4,0)
   ShowMessageFace("alice_fc5",0,0,2,8)
   ShowMessage("\\n<Alice>Not giving us time to breathe, it seems.")
   0()
  EndIf()
  If(0,5,0)
   ShowMessageFace("iriasu_fc4",7,0,2,9)
   ShowMessage("\\n<Ilias>Not giving us time to breathe, hm?")
   0()
  EndIf()
  ShowMessageFace("gilgoon_fc1",1,0,2,10)
  ShowMessage("\\n<Gilgorn>Yo-you fiends! Get lost!")
  205(1,bytes(0x04,0x08,0x6f,0x3a,0x13,0x52,0x50,0x47,0x3a,0x3a,0x4d,0x6f,0x76,0x65,0x52,0x6f,0x75,0x74,0x65,0x09,0x3a,0x0c,0x40,0x72,0x65,0x70,0x65,0x61,0x74,0x46,0x3a,0x0f,0x40,0x73,0x6b,0x69,0x70,0x70,0x61,0x62,0x6c,0x65,0x46,0x3a,0x0a,0x40,0x77,0x61,0x69,0x74,0x46,0x3a,0x0a,0x40,0x6c,0x69,0x73,0x74,0x5b,0x07,0x6f,0x3a,0x15,0x52,0x50,0x47,0x3a,0x3a,0x4d,0x6f,0x76,0x65,0x43,0x6f,0x6d,0x6d,0x61,0x6e,0x64,0x07,0x3a,0x0a,0x40,0x63,0x6f,0x64,0x65,0x69,0x15,0x3a,0x10,0x40,0x70,0x61,0x72,0x61,0x6d,0x65,0x74,0x65,0x72,0x73,0x5b,0x00,0x6f,0x3b,0x0a,0x07,0x3b,0x0b,0x69,0x00,0x3b,0x0c,0x5b,0x00))
  205(4,bytes(0x04,0x08,0x6f,0x3a,0x13,0x52,0x50,0x47,0x3a,0x3a,0x4d,0x6f,0x76,0x65,0x52,0x6f,0x75,0x74,0x65,0x09,0x3a,0x0c,0x40,0x72,0x65,0x70,0x65,0x61,0x74,0x46,0x3a,0x0f,0x40,0x73,0x6b,0x69,0x70,0x70,0x61,0x62,0x6c,0x65,0x46,0x3a,0x0a,0x40,0x77,0x61,0x69,0x74,0x46,0x3a,0x0a,0x40,0x6c,0x69,0x73,0x74,0x5b,0x07,0x6f,0x3a,0x15,0x52,0x50,0x47,0x3a,0x3a,0x4d,0x6f,0x76,0x65,0x43,0x6f,0x6d,0x6d,0x61,0x6e,0x64,0x07,0x3a,0x0a,0x40,0x63,0x6f,0x64,0x65,0x69,0x15,0x3a,0x10,0x40,0x70,0x61,0x72,0x61,0x6d,0x65,0x74,0x65,0x72,0x73,0x5b,0x00,0x6f,0x3b,0x0a,0x07,0x3b,0x0b,0x69,0x00,0x3b,0x0c,0x5b,0x00))
  If(0,4,0)
   ShowMessageFace("alice_fc6",0,0,2,11)
   ShowMessage("\\n<Alice>Huh? What's happening?!")
   0()
  EndIf()
  If(0,5,0)
   ShowMessageFace("iriasu_fc4",5,0,2,12)
   ShowMessage("\\n<Ilias>What, what's happening?")
   0()
  EndIf()
  PictureDisplay(5,"80_inp_st01",0,0,-150,0,100,100,0,0)
  PictureDisplay(6,"80_inp_st01",0,0,150,0,100,100,0,0)
  PictureMove(5,null,0,0,-150,0,100,100,255,0,30,false)
  PictureMove(6,null,0,0,150,0,100,100,255,0,30,true)
  ShowMessageFace("inp_fc1",0,0,2,13)
  ShowMessage("\\n<Imp A>Aha, rub rub rub♪")
  ShowMessageFace("gilgoon_fc1",1,0,2,14)
  ShowMessage("\\n<Gilgorn>St-stop... Hau...")
  ShowMessageFace("inp_fc1",0,0,2,15)
  ShowMessage("\\n<Imp B>So weak to pleasure, ahaha♪")
  ShowMessageFace("gilgoon_fc1",1,0,2,16)
  ShowMessage("\\n<Gilgorn>Don't touch me, you little demons... Hya!")
  ShowMessageFace("",0,0,2,17)
  ShowMessage("Played with by the imps, Gilgorn was falling apart.\nThis isn't good...")
  If(0,4,0)
   ShowMessageFace("alice_fc5",6,0,2,18)
   ShowMessage("\\n<Alice>How could a Demon Lord be teased by the likes of imps?")
   0()
  EndIf()
  If(0,5,0)
   ShowMessageFace("iriasu_fc4",5,0,2,19)
   ShowMessage("\\n<Ilias>Why is a Demon Lord being teased by the likes of imps?")
   0()
  EndIf()
  ShowMessageFace("rejeo_fc1",1,0,2,20)
  ShowMessage("\\n<Rigeo>If we don't save her quickly...!")
  PictureClear(5)
  PictureClear(6)
  Battle(0,1399,false,false)
  ChangeSwitch(32,32,1)
  PictureDisplay(5,"80_gilgoon_st02",0,0,0,0,100,100,0,0)
  PictureMove(5,null,0,0,0,0,100,100,255,0,30,true)
  ShowMessageFace("gilgoon_fc1",1,0,2,21)
  ShowMessage("\\n<Gilgorn>Ha...ha... That was dangerous...")
  ShowMessageFace("",0,0,2,22)
  ShowMessage("With the imps defeated, despite her rough breath, Gilgorn manages to stand back up.")
  PictureClear(5)
  Wait(30)
  250(bytes(0x04,0x08,0x6f,0x3a,0x0c,0x52,0x50,0x47,0x3a,0x3a,0x53,0x45,0x08,0x3a,0x0a,0x40,0x6e,0x61,0x6d,0x65,0x49,0x22,0x0b,0x4d,0x61,0x67,0x69,0x63,0x32,0x06,0x3a,0x06,0x45,0x54,0x3a,0x0b,0x40,0x70,0x69,0x74,0x63,0x68,0x69,0x69,0x3a,0x0c,0x40,0x76,0x6f,0x6c,0x75,0x6d,0x65,0x69,0x55))
  205(14,bytes(0x04,0x08,0x6f,0x3a,0x13,0x52,0x50,0x47,0x3a,0x3a,0x4d,0x6f,0x76,0x65,0x52,0x6f,0x75,0x74,0x65,0x09,0x3a,0x0c,0x40,0x72,0x65,0x70,0x65,0x61,0x74,0x46,0x3a,0x0f,0x40,0x73,0x6b,0x69,0x70,0x70,0x61,0x62,0x6c,0x65,0x46,0x3a,0x0a,0x40,0x77,0x61,0x69,0x74,0x54,0x3a,0x0a,0x40,0x6c,0x69,0x73,0x74,0x5b,0x08,0x6f,0x3a,0x15,0x52,0x50,0x47,0x3a,0x3a,0x4d,0x6f,0x76,0x65,0x43,0x6f,0x6d,0x6d,0x61,0x6e,0x64,0x07,0x3a,0x0a,0x40,0x63,0x6f,0x64,0x65,0x69,0x16,0x3a,0x10,0x40,0x70,0x61,0x72,0x61,0x6d,0x65,0x74,0x65,0x72,0x73,0x5b,0x00,0x6f,0x3b,0x0a,0x07,0x3b,0x0b,0x69,0x2e,0x3b,0x0c,0x5b,0x07,0x49,0x22,0x18,0x43,0x6f,0x6c,0x6c,0x61,0x62,0x6f,0x72,0x61,0x74,0x69,0x6f,0x6e,0x30,0x33,0x5f,0x63,0x69,0x70,0x06,0x3a,0x06,0x45,0x54,0x69,0x0b,0x6f,0x3b,0x0a,0x07,0x3b,0x0b,0x69,0x00,0x3b,0x0c,0x5b,0x00))
  ShowMessageFace("gilgoon_fc1",0,0,2,23)
  ShowMessage("\\n<Gilgorn>I'll make you regret playing with me!\nThere's more to come, Meteor Eclipse!!")
  PictureDisplay(5,"iv_castle1",0,0,0,0,100,100,0,0)
  PictureMove(5,null,0,0,0,0,100,100,255,0,30,true)
  212(4,544,true)
  225(9,9,60,true)
  ShowMessageFace("",0,0,2,24)
  ShowMessage("Gilgorn fires another explosive shot at the castle, but the number of approaching enemies increases in turn.")
  ShowMessageFace("",0,0,2,25)
  ShowMessage("We're fighting them off as best we can, but we're close to our limit. If any more appear, we won't be able to protect Gilgorn.")
  ChangeSwitch(33,33,0)
  205(14,bytes(0x04,0x08,0x6f,0x3a,0x13,0x52,0x50,0x47,0x3a,0x3a,0x4d,0x6f,0x76,0x65,0x52,0x6f,0x75,0x74,0x65,0x09,0x3a,0x0c,0x40,0x72,0x65,0x70,0x65,0x61,0x74,0x46,0x3a,0x0f,0x40,0x73,0x6b,0x69,0x70,0x70,0x61,0x62,0x6c,0x65,0x46,0x3a,0x0a,0x40,0x77,0x61,0x69,0x74,0x54,0x3a,0x0a,0x40,0x6c,0x69,0x73,0x74,0x5b,0x08,0x6f,0x3a,0x15,0x52,0x50,0x47,0x3a,0x3a,0x4d,0x6f,0x76,0x65,0x43,0x6f,0x6d,0x6d,0x61,0x6e,0x64,0x07,0x3a,0x0a,0x40,0x63,0x6f,0x64,0x65,0x69,0x18,0x3a,0x10,0x40,0x70,0x61,0x72,0x61,0x6d,0x65,0x74,0x65,0x72,0x73,0x5b,0x00,0x6f,0x3b,0x0a,0x07,0x3b,0x0b,0x69,0x2e,0x3b,0x0c,0x5b,0x07,0x49,0x22,0x18,0x43,0x6f,0x6c,0x6c,0x61,0x62,0x6f,0x72,0x61,0x74,0x69,0x6f,0x6e,0x30,0x33,0x5f,0x63,0x69,0x70,0x06,0x3a,0x06,0x45,0x54,0x69,0x08,0x6f,0x3b,0x0a,0x07,0x3b,0x0b,0x69,0x00,0x3b,0x0c,0x5b,0x00))
  205(1,bytes(0x04,0x08,0x6f,0x3a,0x13,0x52,0x50,0x47,0x3a,0x3a,0x4d,0x6f,0x76,0x65,0x52,0x6f,0x75,0x74,0x65,0x09,0x3a,0x0c,0x40,0x72,0x65,0x70,0x65,0x61,0x74,0x46,0x3a,0x0f,0x40,0x73,0x6b,0x69,0x70,0x70,0x61,0x62,0x6c,0x65,0x46,0x3a,0x0a,0x40,0x77,0x61,0x69,0x74,0x54,0x3a,0x0a,0x40,0x6c,0x69,0x73,0x74,0x5b,0x07,0x6f,0x3a,0x15,0x52,0x50,0x47,0x3a,0x3a,0x4d,0x6f,0x76,0x65,0x43,0x6f,0x6d,0x6d,0x61,0x6e,0x64,0x07,0x3a,0x0a,0x40,0x63,0x6f,0x64,0x65,0x69,0x18,0x3a,0x10,0x40,0x70,0x61,0x72,0x61,0x6d,0x65,0x74,0x65,0x72,0x73,0x5b,0x00,0x6f,0x3b,0x0a,0x07,0x3b,0x0b,0x69,0x00,0x3b,0x0c,0x5b,0x00))
  205(4,bytes(0x04,0x08,0x6f,0x3a,0x13,0x52,0x50,0x47,0x3a,0x3a,0x4d,0x6f,0x76,0x65,0x52,0x6f,0x75,0x74,0x65,0x09,0x3a,0x0c,0x40,0x72,0x65,0x70,0x65,0x61,0x74,0x46,0x3a,0x0f,0x40,0x73,0x6b,0x69,0x70,0x70,0x61,0x62,0x6c,0x65,0x46,0x3a,0x0a,0x40,0x77,0x61,0x69,0x74,0x54,0x3a,0x0a,0x40,0x6c,0x69,0x73,0x74,0x5b,0x07,0x6f,0x3a,0x15,0x52,0x50,0x47,0x3a,0x3a,0x4d,0x6f,0x76,0x65,0x43,0x6f,0x6d,0x6d,0x61,0x6e,0x64,0x07,0x3a,0x0a,0x40,0x63,0x6f,0x64,0x65,0x69,0x18,0x3a,0x10,0x40,0x70,0x61,0x72,0x61,0x6d,0x65,0x74,0x65,0x72,0x73,0x5b,0x00,0x6f,0x3b,0x0a,0x07,0x3b,0x0b,0x69,0x00,0x3b,0x0c,0x5b,0x00))
  PictureMove(5,null,0,0,0,0,100,100,0,0,30,true)
  PictureClear(5)
  PictureDisplay(5,"80_succubusq_st01",0,0,-150,0,100,100,0,0)
  PictureDisplay(6,"80_succubusq_st01",0,0,150,0,100,100,0,0)
  PictureMove(5,null,0,0,-150,0,100,100,255,0,30,false)
  PictureMove(6,null,0,0,150,0,100,100,255,0,30,true)
  ShowMessageFace("magatu_fc1",2,0,2,26)
  ShowMessage("\\n<Magatsu>Enemies just keep coming out... At this rate, they'll break through our line!")
  ShowMessageFace("tarsa_fc2",2,0,2,27)
  ShowMessage("\\n<Tarsa>There are so many...\nI'm gonna break!")
  Battle(0,1400,false,false)
  ShowMessageFace("ruka_fc1",0,0,2,28)
  ShowMessage("\\n<Luka>This really won't be easy...")
  ShowMessageFace("",0,0,2,29)
  ShowMessage("We practically can't cut down this many foes.\nAny more than this and holding the line at all will be difficult.")
  ShowMessageFace("lanpass_fc2",6,0,2,30)
  ShowMessage("\\n<Lampas>Come on, this is crazy!")
  ShowMessageFace("youkosan_fc1",2,0,2,31)
  ShowMessage("\\n<Dream Fox>Wawawa... Can I just play dead already?")
  PictureClear(5)
  PictureClear(6)
  Wait(30)
  250(bytes(0x04,0x08,0x6f,0x3a,0x0c,0x52,0x50,0x47,0x3a,0x3a,0x53,0x45,0x08,0x3a,0x0a,0x40,0x6e,0x61,0x6d,0x65,0x49,0x22,0x0b,0x4d,0x61,0x67,0x69,0x63,0x32,0x06,0x3a,0x06,0x45,0x54,0x3a,0x0b,0x40,0x70,0x69,0x74,0x63,0x68,0x69,0x69,0x3a,0x0c,0x40,0x76,0x6f,0x6c,0x75,0x6d,0x65,0x69,0x55))
  205(14,bytes(0x04,0x08,0x6f,0x3a,0x13,0x52,0x50,0x47,0x3a,0x3a,0x4d,0x6f,0x76,0x65,0x52,0x6f,0x75,0x74,0x65,0x09,0x3a,0x0c,0x40,0x72,0x65,0x70,0x65,0x61,0x74,0x46,0x3a,0x0f,0x40,0x73,0x6b,0x69,0x70,0x70,0x61,0x62,0x6c,0x65,0x46,0x3a,0x0a,0x40,0x77,0x61,0x69,0x74,0x54,0x3a,0x0a,0x40,0x6c,0x69,0x73,0x74,0x5b,0x08,0x6f,0x3a,0x15,0x52,0x50,0x47,0x3a,0x3a,0x4d,0x6f,0x76,0x65,0x43,0x6f,0x6d,0x6d,0x61,0x6e,0x64,0x07,0x3a,0x0a,0x40,0x63,0x6f,0x64,0x65,0x69,0x16,0x3a,0x10,0x40,0x70,0x61,0x72,0x61,0x6d,0x65,0x74,0x65,0x72,0x73,0x5b,0x00,0x6f,0x3b,0x0a,0x07,0x3b,0x0b,0x69,0x2e,0x3b,0x0c,0x5b,0x07,0x49,0x22,0x18,0x43,0x6f,0x6c,0x6c,0x61,0x62,0x6f,0x72,0x61,0x74,0x69,0x6f,0x6e,0x30,0x33,0x5f,0x63,0x69,0x70,0x06,0x3a,0x06,0x45,0x54,0x69,0x0b,0x6f,0x3b,0x0a,0x07,0x3b,0x0b,0x69,0x00,0x3b,0x0c,0x5b,0x00))
  ShowMessageFace("gilgoon_fc1",0,0,2,32)
  ShowMessage("\\n<Gilgorn>Don't give up, give your all in this fight!\nI won't step back even a foot... Meteor Eclipse!!")
  PictureDisplay(5,"iv_castle1",0,0,0,0,100,100,0,0)
  PictureMove(5,null,0,0,0,0,100,100,255,0,30,true)
  212(4,544,true)
  225(9,9,60,true)
  ShowMessageFace("",0,0,2,33)
  ShowMessage("From repeated meteor impacts, the damage to the castle is immense. There's likely heavy damage inside, as well.")
  205(14,bytes(0x04,0x08,0x6f,0x3a,0x13,0x52,0x50,0x47,0x3a,0x3a,0x4d,0x6f,0x76,0x65,0x52,0x6f,0x75,0x74,0x65,0x09,0x3a,0x0c,0x40,0x72,0x65,0x70,0x65,0x61,0x74,0x46,0x3a,0x0f,0x40,0x73,0x6b,0x69,0x70,0x70,0x61,0x62,0x6c,0x65,0x46,0x3a,0x0a,0x40,0x77,0x61,0x69,0x74,0x54,0x3a,0x0a,0x40,0x6c,0x69,0x73,0x74,0x5b,0x08,0x6f,0x3a,0x15,0x52,0x50,0x47,0x3a,0x3a,0x4d,0x6f,0x76,0x65,0x43,0x6f,0x6d,0x6d,0x61,0x6e,0x64,0x07,0x3a,0x0a,0x40,0x63,0x6f,0x64,0x65,0x69,0x18,0x3a,0x10,0x40,0x70,0x61,0x72,0x61,0x6d,0x65,0x74,0x65,0x72,0x73,0x5b,0x00,0x6f,0x3b,0x0a,0x07,0x3b,0x0b,0x69,0x2e,0x3b,0x0c,0x5b,0x07,0x49,0x22,0x18,0x43,0x6f,0x6c,0x6c,0x61,0x62,0x6f,0x72,0x61,0x74,0x69,0x6f,0x6e,0x30,0x33,0x5f,0x63,0x69,0x70,0x06,0x3a,0x06,0x45,0x54,0x69,0x08,0x6f,0x3b,0x0a,0x07,0x3b,0x0b,0x69,0x00,0x3b,0x0c,0x5b,0x00))
  ChangeSwitch(39,39,0)
  PictureMove(5,null,0,0,0,0,100,100,0,0,30,true)
  PictureClear(5)
  ShowMessageFace("",0,0,2,34)
  ShowMessage("In the same way, some number of enemies break through our line!")
  205(1,bytes(0x04,0x08,0x6f,0x3a,0x13,0x52,0x50,0x47,0x3a,0x3a,0x4d,0x6f,0x76,0x65,0x52,0x6f,0x75,0x74,0x65,0x09,0x3a,0x0c,0x40,0x72,0x65,0x70,0x65,0x61,0x74,0x46,0x3a,0x0f,0x40,0x73,0x6b,0x69,0x70,0x70,0x61,0x62,0x6c,0x65,0x46,0x3a,0x0a,0x40,0x77,0x61,0x69,0x74,0x54,0x3a,0x0a,0x40,0x6c,0x69,0x73,0x74,0x5b,0x07,0x6f,0x3a,0x15,0x52,0x50,0x47,0x3a,0x3a,0x4d,0x6f,0x76,0x65,0x43,0x6f,0x6d,0x6d,0x61,0x6e,0x64,0x07,0x3a,0x0a,0x40,0x63,0x6f,0x64,0x65,0x69,0x15,0x3a,0x10,0x40,0x70,0x61,0x72,0x61,0x6d,0x65,0x74,0x65,0x72,0x73,0x5b,0x00,0x6f,0x3b,0x0a,0x07,0x3b,0x0b,0x69,0x00,0x3b,0x0c,0x5b,0x00))
  205(4,bytes(0x04,0x08,0x6f,0x3a,0x13,0x52,0x50,0x47,0x3a,0x3a,0x4d,0x6f,0x76,0x65,0x52,0x6f,0x75,0x74,0x65,0x09,0x3a,0x0c,0x40,0x72,0x65,0x70,0x65,0x61,0x74,0x46,0x3a,0x0f,0x40,0x73,0x6b,0x69,0x70,0x70,0x61,0x62,0x6c,0x65,0x46,0x3a,0x0a,0x40,0x77,0x61,0x69,0x74,0x54,0x3a,0x0a,0x40,0x6c,0x69,0x73,0x74,0x5b,0x07,0x6f,0x3a,0x15,0x52,0x50,0x47,0x3a,0x3a,0x4d,0x6f,0x76,0x65,0x43,0x6f,0x6d,0x6d,0x61,0x6e,0x64,0x07,0x3a,0x0a,0x40,0x63,0x6f,0x64,0x65,0x69,0x15,0x3a,0x10,0x40,0x70,0x61,0x72,0x61,0x6d,0x65,0x74,0x65,0x72,0x73,0x5b,0x00,0x6f,0x3b,0x0a,0x07,0x3b,0x0b,0x69,0x00,0x3b,0x0c,0x5b,0x00))
  PictureDisplay(5,"80_succubusq_st01",0,0,-150,0,100,100,0,0)
  PictureDisplay(6,"80_succubusq_st01",0,0,150,0,100,100,0,0)
  PictureMove(5,null,0,0,-150,0,100,100,255,0,30,false)
  PictureMove(6,null,0,0,150,0,100,100,255,0,30,true)
  If(0,4,0)
   ShowMessageFace("alice_fc5",2,0,2,35)
   ShowMessage("\\n<Alice>This is bad... Hey, some of them made it through!")
   0()
  EndIf()
  If(0,5,0)
   ShowMessageFace("iriasu_fc4",5,0,2,36)
   ShowMessage("\\n<Ilias>This is bad... Some of them passed our line of defense!")
   0()
  EndIf()
  ShowMessageFace("rovissa_fc1",0,0,2,37)
  ShowMessage("\\n<Rovissa>I know that, but...!\nI can't let up here, either.")
  ShowMessageFace("",0,0,2,38)
  ShowMessage("Some of the Nightmares slip through our attacks and approach Gilgorn. This isn't good, at this rate we won't make it!")
  ShowMessageFace("gilgoon_fc1",1,0,2,39)
  ShowMessage("\\n<Gilgorn>St-stay back!")
  ShowMessageFace("",0,0,2,40)
  ShowMessage("At that moment, the Nightmares spring at Gilgorn, when...")
  PictureClear(5)
  PictureClear(6)
  ScrollMap(2,4,5)
  Wait(90)
  250(bytes(0x04,0x08,0x6f,0x3a,0x0c,0x52,0x50,0x47,0x3a,0x3a,0x53,0x45,0x08,0x3a,0x0a,0x40,0x6e,0x61,0x6d,0x65,0x49,0x22,0x0b,0x4d,0x61,0x67,0x69,0x63,0x33,0x06,0x3a,0x06,0x45,0x54,0x3a,0x0b,0x40,0x70,0x69,0x74,0x63,0x68,0x69,0x69,0x3a,0x0c,0x40,0x76,0x6f,0x6c,0x75,0x6d,0x65,0x69,0x55))
  ChangeSwitch(34,34,0)
  ShowMessageFace("succubusq_fc1",2,0,2,41)
  ShowMessage("\\n<Nightmare>Kya?!")
  If(0,4,0)
   ShowMessageFace("alice_fc6",0,0,2,42)
   ShowMessage("\\n<Alice>A barrier? Just who--")
   0()
  EndIf()
  If(0,5,0)
   ShowMessageFace("iriasu_fc4",5,0,2,43)
   ShowMessage("\\n<Ilias>A barrier? Just who--")
   0()
  EndIf()
  PictureDisplay(5,"80_daimeikai_st01",0,0,0,0,100,100,0,0)
  PictureMove(5,null,0,0,0,0,100,100,255,0,60,true)
  ShowMessageFace("daimeikai_fc1",2,0,2,44)
  ShowMessage("\\n<Daimyokai>Uhyohyohyo! Did you think I wouldn't see this coming?")
  ShowMessageFace("byakunen_fc2",2,0,2,45)
  ShowMessage("\\n<Hakunen>Da-Daimyokai?\nTo think you were setting a barrier before the fight!")
  ShowMessageFace("tarsa_fc2",1,0,2,46)
  ShowMessage("\\n<Tarsa>Amazing! You did great!")
  ShowMessageFace("daimeikai_fc1",2,0,2,47)
  ShowMessage("\\n<Daimyokai>Uhyahyahya... Compliment me, praise me!\nCelebrate the great me who did this!")
  PictureClear(5)
  ShowMessageFace("",0,0,2,48)
  ShowMessage("The barrier spreads before Gilgorn's eyes, forming a defensive barrier. To think she had such a thing in place...")
  ShowMessageFace("daimeikai_fc1",1,0,2,49)
  ShowMessage("\\n<Daimyokai>Still, I couldn't predict there'd be this many enemies... Even made by me, this barrier can only buy us time!")
  250(bytes(0x04,0x08,0x6f,0x3a,0x0c,0x52,0x50,0x47,0x3a,0x3a,0x53,0x45,0x08,0x3a,0x0a,0x40,0x6e,0x61,0x6d,0x65,0x49,0x22,0x0b,0x4d,0x61,0x67,0x69,0x63,0x32,0x06,0x3a,0x06,0x45,0x54,0x3a,0x0b,0x40,0x70,0x69,0x74,0x63,0x68,0x69,0x69,0x3a,0x0c,0x40,0x76,0x6f,0x6c,0x75,0x6d,0x65,0x69,0x55))
  205(14,bytes(0x04,0x08,0x6f,0x3a,0x13,0x52,0x50,0x47,0x3a,0x3a,0x4d,0x6f,0x76,0x65,0x52,0x6f,0x75,0x74,0x65,0x09,0x3a,0x0c,0x40,0x72,0x65,0x70,0x65,0x61,0x74,0x46,0x3a,0x0f,0x40,0x73,0x6b,0x69,0x70,0x70,0x61,0x62,0x6c,0x65,0x46,0x3a,0x0a,0x40,0x77,0x61,0x69,0x74,0x54,0x3a,0x0a,0x40,0x6c,0x69,0x73,0x74,0x5b,0x08,0x6f,0x3a,0x15,0x52,0x50,0x47,0x3a,0x3a,0x4d,0x6f,0x76,0x65,0x43,0x6f,0x6d,0x6d,0x61,0x6e,0x64,0x07,0x3a,0x0a,0x40,0x63,0x6f,0x64,0x65,0x69,0x16,0x3a,0x10,0x40,0x70,0x61,0x72,0x61,0x6d,0x65,0x74,0x65,0x72,0x73,0x5b,0x00,0x6f,0x3b,0x0a,0x07,0x3b,0x0b,0x69,0x2e,0x3b,0x0c,0x5b,0x07,0x49,0x22,0x18,0x43,0x6f,0x6c,0x6c,0x61,0x62,0x6f,0x72,0x61,0x74,0x69,0x6f,0x6e,0x30,0x33,0x5f,0x63,0x69,0x70,0x06,0x3a,0x06,0x45,0x54,0x69,0x0b,0x6f,0x3b,0x0a,0x07,0x3b,0x0b,0x69,0x00,0x3b,0x0c,0x5b,0x00))
  ShowMessageFace("gilgoon_fc1",0,0,2,50)
  ShowMessage("\\n<Gilgorn>Understood... Take this!")
  PictureDisplay(5,"iv_castle1",0,0,0,0,100,100,0,0)
  PictureMove(5,null,0,0,0,0,100,100,255,0,30,true)
  212(4,544,true)
  225(9,9,60,true)
  205(14,bytes(0x04,0x08,0x6f,0x3a,0x13,0x52,0x50,0x47,0x3a,0x3a,0x4d,0x6f,0x76,0x65,0x52,0x6f,0x75,0x74,0x65,0x09,0x3a,0x0c,0x40,0x72,0x65,0x70,0x65,0x61,0x74,0x46,0x3a,0x0f,0x40,0x73,0x6b,0x69,0x70,0x70,0x61,0x62,0x6c,0x65,0x46,0x3a,0x0a,0x40,0x77,0x61,0x69,0x74,0x54,0x3a,0x0a,0x40,0x6c,0x69,0x73,0x74,0x5b,0x08,0x6f,0x3a,0x15,0x52,0x50,0x47,0x3a,0x3a,0x4d,0x6f,0x76,0x65,0x43,0x6f,0x6d,0x6d,0x61,0x6e,0x64,0x07,0x3a,0x0a,0x40,0x63,0x6f,0x64,0x65,0x69,0x18,0x3a,0x10,0x40,0x70,0x61,0x72,0x61,0x6d,0x65,0x74,0x65,0x72,0x73,0x5b,0x00,0x6f,0x3b,0x0a,0x07,0x3b,0x0b,0x69,0x2e,0x3b,0x0c,0x5b,0x07,0x49,0x22,0x18,0x43,0x6f,0x6c,0x6c,0x61,0x62,0x6f,0x72,0x61,0x74,0x69,0x6f,0x6e,0x30,0x33,0x5f,0x63,0x69,0x70,0x06,0x3a,0x06,0x45,0x54,0x69,0x08,0x6f,0x3b,0x0a,0x07,0x3b,0x0b,0x69,0x00,0x3b,0x0c,0x5b,0x00))
  PictureMove(5,null,0,0,0,0,100,100,0,0,30,true)
  PictureClear(5)
  PictureDisplay(5,"80_succubusq_st01",0,0,-150,0,100,100,0,0)
  PictureDisplay(6,"80_succubusq_st01",0,0,150,0,100,100,0,0)
  PictureMove(5,null,0,0,-150,0,100,100,255,0,30,false)
  PictureMove(6,null,0,0,150,0,100,100,255,0,30,true)
  If(0,4,0)
   ShowMessageFace("alice_fc5",2,0,2,51)
   ShowMessage("\\n<Alice>All right, it's do-or-die for us too!\nDon't give them a single inch!")
   0()
  EndIf()
  If(0,5,0)
   ShowMessageFace("iriasu_fc4",7,0,2,52)
   ShowMessage("\\n<Ilias>All right, it's do-or-die for us too!\nDon't give them a single inch!")
   0()
  EndIf()
  ShowMessageFace("ruka_fc1",0,0,2,53)
  ShowMessage("\\n<Luka>Yeah... We won't let you pass here!")
  Battle(0,1400,false,false)
  ChangeSwitch(35,35,0)
  ShowMessageFace("ruka_fc1",0,0,2,54)
  ShowMessage("\\n<Luka>Haa, haa... They're still coming...")
  ShowMessageFace("daimeikai_fc1",1,0,2,55)
  ShowMessage("\\n<Daimyokai>This is bad, my barrier will--")
  PictureClear(5)
  PictureClear(6)
  Wait(30)
  250(bytes(0x04,0x08,0x6f,0x3a,0x0c,0x52,0x50,0x47,0x3a,0x3a,0x53,0x45,0x08,0x3a,0x0a,0x40,0x6e,0x61,0x6d,0x65,0x49,0x22,0x0e,0x6d,0x6f,0x6e,0x5f,0x62,0x72,0x65,0x61,0x6b,0x06,0x3a,0x06,0x45,0x54,0x3a,0x0b,0x40,0x70,0x69,0x74,0x63,0x68,0x69,0x69,0x3a,0x0c,0x40,0x76,0x6f,0x6c,0x75,0x6d,0x65,0x69,0x69))
  ChangeSwitch(34,34,1)
  PictureDisplay(5,"80_succubusq_st01",0,0,-150,0,100,100,0,0)
  PictureDisplay(6,"80_succubusq_st01",0,0,150,0,100,100,0,0)
  PictureMove(5,null,0,0,-150,0,100,100,255,0,30,false)
  PictureMove(6,null,0,0,150,0,100,100,255,0,30,true)
  ShowMessageFace("",0,0,2,56)
  ShowMessage("With the barrier broken, the Nightmares approach Gilgorn--")
  PictureClear(5)
  PictureClear(6)
  Wait(30)
  250(bytes(0x04,0x08,0x6f,0x3a,0x0c,0x52,0x50,0x47,0x3a,0x3a,0x53,0x45,0x08,0x3a,0x0a,0x40,0x6e,0x61,0x6d,0x65,0x49,0x22,0x0b,0x4d,0x61,0x67,0x69,0x63,0x32,0x06,0x3a,0x06,0x45,0x54,0x3a,0x0b,0x40,0x70,0x69,0x74,0x63,0x68,0x69,0x69,0x3a,0x0c,0x40,0x76,0x6f,0x6c,0x75,0x6d,0x65,0x69,0x55))
  205(14,bytes(0x04,0x08,0x6f,0x3a,0x13,0x52,0x50,0x47,0x3a,0x3a,0x4d,0x6f,0x76,0x65,0x52,0x6f,0x75,0x74,0x65,0x09,0x3a,0x0c,0x40,0x72,0x65,0x70,0x65,0x61,0x74,0x46,0x3a,0x0f,0x40,0x73,0x6b,0x69,0x70,0x70,0x61,0x62,0x6c,0x65,0x46,0x3a,0x0a,0x40,0x77,0x61,0x69,0x74,0x54,0x3a,0x0a,0x40,0x6c,0x69,0x73,0x74,0x5b,0x08,0x6f,0x3a,0x15,0x52,0x50,0x47,0x3a,0x3a,0x4d,0x6f,0x76,0x65,0x43,0x6f,0x6d,0x6d,0x61,0x6e,0x64,0x07,0x3a,0x0a,0x40,0x63,0x6f,0x64,0x65,0x69,0x16,0x3a,0x10,0x40,0x70,0x61,0x72,0x61,0x6d,0x65,0x74,0x65,0x72,0x73,0x5b,0x00,0x6f,0x3b,0x0a,0x07,0x3b,0x0b,0x69,0x2e,0x3b,0x0c,0x5b,0x07,0x49,0x22,0x18,0x43,0x6f,0x6c,0x6c,0x61,0x62,0x6f,0x72,0x61,0x74,0x69,0x6f,0x6e,0x30,0x33,0x5f,0x63,0x69,0x70,0x06,0x3a,0x06,0x45,0x54,0x69,0x0b,0x6f,0x3b,0x0a,0x07,0x3b,0x0b,0x69,0x00,0x3b,0x0c,0x5b,0x00))
  ShowMessageFace("gilgoon_fc1",0,0,2,57)
  ShowMessage("\\n<Gilgorn>No, this isn't the end... Meteor Eclipse!!")
  PictureDisplay(5,"iv_castle2",0,0,0,0,100,100,0,0)
  PictureMove(5,null,0,0,0,0,100,100,255,0,30,true)
  212(4,544,true)
  225(9,9,60,true)
  ShowMessageFace("",0,0,2,58)
  ShowMessage("The castle is already nearly collapsed. Smoke rises and dances from the whole building, and not a trace remains of its former splendor.")
  ChangeSwitch(36,36,0)
  205(14,bytes(0x04,0x08,0x6f,0x3a,0x13,0x52,0x50,0x47,0x3a,0x3a,0x4d,0x6f,0x76,0x65,0x52,0x6f,0x75,0x74,0x65,0x09,0x3a,0x0c,0x40,0x72,0x65,0x70,0x65,0x61,0x74,0x46,0x3a,0x0f,0x40,0x73,0x6b,0x69,0x70,0x70,0x61,0x62,0x6c,0x65,0x46,0x3a,0x0a,0x40,0x77,0x61,0x69,0x74,0x54,0x3a,0x0a,0x40,0x6c,0x69,0x73,0x74,0x5b,0x08,0x6f,0x3a,0x15,0x52,0x50,0x47,0x3a,0x3a,0x4d,0x6f,0x76,0x65,0x43,0x6f,0x6d,0x6d,0x61,0x6e,0x64,0x07,0x3a,0x0a,0x40,0x63,0x6f,0x64,0x65,0x69,0x18,0x3a,0x10,0x40,0x70,0x61,0x72,0x61,0x6d,0x65,0x74,0x65,0x72,0x73,0x5b,0x00,0x6f,0x3b,0x0a,0x07,0x3b,0x0b,0x69,0x2e,0x3b,0x0c,0x5b,0x07,0x49,0x22,0x18,0x43,0x6f,0x6c,0x6c,0x61,0x62,0x6f,0x72,0x61,0x74,0x69,0x6f,0x6e,0x30,0x33,0x5f,0x63,0x69,0x70,0x06,0x3a,0x06,0x45,0x54,0x69,0x08,0x6f,0x3b,0x0a,0x07,0x3b,0x0b,0x69,0x00,0x3b,0x0c,0x5b,0x00))
  PictureMove(5,null,0,0,0,0,100,100,0,0,30,true)
  PictureClear(5)
  ShowMessageFace("",0,0,2,59)
  ShowMessage("But Gilgorn's been completely surrounded by Nightmares. She won't hold out at this rate.")
  250(bytes(0x04,0x08,0x6f,0x3a,0x0c,0x52,0x50,0x47,0x3a,0x3a,0x53,0x45,0x08,0x3a,0x0a,0x40,0x6e,0x61,0x6d,0x65,0x49,0x22,0x0b,0x4d,0x61,0x67,0x69,0x63,0x32,0x06,0x3a,0x06,0x45,0x54,0x3a,0x0b,0x40,0x70,0x69,0x74,0x63,0x68,0x69,0x69,0x3a,0x0c,0x40,0x76,0x6f,0x6c,0x75,0x6d,0x65,0x69,0x55))
  205(14,bytes(0x04,0x08,0x6f,0x3a,0x13,0x52,0x50,0x47,0x3a,0x3a,0x4d,0x6f,0x76,0x65,0x52,0x6f,0x75,0x74,0x65,0x09,0x3a,0x0c,0x40,0x72,0x65,0x70,0x65,0x61,0x74,0x46,0x3a,0x0f,0x40,0x73,0x6b,0x69,0x70,0x70,0x61,0x62,0x6c,0x65,0x46,0x3a,0x0a,0x40,0x77,0x61,0x69,0x74,0x54,0x3a,0x0a,0x40,0x6c,0x69,0x73,0x74,0x5b,0x08,0x6f,0x3a,0x15,0x52,0x50,0x47,0x3a,0x3a,0x4d,0x6f,0x76,0x65,0x43,0x6f,0x6d,0x6d,0x61,0x6e,0x64,0x07,0x3a,0x0a,0x40,0x63,0x6f,0x64,0x65,0x69,0x16,0x3a,0x10,0x40,0x70,0x61,0x72,0x61,0x6d,0x65,0x74,0x65,0x72,0x73,0x5b,0x00,0x6f,0x3b,0x0a,0x07,0x3b,0x0b,0x69,0x2e,0x3b,0x0c,0x5b,0x07,0x49,0x22,0x18,0x43,0x6f,0x6c,0x6c,0x61,0x62,0x6f,0x72,0x61,0x74,0x69,0x6f,0x6e,0x30,0x33,0x5f,0x63,0x69,0x70,0x06,0x3a,0x06,0x45,0x54,0x69,0x0b,0x6f,0x3b,0x0a,0x07,0x3b,0x0b,0x69,0x00,0x3b,0x0c,0x5b,0x00))
  ShowMessageFace("gilgoon_fc1",0,0,2,60)
  ShowMessage("\\n<Gilgorn>I still won't yield, not now... Meteor Eclipse!!")
  PictureDisplay(5,"iv_castle2",0,0,0,0,100,100,0,0)
  PictureMove(5,null,0,0,0,0,100,100,255,0,30,true)
  212(4,544,true)
  225(9,9,60,true)
  ShowMessageFace("",0,0,2,61)
  ShowMessage("The succubi approach in a veritable throng.\nBut by now, Gilgorn is...")
  ShowMessageFace("gilgoon_fc1",0,0,2,62)
  ShowMessage("\\n<Gilgorn>You fools! If you don't want to die, get lost!\nI'll annihilate you with this! Haaaaaa!")
  250(bytes(0x04,0x08,0x6f,0x3a,0x0c,0x52,0x50,0x47,0x3a,0x3a,0x53,0x45,0x08,0x3a,0x0a,0x40,0x6e,0x61,0x6d,0x65,0x49,0x22,0x0e,0x6d,0x6f,0x6e,0x5f,0x70,0x6f,0x77,0x65,0x72,0x06,0x3a,0x06,0x45,0x54,0x3a,0x0b,0x40,0x70,0x69,0x74,0x63,0x68,0x69,0x69,0x3a,0x0c,0x40,0x76,0x6f,0x6c,0x75,0x6d,0x65,0x69,0x69))
  ShowMessageFace("",0,0,2,63)
  ShowMessage("Gilgorn gathers enormous magical power between her hands!")
  ShowMessageFace("gilgoon_fc1",0,0,2,64)
  ShowMessage("\\n<Gilgorn>Send them scattering, Worldbreaker!!")
  212(4,532,true)
  Wait(60)
  ShowMessageFace("",0,0,2,65)
  ShowMessage("Gilgorn had put all of her power into that attack.\nThe sound of the impact alone shook the earth itself.")
  ShowMessageFace("",0,0,2,66)
  ShowMessage("With this, half of the castle is gone.\nAny defensive power the castle had is doubtlessly gone.")
  ShowMessageFace("",0,0,2,67)
  ShowMessage("As for Gilgorn, who had pulled this off...")
  ChangeSwitch(39,39,1)
  ChangeSwitch(36,36,1)
  ChangeSwitch(37,37,0)
  PictureMove(5,null,0,0,0,0,100,100,0,0,30,true)
  PictureClear(5)
  ShowMessageFace("succubusq_fc1",1,0,2,68)
  ShowMessage("\\n<Nightmare>Ufufufu...♡")
  ShowMessageFace("gilgoon_fc1",1,0,2,69)
  ShowMessage("\\n<Gilgorn>No, stop, you... fiends...!\nGa, aaaahh!")
  PictureDisplay(5,"80_succubusq_st01",0,0,-150,0,100,100,0,0)
  PictureDisplay(6,"80_succubusq_st01",0,0,150,0,100,100,0,0)
  PictureMove(5,null,0,0,-150,0,100,100,255,0,30,false)
  PictureMove(6,null,0,0,150,0,100,100,255,0,30,true)
  ShowMessageFace("",0,0,2,70)
  ShowMessage("Her small body was swarmed and crushed, and finally buried under the warm bodies of the throng.")
  If(0,4,0)
   ShowMessageFace("alice_fc6",0,0,2,71)
   ShowMessage("\\n<Alice>Gi-Gilgorn?")
   0()
  EndIf()
  If(0,5,0)
   ShowMessageFace("iriasu_fc4",5,0,2,72)
   ShowMessage("\\n<Ilias>Gi-Gilgorn?")
   0()
  EndIf()
  ShowMessageFace("rejeo_fc1",1,0,2,73)
  ShowMessage("\\n<Rigeo>We have to save her!")
  PictureClear(5)
  PictureClear(6)
  Battle(0,1400,false,false)
  ChangeSwitch(38,38,0)
  ShowMessageFace("",0,0,2,74)
  ShowMessage("When we clear out the Nightmares surrounding Gilgorn...")
  ShowMessageFace("gilgoon_fc1",1,0,2,75)
  ShowMessage("\\n<Gilgorn>Hau...u, u...")
  ShowMessageFace("",0,0,2,76)
  ShowMessage("Made to come countless times, she can barely breathe.\nLike this, it'll be a while before she can even stand.")
  If(0,4,0)
   ShowMessageFace("alice_fc5",3,0,2,77)
   ShowMessage("\\n<Alice>Gilgorn...\nWe won't forget your sacrifice.")
   0()
  EndIf()
  If(0,5,0)
   ShowMessageFace("iriasu_fc4",2,0,2,78)
   ShowMessage("\\n<Ilias>Gilgorn...\nWe won't forget your sacrifice.")
   0()
  EndIf()
  PictureDisplay(5,"iv_castle2",0,0,0,0,100,100,0,0)
  PictureMove(5,null,0,0,0,0,100,100,255,0,30,true)
  ShowMessageFace("",0,0,2,79)
  ShowMessage("With the castle collapsed, it's unlikely those still inside could put up much resistance. Thanks to Gilgorn's work, the enemy took massive damage.")
  Wait(30)
  TeleportPlayer(0,945,0,0,0,2)
  PictureClear(5)
  241(bytes(0x04,0x08,0x6f,0x3a,0x0d,0x52,0x50,0x47,0x3a,0x3a,0x42,0x47,0x4d,0x08,0x3a,0x0a,0x40,0x6e,0x61,0x6d,0x65,0x49,0x22,0x0a,0x6b,0x69,0x6b,0x69,0x34,0x06,0x3a,0x06,0x45,0x54,0x3a,0x0c,0x40,0x76,0x6f,0x6c,0x75,0x6d,0x65,0x69,0x69,0x3a,0x0b,0x40,0x70,0x69,0x74,0x63,0x68,0x69,0x69))
  Wait(30)
  If(0,4,0)
   PictureDisplay(5,"80_alice_st73",0,0,0,0,100,100,0,0)
   PictureMove(5,null,0,0,0,0,100,100,255,0,30,true)
   ShowMessageFace("alice_fc5",2,0,2,80)
   ShowMessage("\\n<Alice>All right, let's break into the castle!\nEveryone's ready, right?")
   0()
  EndIf()
  If(0,5,0)
   PictureDisplay(5,"80_iriasu_st38",0,0,0,0,100,100,0,0)
   PictureMove(5,null,0,0,0,0,100,100,255,0,30,true)
   ShowMessageFace("iriasu_fc4",7,0,2,81)
   ShowMessage("\\n<Ilias>All right, let's break into the castle!\nEveryone's ready, yes?")
   0()
  EndIf()
  PictureDisplay(5,"80_ruka_st01",0,0,-100,0,75,75,255,0)
  PictureDisplay(6,"80_byakunen_st01",0,0,15,0,100,100,255,0)
  PictureDisplay(7,"80_lawrat_st01",0,0,200,20,95,95,255,0)
  PictureDisplay(8,"80_lars_st11",0,0,-220,150,90,90,255,0)
  PictureDisplay(9,"80_nobissa_st01",0,0,-50,150,90,90,255,0)
  PictureDisplay(10,"80_kazuya_st01",0,0,160,150,75,75,255,0)
  PictureDisplay(11,"80_rest_st01",0,0,250,0,100,100,255,0)
  ShowMessageFace("",0,0,2,82)
  ShowMessage("We face each other and nod as one.\nNo one could doubt our strength of will and resolve.")
  ShowMessageFace("ruka_fc1",0,0,2,83)
  ShowMessage("\\n<Luka>We're at the final stage at last... Let's go!")
  ShowMessageFace("",0,0,2,84)
  ShowMessage("And so we, the seven heroes and their allies, infiltrated the castle. There, we will face the Queen of Dreams and her alliance in a decisive battle.")
  ShowMessageFace("",0,0,2,85)
  ShowMessage("Will we triumph at the end of a fierce battle?\nOr will this world fall into a dream?")
  Wait(30)
  PictureClear(5)
  PictureClear(6)
  PictureClear(7)
  PictureClear(8)
  PictureClear(9)
  PictureClear(10)
  PictureClear(11)
  242(1)
  221()
  Wait(60)
  ChangeVariable(1211,1211,0,0,2)
  ChangeSwitch(31,39,1)
  ChangeSwitch(81,81,1)
  TeleportPlayer(0,947,0,0,8,2)
  314(0,0)
  222()
  0()



EVENT   17
 PAGE   1
  0()



EVENT   18
 PAGE   1
  0()



EVENT   19
 PAGE   1
  0()



EVENT   20
 PAGE   1
  0()



EVENT   21
 PAGE   1
  0()



EVENT   22
 PAGE   1
  // condition: switch 31 is ON
  0()



EVENT   23
 PAGE   1
  // condition: switch 31 is ON
  0()



EVENT   24
 PAGE   1
  // condition: switch 31 is ON
  0()



EVENT   25
 PAGE   1
  // condition: switch 31 is ON
  0()



EVENT   26
 PAGE   1
  // condition: switch 31 is ON
  0()



EVENT   28
 PAGE   1
  // condition: switch 32 is ON
  0()
 PAGE   2
  // condition: switch 37 is ON
  0()
 PAGE   3
  // condition: switch 38 is ON
  0()



EVENT   27
 PAGE   1
  // condition: switch 32 is ON
  0()
 PAGE   2
  // condition: switch 37 is ON
  0()
 PAGE   3
  // condition: switch 38 is ON
  0()
 PAGE   4
  // condition: switch 34 is ON
  0()



EVENT   29
 PAGE   1
  // condition: switch 32 is ON
  0()
 PAGE   2
  // condition: switch 37 is ON
  0()
 PAGE   3
  // condition: switch 38 is ON
  0()



EVENT   30
 PAGE   1
  // condition: switch 33 is ON
  0()



EVENT   31
 PAGE   1
  // condition: switch 33 is ON
  0()



EVENT   32
 PAGE   1
  // condition: switch 33 is ON
  0()



EVENT   33
 PAGE   1
  // condition: switch 33 is ON
  0()



EVENT   34
 PAGE   1
  // condition: switch 33 is ON
  0()



EVENT   35
 PAGE   1
  // condition: switch 33 is ON
  0()



EVENT   36
 PAGE   1
  // condition: switch 33 is ON
  0()



EVENT   37
 PAGE   1
  // condition: switch 39 is ON
  0()



EVENT   38
 PAGE   1
  // condition: switch 39 is ON
  0()



EVENT   39
 PAGE   1
  // condition: switch 39 is ON
  0()



EVENT   40
 PAGE   1
  // condition: switch 35 is ON
  0()



EVENT   41
 PAGE   1
  // condition: switch 35 is ON
  0()



EVENT   42
 PAGE   1
  // condition: switch 35 is ON
  0()



EVENT   43
 PAGE   1
  // condition: switch 35 is ON
  0()



EVENT   44
 PAGE   1
  // condition: switch 36 is ON
  0()



EVENT   45
 PAGE   1
  // condition: switch 36 is ON
  0()



EVENT   46
 PAGE   1
  // condition: switch 36 is ON
  0()



EVENT   47
 PAGE   1
  // condition: switch 36 is ON
  0()



EVENT   48
 PAGE   1
  // condition: switch 36 is ON
  0()



EVENT   49
 PAGE   1
  // condition: switch 36 is ON
  0()



EVENT   50
 PAGE   1
  // condition: switch 36 is ON
  0()



EVENT   51
 PAGE   1
  // condition: switch 36 is ON
  0()



EVENT   52
 PAGE   1
  // condition: switch 36 is ON
  0()



EVENT   53
 PAGE   1
  // condition: switch 36 is ON
  0()



EVENT   54
 PAGE   1
  // condition: switch 36 is ON
  0()



EVENT   55
 PAGE   1
  // condition: switch 36 is ON
  0()



EVENT   57
 PAGE   1
  // condition: switch 37 is ON
  0()
 PAGE   2
  // condition: switch 38 is ON
  0()



EVENT   58
 PAGE   1
  // condition: switch 37 is ON
  0()
 PAGE   2
  // condition: switch 38 is ON
  0()



EVENT   59
 PAGE   1
  // condition: switch 37 is ON
  0()
 PAGE   2
  // condition: switch 38 is ON
  0()



EVENT   60
 PAGE   1
  // condition: switch 37 is ON
  0()
 PAGE   2
  // condition: switch 38 is ON
  0()



EVENT   61
 PAGE   1
  // condition: switch 37 is ON
  0()
 PAGE   2
  // condition: switch 38 is ON
  0()



EVENT   56
 PAGE   1
  // condition: switch 34 is ON
  0()



EVENT   62
 PAGE   1
  // condition: switch 34 is ON
  0()



EVENT   63
 PAGE   1
  // condition: switch 34 is ON
  0()



EVENT   64
 PAGE   1
  // condition: switch 34 is ON
  0()



EVENT   65
 PAGE   1
  // condition: switch 34 is ON
  0()



EVENT   66
 PAGE   1
  // condition: switch 34 is ON
  0()
